[
  {
    "link_thumb": "https://live.staticflickr.com/65535/50040037432_e6e7d899b7_n.jpg",
    "id_album": "-1610342324",
    "description": "Nebula_234724",
    "title": "Nebula_234724",
    "link_img": "https://live.staticflickr.com/65535/50040037432_5ce8367c97_o.jpg",
    "id_image": "Nebula_234724",
    "count_view": 0
  },
  {
    "link_thumb": "https://live.staticflickr.com/65535/50040589107_f9c7904d25_n.jpg",
    "id_album": "779690680",
    "description": "Robot_489383",
    "title": "Robot_489383",
    "link_img": "https://live.staticflickr.com/65535/50040589107_c7044d8e07_o.jpg",
    "id_image": "Robot_489383",
    "count_view": 0
  },
  {
    "link_thumb": "https://live.staticflickr.com/65535/50039995078_31b5cffd96_n.jpg",
    "id_album": "1613540653",
    "description": "Space_87915",
    "title": "Space_87915",
    "link_img": "https://live.staticflickr.com/65535/50039995078_923df9cb75_o.jpg",
    "id_image": "Space_87915",
    "count_view": 0
  },
  {
    "link_thumb": "https://live.staticflickr.com/65535/50040285201_b73cea8852_n.jpg",
    "id_album": "779690680",
    "description": "Robot_307433",
    "title": "Robot_307433",
    "link_img": "https://live.staticflickr.com/65535/50040285201_f1a22664cc_o.jpg",
    "id_image": "Robot_307433",
    "count_view": 0
  },
  {
    "link_thumb": "https://live.staticflickr.com/65535/50040502442_4441c6e5ff_n.jpg",
    "id_album": "-839602625",
    "description": "Predator_196972",
    "title": "Predator_196972",
    "link_img": "https://live.staticflickr.com/65535/50040502442_50004744d3_o.jpg",
    "id_image": "Predator_196972",
    "count_view": 0
  },
  {
    "link_thumb": "https://live.staticflickr.com/65535/50039188413_44f658698c_n.jpg",
    "id_album": "-1388385651",
    "description": "MilkyWay_670536",
    "title": "MilkyWay_670536",
    "link_img": "https://live.staticflickr.com/65535/50039188413_f6d585c4e9_o.jpg",
    "id_image": "MilkyWay_670536",
    "count_view": 0
  },
  {
    "link_thumb": "https://live.staticflickr.com/65535/50040376246_1da39238a5_n.jpg",
    "id_album": "779690680",
    "description": "Robot_857302",
    "title": "Robot_857302",
    "link_img": "https://live.staticflickr.com/65535/50040376246_0d06366074_o.jpg",
    "id_image": "Robot_857302",
    "count_view": 0
  },
  {
    "link_thumb": "https://live.staticflickr.com/65535/50039684931_6d2ebf5c98_n.jpg",
    "id_album": "1402713104",
    "description": "Landscape_388048",
    "title": "Landscape_388048",
    "link_img": "https://live.staticflickr.com/65535/50039684931_0ae4b51bc3_o.jpg",
    "id_image": "Landscape_388048",
    "count_view": 0
  },
  {
    "link_thumb": "https://live.staticflickr.com/65535/50039885898_c092ae6404_n.jpg",
    "id_album": "779690680",
    "description": "Robot_949785",
    "title": "Robot_949785",
    "link_img": "https://live.staticflickr.com/65535/50039885898_81553d13c8_o.jpg",
    "id_image": "Robot_949785",
    "count_view": 0
  },
  {
    "link_thumb": "https://live.staticflickr.com/65535/50039317766_cf26536212_n.jpg",
    "id_album": "523598895",
    "description": "Artistic_221824",
    "title": "Artistic_221824",
    "link_img": "https://live.staticflickr.com/65535/50039317766_2fc6665b78_o.jpg",
    "id_image": "Artistic_221824",
    "count_view": 0
  },
  {
    "link_thumb": "https://live.staticflickr.com/65535/50040657458_d12b8a934b_n.jpg",
    "id_album": "-1863373220",
    "description": "StarWars_669728",
    "title": "StarWars_669728",
    "link_img": "https://live.staticflickr.com/65535/50040657458_e789e181bc_o.jpg",
    "id_image": "StarWars_669728",
    "count_view": 0
  },
  {
    "link_thumb": "https://live.staticflickr.com/65535/50041327351_21d2115a24_n.jpg",
    "id_album": "1267121215",
    "description": "Steampunk_703396",
    "title": "Steampunk_703396",
    "link_img": "https://live.staticflickr.com/65535/50041327351_323b197dee_o.jpg",
    "id_image": "Steampunk_703396",
    "count_view": 0
  },
  {
    "link_thumb": "https://live.staticflickr.com/65535/50039833623_e38a696774_n.jpg",
    "id_album": "779690680",
    "description": "Robot_876300",
    "title": "Robot_876300",
    "link_img": "https://live.staticflickr.com/65535/50039833623_424333139f_o.jpg",
    "id_image": "Robot_876300",
    "count_view": 0
  },
  {
    "link_thumb": "https://live.staticflickr.com/65535/50039278163_c1663a747e_n.jpg",
    "id_album": "-1610342324",
    "description": "Nebula_738413",
    "title": "Nebula_738413",
    "link_img": "https://live.staticflickr.com/65535/50039278163_1de4cbb648_o.jpg",
    "id_image": "Nebula_738413",
    "count_view": 0
  },
  {
    "link_thumb": "https://live.staticflickr.com/65535/50039646867_fd5082eae5_n.jpg",
    "id_album": "869545341",
    "description": "Astronaut_957347",
    "title": "Astronaut_957347",
    "link_img": "https://live.staticflickr.com/65535/50039646867_27999c2455_o.jpg",
    "id_image": "Astronaut_957347",
    "count_view": 0
  },
  {
    "link_thumb": "https://live.staticflickr.com/65535/50039772998_64e2eaa24c_n.jpg",
    "id_album": "779690680",
    "description": "Robot_497238",
    "title": "Robot_497238",
    "link_img": "https://live.staticflickr.com/65535/50039772998_ff1b156713_o.jpg",
    "id_image": "Robot_497238",
    "count_view": 0
  },
  {
    "link_thumb": "https://live.staticflickr.com/65535/50040542826_5480a42669_n.jpg",
    "id_album": "1613540653",
    "description": "Space_822458",
    "title": "Space_822458",
    "link_img": "https://live.staticflickr.com/65535/50040542826_3e83e3b84d_o.jpg",
    "id_image": "Space_822458",
    "count_view": 0
  },
  {
    "link_thumb": "https://live.staticflickr.com/65535/50040113462_ae55abc373_n.jpg",
    "id_album": "-1610342324",
    "description": "Nebula_882802",
    "title": "Nebula_882802",
    "link_img": "https://live.staticflickr.com/65535/50040113462_a61c005a2d_o.jpg",
    "id_image": "Nebula_882802",
    "count_view": 0
  },
  {
    "link_thumb": "https://live.staticflickr.com/65535/50039558572_001c6c0ab1_n.jpg",
    "id_album": "523598895",
    "description": "Artistic_151695",
    "title": "Artistic_151695",
    "link_img": "https://live.staticflickr.com/65535/50039558572_6bee2933de_o.jpg",
    "id_image": "Artistic_151695",
    "count_view": 0
  },
  {
    "link_thumb": "https://live.staticflickr.com/65535/50039984098_20a6ba78fb_n.jpg",
    "id_album": "1613540653",
    "description": "Space_779128",
    "title": "Space_779128",
    "link_img": "https://live.staticflickr.com/65535/50039984098_cc4b593ac8_o.jpg",
    "id_image": "Space_779128",
    "count_view": 0
  },
  {
    "link_thumb": "https://live.staticflickr.com/65535/50040402231_169df02474_n.jpg",
    "id_album": "779690680",
    "description": "Robot_906338",
    "title": "Robot_906338",
    "link_img": "https://live.staticflickr.com/65535/50040402231_56fb6af091_o.jpg",
    "id_image": "Robot_906338",
    "count_view": 0
  },
  {
    "link_thumb": "https://live.staticflickr.com/65535/50039779152_52742aa2b3_n.jpg",
    "id_album": "-1964113117",
    "description": "City_905532",
    "title": "City_905532",
    "link_img": "https://live.staticflickr.com/65535/50039779152_c1d545c88b_o.jpg",
    "id_image": "City_905532",
    "count_view": 0
  },
  {
    "link_thumb": "https://live.staticflickr.com/65535/50039507491_5fb27267c3_n.jpg",
    "id_album": "-1964113117",
    "description": "City_867429",
    "title": "City_867429",
    "link_img": "https://live.staticflickr.com/65535/50039507491_02d771f09b_o.jpg",
    "id_image": "City_867429",
    "count_view": 0
  },
  {
    "link_thumb": "https://live.staticflickr.com/65535/50039684582_d497257d33_n.jpg",
    "id_album": "406431601",
    "description": "Building_453316",
    "title": "Building_453316",
    "link_img": "https://live.staticflickr.com/65535/50039684582_4aea1a3934_o.jpg",
    "id_image": "Building_453316",
    "count_view": 0
  },
  {
    "link_thumb": "https://live.staticflickr.com/65535/50040392686_314e5f47f9_n.jpg",
    "id_album": "779690680",
    "description": "Robot_884812",
    "title": "Robot_884812",
    "link_img": "https://live.staticflickr.com/65535/50040392686_6ecd77b7a0_o.jpg",
    "id_image": "Robot_884812",
    "count_view": 0
  },
  {
    "link_thumb": "https://live.staticflickr.com/65535/50041502252_7167b75fc9_n.jpg",
    "id_album": "-1863373220",
    "description": "StarWars_904999",
    "title": "StarWars_904999",
    "link_img": "https://live.staticflickr.com/65535/50041502252_d1556d76df_o.jpg",
    "id_image": "StarWars_904999",
    "count_view": 0
  },
  {
    "link_thumb": "https://live.staticflickr.com/65535/50039352791_b6d621b590_n.jpg",
    "id_album": "869545341",
    "description": "Astronaut_278676",
    "title": "Astronaut_278676",
    "link_img": "https://live.staticflickr.com/65535/50039352791_86919c97e5_o.jpg",
    "id_image": "Astronaut_278676",
    "count_view": 0
  },
  {
    "link_thumb": "https://live.staticflickr.com/65535/50040532016_461b40f0b8_n.jpg",
    "id_album": "1613540653",
    "description": "Space_70800",
    "title": "Space_70800",
    "link_img": "https://live.staticflickr.com/65535/50040532016_8983d8bc17_o.jpg",
    "id_image": "Space_70800",
    "count_view": 0
  },
  {
    "link_thumb": "https://live.staticflickr.com/65535/50039985912_5f00d34cc0_n.jpg",
    "id_album": "1402713104",
    "description": "Landscape_913623",
    "title": "Landscape_913623",
    "link_img": "https://live.staticflickr.com/65535/50039985912_9996607a8c_o.jpg",
    "id_image": "Landscape_913623",
    "count_view": 0
  },
  {
    "link_thumb": "https://live.staticflickr.com/65535/50040283381_e96303a9c9_n.jpg",
    "id_album": "779690680",
    "description": "Robot_294201",
    "title": "Robot_294201",
    "link_img": "https://live.staticflickr.com/65535/50040283381_9880d2ed4d_o.jpg",
    "id_image": "Robot_294201",
    "count_view": 0
  },
  {
    "link_thumb": "https://live.staticflickr.com/65535/50039415696_aa5a6048fe_n.jpg",
    "id_album": "-1780971522",
    "description": "Biohazard_49910",
    "title": "Biohazard_49910",
    "link_img": "https://live.staticflickr.com/65535/50039415696_da15f7f98a_o.jpg",
    "id_image": "Biohazard_49910",
    "count_view": 0
  },
  {
    "link_thumb": "https://live.staticflickr.com/65535/50039251316_b697f4c5f9_n.jpg",
    "id_album": "849020728",
    "description": "Alien_187019",
    "title": "Alien_187019",
    "link_img": "https://live.staticflickr.com/65535/50039251316_abbba787cc_o.jpg",
    "id_image": "Alien_187019",
    "count_view": 0
  },
  {
    "link_thumb": "https://live.staticflickr.com/65535/50039616311_abcc17ef0c_n.jpg",
    "id_album": "2104507156",
    "description": "Fantasy_162699",
    "title": "Fantasy_162699",
    "link_img": "https://live.staticflickr.com/65535/50039616311_ea6e924d00_o.jpg",
    "id_image": "Fantasy_162699",
    "count_view": 0
  },
  {
    "link_thumb": "https://live.staticflickr.com/65535/50039612017_84dcc037a7_n.jpg",
    "id_album": "869545341",
    "description": "Astronaut_211959",
    "title": "Astronaut_211959",
    "link_img": "https://live.staticflickr.com/65535/50039612017_d13ce00ffb_o.jpg",
    "id_image": "Astronaut_211959",
    "count_view": 0
  },
  {
    "link_thumb": "https://live.staticflickr.com/65535/50039163473_98bc67cb1f_n.jpg",
    "id_album": "1402713104",
    "description": "Landscape_863903",
    "title": "Landscape_863903",
    "link_img": "https://live.staticflickr.com/65535/50039163473_07f3c27f69_o.jpg",
    "id_image": "Landscape_863903",
    "count_view": 0
  },
  {
    "link_thumb": "https://live.staticflickr.com/65535/50040356092_501eec8bf6_n.jpg",
    "id_album": "-1102314093",
    "description": "Planets_350803",
    "title": "Planets_350803",
    "link_img": "https://live.staticflickr.com/65535/50040356092_7f4da54dca_o.jpg",
    "id_image": "Planets_350803",
    "count_view": 0
  },
  {
    "link_thumb": "https://live.staticflickr.com/65535/50040100707_acface6235_n.jpg",
    "id_album": "-1610342324",
    "description": "Nebula_78849",
    "title": "Nebula_78849",
    "link_img": "https://live.staticflickr.com/65535/50040100707_fb0a85bdd4_o.jpg",
    "id_image": "Nebula_78849",
    "count_view": 0
  },
  {
    "link_thumb": "https://live.staticflickr.com/65535/50039880307_5eb75febf4_n.jpg",
    "id_album": "2104507156",
    "description": "Fantasy_176577",
    "title": "Fantasy_176577",
    "link_img": "https://live.staticflickr.com/65535/50039880307_884c509da7_o.jpg",
    "id_image": "Fantasy_176577",
    "count_view": 0
  },
  {
    "link_thumb": "https://live.staticflickr.com/65535/50038930628_18a352b553_n.jpg",
    "id_album": "-1964113117",
    "description": "City_567071",
    "title": "City_567071",
    "link_img": "https://live.staticflickr.com/65535/50038930628_4dbc05c10d_o.jpg",
    "id_image": "City_567071",
    "count_view": 0
  },
  {
    "link_thumb": "https://live.staticflickr.com/65535/50039014953_3d7eb0c1dc_n.jpg",
    "id_album": "-1372247677",
    "description": "Cyberpunk_868980",
    "title": "Cyberpunk_868980",
    "link_img": "https://live.staticflickr.com/65535/50039014953_f134bd5b7b_o.jpg",
    "id_image": "Cyberpunk_868980",
    "count_view": 0
  },
  {
    "link_thumb": "https://live.staticflickr.com/65535/50039933246_f3468e2f68_n.jpg",
    "id_album": "395161030",
    "description": "Planet_351708",
    "title": "Planet_351708",
    "link_img": "https://live.staticflickr.com/65535/50039933246_f1c73b0c1e_o.jpg",
    "id_image": "Planet_351708",
    "count_view": 0
  },
  {
    "link_thumb": "https://live.staticflickr.com/65535/50038786063_0d6727158c_n.jpg",
    "id_album": "523598895",
    "description": "Artistic_401760",
    "title": "Artistic_401760",
    "link_img": "https://live.staticflickr.com/65535/50038786063_905765e937_o.jpg",
    "id_image": "Artistic_401760",
    "count_view": 0
  },
  {
    "link_thumb": "https://live.staticflickr.com/65535/50038994998_1390e41f90_n.jpg",
    "id_album": "894679094",
    "description": "Collision_719901",
    "title": "Collision_719901",
    "link_img": "https://live.staticflickr.com/65535/50038994998_7048f29474_o.jpg",
    "id_image": "Collision_719901",
    "count_view": 0
  },
  {
    "link_thumb": "https://live.staticflickr.com/65535/50039400546_e518557c87_n.jpg",
    "id_album": "1187037014",
    "description": "Battle_310267",
    "title": "Battle_310267",
    "link_img": "https://live.staticflickr.com/65535/50039400546_5f6d30c53f_o.jpg",
    "id_image": "Battle_310267",
    "count_view": 0
  },
  {
    "link_thumb": "https://live.staticflickr.com/65535/50039996496_c81784ef63_n.jpg",
    "id_album": "1443611160",
    "description": "PlanetRise_150176",
    "title": "PlanetRise_150176",
    "link_img": "https://live.staticflickr.com/65535/50039996496_85e5d2f2ef_o.jpg",
    "id_image": "PlanetRise_150176",
    "count_view": 0
  },
  {
    "link_thumb": "https://live.staticflickr.com/65535/50039702006_12ebfce245_n.jpg",
    "id_album": "1402713104",
    "description": "Landscape_733542",
    "title": "Landscape_733542",
    "link_img": "https://live.staticflickr.com/65535/50039702006_7c058b18a3_o.jpg",
    "id_image": "Landscape_733542",
    "count_view": 0
  },
  {
    "link_thumb": "https://live.staticflickr.com/65535/50039898297_d5da53a109_n.jpg",
    "id_album": "1204249541",
    "description": "Galaxy_441411",
    "title": "Galaxy_441411",
    "link_img": "https://live.staticflickr.com/65535/50039898297_519396b9e7_o.jpg",
    "id_image": "Galaxy_441411",
    "count_view": 0
  },
  {
    "link_thumb": "https://live.staticflickr.com/65535/50040113941_de221f7dac_n.jpg",
    "id_album": "-1102314093",
    "description": "Planets_426463",
    "title": "Planets_426463",
    "link_img": "https://live.staticflickr.com/65535/50040113941_b4b40559b3_o.jpg",
    "id_image": "Planets_426463",
    "count_view": 0
  },
  {
    "link_thumb": "https://live.staticflickr.com/65535/50039624952_f138dee3a4_n.jpg",
    "id_album": "869545341",
    "description": "Astronaut_676268",
    "title": "Astronaut_676268",
    "link_img": "https://live.staticflickr.com/65535/50039624952_2082d1a5be_o.jpg",
    "id_image": "Astronaut_676268",
    "count_view": 0
  },
  {
    "link_thumb": "https://live.staticflickr.com/65535/50039502088_96f33e98e4_n.jpg",
    "id_album": "-1102314093",
    "description": "Planets_148096",
    "title": "Planets_148096",
    "link_img": "https://live.staticflickr.com/65535/50039502088_229c2cf0f1_o.jpg",
    "id_image": "Planets_148096",
    "count_view": 0
  },
  {
    "link_thumb": "https://live.staticflickr.com/65535/50040018107_6ddb0d227b_n.jpg",
    "id_album": "416351698",
    "description": "Moon_251092",
    "title": "Moon_251092",
    "link_img": "https://live.staticflickr.com/65535/50040018107_9048de0b56_o.jpg",
    "id_image": "Moon_251092",
    "count_view": 0
  },
  {
    "link_thumb": "https://live.staticflickr.com/65535/50041382631_bc66cd7910_n.jpg",
    "id_album": "2020068132",
    "description": "Vehicle_269322",
    "title": "Vehicle_269322",
    "link_img": "https://live.staticflickr.com/65535/50041382631_3128c2a527_o.jpg",
    "id_image": "Vehicle_269322",
    "count_view": 0
  },
  {
    "link_thumb": "https://live.staticflickr.com/65535/50040257717_45f6601cae_n.jpg",
    "id_album": "395161030",
    "description": "Planet_996487",
    "title": "Planet_996487",
    "link_img": "https://live.staticflickr.com/65535/50040257717_2038a61716_o.jpg",
    "id_image": "Planet_996487",
    "count_view": 0
  },
  {
    "link_thumb": "https://live.staticflickr.com/65535/50039548253_2d175c5921_n.jpg",
    "id_album": "-1102314093",
    "description": "Planets_361692",
    "title": "Planets_361692",
    "link_img": "https://live.staticflickr.com/65535/50039548253_a3c4f19015_o.jpg",
    "id_image": "Planets_361692",
    "count_view": 0
  },
  {
    "link_thumb": "https://live.staticflickr.com/65535/50040830233_58557d9c93_n.jpg",
    "id_album": "2020068132",
    "description": "Vehicle_289753",
    "title": "Vehicle_289753",
    "link_img": "https://live.staticflickr.com/65535/50040830233_2acbc50e0a_o.jpg",
    "id_image": "Vehicle_289753",
    "count_view": 0
  },
  {
    "link_thumb": "https://live.staticflickr.com/65535/50039929417_1c3b09224f_n.jpg",
    "id_album": "1402713104",
    "description": "Landscape_234062",
    "title": "Landscape_234062",
    "link_img": "https://live.staticflickr.com/65535/50039929417_f8d1a06603_o.jpg",
    "id_image": "Landscape_234062",
    "count_view": 0
  },
  {
    "link_thumb": "https://live.staticflickr.com/65535/50039737848_44ce0baedf_n.jpg",
    "id_album": "779690680",
    "description": "Robot_328769",
    "title": "Robot_328769",
    "link_img": "https://live.staticflickr.com/65535/50039737848_6562fbf735_o.jpg",
    "id_image": "Robot_328769",
    "count_view": 0
  },
  {
    "link_thumb": "https://live.staticflickr.com/65535/50040440411_632a950ccc_n.jpg",
    "id_album": "779690680",
    "description": "Robot_948243",
    "title": "Robot_948243",
    "link_img": "https://live.staticflickr.com/65535/50040440411_b3a7c47a82_o.jpg",
    "id_image": "Robot_948243",
    "count_view": 0
  },
  {
    "link_thumb": "https://live.staticflickr.com/65535/50038857428_b704cdbe9a_n.jpg",
    "id_album": "1187037014",
    "description": "Battle_658752",
    "title": "Battle_658752",
    "link_img": "https://live.staticflickr.com/65535/50038857428_1f0f689db0_o.jpg",
    "id_image": "Battle_658752",
    "count_view": 0
  },
  {
    "link_thumb": "https://live.staticflickr.com/65535/50038894908_9904164de4_n.jpg",
    "id_album": "-1964113117",
    "description": "City_205954",
    "title": "City_205954",
    "link_img": "https://live.staticflickr.com/65535/50038894908_a3cafe46f1_o.jpg",
    "id_image": "City_205954",
    "count_view": 0
  },
  {
    "link_thumb": "https://live.staticflickr.com/65535/50039822658_61833177da_n.jpg",
    "id_album": "779690680",
    "description": "Robot_857297",
    "title": "Robot_857297",
    "link_img": "https://live.staticflickr.com/65535/50039822658_1af1e325ec_o.jpg",
    "id_image": "Robot_857297",
    "count_view": 0
  },
  {
    "link_thumb": "https://live.staticflickr.com/65535/50038868178_056266e835_n.jpg",
    "id_album": "-1780971522",
    "description": "Biohazard_566062",
    "title": "Biohazard_566062",
    "link_img": "https://live.staticflickr.com/65535/50038868178_59e96c3e1c_o.jpg",
    "id_image": "Biohazard_566062",
    "count_view": 0
  },
  {
    "link_thumb": "https://live.staticflickr.com/65535/50039003743_660da69a7f_n.jpg",
    "id_album": "-437872736",
    "description": "Creature_323930",
    "title": "Creature_323930",
    "link_img": "https://live.staticflickr.com/65535/50039003743_0cb2b207d3_o.jpg",
    "id_image": "Creature_323930",
    "count_view": 0
  },
  {
    "link_thumb": "https://live.staticflickr.com/65535/50039240361_7a66527f6f_n.jpg",
    "id_album": "-406145265",
    "description": "Aircraft_401742",
    "title": "Aircraft_401742",
    "link_img": "https://live.staticflickr.com/65535/50039240361_bc3dfc1554_o.jpg",
    "id_image": "Aircraft_401742",
    "count_view": 0
  },
  {
    "link_thumb": "https://live.staticflickr.com/65535/50039472551_1fc89dff6f_n.jpg",
    "id_album": "-1964113117",
    "description": "City_484179",
    "title": "City_484179",
    "link_img": "https://live.staticflickr.com/65535/50039472551_88202ec7d2_o.jpg",
    "id_image": "City_484179",
    "count_view": 0
  },
  {
    "link_thumb": "https://live.staticflickr.com/65535/50041590426_1cc438f0f6_n.jpg",
    "id_album": "-1675918237",
    "description": "WomenWarrior_920517",
    "title": "WomenWarrior_920517",
    "link_img": "https://live.staticflickr.com/65535/50041590426_5ebf193420_o.jpg",
    "id_image": "WomenWarrior_920517",
    "count_view": 0
  },
  {
    "link_thumb": "https://live.staticflickr.com/65535/50039504838_ce43fedb6a_n.jpg",
    "id_album": "-1102314093",
    "description": "Planets_197717",
    "title": "Planets_197717",
    "link_img": "https://live.staticflickr.com/65535/50039504838_e9d7a5bfc3_o.jpg",
    "id_image": "Planets_197717",
    "count_view": 0
  },
  {
    "link_thumb": "https://live.staticflickr.com/65535/50040437146_6a3dcdc530_n.jpg",
    "id_album": "779690680",
    "description": "Robot_941229",
    "title": "Robot_941229",
    "link_img": "https://live.staticflickr.com/65535/50040437146_e548f027e2_o.jpg",
    "id_image": "Robot_941229",
    "count_view": 0
  },
  {
    "link_thumb": "https://live.staticflickr.com/65535/50040101042_26b4895c52_n.jpg",
    "id_album": "-1610342324",
    "description": "Nebula_790646",
    "title": "Nebula_790646",
    "link_img": "https://live.staticflickr.com/65535/50040101042_799687acac_o.jpg",
    "id_image": "Nebula_790646",
    "count_view": 0
  },
  {
    "link_thumb": "https://live.staticflickr.com/65535/50039891192_3fa3e33aac_n.jpg",
    "id_album": "1204249541",
    "description": "Galaxy_264708",
    "title": "Galaxy_264708",
    "link_img": "https://live.staticflickr.com/65535/50039891192_1061b2d69c_o.jpg",
    "id_image": "Galaxy_264708",
    "count_view": 0
  },
  {
    "link_thumb": "https://live.staticflickr.com/65535/50040289811_3e033a6f52_n.jpg",
    "id_album": "779690680",
    "description": "Robot_325652",
    "title": "Robot_325652",
    "link_img": "https://live.staticflickr.com/65535/50040289811_5b522cb06b_o.jpg",
    "id_image": "Robot_325652",
    "count_view": 0
  },
  {
    "link_thumb": "https://live.staticflickr.com/65535/50040042111_19b90b28a9_n.jpg",
    "id_album": "814701616",
    "description": "PlanetaryRing_717756",
    "title": "PlanetaryRing_717756",
    "link_img": "https://live.staticflickr.com/65535/50040042111_a7f8d5312d_o.jpg",
    "id_image": "PlanetaryRing_717756",
    "count_view": 0
  },
  {
    "link_thumb": "https://live.staticflickr.com/65535/50039662002_f71551e217_n.jpg",
    "id_album": "1187037014",
    "description": "Battle_274820",
    "title": "Battle_274820",
    "link_img": "https://live.staticflickr.com/65535/50039662002_556b4d0f89_o.jpg",
    "id_image": "Battle_274820",
    "count_view": 0
  },
  {
    "link_thumb": "https://live.staticflickr.com/65535/50038953483_e9bd090140_n.jpg",
    "id_album": "-1964113117",
    "description": "City_854794",
    "title": "City_854794",
    "link_img": "https://live.staticflickr.com/65535/50038953483_afca357b5e_o.jpg",
    "id_image": "City_854794",
    "count_view": 0
  },
  {
    "link_thumb": "https://live.staticflickr.com/65535/50039997752_3510230570_n.jpg",
    "id_album": "-1388385651",
    "description": "MilkyWay_560780",
    "title": "MilkyWay_560780",
    "link_img": "https://live.staticflickr.com/65535/50039997752_558646d62d_o.jpg",
    "id_image": "MilkyWay_560780",
    "count_view": 0
  },
  {
    "link_thumb": "https://live.staticflickr.com/65535/50041378411_dd03b3f40b_n.jpg",
    "id_album": "2020068132",
    "description": "Vehicle_222318",
    "title": "Vehicle_222318",
    "link_img": "https://live.staticflickr.com/65535/50041378411_b7d9f10faa_o.jpg",
    "id_image": "Vehicle_222318",
    "count_view": 0
  },
  {
    "link_thumb": "https://live.staticflickr.com/65535/50039406298_cf4d8aa9b2_n.jpg",
    "id_album": "395161030",
    "description": "Planet_511413",
    "title": "Planet_511413",
    "link_img": "https://live.staticflickr.com/65535/50039406298_57196a2def_o.jpg",
    "id_image": "Planet_511413",
    "count_view": 0
  },
  {
    "link_thumb": "https://live.staticflickr.com/65535/50040051057_cb21a62c85_n.jpg",
    "id_album": "-1610342324",
    "description": "Nebula_351692",
    "title": "Nebula_351692",
    "link_img": "https://live.staticflickr.com/65535/50040051057_227b4c8786_o.jpg",
    "id_image": "Nebula_351692",
    "count_view": 0
  },
  {
    "link_thumb": "https://live.staticflickr.com/65535/50039950992_1464f5eee6_n.jpg",
    "id_album": "1402713104",
    "description": "Landscape_413241",
    "title": "Landscape_413241",
    "link_img": "https://live.staticflickr.com/65535/50039950992_69e39dcc4e_o.jpg",
    "id_image": "Landscape_413241",
    "count_view": 0
  },
  {
    "link_thumb": "https://live.staticflickr.com/65535/50039082188_d220915e2d_n.jpg",
    "id_album": "1204249541",
    "description": "Galaxy_344863",
    "title": "Galaxy_344863",
    "link_img": "https://live.staticflickr.com/65535/50039082188_a6de9510de_o.jpg",
    "id_image": "Galaxy_344863",
    "count_view": 0
  },
  {
    "link_thumb": "https://live.staticflickr.com/65535/50040402471_a594fe1ba1_n.jpg",
    "id_album": "779690680",
    "description": "Robot_906343",
    "title": "Robot_906343",
    "link_img": "https://live.staticflickr.com/65535/50040402471_a51e79dc56_o.jpg",
    "id_image": "Robot_906343",
    "count_view": 0
  },
  {
    "link_thumb": "https://live.staticflickr.com/65535/50039295466_7bdfb4c4c4_n.jpg",
    "id_album": "523598895",
    "description": "Artistic_123759",
    "title": "Artistic_123759",
    "link_img": "https://live.staticflickr.com/65535/50039295466_54c4df2a56_o.jpg",
    "id_image": "Artistic_123759",
    "count_view": 0
  },
  {
    "link_thumb": "https://live.staticflickr.com/65535/50038988118_a06088e567_n.jpg",
    "id_album": "894679094",
    "description": "Collision_154805",
    "title": "Collision_154805",
    "link_img": "https://live.staticflickr.com/65535/50038988118_57e508dec9_o.jpg",
    "id_image": "Collision_154805",
    "count_view": 0
  },
  {
    "link_thumb": "https://live.staticflickr.com/65535/50041851467_ef55904c29_n.jpg",
    "id_album": "-1675918237",
    "description": "WomenWarrior_910966",
    "title": "WomenWarrior_910966",
    "link_img": "https://live.staticflickr.com/65535/50041851467_4d823122f2_o.jpg",
    "id_image": "WomenWarrior_910966",
    "count_view": 0
  },
  {
    "link_thumb": "https://live.staticflickr.com/65535/50041495037_4ed78b72d5_n.jpg",
    "id_album": "-1863373220",
    "description": "StarWars_879747",
    "title": "StarWars_879747",
    "link_img": "https://live.staticflickr.com/65535/50041495037_2a81a3030f_o.jpg",
    "id_image": "StarWars_879747",
    "count_view": 0
  },
  {
    "link_thumb": "https://live.staticflickr.com/65535/50039397386_cd492264e9_n.jpg",
    "id_album": "1187037014",
    "description": "Battle_248326",
    "title": "Battle_248326",
    "link_img": "https://live.staticflickr.com/65535/50039397386_baf57e87b5_o.jpg",
    "id_image": "Battle_248326",
    "count_view": 0
  },
  {
    "link_thumb": "https://live.staticflickr.com/65535/50040442831_57368eaf1f_n.jpg",
    "id_album": "779690680",
    "description": "Robot_949798",
    "title": "Robot_949798",
    "link_img": "https://live.staticflickr.com/65535/50040442831_1ce6a73244_o.jpg",
    "id_image": "Robot_949798",
    "count_view": 0
  },
  {
    "link_thumb": "https://live.staticflickr.com/65535/50040000243_202e6c2300_n.jpg",
    "id_album": "1613540653",
    "description": "Space_957482",
    "title": "Space_957482",
    "link_img": "https://live.staticflickr.com/65535/50040000243_7051954d03_o.jpg",
    "id_image": "Space_957482",
    "count_view": 0
  },
  {
    "link_thumb": "https://live.staticflickr.com/65535/50041478901_45a19d0907_n.jpg",
    "id_album": "-1261420436",
    "description": "Warrior_616940",
    "title": "Warrior_616940",
    "link_img": "https://live.staticflickr.com/65535/50041478901_036e5a5a11_o.jpg",
    "id_image": "Warrior_616940",
    "count_view": 0
  },
  {
    "link_thumb": "https://live.staticflickr.com/65535/50041282671_62aafe5ebc_n.jpg",
    "id_album": "-1587696329",
    "description": "Stars_805200",
    "title": "Stars_805200",
    "link_img": "https://live.staticflickr.com/65535/50041282671_1d01327205_o.jpg",
    "id_image": "Stars_805200",
    "count_view": 0
  },
  {
    "link_thumb": "https://live.staticflickr.com/65535/50039930203_c046d76a1b_n.jpg",
    "id_album": "1613540653",
    "description": "Space_279978",
    "title": "Space_279978",
    "link_img": "https://live.staticflickr.com/65535/50039930203_057aa5a8a0_o.jpg",
    "id_image": "Space_279978",
    "count_view": 0
  },
  {
    "link_thumb": "https://live.staticflickr.com/65535/50038823588_547b890969_n.jpg",
    "id_album": "869545341",
    "description": "Astronaut_857741",
    "title": "Astronaut_857741",
    "link_img": "https://live.staticflickr.com/65535/50038823588_42592b09b1_o.jpg",
    "id_image": "Astronaut_857741",
    "count_view": 0
  },
  {
    "link_thumb": "https://live.staticflickr.com/65535/50039763901_438919447f_n.jpg",
    "id_album": "-1610342324",
    "description": "Nebula_169803",
    "title": "Nebula_169803",
    "link_img": "https://live.staticflickr.com/65535/50039763901_b03d7c685e_o.jpg",
    "id_image": "Nebula_169803",
    "count_view": 0
  },
  {
    "link_thumb": "https://live.staticflickr.com/65535/50039706217_e5a32367fe_n.jpg",
    "id_album": "-1964113117",
    "description": "City_205947",
    "title": "City_205947",
    "link_img": "https://live.staticflickr.com/65535/50039706217_7ce252b0bb_o.jpg",
    "id_image": "City_205947",
    "count_view": 0
  },
  {
    "link_thumb": "https://live.staticflickr.com/65535/50039606756_ff656410c6_n.jpg",
    "id_album": "829169633",
    "description": "Cyborg_995224",
    "title": "Cyborg_995224",
    "link_img": "https://live.staticflickr.com/65535/50039606756_5b180e6045_o.jpg",
    "id_image": "Cyborg_995224",
    "count_view": 0
  },
  {
    "link_thumb": "https://live.staticflickr.com/65535/50039592757_6354181898_n.jpg",
    "id_album": "523598895",
    "description": "Artistic_353782",
    "title": "Artistic_353782",
    "link_img": "https://live.staticflickr.com/65535/50039592757_c3e10ca174_o.jpg",
    "id_image": "Artistic_353782",
    "count_view": 0
  },
  {
    "link_thumb": "https://live.staticflickr.com/65535/50039659991_b0f5625a5b_n.jpg",
    "id_album": "1402713104",
    "description": "Landscape_121806",
    "title": "Landscape_121806",
    "link_img": "https://live.staticflickr.com/65535/50039659991_2905d2aab4_o.jpg",
    "id_image": "Landscape_121806",
    "count_view": 0
  },
  {
    "link_thumb": "https://live.staticflickr.com/65535/50040496691_50a05c2df6_n.jpg",
    "id_album": "1613540653",
    "description": "Space_335963",
    "title": "Space_335963",
    "link_img": "https://live.staticflickr.com/65535/50040496691_6b67e2a6b9_o.jpg",
    "id_image": "Space_335963",
    "count_view": 0
  },
  {
    "link_thumb": "https://live.staticflickr.com/65535/50041690132_5b04492a65_n.jpg",
    "id_album": "2020068132",
    "description": "Vehicle_978184",
    "title": "Vehicle_978184",
    "link_img": "https://live.staticflickr.com/65535/50041690132_3b8b8287ac_o.jpg",
    "id_image": "Vehicle_978184",
    "count_view": 0
  },
  {
    "link_thumb": "https://live.staticflickr.com/65535/50039213903_bd4d0b1152_n.jpg",
    "id_album": "-1610342324",
    "description": "Nebula_156958",
    "title": "Nebula_156958",
    "link_img": "https://live.staticflickr.com/65535/50039213903_eda8aee35e_o.jpg",
    "id_image": "Nebula_156958",
    "count_view": 0
  },
  {
    "link_thumb": "https://live.staticflickr.com/65535/50039920417_f3c2fe3f38_n.jpg",
    "id_album": "1204249541",
    "description": "Galaxy_957478",
    "title": "Galaxy_957478",
    "link_img": "https://live.staticflickr.com/65535/50039920417_70639223d4_o.jpg",
    "id_image": "Galaxy_957478",
    "count_view": 0
  },
  {
    "link_thumb": "https://live.staticflickr.com/65535/50039502131_c93848c896_n.jpg",
    "id_album": "-1964113117",
    "description": "City_855864",
    "title": "City_855864",
    "link_img": "https://live.staticflickr.com/65535/50039502131_30c64a5b3f_o.jpg",
    "id_image": "City_855864",
    "count_view": 0
  },
  {
    "link_thumb": "https://live.staticflickr.com/65535/50039702517_a5b9b3953f_n.jpg",
    "id_album": "-1964113117",
    "description": "City_183034",
    "title": "City_183034",
    "link_img": "https://live.staticflickr.com/65535/50039702517_8a50b54fdf_o.jpg",
    "id_image": "City_183034",
    "count_view": 0
  },
  {
    "link_thumb": "https://live.staticflickr.com/65535/50041251121_371f8c98e0_n.jpg",
    "id_album": "-1863373220",
    "description": "StarWars_983265",
    "title": "StarWars_983265",
    "link_img": "https://live.staticflickr.com/65535/50041251121_aa0aefc096_o.jpg",
    "id_image": "StarWars_983265",
    "count_view": 0
  },
  {
    "link_thumb": "https://live.staticflickr.com/65535/50041415572_6b11c3120d_n.jpg",
    "id_album": "-1863373220",
    "description": "StarWars_241448",
    "title": "StarWars_241448",
    "link_img": "https://live.staticflickr.com/65535/50041415572_37e2132737_o.jpg",
    "id_image": "StarWars_241448",
    "count_view": 0
  },
  {
    "link_thumb": "https://live.staticflickr.com/65535/50039221243_6b295e1ddb_n.jpg",
    "id_album": "-1610342324",
    "description": "Nebula_215037",
    "title": "Nebula_215037",
    "link_img": "https://live.staticflickr.com/65535/50039221243_b6e4234987_o.jpg",
    "id_image": "Nebula_215037",
    "count_view": 0
  },
  {
    "link_thumb": "https://live.staticflickr.com/65535/50041130866_8224ffcb05_n.jpg",
    "id_album": "-1863373220",
    "description": "StarWars_215697",
    "title": "StarWars_215697",
    "link_img": "https://live.staticflickr.com/65535/50041130866_86d872da88_o.jpg",
    "id_image": "StarWars_215697",
    "count_view": 0
  },
  {
    "link_thumb": "https://live.staticflickr.com/65535/50039905851_2dce4efd1e_n.jpg",
    "id_album": "395161030",
    "description": "Planet_152730",
    "title": "Planet_152730",
    "link_img": "https://live.staticflickr.com/65535/50039905851_f6a42f9f6b_o.jpg",
    "id_image": "Planet_152730",
    "count_view": 0
  },
  {
    "link_thumb": "https://live.staticflickr.com/65535/50038679073_dfa488d1dd_n.jpg",
    "id_album": "280884763",
    "description": "Abstract_120530",
    "title": "Abstract_120530",
    "link_img": "https://live.staticflickr.com/65535/50038679073_ccbb4a6b20_o.jpg",
    "id_image": "Abstract_120530",
    "count_view": 0
  },
  {
    "link_thumb": "https://live.staticflickr.com/65535/50039549641_f16050e89e_n.jpg",
    "id_album": "-437872736",
    "description": "Creature_307888",
    "title": "Creature_307888",
    "link_img": "https://live.staticflickr.com/65535/50039549641_b9c9910f6d_o.jpg",
    "id_image": "Creature_307888",
    "count_view": 0
  },
  {
    "link_thumb": "https://live.staticflickr.com/65535/50039833308_861efdaf61_n.jpg",
    "id_album": "779690680",
    "description": "Robot_875301",
    "title": "Robot_875301",
    "link_img": "https://live.staticflickr.com/65535/50039833308_31565138ce_o.jpg",
    "id_image": "Robot_875301",
    "count_view": 0
  },
  {
    "link_thumb": "https://live.staticflickr.com/65535/50039821788_05e8a82154_n.jpg",
    "id_album": "779690680",
    "description": "Robot_857292",
    "title": "Robot_857292",
    "link_img": "https://live.staticflickr.com/65535/50039821788_3c302403e5_o.jpg",
    "id_image": "Robot_857292",
    "count_view": 0
  },
  {
    "link_thumb": "https://live.staticflickr.com/65535/50041501387_603bd73c22_n.jpg",
    "id_album": "-1863373220",
    "description": "StarWars_902709",
    "title": "StarWars_902709",
    "link_img": "https://live.staticflickr.com/65535/50041501387_fc8dc326a2_o.jpg",
    "id_image": "StarWars_902709",
    "count_view": 0
  },
  {
    "link_thumb": "https://live.staticflickr.com/65535/50041031763_067fe49795_n.jpg",
    "id_album": "-1675918237",
    "description": "WomenWarrior_616398",
    "title": "WomenWarrior_616398",
    "link_img": "https://live.staticflickr.com/65535/50041031763_fb7673a37f_o.jpg",
    "id_image": "WomenWarrior_616398",
    "count_view": 0
  },
  {
    "link_thumb": "https://live.staticflickr.com/65535/50040872918_f78d0f58b2_n.jpg",
    "id_album": "2020068132",
    "description": "Vehicle_972129",
    "title": "Vehicle_972129",
    "link_img": "https://live.staticflickr.com/65535/50040872918_077d190938_o.jpg",
    "id_image": "Vehicle_972129",
    "count_view": 0
  },
  {
    "link_thumb": "https://live.staticflickr.com/65535/50040553947_5db6de7077_n.jpg",
    "id_album": "779690680",
    "description": "Robot_325642",
    "title": "Robot_325642",
    "link_img": "https://live.staticflickr.com/65535/50040553947_1058e8661a_o.jpg",
    "id_image": "Robot_325642",
    "count_view": 0
  },
  {
    "link_thumb": "https://live.staticflickr.com/65535/50040474326_143fc64e99_n.jpg",
    "id_album": "1613540653",
    "description": "Space_180938",
    "title": "Space_180938",
    "link_img": "https://live.staticflickr.com/65535/50040474326_d0abfd4255_o.jpg",
    "id_image": "Space_180938",
    "count_view": 0
  },
  {
    "link_thumb": "https://live.staticflickr.com/65535/50039411781_d46fc7b568_n.jpg",
    "id_album": "-1780971522",
    "description": "Biohazard_300087",
    "title": "Biohazard_300087",
    "link_img": "https://live.staticflickr.com/65535/50039411781_42fb0e37ca_o.jpg",
    "id_image": "Biohazard_300087",
    "count_view": 0
  },
  {
    "link_thumb": "https://live.staticflickr.com/65535/50039444106_7398c3329d_n.jpg",
    "id_album": "-1964113117",
    "description": "City_205216",
    "title": "City_205216",
    "link_img": "https://live.staticflickr.com/65535/50039444106_c96fcbc4f3_o.jpg",
    "id_image": "City_205216",
    "count_view": 0
  },
  {
    "link_thumb": "https://live.staticflickr.com/65535/50038845073_be22c4fb78_n.jpg",
    "id_album": "1187037014",
    "description": "Battle_115138",
    "title": "Battle_115138",
    "link_img": "https://live.staticflickr.com/65535/50038845073_3159070565_o.jpg",
    "id_image": "Battle_115138",
    "count_view": 0
  },
  {
    "link_thumb": "https://live.staticflickr.com/65535/50039753392_cfa22c99d5_n.jpg",
    "id_album": "-1964113117",
    "description": "City_711140",
    "title": "City_711140",
    "link_img": "https://live.staticflickr.com/65535/50039753392_ac64f0a9dd_o.jpg",
    "id_image": "City_711140",
    "count_view": 0
  },
  {
    "link_thumb": "https://live.staticflickr.com/65535/50041560802_3bb2dff9f7_n.jpg",
    "id_album": "1267121215",
    "description": "Steampunk_191453",
    "title": "Steampunk_191453",
    "link_img": "https://live.staticflickr.com/65535/50041560802_b24a4d44b4_o.jpg",
    "id_image": "Steampunk_191453",
    "count_view": 0
  },
  {
    "link_thumb": "https://live.staticflickr.com/65535/50039689167_53645053d3_n.jpg",
    "id_album": "406431601",
    "description": "Building_912993",
    "title": "Building_912993",
    "link_img": "https://live.staticflickr.com/65535/50039689167_81c882ab1c_o.jpg",
    "id_image": "Building_912993",
    "count_view": 0
  },
  {
    "link_thumb": "https://live.staticflickr.com/65535/50039901247_1f0e22a3e8_n.jpg",
    "id_album": "1204249541",
    "description": "Galaxy_505531",
    "title": "Galaxy_505531",
    "link_img": "https://live.staticflickr.com/65535/50039901247_ae5bf86863_o.jpg",
    "id_image": "Galaxy_505531",
    "count_view": 0
  },
  {
    "link_thumb": "https://live.staticflickr.com/65535/50039879788_2313c2a6ce_n.jpg",
    "id_album": "779690680",
    "description": "Robot_937813",
    "title": "Robot_937813",
    "link_img": "https://live.staticflickr.com/65535/50039879788_08f557951f_o.jpg",
    "id_image": "Robot_937813",
    "count_view": 0
  },
  {
    "link_thumb": "https://live.staticflickr.com/65535/50039391326_bff431a4f3_n.jpg",
    "id_album": "869545341",
    "description": "Astronaut_991831",
    "title": "Astronaut_991831",
    "link_img": "https://live.staticflickr.com/65535/50039391326_4dab34f8e5_o.jpg",
    "id_image": "Astronaut_991831",
    "count_view": 0
  },
  {
    "link_thumb": "https://live.staticflickr.com/65535/50039821998_cb5489927f_n.jpg",
    "id_album": "779690680",
    "description": "Robot_857293",
    "title": "Robot_857293",
    "link_img": "https://live.staticflickr.com/65535/50039821998_b1a3cf559c_o.jpg",
    "id_image": "Robot_857293",
    "count_view": 0
  },
  {
    "link_thumb": "https://live.staticflickr.com/65535/50039772273_41c9710e63_n.jpg",
    "id_album": "779690680",
    "description": "Robot_489388",
    "title": "Robot_489388",
    "link_img": "https://live.staticflickr.com/65535/50039772273_fe204afb37_o.jpg",
    "id_image": "Robot_489388",
    "count_view": 0
  },
  {
    "link_thumb": "https://live.staticflickr.com/65535/50041336816_15a08c962e_n.jpg",
    "id_album": "1267121215",
    "description": "Steampunk_989589",
    "title": "Steampunk_989589",
    "link_img": "https://live.staticflickr.com/65535/50041336816_7cb6e9c8c9_o.jpg",
    "id_image": "Steampunk_989589",
    "count_view": 0
  },
  {
    "link_thumb": "https://live.staticflickr.com/65535/50039692792_9e8ccb7e8b_n.jpg",
    "id_album": "-1964113117",
    "description": "City_1007789",
    "title": "City_1007789",
    "link_img": "https://live.staticflickr.com/65535/50039692792_3f84bf8f7b_o.jpg",
    "id_image": "City_1007789",
    "count_view": 0
  },
  {
    "link_thumb": "https://live.staticflickr.com/65535/50040843238_bd078f3e9e_n.jpg",
    "id_album": "2020068132",
    "description": "Vehicle_410768",
    "title": "Vehicle_410768",
    "link_img": "https://live.staticflickr.com/65535/50040843238_5100bd0946_o.jpg",
    "id_image": "Vehicle_410768",
    "count_view": 0
  },
  {
    "link_thumb": "https://live.staticflickr.com/65535/50039516293_9c8bdce52e_n.jpg",
    "id_album": "-1102314093",
    "description": "Planets_249556",
    "title": "Planets_249556",
    "link_img": "https://live.staticflickr.com/65535/50039516293_8cc7866bdd_o.jpg",
    "id_image": "Planets_249556",
    "count_view": 0
  },
  {
    "link_thumb": "https://live.staticflickr.com/65535/50040057867_91e2cd3e56_n.jpg",
    "id_album": "-1610342324",
    "description": "Nebula_415323",
    "title": "Nebula_415323",
    "link_img": "https://live.staticflickr.com/65535/50040057867_1b9cc99204_o.jpg",
    "id_image": "Nebula_415323",
    "count_view": 0
  },
  {
    "link_thumb": "https://live.staticflickr.com/65535/50038917188_1870a05359_n.jpg",
    "id_album": "-1964113117",
    "description": "City_356713",
    "title": "City_356713",
    "link_img": "https://live.staticflickr.com/65535/50038917188_a9dba55148_o.jpg",
    "id_image": "City_356713",
    "count_view": 0
  },
  {
    "link_thumb": "https://live.staticflickr.com/65535/50039403796_b011cf9fa4_n.jpg",
    "id_album": "1187037014",
    "description": "Battle_599838",
    "title": "Battle_599838",
    "link_img": "https://live.staticflickr.com/65535/50039403796_f628fa3213_o.jpg",
    "id_image": "Battle_599838",
    "count_view": 0
  },
  {
    "link_thumb": "https://live.staticflickr.com/65535/50038934818_de4b74b316_n.jpg",
    "id_album": "-1964113117",
    "description": "City_649193",
    "title": "City_649193",
    "link_img": "https://live.staticflickr.com/65535/50038934818_8a5e50f389_o.jpg",
    "id_image": "City_649193",
    "count_view": 0
  },
  {
    "link_thumb": "https://live.staticflickr.com/65535/50039097423_df5049442b_n.jpg",
    "id_album": "1204249541",
    "description": "Galaxy_596221",
    "title": "Galaxy_596221",
    "link_img": "https://live.staticflickr.com/65535/50039097423_45874695fb_o.jpg",
    "id_image": "Galaxy_596221",
    "count_view": 0
  },
  {
    "link_thumb": "https://live.staticflickr.com/65535/50040390831_a96b1853c3_n.jpg",
    "id_album": "779690680",
    "description": "Robot_881755",
    "title": "Robot_881755",
    "link_img": "https://live.staticflickr.com/65535/50040390831_bb9b51118c_o.jpg",
    "id_image": "Robot_881755",
    "count_view": 0
  },
  {
    "link_thumb": "https://live.staticflickr.com/65535/50038844318_5b4f7275d4_n.jpg",
    "id_album": "869545341",
    "description": "Astronaut_996258",
    "title": "Astronaut_996258",
    "link_img": "https://live.staticflickr.com/65535/50038844318_244c098fc4_o.jpg",
    "id_image": "Astronaut_996258",
    "count_view": 0
  },
  {
    "link_thumb": "https://live.staticflickr.com/65535/50040477481_0f64201905_n.jpg",
    "id_album": "1613540653",
    "description": "Space_193",
    "title": "Space_193",
    "link_img": "https://live.staticflickr.com/65535/50040477481_5162ab3ddf_o.jpg",
    "id_image": "Space_193",
    "count_view": 0
  },
  {
    "link_thumb": "https://live.staticflickr.com/65535/50039333591_4b7b2afc78_n.jpg",
    "id_album": "523598895",
    "description": "Artistic_397382",
    "title": "Artistic_397382",
    "link_img": "https://live.staticflickr.com/65535/50039333591_2979c7fe58_o.jpg",
    "id_image": "Artistic_397382",
    "count_view": 0
  },
  {
    "link_thumb": "https://live.staticflickr.com/65535/50039235633_ecb43aecea_n.jpg",
    "id_album": "-1610342324",
    "description": "Nebula_306650",
    "title": "Nebula_306650",
    "link_img": "https://live.staticflickr.com/65535/50039235633_ba457d6746_o.jpg",
    "id_image": "Nebula_306650",
    "count_view": 0
  },
  {
    "link_thumb": "https://live.staticflickr.com/65535/50038994603_e6f70e88ef_n.jpg",
    "id_album": "894679094",
    "description": "Collision_706877",
    "title": "Collision_706877",
    "link_img": "https://live.staticflickr.com/65535/50038994603_0447c6e540_o.jpg",
    "id_image": "Collision_706877",
    "count_view": 0
  },
  {
    "link_thumb": "https://live.staticflickr.com/65535/50039119713_b17e78a7d7_n.jpg",
    "id_album": "1402713104",
    "description": "Landscape_270108",
    "title": "Landscape_270108",
    "link_img": "https://live.staticflickr.com/65535/50039119713_b35dc33397_o.jpg",
    "id_image": "Landscape_270108",
    "count_view": 0
  },
  {
    "link_thumb": "https://live.staticflickr.com/65535/50040344992_1be4094a48_n.jpg",
    "id_album": "-1102314093",
    "description": "Planets_32584",
    "title": "Planets_32584",
    "link_img": "https://live.staticflickr.com/65535/50040344992_cc8f427e07_o.jpg",
    "id_image": "Planets_32584",
    "count_view": 0
  },
  {
    "link_thumb": "https://live.staticflickr.com/65535/50040960723_0b72e6a1dc_n.jpg",
    "id_album": "-1126835654",
    "description": "Women_266750",
    "title": "Women_266750",
    "link_img": "https://live.staticflickr.com/65535/50040960723_9275aa6170_o.jpg",
    "id_image": "Women_266750",
    "count_view": 0
  },
  {
    "link_thumb": "https://live.staticflickr.com/65535/50040286586_afc39f0811_n.jpg",
    "id_album": "779690680",
    "description": "Robot_310484",
    "title": "Robot_310484",
    "link_img": "https://live.staticflickr.com/65535/50040286586_95d2146eff_o.jpg",
    "id_image": "Robot_310484",
    "count_view": 0
  },
  {
    "link_thumb": "https://live.staticflickr.com/65535/50039800037_37fdd21a9d_n.jpg",
    "id_album": "894679094",
    "description": "Collision_286791",
    "title": "Collision_286791",
    "link_img": "https://live.staticflickr.com/65535/50039800037_5d8c62b31a_o.jpg",
    "id_image": "Collision_286791",
    "count_view": 0
  },
  {
    "link_thumb": "https://live.staticflickr.com/65535/50041244146_531497f7d5_n.jpg",
    "id_album": "-1863373220",
    "description": "StarWars_942817",
    "title": "StarWars_942817",
    "link_img": "https://live.staticflickr.com/65535/50041244146_d01baed035_o.jpg",
    "id_image": "StarWars_942817",
    "count_view": 0
  },
  {
    "link_thumb": "https://live.staticflickr.com/65535/50040178883_0693de2f47_n.jpg",
    "id_album": "2130067313",
    "description": "Spaceship_676807",
    "title": "Spaceship_676807",
    "link_img": "https://live.staticflickr.com/65535/50040178883_eb6c9a9001_o.jpg",
    "id_image": "Spaceship_676807",
    "count_view": 0
  },
  {
    "link_thumb": "https://live.staticflickr.com/65535/50041602067_eeef81d6ca_n.jpg",
    "id_album": "-221671103",
    "description": "Sun_181705",
    "title": "Sun_181705",
    "link_img": "https://live.staticflickr.com/65535/50041602067_c77100d24b_o.jpg",
    "id_image": "Sun_181705",
    "count_view": 0
  },
  {
    "link_thumb": "https://live.staticflickr.com/65535/50039077518_0e2b344c2e_n.jpg",
    "id_album": "1204249541",
    "description": "Galaxy_220712",
    "title": "Galaxy_220712",
    "link_img": "https://live.staticflickr.com/65535/50039077518_5db786c315_o.jpg",
    "id_image": "Galaxy_220712",
    "count_view": 0
  },
  {
    "link_thumb": "https://live.staticflickr.com/65535/50039997066_387b70944c_n.jpg",
    "id_album": "1443611160",
    "description": "PlanetRise_177495",
    "title": "PlanetRise_177495",
    "link_img": "https://live.staticflickr.com/65535/50039997066_be2eea0a14_o.jpg",
    "id_image": "PlanetRise_177495",
    "count_view": 0
  },
  {
    "link_thumb": "https://live.staticflickr.com/65535/50039641261_687ed7df93_n.jpg",
    "id_album": "1204249541",
    "description": "Galaxy_543989",
    "title": "Galaxy_543989",
    "link_img": "https://live.staticflickr.com/65535/50039641261_704fae0705_o.jpg",
    "id_image": "Galaxy_543989",
    "count_view": 0
  },
  {
    "link_thumb": "https://live.staticflickr.com/65535/50040052897_c090505e9d_n.jpg",
    "id_album": "-1610342324",
    "description": "Nebula_379571",
    "title": "Nebula_379571",
    "link_img": "https://live.staticflickr.com/65535/50040052897_0e350d2360_o.jpg",
    "id_image": "Nebula_379571",
    "count_view": 0
  },
  {
    "link_thumb": "https://live.staticflickr.com/65535/50040204187_e526bfc836_n.jpg",
    "id_album": "395161030",
    "description": "Planet_373659",
    "title": "Planet_373659",
    "link_img": "https://live.staticflickr.com/65535/50040204187_a7dbae2de7_o.jpg",
    "id_image": "Planet_373659",
    "count_view": 0
  },
  {
    "link_thumb": "https://live.staticflickr.com/65535/50039223973_ff682b100f_n.jpg",
    "id_album": "-1610342324",
    "description": "Nebula_226013",
    "title": "Nebula_226013",
    "link_img": "https://live.staticflickr.com/65535/50039223973_9e6fe1866a_o.jpg",
    "id_image": "Nebula_226013",
    "count_view": 0
  },
  {
    "link_thumb": "https://live.staticflickr.com/65535/50039357121_076d3abe58_n.jpg",
    "id_album": "869545341",
    "description": "Astronaut_548678",
    "title": "Astronaut_548678",
    "link_img": "https://live.staticflickr.com/65535/50039357121_4335462e92_o.jpg",
    "id_image": "Astronaut_548678",
    "count_view": 0
  },
  {
    "link_thumb": "https://live.staticflickr.com/65535/50039107673_47b5c11a14_n.jpg",
    "id_album": "1204249541",
    "description": "Galaxy_948044",
    "title": "Galaxy_948044",
    "link_img": "https://live.staticflickr.com/65535/50039107673_89a0a3fcaa_o.jpg",
    "id_image": "Galaxy_948044",
    "count_view": 0
  },
  {
    "link_thumb": "https://live.staticflickr.com/65535/50040744122_fa8e0fe206_n.jpg",
    "id_album": "1613540653",
    "description": "Space_212846",
    "title": "Space_212846",
    "link_img": "https://live.staticflickr.com/65535/50040744122_63638a48ff_o.jpg",
    "id_image": "Space_212846",
    "count_view": 0
  },
  {
    "link_thumb": "https://live.staticflickr.com/65535/50040184807_bcc207409d_n.jpg",
    "id_album": "395161030",
    "description": "Planet_239641",
    "title": "Planet_239641",
    "link_img": "https://live.staticflickr.com/65535/50040184807_454ec994ed_o.jpg",
    "id_image": "Planet_239641",
    "count_view": 0
  },
  {
    "link_thumb": "https://live.staticflickr.com/65535/50040203603_23063c29dd_n.jpg",
    "id_album": "2130067313",
    "description": "Spaceship_870321",
    "title": "Spaceship_870321",
    "link_img": "https://live.staticflickr.com/65535/50040203603_1451f40fee_o.jpg",
    "id_image": "Spaceship_870321",
    "count_view": 0
  },
  {
    "link_thumb": "https://live.staticflickr.com/65535/50040068273_c813fec39b_n.jpg",
    "id_album": "2130067313",
    "description": "Spaceship_278841",
    "title": "Spaceship_278841",
    "link_img": "https://live.staticflickr.com/65535/50040068273_371abe0cd2_o.jpg",
    "id_image": "Spaceship_278841",
    "count_view": 0
  },
  {
    "link_thumb": "https://live.staticflickr.com/65535/50040471897_f8282565eb_n.jpg",
    "id_album": "-482547208",
    "description": "PostApocalyptic_339128",
    "title": "PostApocalyptic_339128",
    "link_img": "https://live.staticflickr.com/65535/50040471897_a242d8f679_o.jpg",
    "id_image": "PostApocalyptic_339128",
    "count_view": 0
  },
  {
    "link_thumb": "https://live.staticflickr.com/65535/50041025273_9b748c8396_n.jpg",
    "id_album": "-1675918237",
    "description": "WomenWarrior_534418",
    "title": "WomenWarrior_534418",
    "link_img": "https://live.staticflickr.com/65535/50041025273_8660d4e476_o.jpg",
    "id_image": "WomenWarrior_534418",
    "count_view": 0
  },
  {
    "link_thumb": "https://live.staticflickr.com/65535/50039491722_0280f80ffa_n.jpg",
    "id_album": "280884763",
    "description": "Abstract_286931",
    "title": "Abstract_286931",
    "link_img": "https://live.staticflickr.com/65535/50039491722_f271d3820b_o.jpg",
    "id_image": "Abstract_286931",
    "count_view": 0
  },
  {
    "link_thumb": "https://live.staticflickr.com/65535/50039805786_5cb66b8608_n.jpg",
    "id_album": "-1610342324",
    "description": "Nebula_540818",
    "title": "Nebula_540818",
    "link_img": "https://live.staticflickr.com/65535/50039805786_32806514ec_o.jpg",
    "id_image": "Nebula_540818",
    "count_view": 0
  },
  {
    "link_thumb": "https://live.staticflickr.com/65535/50040245391_629f756284_n.jpg",
    "id_album": "-839602625",
    "description": "Predator_551711",
    "title": "Predator_551711",
    "link_img": "https://live.staticflickr.com/65535/50040245391_56e3614f12_o.jpg",
    "id_image": "Predator_551711",
    "count_view": 0
  },
  {
    "link_thumb": "https://live.staticflickr.com/65535/50039372561_8545cea783_n.jpg",
    "id_album": "869545341",
    "description": "Astronaut_857747",
    "title": "Astronaut_857747",
    "link_img": "https://live.staticflickr.com/65535/50039372561_5d3e19c018_o.jpg",
    "id_image": "Astronaut_857747",
    "count_view": 0
  },
  {
    "link_thumb": "https://live.staticflickr.com/65535/50041655097_4019bc1d02_n.jpg",
    "id_album": "2020068132",
    "description": "Vehicle_353163",
    "title": "Vehicle_353163",
    "link_img": "https://live.staticflickr.com/65535/50041655097_04f515acdd_o.jpg",
    "id_image": "Vehicle_353163",
    "count_view": 0
  },
  {
    "link_thumb": "https://live.staticflickr.com/65535/50040182462_f4bd8744b3_n.jpg",
    "id_album": "395161030",
    "description": "Planet_202873",
    "title": "Planet_202873",
    "link_img": "https://live.staticflickr.com/65535/50040182462_5fd20889b7_o.jpg",
    "id_image": "Planet_202873",
    "count_view": 0
  },
  {
    "link_thumb": "https://live.staticflickr.com/65535/50039537172_096503d552_n.jpg",
    "id_album": "849020728",
    "description": "Alien_864518",
    "title": "Alien_864518",
    "link_img": "https://live.staticflickr.com/65535/50039537172_19e4e6fe04_o.jpg",
    "id_image": "Alien_864518",
    "count_view": 0
  },
  {
    "link_thumb": "https://live.staticflickr.com/65535/50039268551_0ae227fa27_n.jpg",
    "id_album": "849020728",
    "description": "Alien_517024",
    "title": "Alien_517024",
    "link_img": "https://live.staticflickr.com/65535/50039268551_c377cac25f_o.jpg",
    "id_image": "Alien_517024",
    "count_view": 0
  },
  {
    "link_thumb": "https://live.staticflickr.com/65535/50040165217_2486d86da8_n.jpg",
    "id_album": "395161030",
    "description": "Planet_1005765",
    "title": "Planet_1005765",
    "link_img": "https://live.staticflickr.com/65535/50040165217_7ab2c35da6_o.jpg",
    "id_image": "Planet_1005765",
    "count_view": 0
  },
  {
    "link_thumb": "https://live.staticflickr.com/65535/50040394107_75d1569728_n.jpg",
    "id_album": "-1102314093",
    "description": "Planets_71704",
    "title": "Planets_71704",
    "link_img": "https://live.staticflickr.com/65535/50040394107_e0fa4ec86d_o.jpg",
    "id_image": "Planets_71704",
    "count_view": 0
  },
  {
    "link_thumb": "https://live.staticflickr.com/65535/50039589892_381af01845_n.jpg",
    "id_album": "523598895",
    "description": "Artistic_312013",
    "title": "Artistic_312013",
    "link_img": "https://live.staticflickr.com/65535/50039589892_3686a310d3_o.jpg",
    "id_image": "Artistic_312013",
    "count_view": 0
  },
  {
    "link_thumb": "https://live.staticflickr.com/65535/50040033152_bf70c39f7a_n.jpg",
    "id_album": "-1610342324",
    "description": "Nebula_206789",
    "title": "Nebula_206789",
    "link_img": "https://live.staticflickr.com/65535/50040033152_7972ce2210_o.jpg",
    "id_image": "Nebula_206789",
    "count_view": 0
  },
  {
    "link_thumb": "https://live.staticflickr.com/65535/50039257933_f91264a16c_n.jpg",
    "id_album": "-1610342324",
    "description": "Nebula_550129",
    "title": "Nebula_550129",
    "link_img": "https://live.staticflickr.com/65535/50039257933_8a59b03464_o.jpg",
    "id_image": "Nebula_550129",
    "count_view": 0
  },
  {
    "link_thumb": "https://live.staticflickr.com/65535/50039620276_f77af03c60_n.jpg",
    "id_album": "2104507156",
    "description": "Fantasy_260721",
    "title": "Fantasy_260721",
    "link_img": "https://live.staticflickr.com/65535/50039620276_cca5b1840f_o.jpg",
    "id_image": "Fantasy_260721",
    "count_view": 0
  },
  {
    "link_thumb": "https://live.staticflickr.com/65535/50039519947_19028df962_n.jpg",
    "id_album": "849020728",
    "description": "Alien_278137",
    "title": "Alien_278137",
    "link_img": "https://live.staticflickr.com/65535/50039519947_0d50fc9b73_o.jpg",
    "id_image": "Alien_278137",
    "count_view": 0
  },
  {
    "link_thumb": "https://live.staticflickr.com/65535/50038810753_4fd44f4910_n.jpg",
    "id_album": "869545341",
    "description": "Astronaut_587343",
    "title": "Astronaut_587343",
    "link_img": "https://live.staticflickr.com/65535/50038810753_ac4bb1828b_o.jpg",
    "id_image": "Astronaut_587343",
    "count_view": 0
  },
  {
    "link_thumb": "https://live.staticflickr.com/65535/50039066448_4d71a7f076_n.jpg",
    "id_album": "2104507156",
    "description": "Fantasy_161551",
    "title": "Fantasy_161551",
    "link_img": "https://live.staticflickr.com/65535/50039066448_4a775ef0aa_o.jpg",
    "id_image": "Fantasy_161551",
    "count_view": 0
  },
  {
    "link_thumb": "https://live.staticflickr.com/65535/50041311936_efca285afb_n.jpg",
    "id_album": "1267121215",
    "description": "Steampunk_293749",
    "title": "Steampunk_293749",
    "link_img": "https://live.staticflickr.com/65535/50041311936_697abaf830_o.jpg",
    "id_image": "Steampunk_293749",
    "count_view": 0
  },
  {
    "link_thumb": "https://live.staticflickr.com/65535/50039986522_15712bc631_n.jpg",
    "id_album": "1402713104",
    "description": "Landscape_917847",
    "title": "Landscape_917847",
    "link_img": "https://live.staticflickr.com/65535/50039986522_a87384a6bd_o.jpg",
    "id_image": "Landscape_917847",
    "count_view": 0
  },
  {
    "link_thumb": "https://live.staticflickr.com/65535/50040761967_7021796001_n.jpg",
    "id_album": "1613540653",
    "description": "Space_343744",
    "title": "Space_343744",
    "link_img": "https://live.staticflickr.com/65535/50040761967_bde2ca9c7f_o.jpg",
    "id_image": "Space_343744",
    "count_view": 0
  },
  {
    "link_thumb": "https://live.staticflickr.com/65535/50039572817_6a64c0b2f0_n.jpg",
    "id_album": "523598895",
    "description": "Artistic_199917",
    "title": "Artistic_199917",
    "link_img": "https://live.staticflickr.com/65535/50039572817_fe40758c86_o.jpg",
    "id_image": "Artistic_199917",
    "count_view": 0
  },
  {
    "link_thumb": "https://live.staticflickr.com/65535/50039315118_03a21f57f1_n.jpg",
    "id_album": "-1862561193",
    "description": "Other_216440",
    "title": "Other_216440",
    "link_img": "https://live.staticflickr.com/65535/50039315118_b8b2efa627_o.jpg",
    "id_image": "Other_216440",
    "count_view": 0
  },
  {
    "link_thumb": "https://live.staticflickr.com/65535/50039710998_827ef0d8ee_n.jpg",
    "id_album": "779690680",
    "description": "Robot_200565",
    "title": "Robot_200565",
    "link_img": "https://live.staticflickr.com/65535/50039710998_f37df81a69_o.jpg",
    "id_image": "Robot_200565",
    "count_view": 0
  },
  {
    "link_thumb": "https://live.staticflickr.com/65535/50039409011_366ab710db_n.jpg",
    "id_album": "1187037014",
    "description": "Battle_957776",
    "title": "Battle_957776",
    "link_img": "https://live.staticflickr.com/65535/50039409011_c67fcd953f_o.jpg",
    "id_image": "Battle_957776",
    "count_view": 0
  },
  {
    "link_thumb": "https://live.staticflickr.com/65535/50039808717_e01ba9c995_n.jpg",
    "id_album": "-437872736",
    "description": "Creature_211831",
    "title": "Creature_211831",
    "link_img": "https://live.staticflickr.com/65535/50039808717_ce9407517a_o.jpg",
    "id_image": "Creature_211831",
    "count_view": 0
  },
  {
    "link_thumb": "https://live.staticflickr.com/65535/50039327208_18ea57c239_n.jpg",
    "id_album": "-1964113117",
    "description": "City_213577",
    "title": "City_213577",
    "link_img": "https://live.staticflickr.com/65535/50039327208_9f4eee71a3_o.jpg",
    "id_image": "City_213577",
    "count_view": 0
  },
  {
    "link_thumb": "https://live.staticflickr.com/65535/50040061942_7a99618352_n.jpg",
    "id_album": "-1610342324",
    "description": "Nebula_441070",
    "title": "Nebula_441070",
    "link_img": "https://live.staticflickr.com/65535/50040061942_da0e8b8cfa_o.jpg",
    "id_image": "Nebula_441070",
    "count_view": 0
  },
  {
    "link_thumb": "https://live.staticflickr.com/65535/50040115386_f63a693e41_n.jpg",
    "id_album": "-1102314093",
    "description": "Planets_436890",
    "title": "Planets_436890",
    "link_img": "https://live.staticflickr.com/65535/50040115386_bb2d8554ea_o.jpg",
    "id_image": "Planets_436890",
    "count_view": 0
  },
  {
    "link_thumb": "https://live.staticflickr.com/65535/50039438521_f0a21fe11c_n.jpg",
    "id_album": "-1964113117",
    "description": "City_166153",
    "title": "City_166153",
    "link_img": "https://live.staticflickr.com/65535/50039438521_bd7e9d9f14_o.jpg",
    "id_image": "City_166153",
    "count_view": 0
  },
  {
    "link_thumb": "https://live.staticflickr.com/65535/50040043727_8535dd6ed4_n.jpg",
    "id_album": "-1610342324",
    "description": "Nebula_268280",
    "title": "Nebula_268280",
    "link_img": "https://live.staticflickr.com/65535/50040043727_729e31699c_o.jpg",
    "id_image": "Nebula_268280",
    "count_view": 0
  },
  {
    "link_thumb": "https://live.staticflickr.com/65535/50039544973_f399c24af8_n.jpg",
    "id_album": "-1102314093",
    "description": "Planets_355966",
    "title": "Planets_355966",
    "link_img": "https://live.staticflickr.com/65535/50039544973_66d048a308_o.jpg",
    "id_image": "Planets_355966",
    "count_view": 0
  },
  {
    "link_thumb": "https://live.staticflickr.com/65535/50040195113_8891717a55_n.jpg",
    "id_album": "2130067313",
    "description": "Spaceship_78514",
    "title": "Spaceship_78514",
    "link_img": "https://live.staticflickr.com/65535/50040195113_610d9ed276_o.jpg",
    "id_image": "Spaceship_78514",
    "count_view": 0
  },
  {
    "link_thumb": "https://live.staticflickr.com/65535/50039187163_0a5325abd6_n.jpg",
    "id_album": "-1388385651",
    "description": "MilkyWay_598607",
    "title": "MilkyWay_598607",
    "link_img": "https://live.staticflickr.com/65535/50039187163_711de30ca3_o.jpg",
    "id_image": "MilkyWay_598607",
    "count_view": 0
  },
  {
    "link_thumb": "https://live.staticflickr.com/65535/50039500821_fa44e4c338_n.jpg",
    "id_album": "-1964113117",
    "description": "City_842193",
    "title": "City_842193",
    "link_img": "https://live.staticflickr.com/65535/50039500821_128997a98a_o.jpg",
    "id_image": "City_842193",
    "count_view": 0
  },
  {
    "link_thumb": "https://live.staticflickr.com/65535/50040815532_e28700d44e_n.jpg",
    "id_album": "1613540653",
    "description": "Space_914140",
    "title": "Space_914140",
    "link_img": "https://live.staticflickr.com/65535/50040815532_c457b72733_o.jpg",
    "id_image": "Space_914140",
    "count_view": 0
  },
  {
    "link_thumb": "https://live.staticflickr.com/65535/50041012427_cdbd33bdc7_n.jpg",
    "id_album": "2130067313",
    "description": "Spaceship_778587",
    "title": "Spaceship_778587",
    "link_img": "https://live.staticflickr.com/65535/50041012427_42733f353f_o.jpg",
    "id_image": "Spaceship_778587",
    "count_view": 0
  },
  {
    "link_thumb": "https://live.staticflickr.com/65535/50039262271_12f17ee40f_n.jpg",
    "id_album": "849020728",
    "description": "Alien_393637",
    "title": "Alien_393637",
    "link_img": "https://live.staticflickr.com/65535/50039262271_698be4ef09_o.jpg",
    "id_image": "Alien_393637",
    "count_view": 0
  },
  {
    "link_thumb": "https://live.staticflickr.com/65535/50039861596_b7bbbfb1f1_n.jpg",
    "id_album": "-1862561193",
    "description": "Other_145921",
    "title": "Other_145921",
    "link_img": "https://live.staticflickr.com/65535/50039861596_16990c0fc8_o.jpg",
    "id_image": "Other_145921",
    "count_view": 0
  },
  {
    "link_thumb": "https://live.staticflickr.com/65535/50040257828_17b44e936a_n.jpg",
    "id_album": "-1449720967",
    "description": "StarTrek_248609",
    "title": "StarTrek_248609",
    "link_img": "https://live.staticflickr.com/65535/50040257828_3c0a0bbd95_o.jpg",
    "id_image": "StarTrek_248609",
    "count_view": 0
  },
  {
    "link_thumb": "https://live.staticflickr.com/65535/50040963932_d0eeddfd5b_n.jpg",
    "id_album": "2130067313",
    "description": "Spaceship_453661",
    "title": "Spaceship_453661",
    "link_img": "https://live.staticflickr.com/65535/50040963932_cfb41737d5_o.jpg",
    "id_image": "Spaceship_453661",
    "count_view": 0
  },
  {
    "link_thumb": "https://live.staticflickr.com/65535/50040541096_c8ce3c86db_n.jpg",
    "id_album": "1613540653",
    "description": "Space_803354",
    "title": "Space_803354",
    "link_img": "https://live.staticflickr.com/65535/50040541096_28256ef7bf_o.jpg",
    "id_image": "Space_803354",
    "count_view": 0
  },
  {
    "link_thumb": "https://live.staticflickr.com/65535/50040570143_0cb50543e9_n.jpg",
    "id_album": "-1863373220",
    "description": "StarWars_177815",
    "title": "StarWars_177815",
    "link_img": "https://live.staticflickr.com/65535/50040570143_b12269f09a_o.jpg",
    "id_image": "StarWars_177815",
    "count_view": 0
  },
  {
    "link_thumb": "https://live.staticflickr.com/65535/50039037568_b056825a7d_n.jpg",
    "id_album": "829169633",
    "description": "Cyborg_330040",
    "title": "Cyborg_330040",
    "link_img": "https://live.staticflickr.com/65535/50039037568_f173ef8e58_o.jpg",
    "id_image": "Cyborg_330040",
    "count_view": 0
  },
  {
    "link_thumb": "https://live.staticflickr.com/65535/50039625061_70010a2952_n.jpg",
    "id_album": "1204249541",
    "description": "Galaxy_163506",
    "title": "Galaxy_163506",
    "link_img": "https://live.staticflickr.com/65535/50039625061_a16c2ba85f_o.jpg",
    "id_image": "Galaxy_163506",
    "count_view": 0
  },
  {
    "link_thumb": "https://live.staticflickr.com/65535/50039660323_458b45eded_n.jpg",
    "id_album": "-482547208",
    "description": "PostApocalyptic_528310",
    "title": "PostApocalyptic_528310",
    "link_img": "https://live.staticflickr.com/65535/50039660323_e44d008937_o.jpg",
    "id_image": "PostApocalyptic_528310",
    "count_view": 0
  },
  {
    "link_thumb": "https://live.staticflickr.com/65535/50040864517_a6d151a54a_n.jpg",
    "id_album": "2130067313",
    "description": "Spaceship_224978",
    "title": "Spaceship_224978",
    "link_img": "https://live.staticflickr.com/65535/50040864517_ca8fa122ca_o.jpg",
    "id_image": "Spaceship_224978",
    "count_view": 0
  },
  {
    "link_thumb": "https://live.staticflickr.com/65535/50040071132_666fe7eafe_n.jpg",
    "id_album": "-1610342324",
    "description": "Nebula_550540",
    "title": "Nebula_550540",
    "link_img": "https://live.staticflickr.com/65535/50040071132_3ef9b8e0ca_o.jpg",
    "id_image": "Nebula_550540",
    "count_view": 0
  },
  {
    "link_thumb": "https://live.staticflickr.com/65535/50039777786_a25bc37216_n.jpg",
    "id_album": "-1610342324",
    "description": "Nebula_25551",
    "title": "Nebula_25551",
    "link_img": "https://live.staticflickr.com/65535/50039777786_45506f33e8_o.jpg",
    "id_image": "Nebula_25551",
    "count_view": 0
  },
  {
    "link_thumb": "https://live.staticflickr.com/65535/50041246411_f9bc4afb0a_n.jpg",
    "id_album": "-1863373220",
    "description": "StarWars_973298",
    "title": "StarWars_973298",
    "link_img": "https://live.staticflickr.com/65535/50041246411_f5e4dc9de7_o.jpg",
    "id_image": "StarWars_973298",
    "count_view": 0
  },
  {
    "link_thumb": "https://live.staticflickr.com/65535/50039942598_79340d4ec1_n.jpg",
    "id_album": "1613540653",
    "description": "Space_345775",
    "title": "Space_345775",
    "link_img": "https://live.staticflickr.com/65535/50039942598_2932e78ff0_o.jpg",
    "id_image": "Space_345775",
    "count_view": 0
  },
  {
    "link_thumb": "https://live.staticflickr.com/65535/50039781271_a6a87ebd94_n.jpg",
    "id_album": "-1610342324",
    "description": "Nebula_284522",
    "title": "Nebula_284522",
    "link_img": "https://live.staticflickr.com/65535/50039781271_dfc7131b43_o.jpg",
    "id_image": "Nebula_284522",
    "count_view": 0
  },
  {
    "link_thumb": "https://live.staticflickr.com/65535/50039640126_124536ea39_n.jpg",
    "id_album": "1204249541",
    "description": "Galaxy_540814",
    "title": "Galaxy_540814",
    "link_img": "https://live.staticflickr.com/65535/50039640126_67d6b7f344_o.jpg",
    "id_image": "Galaxy_540814",
    "count_view": 0
  },
  {
    "link_thumb": "https://live.staticflickr.com/65535/50041181281_6a892ee6af_n.jpg",
    "id_album": "-1863373220",
    "description": "StarWars_476360",
    "title": "StarWars_476360",
    "link_img": "https://live.staticflickr.com/65535/50041181281_9a3af2a9b5_o.jpg",
    "id_image": "StarWars_476360",
    "count_view": 0
  },
  {
    "link_thumb": "https://live.staticflickr.com/65535/50041461577_6bbc1d190a_n.jpg",
    "id_album": "-1863373220",
    "description": "StarWars_590407",
    "title": "StarWars_590407",
    "link_img": "https://live.staticflickr.com/65535/50041461577_2f024fded0_o.jpg",
    "id_image": "StarWars_590407",
    "count_view": 0
  },
  {
    "link_thumb": "https://live.staticflickr.com/65535/50039328951_a6f01f1616_n.jpg",
    "id_album": "523598895",
    "description": "Artistic_317312",
    "title": "Artistic_317312",
    "link_img": "https://live.staticflickr.com/65535/50039328951_8b75a191ea_o.jpg",
    "id_image": "Artistic_317312",
    "count_view": 0
  },
  {
    "link_thumb": "https://live.staticflickr.com/65535/50039891897_82343e093a_n.jpg",
    "id_album": "1204249541",
    "description": "Galaxy_281520",
    "title": "Galaxy_281520",
    "link_img": "https://live.staticflickr.com/65535/50039891897_f5d566d499_o.jpg",
    "id_image": "Galaxy_281520",
    "count_view": 0
  },
  {
    "link_thumb": "https://live.staticflickr.com/65535/50039258488_d839decf0a_n.jpg",
    "id_album": "-1610342324",
    "description": "Nebula_550544",
    "title": "Nebula_550544",
    "link_img": "https://live.staticflickr.com/65535/50039258488_967900c28c_o.jpg",
    "id_image": "Nebula_550544",
    "count_view": 0
  },
  {
    "link_thumb": "https://live.staticflickr.com/65535/50039710022_307dd1e764_n.jpg",
    "id_album": "-1964113117",
    "description": "City_214928",
    "title": "City_214928",
    "link_img": "https://live.staticflickr.com/65535/50039710022_9c0c24e22c_o.jpg",
    "id_image": "City_214928",
    "count_view": 0
  },
  {
    "link_thumb": "https://live.staticflickr.com/65535/50039456308_19774dd0b8_n.jpg",
    "id_album": "1443611160",
    "description": "PlanetRise_436449",
    "title": "PlanetRise_436449",
    "link_img": "https://live.staticflickr.com/65535/50039456308_9d090f5dd0_o.jpg",
    "id_image": "PlanetRise_436449",
    "count_view": 0
  },
  {
    "link_thumb": "https://live.staticflickr.com/65535/50039995402_e84a8eeff5_n.jpg",
    "id_album": "-1388385651",
    "description": "MilkyWay_528668",
    "title": "MilkyWay_528668",
    "link_img": "https://live.staticflickr.com/65535/50039995402_fd41a38416_o.jpg",
    "id_image": "MilkyWay_528668",
    "count_view": 0
  },
  {
    "link_thumb": "https://live.staticflickr.com/65535/50040743912_78d0f63bc2_n.jpg",
    "id_album": "1613540653",
    "description": "Space_212456",
    "title": "Space_212456",
    "link_img": "https://live.staticflickr.com/65535/50040743912_067de2db5e_o.jpg",
    "id_image": "Space_212456",
    "count_view": 0
  },
  {
    "link_thumb": "https://live.staticflickr.com/65535/50039728457_33f9d83b45_n.jpg",
    "id_album": "-1964113117",
    "description": "City_367985",
    "title": "City_367985",
    "link_img": "https://live.staticflickr.com/65535/50039728457_17969f787d_o.jpg",
    "id_image": "City_367985",
    "count_view": 0
  },
  {
    "link_thumb": "https://live.staticflickr.com/65535/50039210763_25e791aed3_n.jpg",
    "id_album": "-1610342324",
    "description": "Nebula_1011241",
    "title": "Nebula_1011241",
    "link_img": "https://live.staticflickr.com/65535/50039210763_c24c5b0e18_o.jpg",
    "id_image": "Nebula_1011241",
    "count_view": 0
  },
  {
    "link_thumb": "https://live.staticflickr.com/65535/50039919987_4d293cbc9a_n.jpg",
    "id_album": "1204249541",
    "description": "Galaxy_947087",
    "title": "Galaxy_947087",
    "link_img": "https://live.staticflickr.com/65535/50039919987_2525fe6667_o.jpg",
    "id_image": "Galaxy_947087",
    "count_view": 0
  },
  {
    "link_thumb": "https://live.staticflickr.com/65535/50040258208_aff9de630c_n.jpg",
    "id_album": "-1449720967",
    "description": "StarTrek_256668",
    "title": "StarTrek_256668",
    "link_img": "https://live.staticflickr.com/65535/50040258208_a8f1556d6d_o.jpg",
    "id_image": "StarTrek_256668",
    "count_view": 0
  },
  {
    "link_thumb": "https://live.staticflickr.com/65535/50039893052_6f15fea84e_n.jpg",
    "id_album": "1204249541",
    "description": "Galaxy_30413",
    "title": "Galaxy_30413",
    "link_img": "https://live.staticflickr.com/65535/50039893052_f85680f304_o.jpg",
    "id_image": "Galaxy_30413",
    "count_view": 0
  },
  {
    "link_thumb": "https://live.staticflickr.com/65535/50040216337_53a0289db9_n.jpg",
    "id_album": "395161030",
    "description": "Planet_464560",
    "title": "Planet_464560",
    "link_img": "https://live.staticflickr.com/65535/50040216337_b9b5f80338_o.jpg",
    "id_image": "Planet_464560",
    "count_view": 0
  },
  {
    "link_thumb": "https://live.staticflickr.com/65535/50039908518_83af7ff6da_n.jpg",
    "id_album": "1613540653",
    "description": "Space_110332",
    "title": "Space_110332",
    "link_img": "https://live.staticflickr.com/65535/50039908518_45e9e28a8a_o.jpg",
    "id_image": "Space_110332",
    "count_view": 0
  },
  {
    "link_thumb": "https://live.staticflickr.com/65535/50038741058_bc541ab720_n.jpg",
    "id_album": "-419633230",
    "description": "Apocalyptic_957376",
    "title": "Apocalyptic_957376",
    "link_img": "https://live.staticflickr.com/65535/50038741058_25664570ae_o.jpg",
    "id_image": "Apocalyptic_957376",
    "count_view": 0
  },
  {
    "link_thumb": "https://live.staticflickr.com/65535/50039410471_c97a3fb773_n.jpg",
    "id_album": "-1780971522",
    "description": "Biohazard_10386",
    "title": "Biohazard_10386",
    "link_img": "https://live.staticflickr.com/65535/50039410471_99b60198a8_o.jpg",
    "id_image": "Biohazard_10386",
    "count_view": 0
  },
  {
    "link_thumb": "https://live.staticflickr.com/65535/50040310352_1ece5b0606_n.jpg",
    "id_album": "-1102314093",
    "description": "Planets_113084",
    "title": "Planets_113084",
    "link_img": "https://live.staticflickr.com/65535/50040310352_eaaba6d627_o.jpg",
    "id_image": "Planets_113084",
    "count_view": 0
  },
  {
    "link_thumb": "https://live.staticflickr.com/65535/50039903496_4460e06453_n.jpg",
    "id_album": "395161030",
    "description": "Planet_106114",
    "title": "Planet_106114",
    "link_img": "https://live.staticflickr.com/65535/50039903496_9b51bc6347_o.jpg",
    "id_image": "Planet_106114",
    "count_view": 0
  },
  {
    "link_thumb": "https://live.staticflickr.com/65535/50039552641_57a32b2364_n.jpg",
    "id_album": "-437872736",
    "description": "Creature_331325",
    "title": "Creature_331325",
    "link_img": "https://live.staticflickr.com/65535/50039552641_2e964050e7_o.jpg",
    "id_image": "Creature_331325",
    "count_view": 0
  },
  {
    "link_thumb": "https://live.staticflickr.com/65535/50039838758_fef02c71ba_n.jpg",
    "id_album": "779690680",
    "description": "Robot_883162",
    "title": "Robot_883162",
    "link_img": "https://live.staticflickr.com/65535/50039838758_a4bfe445c5_o.jpg",
    "id_image": "Robot_883162",
    "count_view": 0
  },
  {
    "link_thumb": "https://live.staticflickr.com/65535/50039908971_a5a2289d67_n.jpg",
    "id_album": "395161030",
    "description": "Planet_173622",
    "title": "Planet_173622",
    "link_img": "https://live.staticflickr.com/65535/50039908971_36b47f1c0a_o.jpg",
    "id_image": "Planet_173622",
    "count_view": 0
  },
  {
    "link_thumb": "https://live.staticflickr.com/65535/50040256281_591351776d_n.jpg",
    "id_album": "779690680",
    "description": "Robot_155010",
    "title": "Robot_155010",
    "link_img": "https://live.staticflickr.com/65535/50040256281_9bb595e518_o.jpg",
    "id_image": "Robot_155010",
    "count_view": 0
  },
  {
    "link_thumb": "https://live.staticflickr.com/65535/50040232021_3cf8ffb799_n.jpg",
    "id_album": "-482547208",
    "description": "PostApocalyptic_929175",
    "title": "PostApocalyptic_929175",
    "link_img": "https://live.staticflickr.com/65535/50040232021_074f77c5c2_o.jpg",
    "id_image": "PostApocalyptic_929175",
    "count_view": 0
  },
  {
    "link_thumb": "https://live.staticflickr.com/65535/50038765513_a9c931dc5b_n.jpg",
    "id_album": "523598895",
    "description": "Artistic_208687",
    "title": "Artistic_208687",
    "link_img": "https://live.staticflickr.com/65535/50038765513_6037e79158_o.jpg",
    "id_image": "Artistic_208687",
    "count_view": 0
  },
  {
    "link_thumb": "https://live.staticflickr.com/65535/50039542121_5bed5f426f_n.jpg",
    "id_album": "894679094",
    "description": "Collision_652645",
    "title": "Collision_652645",
    "link_img": "https://live.staticflickr.com/65535/50039542121_5cc724df30_o.jpg",
    "id_image": "Collision_652645",
    "count_view": 0
  },
  {
    "link_thumb": "https://live.staticflickr.com/65535/50039286421_e921166e46_n.jpg",
    "id_album": "-419633230",
    "description": "Apocalyptic_691218",
    "title": "Apocalyptic_691218",
    "link_img": "https://live.staticflickr.com/65535/50039286421_103a96c575_o.jpg",
    "id_image": "Apocalyptic_691218",
    "count_view": 0
  },
  {
    "link_thumb": "https://live.staticflickr.com/65535/50041249906_436d5529e7_n.jpg",
    "id_album": "-1863373220",
    "description": "StarWars_980549",
    "title": "StarWars_980549",
    "link_img": "https://live.staticflickr.com/65535/50041249906_feef8a22c1_o.jpg",
    "id_image": "StarWars_980549",
    "count_view": 0
  },
  {
    "link_thumb": "https://live.staticflickr.com/65535/50039785206_394e5407c9_n.jpg",
    "id_album": "-1610342324",
    "description": "Nebula_307872",
    "title": "Nebula_307872",
    "link_img": "https://live.staticflickr.com/65535/50039785206_d79dc64828_o.jpg",
    "id_image": "Nebula_307872",
    "count_view": 0
  },
  {
    "link_thumb": "https://live.staticflickr.com/65535/50039289426_e655a27c55_n.jpg",
    "id_album": "-419633230",
    "description": "Apocalyptic_957471",
    "title": "Apocalyptic_957471",
    "link_img": "https://live.staticflickr.com/65535/50039289426_0dfa830839_o.jpg",
    "id_image": "Apocalyptic_957471",
    "count_view": 0
  },
  {
    "link_thumb": "https://live.staticflickr.com/65535/50039538293_aca9ca6a3d_n.jpg",
    "id_album": "-1102314093",
    "description": "Planets_344254",
    "title": "Planets_344254",
    "link_img": "https://live.staticflickr.com/65535/50039538293_094dd77ae5_o.jpg",
    "id_image": "Planets_344254",
    "count_view": 0
  },
  {
    "link_thumb": "https://live.staticflickr.com/65535/50039012128_9d92b4ba4c_n.jpg",
    "id_album": "-1372247677",
    "description": "Cyberpunk_373917",
    "title": "Cyberpunk_373917",
    "link_img": "https://live.staticflickr.com/65535/50039012128_2fb372241c_o.jpg",
    "id_image": "Cyberpunk_373917",
    "count_view": 0
  }
]