[
  {
    "link_thumb": "https://live.staticflickr.com/65535/50040694548_4dc08aa26d_n.jpg",
    "id_album": "-1863373220",
    "description": "StarWars_980507",
    "title": "StarWars_980507",
    "link_img": "https://live.staticflickr.com/65535/50040694548_64eecb241d_o.jpg",
    "id_image": "StarWars_980507",
    "count_view": 0
  },
  {
    "link_thumb": "https://live.staticflickr.com/65535/50039445931_f75b6cf13f_n.jpg",
    "id_album": "-1964113117",
    "description": "City_2113",
    "title": "City_2113",
    "link_img": "https://live.staticflickr.com/65535/50039445931_07414065c5_o.jpg",
    "id_image": "City_2113",
    "count_view": 0
  },
  {
    "link_thumb": "https://live.staticflickr.com/65535/50038738103_2cf552aa28_n.jpg",
    "id_album": "-419633230",
    "description": "Apocalyptic_678101",
    "title": "Apocalyptic_678101",
    "link_img": "https://live.staticflickr.com/65535/50038738103_94aa5ba697_o.jpg",
    "id_image": "Apocalyptic_678101",
    "count_view": 0
  },
  {
    "link_thumb": "https://live.staticflickr.com/65535/50040027167_15bbd3d787_n.jpg",
    "id_album": "-1610342324",
    "description": "Nebula_166114",
    "title": "Nebula_166114",
    "link_img": "https://live.staticflickr.com/65535/50040027167_0a642cd744_o.jpg",
    "id_image": "Nebula_166114",
    "count_view": 0
  },
  {
    "link_thumb": "https://live.staticflickr.com/65535/50039650221_35299d90a0_n.jpg",
    "id_album": "1204249541",
    "description": "Galaxy_676680",
    "title": "Galaxy_676680",
    "link_img": "https://live.staticflickr.com/65535/50039650221_6a283cbdce_o.jpg",
    "id_image": "Galaxy_676680",
    "count_view": 0
  },
  {
    "link_thumb": "https://live.staticflickr.com/65535/50041534947_fe70e54667_n.jpg",
    "id_album": "-1587696329",
    "description": "Stars_477456",
    "title": "Stars_477456",
    "link_img": "https://live.staticflickr.com/65535/50041534947_9b29b35ecd_o.jpg",
    "id_image": "Stars_477456",
    "count_view": 0
  },
  {
    "link_thumb": "https://live.staticflickr.com/65535/50038915028_b61b2ae425_n.jpg",
    "id_album": "-1964113117",
    "description": "City_331642",
    "title": "City_331642",
    "link_img": "https://live.staticflickr.com/65535/50038915028_cecd0f16a6_o.jpg",
    "id_image": "City_331642",
    "count_view": 0
  },
  {
    "link_thumb": "https://live.staticflickr.com/65535/50041438147_7477c36315_n.jpg",
    "id_album": "-1863373220",
    "description": "StarWars_389121",
    "title": "StarWars_389121",
    "link_img": "https://live.staticflickr.com/65535/50041438147_d9f9d6621b_o.jpg",
    "id_image": "StarWars_389121",
    "count_view": 0
  },
  {
    "link_thumb": "https://live.staticflickr.com/65535/50039505058_e4761ae2fc_n.jpg",
    "id_album": "-1102314093",
    "description": "Planets_198719",
    "title": "Planets_198719",
    "link_img": "https://live.staticflickr.com/65535/50039505058_853f6cebda_o.jpg",
    "id_image": "Planets_198719",
    "count_view": 0
  },
  {
    "link_thumb": "https://live.staticflickr.com/65535/50039240283_02f50ff7f2_n.jpg",
    "id_album": "-1610342324",
    "description": "Nebula_383694",
    "title": "Nebula_383694",
    "link_img": "https://live.staticflickr.com/65535/50039240283_374d3b14b1_o.jpg",
    "id_image": "Nebula_383694",
    "count_view": 0
  },
  {
    "link_thumb": "https://live.staticflickr.com/65535/50039216113_f3c52dfa02_n.jpg",
    "id_album": "-1610342324",
    "description": "Nebula_179735",
    "title": "Nebula_179735",
    "link_img": "https://live.staticflickr.com/65535/50039216113_e07000b150_o.jpg",
    "id_image": "Nebula_179735",
    "count_view": 0
  },
  {
    "link_thumb": "https://live.staticflickr.com/65535/50039662002_f71551e217_n.jpg",
    "id_album": "1187037014",
    "description": "Battle_274820",
    "title": "Battle_274820",
    "link_img": "https://live.staticflickr.com/65535/50039662002_556b4d0f89_o.jpg",
    "id_image": "Battle_274820",
    "count_view": 0
  },
  {
    "link_thumb": "https://live.staticflickr.com/65535/50039426136_9253535105_n.jpg",
    "id_album": "406431601",
    "description": "Building_906354",
    "title": "Building_906354",
    "link_img": "https://live.staticflickr.com/65535/50039426136_03102dd818_o.jpg",
    "id_image": "Building_906354",
    "count_view": 0
  },
  {
    "link_thumb": "https://live.staticflickr.com/65535/50039636802_57d8928915_n.jpg",
    "id_album": "869545341",
    "description": "Astronaut_863506",
    "title": "Astronaut_863506",
    "link_img": "https://live.staticflickr.com/65535/50039636802_8900faeaea_o.jpg",
    "id_image": "Astronaut_863506",
    "count_view": 0
  },
  {
    "link_thumb": "https://live.staticflickr.com/65535/50039250388_bbde72d9d9_n.jpg",
    "id_album": "-1610342324",
    "description": "Nebula_466777",
    "title": "Nebula_466777",
    "link_img": "https://live.staticflickr.com/65535/50039250388_ca4b043a2b_o.jpg",
    "id_image": "Nebula_466777",
    "count_view": 0
  },
  {
    "link_thumb": "https://live.staticflickr.com/65535/50041595117_cf20629f0b_n.jpg",
    "id_album": "1267121215",
    "description": "Steampunk_880778",
    "title": "Steampunk_880778",
    "link_img": "https://live.staticflickr.com/65535/50041595117_8c7ed6f5e9_o.jpg",
    "id_image": "Steampunk_880778",
    "count_view": 0
  },
  {
    "link_thumb": "https://live.staticflickr.com/65535/50039917627_ebefd915f2_n.jpg",
    "id_album": "1204249541",
    "description": "Galaxy_858367",
    "title": "Galaxy_858367",
    "link_img": "https://live.staticflickr.com/65535/50039917627_8b2cc81698_o.jpg",
    "id_image": "Galaxy_858367",
    "count_view": 0
  },
  {
    "link_thumb": "https://live.staticflickr.com/65535/50039616311_abcc17ef0c_n.jpg",
    "id_album": "2104507156",
    "description": "Fantasy_162699",
    "title": "Fantasy_162699",
    "link_img": "https://live.staticflickr.com/65535/50039616311_ea6e924d00_o.jpg",
    "id_image": "Fantasy_162699",
    "count_view": 0
  },
  {
    "link_thumb": "https://live.staticflickr.com/65535/50039667638_90340d3309_n.jpg",
    "id_album": "-482547208",
    "description": "PostApocalyptic_703348",
    "title": "PostApocalyptic_703348",
    "link_img": "https://live.staticflickr.com/65535/50039667638_24d651bbeb_o.jpg",
    "id_image": "PostApocalyptic_703348",
    "count_view": 0
  },
  {
    "link_thumb": "https://live.staticflickr.com/65535/50040151226_b2443b22ca_n.jpg",
    "id_album": "-1102314093",
    "description": "Planets_957523",
    "title": "Planets_957523",
    "link_img": "https://live.staticflickr.com/65535/50040151226_b6881721ce_o.jpg",
    "id_image": "Planets_957523",
    "count_view": 0
  },
  {
    "link_thumb": "https://live.staticflickr.com/65535/50039759811_fd00a1da3c_n.jpg",
    "id_album": "-1610342324",
    "description": "Nebula_1002681",
    "title": "Nebula_1002681",
    "link_img": "https://live.staticflickr.com/65535/50039759811_fc2ba21b9f_o.jpg",
    "id_image": "Nebula_1002681",
    "count_view": 0
  },
  {
    "link_thumb": "https://live.staticflickr.com/65535/50039675871_6c68d89b52_n.jpg",
    "id_album": "1402713104",
    "description": "Landscape_323795",
    "title": "Landscape_323795",
    "link_img": "https://live.staticflickr.com/65535/50039675871_96e5113680_o.jpg",
    "id_image": "Landscape_323795",
    "count_view": 0
  },
  {
    "link_thumb": "https://live.staticflickr.com/65535/50040549621_3f5035986c_n.jpg",
    "id_album": "1613540653",
    "description": "Space_882497",
    "title": "Space_882497",
    "link_img": "https://live.staticflickr.com/65535/50040549621_79ff5d853c_o.jpg",
    "id_image": "Space_882497",
    "count_view": 0
  },
  {
    "link_thumb": "https://live.staticflickr.com/65535/50040804782_eb63c005d1_n.jpg",
    "id_album": "1613540653",
    "description": "Space_786790",
    "title": "Space_786790",
    "link_img": "https://live.staticflickr.com/65535/50040804782_d44aff73db_o.jpg",
    "id_image": "Space_786790",
    "count_view": 0
  },
  {
    "link_thumb": "https://live.staticflickr.com/65535/50039772273_41c9710e63_n.jpg",
    "id_album": "779690680",
    "description": "Robot_489388",
    "title": "Robot_489388",
    "link_img": "https://live.staticflickr.com/65535/50039772273_fe204afb37_o.jpg",
    "id_image": "Robot_489388",
    "count_view": 0
  },
  {
    "link_thumb": "https://live.staticflickr.com/65535/50040800632_3584066838_n.jpg",
    "id_album": "1613540653",
    "description": "Space_746369",
    "title": "Space_746369",
    "link_img": "https://live.staticflickr.com/65535/50040800632_c58c49e58b_o.jpg",
    "id_image": "Space_746369",
    "count_view": 0
  },
  {
    "link_thumb": "https://live.staticflickr.com/65535/50040408916_08f1c5070b_n.jpg",
    "id_album": "779690680",
    "description": "Robot_911878",
    "title": "Robot_911878",
    "link_img": "https://live.staticflickr.com/65535/50040408916_3924bc84be_o.jpg",
    "id_image": "Robot_911878",
    "count_view": 0
  },
  {
    "link_thumb": "https://live.staticflickr.com/65535/50039145573_da6f6d7c46_n.jpg",
    "id_album": "1402713104",
    "description": "Landscape_559164",
    "title": "Landscape_559164",
    "link_img": "https://live.staticflickr.com/65535/50039145573_a4e8912a56_o.jpg",
    "id_image": "Landscape_559164",
    "count_view": 0
  },
  {
    "link_thumb": "https://live.staticflickr.com/65535/50041511462_6c8bb61078_n.jpg",
    "id_album": "-1863373220",
    "description": "StarWars_980509",
    "title": "StarWars_980509",
    "link_img": "https://live.staticflickr.com/65535/50041511462_fe15241df1_o.jpg",
    "id_image": "StarWars_980509",
    "count_view": 0
  },
  {
    "link_thumb": "https://live.staticflickr.com/65535/50039739407_c6aaa83ccf_n.jpg",
    "id_album": "-1964113117",
    "description": "City_546232",
    "title": "City_546232",
    "link_img": "https://live.staticflickr.com/65535/50039739407_fdd3fce766_o.jpg",
    "id_image": "City_546232",
    "count_view": 0
  },
  {
    "link_thumb": "https://live.staticflickr.com/65535/50038898548_8bda79f26a_n.jpg",
    "id_album": "-1964113117",
    "description": "City_214317",
    "title": "City_214317",
    "link_img": "https://live.staticflickr.com/65535/50038898548_b078064e7f_o.jpg",
    "id_image": "City_214317",
    "count_view": 0
  },
  {
    "link_thumb": "https://live.staticflickr.com/65535/50039218748_7083f63e31_n.jpg",
    "id_album": "-1610342324",
    "description": "Nebula_202551",
    "title": "Nebula_202551",
    "link_img": "https://live.staticflickr.com/65535/50039218748_5e3193d18e_o.jpg",
    "id_image": "Nebula_202551",
    "count_view": 0
  },
  {
    "link_thumb": "https://live.staticflickr.com/65535/50041495786_1bb1786ed0_n.jpg",
    "id_album": "-1261420436",
    "description": "Warrior_955774",
    "title": "Warrior_955774",
    "link_img": "https://live.staticflickr.com/65535/50041495786_6229111aca_o.jpg",
    "id_image": "Warrior_955774",
    "count_view": 0
  },
  {
    "link_thumb": "https://live.staticflickr.com/65535/50040655997_737e3286e7_n.jpg",
    "id_album": "779690680",
    "description": "Robot_883159",
    "title": "Robot_883159",
    "link_img": "https://live.staticflickr.com/65535/50040655997_6f73399a42_o.jpg",
    "id_image": "Robot_883159",
    "count_view": 0
  },
  {
    "link_thumb": "https://live.staticflickr.com/65535/50040540397_4d1e023f64_n.jpg",
    "id_album": "779690680",
    "description": "Robot_262602",
    "title": "Robot_262602",
    "link_img": "https://live.staticflickr.com/65535/50040540397_9b79f87e82_o.jpg",
    "id_image": "Robot_262602",
    "count_view": 0
  },
  {
    "link_thumb": "https://live.staticflickr.com/65535/50039271391_17aa0ba07b_n.jpg",
    "id_album": "849020728",
    "description": "Alien_599877",
    "title": "Alien_599877",
    "link_img": "https://live.staticflickr.com/65535/50039271391_2e6a81543e_o.jpg",
    "id_image": "Alien_599877",
    "count_view": 0
  },
  {
    "link_thumb": "https://live.staticflickr.com/65535/50040556351_14a6b22076_n.jpg",
    "id_album": "-1532370292",
    "description": "SpaceStation_1007078",
    "title": "SpaceStation_1007078",
    "link_img": "https://live.staticflickr.com/65535/50040556351_241aec1500_o.jpg",
    "id_image": "SpaceStation_1007078",
    "count_view": 0
  },
  {
    "link_thumb": "https://live.staticflickr.com/65535/50040742373_33519262c6_n.jpg",
    "id_album": "1267121215",
    "description": "Steampunk_190420",
    "title": "Steampunk_190420",
    "link_img": "https://live.staticflickr.com/65535/50040742373_bf849cc205_o.jpg",
    "id_image": "Steampunk_190420",
    "count_view": 0
  },
  {
    "link_thumb": "https://live.staticflickr.com/65535/50039779547_3e004bce36_n.jpg",
    "id_album": "-1964113117",
    "description": "City_906131",
    "title": "City_906131",
    "link_img": "https://live.staticflickr.com/65535/50039779547_c2e3bbaf2b_o.jpg",
    "id_image": "City_906131",
    "count_view": 0
  },
  {
    "link_thumb": "https://live.staticflickr.com/65535/50039553937_014fe9c47c_n.jpg",
    "id_album": "523598895",
    "description": "Artistic_106052",
    "title": "Artistic_106052",
    "link_img": "https://live.staticflickr.com/65535/50039553937_d699180bd4_o.jpg",
    "id_image": "Artistic_106052",
    "count_view": 0
  },
  {
    "link_thumb": "https://live.staticflickr.com/65535/50039502982_89e07033b2_n.jpg",
    "id_album": "-406145265",
    "description": "Aircraft_530108",
    "title": "Aircraft_530108",
    "link_img": "https://live.staticflickr.com/65535/50039502982_65bc5347df_o.jpg",
    "id_image": "Aircraft_530108",
    "count_view": 0
  },
  {
    "link_thumb": "https://live.staticflickr.com/65535/50039572817_6a64c0b2f0_n.jpg",
    "id_album": "523598895",
    "description": "Artistic_199917",
    "title": "Artistic_199917",
    "link_img": "https://live.staticflickr.com/65535/50039572817_fe40758c86_o.jpg",
    "id_image": "Artistic_199917",
    "count_view": 0
  },
  {
    "link_thumb": "https://live.staticflickr.com/65535/50039195418_c3bab08eec_n.jpg",
    "id_album": "-1388385651",
    "description": "MilkyWay_717707",
    "title": "MilkyWay_717707",
    "link_img": "https://live.staticflickr.com/65535/50039195418_f12dc3d3cf_o.jpg",
    "id_image": "MilkyWay_717707",
    "count_view": 0
  },
  {
    "link_thumb": "https://live.staticflickr.com/65535/50039805786_5cb66b8608_n.jpg",
    "id_album": "-1610342324",
    "description": "Nebula_540818",
    "title": "Nebula_540818",
    "link_img": "https://live.staticflickr.com/65535/50039805786_32806514ec_o.jpg",
    "id_image": "Nebula_540818",
    "count_view": 0
  },
  {
    "link_thumb": "https://live.staticflickr.com/65535/50039554468_5ee380bc93_n.jpg",
    "id_album": "-1102314093",
    "description": "Planets_393588",
    "title": "Planets_393588",
    "link_img": "https://live.staticflickr.com/65535/50039554468_d5770ef1c8_o.jpg",
    "id_image": "Planets_393588",
    "count_view": 0
  },
  {
    "link_thumb": "https://live.staticflickr.com/65535/50039951792_6733306867_n.jpg",
    "id_album": "1402713104",
    "description": "Landscape_4283",
    "title": "Landscape_4283",
    "link_img": "https://live.staticflickr.com/65535/50039951792_a4ab39176a_o.jpg",
    "id_image": "Landscape_4283",
    "count_view": 0
  },
  {
    "link_thumb": "https://live.staticflickr.com/65535/50039299641_a11c6b6e40_n.jpg",
    "id_album": "523598895",
    "description": "Artistic_162949",
    "title": "Artistic_162949",
    "link_img": "https://live.staticflickr.com/65535/50039299641_265e6ce5b5_o.jpg",
    "id_image": "Artistic_162949",
    "count_view": 0
  },
  {
    "link_thumb": "https://live.staticflickr.com/65535/50038890258_327de88c48_n.jpg",
    "id_album": "-1964113117",
    "description": "City_174039",
    "title": "City_174039",
    "link_img": "https://live.staticflickr.com/65535/50038890258_4be1cbf04e_o.jpg",
    "id_image": "City_174039",
    "count_view": 0
  },
  {
    "link_thumb": "https://live.staticflickr.com/65535/50039782556_aa05965b37_n.jpg",
    "id_album": "-1610342324",
    "description": "Nebula_286807",
    "title": "Nebula_286807",
    "link_img": "https://live.staticflickr.com/65535/50039782556_1e4c596b0c_o.jpg",
    "id_image": "Nebula_286807",
    "count_view": 0
  },
  {
    "link_thumb": "https://live.staticflickr.com/65535/50039436968_a8deec4d50_n.jpg",
    "id_album": "395161030",
    "description": "Planet_956698",
    "title": "Planet_956698",
    "link_img": "https://live.staticflickr.com/65535/50039436968_a153609b8f_o.jpg",
    "id_image": "Planet_956698",
    "count_view": 0
  },
  {
    "link_thumb": "https://live.staticflickr.com/65535/50040132661_439ed44bb5_n.jpg",
    "id_album": "-1102314093",
    "description": "Planets_772054",
    "title": "Planets_772054",
    "link_img": "https://live.staticflickr.com/65535/50040132661_82baf3b5ee_o.jpg",
    "id_image": "Planets_772054",
    "count_view": 0
  },
  {
    "link_thumb": "https://live.staticflickr.com/65535/50040090656_487d49d8dc_n.jpg",
    "id_album": "-1102314093",
    "description": "Planets_348909",
    "title": "Planets_348909",
    "link_img": "https://live.staticflickr.com/65535/50040090656_bdfa171c2f_o.jpg",
    "id_image": "Planets_348909",
    "count_view": 0
  },
  {
    "link_thumb": "https://live.staticflickr.com/65535/50040213412_3028329437_n.jpg",
    "id_album": "395161030",
    "description": "Planet_423493",
    "title": "Planet_423493",
    "link_img": "https://live.staticflickr.com/65535/50040213412_7b03128819_o.jpg",
    "id_image": "Planet_423493",
    "count_view": 0
  },
  {
    "link_thumb": "https://live.staticflickr.com/65535/50039522887_57f54f1536_n.jpg",
    "id_album": "849020728",
    "description": "Alien_327579",
    "title": "Alien_327579",
    "link_img": "https://live.staticflickr.com/65535/50039522887_2dbd16f7ba_o.jpg",
    "id_image": "Alien_327579",
    "count_view": 0
  },
  {
    "link_thumb": "https://live.staticflickr.com/65535/50040042503_6e2433f607_n.jpg",
    "id_album": "2130067313",
    "description": "Spaceship_195156",
    "title": "Spaceship_195156",
    "link_img": "https://live.staticflickr.com/65535/50040042503_dc4f3bf7d9_o.jpg",
    "id_image": "Spaceship_195156",
    "count_view": 0
  },
  {
    "link_thumb": "https://live.staticflickr.com/65535/50039389223_a8b9b5bd2f_n.jpg",
    "id_album": "395161030",
    "description": "Planet_370819",
    "title": "Planet_370819",
    "link_img": "https://live.staticflickr.com/65535/50039389223_af2d83ac5b_o.jpg",
    "id_image": "Planet_370819",
    "count_view": 0
  },
  {
    "link_thumb": "https://live.staticflickr.com/65535/50040538706_74380bdbea_n.jpg",
    "id_album": "1613540653",
    "description": "Space_781842",
    "title": "Space_781842",
    "link_img": "https://live.staticflickr.com/65535/50040538706_2b2245d5b0_o.jpg",
    "id_image": "Space_781842",
    "count_view": 0
  },
  {
    "link_thumb": "https://live.staticflickr.com/65535/50038696698_4bfdbdacd8_n.jpg",
    "id_album": "849020728",
    "description": "Alien_108416",
    "title": "Alien_108416",
    "link_img": "https://live.staticflickr.com/65535/50038696698_203bc96eea_o.jpg",
    "id_image": "Alien_108416",
    "count_view": 0
  },
  {
    "link_thumb": "https://live.staticflickr.com/65535/50039639318_5636dbb9ec_n.jpg",
    "id_album": "-482547208",
    "description": "PostApocalyptic_153506",
    "title": "PostApocalyptic_153506",
    "link_img": "https://live.staticflickr.com/65535/50039639318_13f751e74e_o.jpg",
    "id_image": "PostApocalyptic_153506",
    "count_view": 0
  },
  {
    "link_thumb": "https://live.staticflickr.com/65535/50039885123_acd2480b65_n.jpg",
    "id_album": "779690680",
    "description": "Robot_944760",
    "title": "Robot_944760",
    "link_img": "https://live.staticflickr.com/65535/50039885123_8a17f70c9e_o.jpg",
    "id_image": "Robot_944760",
    "count_view": 0
  },
  {
    "link_thumb": "https://live.staticflickr.com/65535/50040848632_57937af14f_n.jpg",
    "id_album": "2130067313",
    "description": "Spaceship_169701",
    "title": "Spaceship_169701",
    "link_img": "https://live.staticflickr.com/65535/50040848632_ab79790e0f_o.jpg",
    "id_image": "Spaceship_169701",
    "count_view": 0
  },
  {
    "link_thumb": "https://live.staticflickr.com/65535/50039620276_f77af03c60_n.jpg",
    "id_album": "2104507156",
    "description": "Fantasy_260721",
    "title": "Fantasy_260721",
    "link_img": "https://live.staticflickr.com/65535/50039620276_cca5b1840f_o.jpg",
    "id_image": "Fantasy_260721",
    "count_view": 0
  },
  {
    "link_thumb": "https://live.staticflickr.com/65535/50040696693_08e8c87cf1_n.jpg",
    "id_album": "-1863373220",
    "description": "StarWars_980564",
    "title": "StarWars_980564",
    "link_img": "https://live.staticflickr.com/65535/50040696693_f839fe2d5a_o.jpg",
    "id_image": "StarWars_980564",
    "count_view": 0
  },
  {
    "link_thumb": "https://live.staticflickr.com/65535/50040093803_10c88dd68e_n.jpg",
    "id_album": "2130067313",
    "description": "Spaceship_317008",
    "title": "Spaceship_317008",
    "link_img": "https://live.staticflickr.com/65535/50040093803_3aea09940a_o.jpg",
    "id_image": "Spaceship_317008",
    "count_view": 0
  },
  {
    "link_thumb": "https://live.staticflickr.com/65535/50039404106_102959b8f9_n.jpg",
    "id_album": "1187037014",
    "description": "Battle_602070",
    "title": "Battle_602070",
    "link_img": "https://live.staticflickr.com/65535/50039404106_14c51a5dd0_o.jpg",
    "id_image": "Battle_602070",
    "count_view": 0
  },
  {
    "link_thumb": "https://live.staticflickr.com/65535/50039688583_c7fc22a7f6_n.jpg",
    "id_album": "-839602625",
    "description": "Predator_346984",
    "title": "Predator_346984",
    "link_img": "https://live.staticflickr.com/65535/50039688583_9294b3c330_o.jpg",
    "id_image": "Predator_346984",
    "count_view": 0
  },
  {
    "link_thumb": "https://live.staticflickr.com/65535/50040888238_62d05700f4_n.jpg",
    "id_album": "-1261420436",
    "description": "Warrior_280872",
    "title": "Warrior_280872",
    "link_img": "https://live.staticflickr.com/65535/50040888238_5bcfe9429d_o.jpg",
    "id_image": "Warrior_280872",
    "count_view": 0
  },
  {
    "link_thumb": "https://live.staticflickr.com/65535/50039411781_d46fc7b568_n.jpg",
    "id_album": "-1780971522",
    "description": "Biohazard_300087",
    "title": "Biohazard_300087",
    "link_img": "https://live.staticflickr.com/65535/50039411781_42fb0e37ca_o.jpg",
    "id_image": "Biohazard_300087",
    "count_view": 0
  },
  {
    "link_thumb": "https://live.staticflickr.com/65535/50039796997_a47cba9667_n.jpg",
    "id_album": "-1964113117",
    "description": "City_999564",
    "title": "City_999564",
    "link_img": "https://live.staticflickr.com/65535/50039796997_a3b6e3d71b_o.jpg",
    "id_image": "City_999564",
    "count_view": 0
  },
  {
    "link_thumb": "https://live.staticflickr.com/65535/50040301541_106e35beaa_n.jpg",
    "id_album": "779690680",
    "description": "Robot_396916",
    "title": "Robot_396916",
    "link_img": "https://live.staticflickr.com/65535/50040301541_d09ef59efe_o.jpg",
    "id_image": "Robot_396916",
    "count_view": 0
  },
  {
    "link_thumb": "https://live.staticflickr.com/65535/50038800258_c15c95bc3f_n.jpg",
    "id_album": "869545341",
    "description": "Astronaut_1009318",
    "title": "Astronaut_1009318",
    "link_img": "https://live.staticflickr.com/65535/50038800258_450d7089d2_o.jpg",
    "id_image": "Astronaut_1009318",
    "count_view": 0
  },
  {
    "link_thumb": "https://live.staticflickr.com/65535/50039942561_88fe41c5c0_n.jpg",
    "id_album": "395161030",
    "description": "Planet_379334",
    "title": "Planet_379334",
    "link_img": "https://live.staticflickr.com/65535/50039942561_bd725f56be_o.jpg",
    "id_image": "Planet_379334",
    "count_view": 0
  },
  {
    "link_thumb": "https://live.staticflickr.com/65535/50039757821_c0060d6c17_n.jpg",
    "id_album": "416351698",
    "description": "Moon_665843",
    "title": "Moon_665843",
    "link_img": "https://live.staticflickr.com/65535/50039757821_60130df15c_o.jpg",
    "id_image": "Moon_665843",
    "count_view": 0
  },
  {
    "link_thumb": "https://live.staticflickr.com/65535/50039746601_c819f18f43_n.jpg",
    "id_album": "-1388385651",
    "description": "MilkyWay_776540",
    "title": "MilkyWay_776540",
    "link_img": "https://live.staticflickr.com/65535/50039746601_56420024ca_o.jpg",
    "id_image": "MilkyWay_776540",
    "count_view": 0
  },
  {
    "link_thumb": "https://live.staticflickr.com/65535/50040564067_56d1bd1255_n.jpg",
    "id_album": "779690680",
    "description": "Robot_388640",
    "title": "Robot_388640",
    "link_img": "https://live.staticflickr.com/65535/50040564067_aa7182d2f8_o.jpg",
    "id_image": "Robot_388640",
    "count_view": 0
  },
  {
    "link_thumb": "https://live.staticflickr.com/65535/50040529007_90ec0874ed_n.jpg",
    "id_album": "779690680",
    "description": "Robot_20567",
    "title": "Robot_20567",
    "link_img": "https://live.staticflickr.com/65535/50040529007_d413658751_o.jpg",
    "id_image": "Robot_20567",
    "count_view": 0
  },
  {
    "link_thumb": "https://live.staticflickr.com/65535/50039642386_c6760a0e9c_n.jpg",
    "id_album": "1204249541",
    "description": "Galaxy_550539",
    "title": "Galaxy_550539",
    "link_img": "https://live.staticflickr.com/65535/50039642386_082ff644d4_o.jpg",
    "id_image": "Galaxy_550539",
    "count_view": 0
  },
  {
    "link_thumb": "https://live.staticflickr.com/65535/50039738322_bddb3b5f15_n.jpg",
    "id_album": "-1964113117",
    "description": "City_528294",
    "title": "City_528294",
    "link_img": "https://live.staticflickr.com/65535/50039738322_67e536853b_o.jpg",
    "id_image": "City_528294",
    "count_view": 0
  },
  {
    "link_thumb": "https://live.staticflickr.com/65535/50039464151_dfd718a764_n.jpg",
    "id_album": "-1964113117",
    "description": "City_335854",
    "title": "City_335854",
    "link_img": "https://live.staticflickr.com/65535/50039464151_bef6eaca92_o.jpg",
    "id_image": "City_335854",
    "count_view": 0
  },
  {
    "link_thumb": "https://live.staticflickr.com/65535/50039212978_4775243735_n.jpg",
    "id_album": "-1610342324",
    "description": "Nebula_113347",
    "title": "Nebula_113347",
    "link_img": "https://live.staticflickr.com/65535/50039212978_6439774838_o.jpg",
    "id_image": "Nebula_113347",
    "count_view": 0
  },
  {
    "link_thumb": "https://live.staticflickr.com/65535/50040183031_03fd437abd_n.jpg",
    "id_album": "376235057",
    "description": "Planetscape_870673",
    "title": "Planetscape_870673",
    "link_img": "https://live.staticflickr.com/65535/50040183031_d986d0b870_o.jpg",
    "id_image": "Planetscape_870673",
    "count_view": 0
  },
  {
    "link_thumb": "https://live.staticflickr.com/65535/50039010858_0017371fba_n.jpg",
    "id_album": "-437872736",
    "description": "Creature_894314",
    "title": "Creature_894314",
    "link_img": "https://live.staticflickr.com/65535/50039010858_bf2991dba7_o.jpg",
    "id_image": "Creature_894314",
    "count_view": 0
  },
  {
    "link_thumb": "https://live.staticflickr.com/65535/50039293898_e0349bc015_n.jpg",
    "id_album": "-1610342324",
    "description": "Nebula_841902",
    "title": "Nebula_841902",
    "link_img": "https://live.staticflickr.com/65535/50039293898_dea4026b24_o.jpg",
    "id_image": "Nebula_841902",
    "count_view": 0
  },
  {
    "link_thumb": "https://live.staticflickr.com/65535/50041594317_139af41c33_n.jpg",
    "id_album": "1267121215",
    "description": "Steampunk_852656",
    "title": "Steampunk_852656",
    "link_img": "https://live.staticflickr.com/65535/50041594317_56728458a8_o.jpg",
    "id_image": "Steampunk_852656",
    "count_view": 0
  },
  {
    "link_thumb": "https://live.staticflickr.com/65535/50039183803_4b66855098_n.jpg",
    "id_album": "-1388385651",
    "description": "MilkyWay_555449",
    "title": "MilkyWay_555449",
    "link_img": "https://live.staticflickr.com/65535/50039183803_26df7aec03_o.jpg",
    "id_image": "MilkyWay_555449",
    "count_view": 0
  },
  {
    "link_thumb": "https://live.staticflickr.com/65535/50039544041_bf6c1d93c9_n.jpg",
    "id_album": "894679094",
    "description": "Collision_870607",
    "title": "Collision_870607",
    "link_img": "https://live.staticflickr.com/65535/50039544041_087f54e613_o.jpg",
    "id_image": "Collision_870607",
    "count_view": 0
  },
  {
    "link_thumb": "https://live.staticflickr.com/65535/50040297296_fcee85bda0_n.jpg",
    "id_album": "779690680",
    "description": "Robot_372399",
    "title": "Robot_372399",
    "link_img": "https://live.staticflickr.com/65535/50040297296_7b642ddd1e_o.jpg",
    "id_image": "Robot_372399",
    "count_view": 0
  },
  {
    "link_thumb": "https://live.staticflickr.com/65535/50041413836_d334e04a81_n.jpg",
    "id_album": "2020068132",
    "description": "Vehicle_749561",
    "title": "Vehicle_749561",
    "link_img": "https://live.staticflickr.com/65535/50041413836_28c0c1f2a6_o.jpg",
    "id_image": "Vehicle_749561",
    "count_view": 0
  },
  {
    "link_thumb": "https://live.staticflickr.com/65535/50039456308_19774dd0b8_n.jpg",
    "id_album": "1443611160",
    "description": "PlanetRise_436449",
    "title": "PlanetRise_436449",
    "link_img": "https://live.staticflickr.com/65535/50039456308_9d090f5dd0_o.jpg",
    "id_image": "PlanetRise_436449",
    "count_view": 0
  },
  {
    "link_thumb": "https://live.staticflickr.com/65535/50039406901_922577001f_n.jpg",
    "id_album": "1187037014",
    "description": "Battle_793102",
    "title": "Battle_793102",
    "link_img": "https://live.staticflickr.com/65535/50039406901_a3b3d3cee0_o.jpg",
    "id_image": "Battle_793102",
    "count_view": 0
  },
  {
    "link_thumb": "https://live.staticflickr.com/65535/50041572327_7791a5c289_n.jpg",
    "id_album": "1267121215",
    "description": "Steampunk_264131",
    "title": "Steampunk_264131",
    "link_img": "https://live.staticflickr.com/65535/50041572327_b1f3491341_o.jpg",
    "id_image": "Steampunk_264131",
    "count_view": 0
  },
  {
    "link_thumb": "https://live.staticflickr.com/65535/50041385076_d526dcd4e3_n.jpg",
    "id_album": "2020068132",
    "description": "Vehicle_293064",
    "title": "Vehicle_293064",
    "link_img": "https://live.staticflickr.com/65535/50041385076_1de6f9a22e_o.jpg",
    "id_image": "Vehicle_293064",
    "count_view": 0
  },
  {
    "link_thumb": "https://live.staticflickr.com/65535/50039507062_e422f401e9_n.jpg",
    "id_album": "849020728",
    "description": "Alien_120337",
    "title": "Alien_120337",
    "link_img": "https://live.staticflickr.com/65535/50039507062_2051e8b2b5_o.jpg",
    "id_image": "Alien_120337",
    "count_view": 0
  },
  {
    "link_thumb": "https://live.staticflickr.com/65535/50039522738_f970330f92_n.jpg",
    "id_album": "-1102314093",
    "description": "Planets_280203",
    "title": "Planets_280203",
    "link_img": "https://live.staticflickr.com/65535/50039522738_0730d3563d_o.jpg",
    "id_image": "Planets_280203",
    "count_view": 0
  },
  {
    "link_thumb": "https://live.staticflickr.com/65535/50040144788_94c738a3e7_n.jpg",
    "id_album": "2130067313",
    "description": "Spaceship_446852",
    "title": "Spaceship_446852",
    "link_img": "https://live.staticflickr.com/65535/50040144788_b2d4564bbd_o.jpg",
    "id_image": "Spaceship_446852",
    "count_view": 0
  },
  {
    "link_thumb": "https://live.staticflickr.com/65535/50040000377_0eb0344f59_n.jpg",
    "id_album": "-1388385651",
    "description": "MilkyWay_606897",
    "title": "MilkyWay_606897",
    "link_img": "https://live.staticflickr.com/65535/50040000377_6514c3c9de_o.jpg",
    "id_image": "MilkyWay_606897",
    "count_view": 0
  },
  {
    "link_thumb": "https://live.staticflickr.com/65535/50039677751_57738f8333_n.jpg",
    "id_album": "1402713104",
    "description": "Landscape_330244",
    "title": "Landscape_330244",
    "link_img": "https://live.staticflickr.com/65535/50039677751_241bdb131d_o.jpg",
    "id_image": "Landscape_330244",
    "count_view": 0
  },
  {
    "link_thumb": "https://live.staticflickr.com/65535/50039409866_0ba63fa543_n.jpg",
    "id_album": "1187037014",
    "description": "Battle_957848",
    "title": "Battle_957848",
    "link_img": "https://live.staticflickr.com/65535/50039409866_0f027709e9_o.jpg",
    "id_image": "Battle_957848",
    "count_view": 0
  },
  {
    "link_thumb": "https://live.staticflickr.com/65535/50041502252_7167b75fc9_n.jpg",
    "id_album": "-1863373220",
    "description": "StarWars_904999",
    "title": "StarWars_904999",
    "link_img": "https://live.staticflickr.com/65535/50041502252_d1556d76df_o.jpg",
    "id_image": "StarWars_904999",
    "count_view": 0
  },
  {
    "link_thumb": "https://live.staticflickr.com/65535/50040485816_6b6fc2abe3_n.jpg",
    "id_album": "1613540653",
    "description": "Space_280026",
    "title": "Space_280026",
    "link_img": "https://live.staticflickr.com/65535/50040485816_8c4b667870_o.jpg",
    "id_image": "Space_280026",
    "count_view": 0
  },
  {
    "link_thumb": "https://live.staticflickr.com/65535/50039644902_82c057ffa1_n.jpg",
    "id_album": "869545341",
    "description": "Astronaut_931163",
    "title": "Astronaut_931163",
    "link_img": "https://live.staticflickr.com/65535/50039644902_c32ca24ed8_o.jpg",
    "id_image": "Astronaut_931163",
    "count_view": 0
  },
  {
    "link_thumb": "https://live.staticflickr.com/65535/50039779312_b22995b8f5_n.jpg",
    "id_album": "-1964113117",
    "description": "City_905533",
    "title": "City_905533",
    "link_img": "https://live.staticflickr.com/65535/50039779312_c4495c0c6e_o.jpg",
    "id_image": "City_905533",
    "count_view": 0
  },
  {
    "link_thumb": "https://live.staticflickr.com/65535/50040282971_1f4e7127c5_n.jpg",
    "id_album": "779690680",
    "description": "Robot_292396",
    "title": "Robot_292396",
    "link_img": "https://live.staticflickr.com/65535/50040282971_e878097de8_o.jpg",
    "id_image": "Robot_292396",
    "count_view": 0
  },
  {
    "link_thumb": "https://live.staticflickr.com/65535/50039894793_0f4c06a501_n.jpg",
    "id_album": "779690680",
    "description": "Robot_959318",
    "title": "Robot_959318",
    "link_img": "https://live.staticflickr.com/65535/50039894793_d1e579d2cd_o.jpg",
    "id_image": "Robot_959318",
    "count_view": 0
  },
  {
    "link_thumb": "https://live.staticflickr.com/65535/50040438656_79b2e3dce4_n.jpg",
    "id_album": "779690680",
    "description": "Robot_944754",
    "title": "Robot_944754",
    "link_img": "https://live.staticflickr.com/65535/50040438656_a009da3bbd_o.jpg",
    "id_image": "Robot_944754",
    "count_view": 0
  },
  {
    "link_thumb": "https://live.staticflickr.com/65535/50039922452_c599439ee5_n.jpg",
    "id_album": "1402713104",
    "description": "Landscape_113129",
    "title": "Landscape_113129",
    "link_img": "https://live.staticflickr.com/65535/50039922452_fb6029e928_o.jpg",
    "id_image": "Landscape_113129",
    "count_view": 0
  },
  {
    "link_thumb": "https://live.staticflickr.com/65535/50039827508_3836695fab_n.jpg",
    "id_album": "779690680",
    "description": "Robot_870411",
    "title": "Robot_870411",
    "link_img": "https://live.staticflickr.com/65535/50039827508_9b6014904f_o.jpg",
    "id_image": "Robot_870411",
    "count_view": 0
  },
  {
    "link_thumb": "https://live.staticflickr.com/65535/50039512691_d05eafa97d_n.jpg",
    "id_album": "-1964113117",
    "description": "City_884373",
    "title": "City_884373",
    "link_img": "https://live.staticflickr.com/65535/50039512691_d35fd2bf82_o.jpg",
    "id_image": "City_884373",
    "count_view": 0
  },
  {
    "link_thumb": "https://live.staticflickr.com/65535/50040050137_50a3453056_n.jpg",
    "id_album": "-1610342324",
    "description": "Nebula_314910",
    "title": "Nebula_314910",
    "link_img": "https://live.staticflickr.com/65535/50040050137_bb92c33810_o.jpg",
    "id_image": "Nebula_314910",
    "count_view": 0
  },
  {
    "link_thumb": "https://live.staticflickr.com/65535/50041187211_9c1a05b262_n.jpg",
    "id_album": "-1863373220",
    "description": "StarWars_497637",
    "title": "StarWars_497637",
    "link_img": "https://live.staticflickr.com/65535/50041187211_07b9832a9f_o.jpg",
    "id_image": "StarWars_497637",
    "count_view": 0
  },
  {
    "link_thumb": "https://live.staticflickr.com/65535/50039589338_24e8c06c73_n.jpg",
    "id_album": "-1102314093",
    "description": "Planets_82727",
    "title": "Planets_82727",
    "link_img": "https://live.staticflickr.com/65535/50039589338_0c179607bf_o.jpg",
    "id_image": "Planets_82727",
    "count_view": 0
  },
  {
    "link_thumb": "https://live.staticflickr.com/65535/50039730278_74eda11a41_n.jpg",
    "id_album": "779690680",
    "description": "Robot_291956",
    "title": "Robot_291956",
    "link_img": "https://live.staticflickr.com/65535/50039730278_4f854ed7fa_o.jpg",
    "id_image": "Robot_291956",
    "count_view": 0
  },
  {
    "link_thumb": "https://live.staticflickr.com/65535/50038895113_490604467c_n.jpg",
    "id_album": "-1964113117",
    "description": "City_205979",
    "title": "City_205979",
    "link_img": "https://live.staticflickr.com/65535/50038895113_7d433d8c6a_o.jpg",
    "id_image": "City_205979",
    "count_view": 0
  },
  {
    "link_thumb": "https://live.staticflickr.com/65535/50040728483_b52ce2efdb_n.jpg",
    "id_album": "-1587696329",
    "description": "Stars_84199",
    "title": "Stars_84199",
    "link_img": "https://live.staticflickr.com/65535/50040728483_4f5f5ea1f5_o.jpg",
    "id_image": "Stars_84199",
    "count_view": 0
  },
  {
    "link_thumb": "https://live.staticflickr.com/65535/50040499521_7c6569d350_n.jpg",
    "id_album": "1613540653",
    "description": "Space_354746",
    "title": "Space_354746",
    "link_img": "https://live.staticflickr.com/65535/50040499521_9189d61480_o.jpg",
    "id_image": "Space_354746",
    "count_view": 0
  },
  {
    "link_thumb": "https://live.staticflickr.com/65535/50040595643_9b21035576_n.jpg",
    "id_album": "-1863373220",
    "description": "StarWars_235021",
    "title": "StarWars_235021",
    "link_img": "https://live.staticflickr.com/65535/50040595643_60b68b4786_o.jpg",
    "id_image": "StarWars_235021",
    "count_view": 0
  },
  {
    "link_thumb": "https://live.staticflickr.com/65535/50039626691_9e9d8da910_n.jpg",
    "id_album": "1204249541",
    "description": "Galaxy_206132",
    "title": "Galaxy_206132",
    "link_img": "https://live.staticflickr.com/65535/50039626691_3425d2584f_o.jpg",
    "id_image": "Galaxy_206132",
    "count_view": 0
  },
  {
    "link_thumb": "https://live.staticflickr.com/65535/50040534327_86e49cbb1e_n.jpg",
    "id_album": "779690680",
    "description": "Robot_243468",
    "title": "Robot_243468",
    "link_img": "https://live.staticflickr.com/65535/50040534327_4232b5dd20_o.jpg",
    "id_image": "Robot_243468",
    "count_view": 0
  },
  {
    "link_thumb": "https://live.staticflickr.com/65535/50040650502_3ac428372d_n.jpg",
    "id_album": "779690680",
    "description": "Robot_875294",
    "title": "Robot_875294",
    "link_img": "https://live.staticflickr.com/65535/50040650502_cb88dd000c_o.jpg",
    "id_image": "Robot_875294",
    "count_view": 0
  },
  {
    "link_thumb": "https://live.staticflickr.com/65535/50041687137_4ca9be2055_n.jpg",
    "id_album": "2020068132",
    "description": "Vehicle_959156",
    "title": "Vehicle_959156",
    "link_img": "https://live.staticflickr.com/65535/50041687137_662ab85afd_o.jpg",
    "id_image": "Vehicle_959156",
    "count_view": 0
  },
  {
    "link_thumb": "https://live.staticflickr.com/65535/50039855068_0f2ee4cc11_n.jpg",
    "id_album": "779690680",
    "description": "Robot_911876",
    "title": "Robot_911876",
    "link_img": "https://live.staticflickr.com/65535/50039855068_eef4585773_o.jpg",
    "id_image": "Robot_911876",
    "count_view": 0
  },
  {
    "link_thumb": "https://live.staticflickr.com/65535/50040228152_d15999c0aa_n.jpg",
    "id_album": "395161030",
    "description": "Planet_559160",
    "title": "Planet_559160",
    "link_img": "https://live.staticflickr.com/65535/50040228152_52e8538be3_o.jpg",
    "id_image": "Planet_559160",
    "count_view": 0
  },
  {
    "link_thumb": "https://live.staticflickr.com/65535/50039352256_cfb8ff0a04_n.jpg",
    "id_album": "869545341",
    "description": "Astronaut_247116",
    "title": "Astronaut_247116",
    "link_img": "https://live.staticflickr.com/65535/50039352256_261f21f70f_o.jpg",
    "id_image": "Astronaut_247116",
    "count_view": 0
  },
  {
    "link_thumb": "https://live.staticflickr.com/65535/50039616693_ba804308e4_n.jpg",
    "id_album": "376235057",
    "description": "Planetscape_372285",
    "title": "Planetscape_372285",
    "link_img": "https://live.staticflickr.com/65535/50039616693_d8b865fa47_o.jpg",
    "id_image": "Planetscape_372285",
    "count_view": 0
  },
  {
    "link_thumb": "https://live.staticflickr.com/65535/50039219878_bed946ffee_n.jpg",
    "id_album": "-1610342324",
    "description": "Nebula_206199",
    "title": "Nebula_206199",
    "link_img": "https://live.staticflickr.com/65535/50039219878_8e85aea120_o.jpg",
    "id_image": "Nebula_206199",
    "count_view": 0
  },
  {
    "link_thumb": "https://live.staticflickr.com/65535/50039410941_27e0b117b3_n.jpg",
    "id_album": "-1780971522",
    "description": "Biohazard_189834",
    "title": "Biohazard_189834",
    "link_img": "https://live.staticflickr.com/65535/50039410941_11d852306e_o.jpg",
    "id_image": "Biohazard_189834",
    "count_view": 0
  },
  {
    "link_thumb": "https://live.staticflickr.com/65535/50040671337_a5ebc1ea95_n.jpg",
    "id_album": "779690680",
    "description": "Robot_910943",
    "title": "Robot_910943",
    "link_img": "https://live.staticflickr.com/65535/50040671337_66f3616f26_o.jpg",
    "id_image": "Robot_910943",
    "count_view": 0
  },
  {
    "link_thumb": "https://live.staticflickr.com/65535/50040666782_e3ba90eab9_n.jpg",
    "id_album": "779690680",
    "description": "Robot_906342",
    "title": "Robot_906342",
    "link_img": "https://live.staticflickr.com/65535/50040666782_b479e0cb5f_o.jpg",
    "id_image": "Robot_906342",
    "count_view": 0
  },
  {
    "link_thumb": "https://live.staticflickr.com/65535/50038911668_d1f8d28102_n.jpg",
    "id_album": "-1964113117",
    "description": "City_297913",
    "title": "City_297913",
    "link_img": "https://live.staticflickr.com/65535/50038911668_a1f12360f3_o.jpg",
    "id_image": "City_297913",
    "count_view": 0
  },
  {
    "link_thumb": "https://live.staticflickr.com/65535/50039886737_94af319445_n.jpg",
    "id_album": "1204249541",
    "description": "Galaxy_107614",
    "title": "Galaxy_107614",
    "link_img": "https://live.staticflickr.com/65535/50039886737_dfc9497c61_o.jpg",
    "id_image": "Galaxy_107614",
    "count_view": 0
  },
  {
    "link_thumb": "https://live.staticflickr.com/65535/50040208736_360dafac14_n.jpg",
    "id_album": "-482547208",
    "description": "PostApocalyptic_366242",
    "title": "PostApocalyptic_366242",
    "link_img": "https://live.staticflickr.com/65535/50040208736_03545d8e92_o.jpg",
    "id_image": "PostApocalyptic_366242",
    "count_view": 0
  },
  {
    "link_thumb": "https://live.staticflickr.com/65535/50039530577_796ed0aca4_n.jpg",
    "id_album": "849020728",
    "description": "Alien_512820",
    "title": "Alien_512820",
    "link_img": "https://live.staticflickr.com/65535/50039530577_d2143ed795_o.jpg",
    "id_image": "Alien_512820",
    "count_view": 0
  },
  {
    "link_thumb": "https://live.staticflickr.com/65535/50040014458_23bb36e9b4_n.jpg",
    "id_album": "2130067313",
    "description": "Spaceship_1004213",
    "title": "Spaceship_1004213",
    "link_img": "https://live.staticflickr.com/65535/50040014458_45e6f89b09_o.jpg",
    "id_image": "Spaceship_1004213",
    "count_view": 0
  },
  {
    "link_thumb": "https://live.staticflickr.com/65535/50039248726_17ab597e17_n.jpg",
    "id_album": "849020728",
    "description": "Alien_178710",
    "title": "Alien_178710",
    "link_img": "https://live.staticflickr.com/65535/50039248726_51fc613551_o.jpg",
    "id_image": "Alien_178710",
    "count_view": 0
  },
  {
    "link_thumb": "https://live.staticflickr.com/65535/50039617881_bf43412254_n.jpg",
    "id_album": "2104507156",
    "description": "Fantasy_177853",
    "title": "Fantasy_177853",
    "link_img": "https://live.staticflickr.com/65535/50039617881_b6fbebab5d_o.jpg",
    "id_image": "Fantasy_177853",
    "count_view": 0
  },
  {
    "link_thumb": "https://live.staticflickr.com/65535/50040048262_9c2bbe3de8_n.jpg",
    "id_album": "-1610342324",
    "description": "Nebula_301298",
    "title": "Nebula_301298",
    "link_img": "https://live.staticflickr.com/65535/50040048262_0833da0988_o.jpg",
    "id_image": "Nebula_301298",
    "count_view": 0
  },
  {
    "link_thumb": "https://live.staticflickr.com/65535/50039308946_919a93598c_n.jpg",
    "id_album": "523598895",
    "description": "Artistic_191526",
    "title": "Artistic_191526",
    "link_img": "https://live.staticflickr.com/65535/50039308946_f478a99abf_o.jpg",
    "id_image": "Artistic_191526",
    "count_view": 0
  },
  {
    "link_thumb": "https://live.staticflickr.com/65535/50041552641_4fe4c5682e_n.jpg",
    "id_album": "-1126835654",
    "description": "Women_981418",
    "title": "Women_981418",
    "link_img": "https://live.staticflickr.com/65535/50041552641_28700dc9a7_o.jpg",
    "id_image": "Women_981418",
    "count_view": 0
  },
  {
    "link_thumb": "https://live.staticflickr.com/65535/50039876902_34e1cda371_n.jpg",
    "id_album": "2104507156",
    "description": "Fantasy_151186",
    "title": "Fantasy_151186",
    "link_img": "https://live.staticflickr.com/65535/50039876902_8da3de3c24_o.jpg",
    "id_image": "Fantasy_151186",
    "count_view": 0
  },
  {
    "link_thumb": "https://live.staticflickr.com/65535/50038692368_3674ceda3a_n.jpg",
    "id_album": "-406145265",
    "description": "Aircraft_393220",
    "title": "Aircraft_393220",
    "link_img": "https://live.staticflickr.com/65535/50038692368_15bf957361_o.jpg",
    "id_image": "Aircraft_393220",
    "count_view": 0
  },
  {
    "link_thumb": "https://live.staticflickr.com/65535/50040188396_c951e8cf0a_n.jpg",
    "id_album": "-482547208",
    "description": "PostApocalyptic_106770",
    "title": "PostApocalyptic_106770",
    "link_img": "https://live.staticflickr.com/65535/50040188396_24a49a4bf9_o.jpg",
    "id_image": "PostApocalyptic_106770",
    "count_view": 0
  },
  {
    "link_thumb": "https://live.staticflickr.com/65535/50039029538_900c5caa3c_n.jpg",
    "id_album": "829169633",
    "description": "Cyborg_177109",
    "title": "Cyborg_177109",
    "link_img": "https://live.staticflickr.com/65535/50039029538_67cdaa4354_o.jpg",
    "id_image": "Cyborg_177109",
    "count_view": 0
  },
  {
    "link_thumb": "https://live.staticflickr.com/65535/50039892497_667b10148b_n.jpg",
    "id_album": "1204249541",
    "description": "Galaxy_286847",
    "title": "Galaxy_286847",
    "link_img": "https://live.staticflickr.com/65535/50039892497_82c94ce85a_o.jpg",
    "id_image": "Galaxy_286847",
    "count_view": 0
  },
  {
    "link_thumb": "https://live.staticflickr.com/65535/50041467746_b81b9d16cf_n.jpg",
    "id_album": "-1261420436",
    "description": "Warrior_540054",
    "title": "Warrior_540054",
    "link_img": "https://live.staticflickr.com/65535/50041467746_2a1d929b13_o.jpg",
    "id_image": "Warrior_540054",
    "count_view": 0
  },
  {
    "link_thumb": "https://live.staticflickr.com/65535/50040170521_8aca6ee29b_n.jpg",
    "id_album": "376235057",
    "description": "Planetscape_382469",
    "title": "Planetscape_382469",
    "link_img": "https://live.staticflickr.com/65535/50040170521_fd09351301_o.jpg",
    "id_image": "Planetscape_382469",
    "count_view": 0
  },
  {
    "link_thumb": "https://live.staticflickr.com/65535/50039546387_27d1e0dd8a_n.jpg",
    "id_album": "-419633230",
    "description": "Apocalyptic_528593",
    "title": "Apocalyptic_528593",
    "link_img": "https://live.staticflickr.com/65535/50039546387_972f664ae8_o.jpg",
    "id_image": "Apocalyptic_528593",
    "count_view": 0
  },
  {
    "link_thumb": "https://live.staticflickr.com/65535/50040113941_de221f7dac_n.jpg",
    "id_album": "-1102314093",
    "description": "Planets_426463",
    "title": "Planets_426463",
    "link_img": "https://live.staticflickr.com/65535/50040113941_b4b40559b3_o.jpg",
    "id_image": "Planets_426463",
    "count_view": 0
  },
  {
    "link_thumb": "https://live.staticflickr.com/65535/50041473512_8a75733432_n.jpg",
    "id_album": "-1863373220",
    "description": "StarWars_669727",
    "title": "StarWars_669727",
    "link_img": "https://live.staticflickr.com/65535/50041473512_8522dd3253_o.jpg",
    "id_image": "StarWars_669727",
    "count_view": 0
  },
  {
    "link_thumb": "https://live.staticflickr.com/65535/50041011077_a35a159901_n.jpg",
    "id_album": "2130067313",
    "description": "Spaceship_745689",
    "title": "Spaceship_745689",
    "link_img": "https://live.staticflickr.com/65535/50041011077_888bc9c8a2_o.jpg",
    "id_image": "Spaceship_745689",
    "count_view": 0
  },
  {
    "link_thumb": "https://live.staticflickr.com/65535/50041241001_5ed015b372_n.jpg",
    "id_album": "-1863373220",
    "description": "StarWars_914147",
    "title": "StarWars_914147",
    "link_img": "https://live.staticflickr.com/65535/50041241001_53c20cd84a_o.jpg",
    "id_image": "StarWars_914147",
    "count_view": 0
  },
  {
    "link_thumb": "https://live.staticflickr.com/65535/50039933897_c49bdddd1e_n.jpg",
    "id_album": "1402713104",
    "description": "Landscape_282801",
    "title": "Landscape_282801",
    "link_img": "https://live.staticflickr.com/65535/50039933897_3895b5cd45_o.jpg",
    "id_image": "Landscape_282801",
    "count_view": 0
  },
  {
    "link_thumb": "https://live.staticflickr.com/65535/50038769383_1c6692d5ac_n.jpg",
    "id_album": "523598895",
    "description": "Artistic_221528",
    "title": "Artistic_221528",
    "link_img": "https://live.staticflickr.com/65535/50038769383_924873195a_o.jpg",
    "id_image": "Artistic_221528",
    "count_view": 0
  },
  {
    "link_thumb": "https://live.staticflickr.com/65535/50039883861_c67c218c7f_n.jpg",
    "id_album": "-1862561193",
    "description": "Other_280887",
    "title": "Other_280887",
    "link_img": "https://live.staticflickr.com/65535/50039883861_8f408f04c9_o.jpg",
    "id_image": "Other_280887",
    "count_view": 0
  },
  {
    "link_thumb": "https://live.staticflickr.com/65535/50039310861_4be402a1ef_n.jpg",
    "id_album": "523598895",
    "description": "Artistic_199916",
    "title": "Artistic_199916",
    "link_img": "https://live.staticflickr.com/65535/50039310861_ed77a17ed7_o.jpg",
    "id_image": "Artistic_199916",
    "count_view": 0
  },
  {
    "link_thumb": "https://live.staticflickr.com/65535/50040543766_122e399caa_n.jpg",
    "id_album": "1613540653",
    "description": "Space_822474",
    "title": "Space_822474",
    "link_img": "https://live.staticflickr.com/65535/50040543766_04bfdc74f0_o.jpg",
    "id_image": "Space_822474",
    "count_view": 0
  },
  {
    "link_thumb": "https://live.staticflickr.com/65535/50039290251_e2fecbde54_n.jpg",
    "id_album": "-419633230",
    "description": "Apocalyptic_959087",
    "title": "Apocalyptic_959087",
    "link_img": "https://live.staticflickr.com/65535/50039290251_71fffb9a87_o.jpg",
    "id_image": "Apocalyptic_959087",
    "count_view": 0
  },
  {
    "link_thumb": "https://live.staticflickr.com/65535/50039888092_536979d6b2_n.jpg",
    "id_album": "1204249541",
    "description": "Galaxy_186284",
    "title": "Galaxy_186284",
    "link_img": "https://live.staticflickr.com/65535/50039888092_cfc8f91682_o.jpg",
    "id_image": "Galaxy_186284",
    "count_view": 0
  },
  {
    "link_thumb": "https://live.staticflickr.com/65535/50040925803_c0cbf7d138_n.jpg",
    "id_album": "-1261420436",
    "description": "Warrior_649049",
    "title": "Warrior_649049",
    "link_img": "https://live.staticflickr.com/65535/50040925803_2a06f15c00_o.jpg",
    "id_image": "Warrior_649049",
    "count_view": 0
  },
  {
    "link_thumb": "https://live.staticflickr.com/65535/50039088298_2ea2a010d2_n.jpg",
    "id_album": "1204249541",
    "description": "Galaxy_467027",
    "title": "Galaxy_467027",
    "link_img": "https://live.staticflickr.com/65535/50039088298_9226db0470_o.jpg",
    "id_image": "Galaxy_467027",
    "count_view": 0
  },
  {
    "link_thumb": "https://live.staticflickr.com/65535/50041422771_1b607aaf7a_n.jpg",
    "id_album": "2020068132",
    "description": "Vehicle_955936",
    "title": "Vehicle_955936",
    "link_img": "https://live.staticflickr.com/65535/50041422771_389dd09114_o.jpg",
    "id_image": "Vehicle_955936",
    "count_view": 0
  },
  {
    "link_thumb": "https://live.staticflickr.com/65535/50038940953_5f28c3c1e4_n.jpg",
    "id_album": "-1964113117",
    "description": "City_697301",
    "title": "City_697301",
    "link_img": "https://live.staticflickr.com/65535/50038940953_f3aa29361f_o.jpg",
    "id_image": "City_697301",
    "count_view": 0
  },
  {
    "link_thumb": "https://live.staticflickr.com/65535/50039930596_336c7b308f_n.jpg",
    "id_album": "395161030",
    "description": "Planet_343743",
    "title": "Planet_343743",
    "link_img": "https://live.staticflickr.com/65535/50039930596_e683d4a767_o.jpg",
    "id_image": "Planet_343743",
    "count_view": 0
  },
  {
    "link_thumb": "https://live.staticflickr.com/65535/50039903702_c142cd64a6_n.jpg",
    "id_album": "1204249541",
    "description": "Galaxy_540816",
    "title": "Galaxy_540816",
    "link_img": "https://live.staticflickr.com/65535/50039903702_dbba247f4c_o.jpg",
    "id_image": "Galaxy_540816",
    "count_view": 0
  },
  {
    "link_thumb": "https://live.staticflickr.com/65535/50039804676_93bbc5a417_n.jpg",
    "id_album": "-1610342324",
    "description": "Nebula_533752",
    "title": "Nebula_533752",
    "link_img": "https://live.staticflickr.com/65535/50039804676_c6edec128d_o.jpg",
    "id_image": "Nebula_533752",
    "count_view": 0
  },
  {
    "link_thumb": "https://live.staticflickr.com/65535/50040625123_f3b8035da6_n.jpg",
    "id_album": "-1863373220",
    "description": "StarWars_412935",
    "title": "StarWars_412935",
    "link_img": "https://live.staticflickr.com/65535/50040625123_e9d0a0485b_o.jpg",
    "id_image": "StarWars_412935",
    "count_view": 0
  },
  {
    "link_thumb": "https://live.staticflickr.com/65535/50040699522_ba23f77d12_n.jpg",
    "id_album": "779690680",
    "description": "Robot_940955",
    "title": "Robot_940955",
    "link_img": "https://live.staticflickr.com/65535/50040699522_1c5f8fda55_o.jpg",
    "id_image": "Robot_940955",
    "count_view": 0
  },
  {
    "link_thumb": "https://live.staticflickr.com/65535/50039505486_417670b1cf_n.jpg",
    "id_album": "-1964113117",
    "description": "City_862704",
    "title": "City_862704",
    "link_img": "https://live.staticflickr.com/65535/50039505486_9ca3973435_o.jpg",
    "id_image": "City_862704",
    "count_view": 0
  },
  {
    "link_thumb": "https://live.staticflickr.com/65535/50040651387_ce61f16aab_n.jpg",
    "id_album": "779690680",
    "description": "Robot_876313",
    "title": "Robot_876313",
    "link_img": "https://live.staticflickr.com/65535/50040651387_4828201572_o.jpg",
    "id_image": "Robot_876313",
    "count_view": 0
  },
  {
    "link_thumb": "https://live.staticflickr.com/65535/50040087357_9d3438747f_n.jpg",
    "id_album": "-1610342324",
    "description": "Nebula_702855",
    "title": "Nebula_702855",
    "link_img": "https://live.staticflickr.com/65535/50040087357_087383030c_o.jpg",
    "id_image": "Nebula_702855",
    "count_view": 0
  },
  {
    "link_thumb": "https://live.staticflickr.com/65535/50039224283_a049baf06b_n.jpg",
    "id_album": "-1610342324",
    "description": "Nebula_230466",
    "title": "Nebula_230466",
    "link_img": "https://live.staticflickr.com/65535/50039224283_320b095183_o.jpg",
    "id_image": "Nebula_230466",
    "count_view": 0
  },
  {
    "link_thumb": "https://live.staticflickr.com/65535/50039380016_437222e5f8_n.jpg",
    "id_album": "869545341",
    "description": "Astronaut_923968",
    "title": "Astronaut_923968",
    "link_img": "https://live.staticflickr.com/65535/50039380016_e60728d6fa_o.jpg",
    "id_image": "Astronaut_923968",
    "count_view": 0
  },
  {
    "link_thumb": "https://live.staticflickr.com/65535/50039947711_d942419482_n.jpg",
    "id_album": "395161030",
    "description": "Planet_416909",
    "title": "Planet_416909",
    "link_img": "https://live.staticflickr.com/65535/50039947711_b701dc54e5_o.jpg",
    "id_image": "Planet_416909",
    "count_view": 0
  },
  {
    "link_thumb": "https://live.staticflickr.com/65535/50039746893_dcedcf3e20_n.jpg",
    "id_album": "779690680",
    "description": "Robot_389488",
    "title": "Robot_389488",
    "link_img": "https://live.staticflickr.com/65535/50039746893_62a923e9cf_o.jpg",
    "id_image": "Robot_389488",
    "count_view": 0
  },
  {
    "link_thumb": "https://live.staticflickr.com/65535/50038814173_be2ed81301_n.jpg",
    "id_album": "869545341",
    "description": "Astronaut_675851",
    "title": "Astronaut_675851",
    "link_img": "https://live.staticflickr.com/65535/50038814173_3b82da9693_o.jpg",
    "id_image": "Astronaut_675851",
    "count_view": 0
  },
  {
    "link_thumb": "https://live.staticflickr.com/65535/50039318701_92fe2ba90d_n.jpg",
    "id_album": "523598895",
    "description": "Artistic_222730",
    "title": "Artistic_222730",
    "link_img": "https://live.staticflickr.com/65535/50039318701_df9f7e0c4a_o.jpg",
    "id_image": "Artistic_222730",
    "count_view": 0
  },
  {
    "link_thumb": "https://live.staticflickr.com/65535/50041427437_96371fdb94_n.jpg",
    "id_album": "-1863373220",
    "description": "StarWars_315718",
    "title": "StarWars_315718",
    "link_img": "https://live.staticflickr.com/65535/50041427437_a4e3ebb551_o.jpg",
    "id_image": "StarWars_315718",
    "count_view": 0
  },
  {
    "link_thumb": "https://live.staticflickr.com/65535/50040390431_032ef1442b_n.jpg",
    "id_album": "779690680",
    "description": "Robot_881753",
    "title": "Robot_881753",
    "link_img": "https://live.staticflickr.com/65535/50040390431_fcc4befd2e_o.jpg",
    "id_image": "Robot_881753",
    "count_view": 0
  },
  {
    "link_thumb": "https://live.staticflickr.com/65535/50040694203_32e9e48062_n.jpg",
    "id_album": "-1863373220",
    "description": "StarWars_980502",
    "title": "StarWars_980502",
    "link_img": "https://live.staticflickr.com/65535/50040694203_f3453b2d1c_o.jpg",
    "id_image": "StarWars_980502",
    "count_view": 0
  },
  {
    "link_thumb": "https://live.staticflickr.com/65535/50040158211_e75fb366fd_n.jpg",
    "id_album": "376235057",
    "description": "Planetscape_293366",
    "title": "Planetscape_293366",
    "link_img": "https://live.staticflickr.com/65535/50040158211_8a9d957901_o.jpg",
    "id_image": "Planetscape_293366",
    "count_view": 0
  },
  {
    "link_thumb": "https://live.staticflickr.com/65535/50039407316_9083c4cf32_n.jpg",
    "id_album": "1187037014",
    "description": "Battle_833535",
    "title": "Battle_833535",
    "link_img": "https://live.staticflickr.com/65535/50039407316_0736676ef1_o.jpg",
    "id_image": "Battle_833535",
    "count_view": 0
  },
  {
    "link_thumb": "https://live.staticflickr.com/65535/50039821258_71e6d41ec2_n.jpg",
    "id_album": "779690680",
    "description": "Robot_857288",
    "title": "Robot_857288",
    "link_img": "https://live.staticflickr.com/65535/50039821258_db8467512f_o.jpg",
    "id_image": "Robot_857288",
    "count_view": 0
  },
  {
    "link_thumb": "https://live.staticflickr.com/65535/50039543896_6d0e2144d0_n.jpg",
    "id_album": "894679094",
    "description": "Collision_864727",
    "title": "Collision_864727",
    "link_img": "https://live.staticflickr.com/65535/50039543896_f3063d1953_o.jpg",
    "id_image": "Collision_864727",
    "count_view": 0
  },
  {
    "link_thumb": "https://live.staticflickr.com/65535/50039769011_015201195a_n.jpg",
    "id_album": "-1610342324",
    "description": "Nebula_205884",
    "title": "Nebula_205884",
    "link_img": "https://live.staticflickr.com/65535/50039769011_fce77faeaf_o.jpg",
    "id_image": "Nebula_205884",
    "count_view": 0
  },
  {
    "link_thumb": "https://live.staticflickr.com/65535/50039359331_e461c03691_n.jpg",
    "id_album": "869545341",
    "description": "Astronaut_588608",
    "title": "Astronaut_588608",
    "link_img": "https://live.staticflickr.com/65535/50039359331_d54715e632_o.jpg",
    "id_image": "Astronaut_588608",
    "count_view": 0
  },
  {
    "link_thumb": "https://live.staticflickr.com/65535/50039864612_b7d52e0150_n.jpg",
    "id_album": "829169633",
    "description": "Cyborg_801520",
    "title": "Cyborg_801520",
    "link_img": "https://live.staticflickr.com/65535/50039864612_4f4befc70d_o.jpg",
    "id_image": "Cyborg_801520",
    "count_view": 0
  },
  {
    "link_thumb": "https://live.staticflickr.com/65535/50039402326_e2090342e5_n.jpg",
    "id_album": "1187037014",
    "description": "Battle_509019",
    "title": "Battle_509019",
    "link_img": "https://live.staticflickr.com/65535/50039402326_081ee78a69_o.jpg",
    "id_image": "Battle_509019",
    "count_view": 0
  },
  {
    "link_thumb": "https://live.staticflickr.com/65535/50040290748_830d5627fb_n.jpg",
    "id_album": "-1449720967",
    "description": "StarTrek_334105",
    "title": "StarTrek_334105",
    "link_img": "https://live.staticflickr.com/65535/50040290748_147f3e9e8a_o.jpg",
    "id_image": "StarTrek_334105",
    "count_view": 0
  },
  {
    "link_thumb": "https://live.staticflickr.com/65535/50039683917_bd3a02ee5d_n.jpg",
    "id_album": "406431601",
    "description": "Building_344266",
    "title": "Building_344266",
    "link_img": "https://live.staticflickr.com/65535/50039683917_9bb148289b_o.jpg",
    "id_image": "Building_344266",
    "count_view": 0
  },
  {
    "link_thumb": "https://live.staticflickr.com/65535/50039645047_b260e20d66_n.jpg",
    "id_album": "869545341",
    "description": "Astronaut_931830",
    "title": "Astronaut_931830",
    "link_img": "https://live.staticflickr.com/65535/50039645047_6a6378b1e4_o.jpg",
    "id_image": "Astronaut_931830",
    "count_view": 0
  },
  {
    "link_thumb": "https://live.staticflickr.com/65535/50041309121_602b0246e0_n.jpg",
    "id_album": "1267121215",
    "description": "Steampunk_258451",
    "title": "Steampunk_258451",
    "link_img": "https://live.staticflickr.com/65535/50041309121_48e6e2c6b6_o.jpg",
    "id_image": "Steampunk_258451",
    "count_view": 0
  },
  {
    "link_thumb": "https://live.staticflickr.com/65535/50039004508_ea7821afd2_n.jpg",
    "id_album": "-437872736",
    "description": "Creature_333367",
    "title": "Creature_333367",
    "link_img": "https://live.staticflickr.com/65535/50039004508_4210796a9f_o.jpg",
    "id_image": "Creature_333367",
    "count_view": 0
  },
  {
    "link_thumb": "https://live.staticflickr.com/65535/50039905047_e76c72a7b1_n.jpg",
    "id_album": "1204249541",
    "description": "Galaxy_549920",
    "title": "Galaxy_549920",
    "link_img": "https://live.staticflickr.com/65535/50039905047_ab886a458d_o.jpg",
    "id_image": "Galaxy_549920",
    "count_view": 0
  },
  {
    "link_thumb": "https://live.staticflickr.com/65535/50040363916_5fec4e7f5d_n.jpg",
    "id_album": "779690680",
    "description": "Robot_750349",
    "title": "Robot_750349",
    "link_img": "https://live.staticflickr.com/65535/50040363916_91b01c3b59_o.jpg",
    "id_image": "Robot_750349",
    "count_view": 0
  },
  {
    "link_thumb": "https://live.staticflickr.com/65535/50040861303_f43e52962e_n.jpg",
    "id_album": "2020068132",
    "description": "Vehicle_854208",
    "title": "Vehicle_854208",
    "link_img": "https://live.staticflickr.com/65535/50040861303_f5c44fdd3f_o.jpg",
    "id_image": "Vehicle_854208",
    "count_view": 0
  },
  {
    "link_thumb": "https://live.staticflickr.com/65535/50039828702_dbc34a72e4_n.jpg",
    "id_album": "-1372247677",
    "description": "Cyberpunk_920538",
    "title": "Cyberpunk_920538",
    "link_img": "https://live.staticflickr.com/65535/50039828702_29dd054236_o.jpg",
    "id_image": "Cyberpunk_920538",
    "count_view": 0
  },
  {
    "link_thumb": "https://live.staticflickr.com/65535/50039842023_9fd3c7ded1_n.jpg",
    "id_album": "779690680",
    "description": "Robot_887979",
    "title": "Robot_887979",
    "link_img": "https://live.staticflickr.com/65535/50039842023_01efc1a9c3_o.jpg",
    "id_image": "Robot_887979",
    "count_view": 0
  },
  {
    "link_thumb": "https://live.staticflickr.com/65535/50039276023_f0b3c88136_n.jpg",
    "id_album": "-1610342324",
    "description": "Nebula_706889",
    "title": "Nebula_706889",
    "link_img": "https://live.staticflickr.com/65535/50039276023_7512bc157b_o.jpg",
    "id_image": "Nebula_706889",
    "count_view": 0
  },
  {
    "link_thumb": "https://live.staticflickr.com/65535/50039701763_0947b50382_n.jpg",
    "id_album": "779690680",
    "description": "Robot_137393",
    "title": "Robot_137393",
    "link_img": "https://live.staticflickr.com/65535/50039701763_83b043ff1c_o.jpg",
    "id_image": "Robot_137393",
    "count_view": 0
  },
  {
    "link_thumb": "https://live.staticflickr.com/65535/50041535416_a57c74ca5e_n.jpg",
    "id_album": "-1126835654",
    "description": "Women_551687",
    "title": "Women_551687",
    "link_img": "https://live.staticflickr.com/65535/50041535416_74b7463c84_o.jpg",
    "id_image": "Women_551687",
    "count_view": 0
  },
  {
    "link_thumb": "https://live.staticflickr.com/65535/50039255341_5ae11220d5_n.jpg",
    "id_album": "849020728",
    "description": "Alien_234560",
    "title": "Alien_234560",
    "link_img": "https://live.staticflickr.com/65535/50039255341_a236aa9039_o.jpg",
    "id_image": "Alien_234560",
    "count_view": 0
  },
  {
    "link_thumb": "https://live.staticflickr.com/65535/50039847743_2a746f4090_n.jpg",
    "id_album": "779690680",
    "description": "Robot_902766",
    "title": "Robot_902766",
    "link_img": "https://live.staticflickr.com/65535/50039847743_51c54475a6_o.jpg",
    "id_image": "Robot_902766",
    "count_view": 0
  },
  {
    "link_thumb": "https://live.staticflickr.com/65535/50041035703_fa80d66784_n.jpg",
    "id_album": "-1675918237",
    "description": "WomenWarrior_882597",
    "title": "WomenWarrior_882597",
    "link_img": "https://live.staticflickr.com/65535/50041035703_5d286c510d_o.jpg",
    "id_image": "WomenWarrior_882597",
    "count_view": 0
  },
  {
    "link_thumb": "https://live.staticflickr.com/65535/50041642482_bee9538140_n.jpg",
    "id_album": "2020068132",
    "description": "Vehicle_259808",
    "title": "Vehicle_259808",
    "link_img": "https://live.staticflickr.com/65535/50041642482_5426af25d7_o.jpg",
    "id_image": "Vehicle_259808",
    "count_view": 0
  },
  {
    "link_thumb": "https://live.staticflickr.com/65535/50040674467_4b97d5fb52_n.jpg",
    "id_album": "779690680",
    "description": "Robot_913018",
    "title": "Robot_913018",
    "link_img": "https://live.staticflickr.com/65535/50040674467_bba9b163a0_o.jpg",
    "id_image": "Robot_913018",
    "count_view": 0
  },
  {
    "link_thumb": "https://live.staticflickr.com/65535/50040227387_60721d45f7_n.jpg",
    "id_album": "395161030",
    "description": "Planet_559142",
    "title": "Planet_559142",
    "link_img": "https://live.staticflickr.com/65535/50040227387_c4fd0eb29b_o.jpg",
    "id_image": "Planet_559142",
    "count_view": 0
  },
  {
    "link_thumb": "https://live.staticflickr.com/65535/50040094156_d59ea2a67e_n.jpg",
    "id_album": "-1102314093",
    "description": "Planets_353213",
    "title": "Planets_353213",
    "link_img": "https://live.staticflickr.com/65535/50040094156_9f06366b15_o.jpg",
    "id_image": "Planets_353213",
    "count_view": 0
  },
  {
    "link_thumb": "https://live.staticflickr.com/65535/50040266296_f4c7288674_n.jpg",
    "id_album": "779690680",
    "description": "Robot_219077",
    "title": "Robot_219077",
    "link_img": "https://live.staticflickr.com/65535/50040266296_b3d3a26b1c_o.jpg",
    "id_image": "Robot_219077",
    "count_view": 0
  },
  {
    "link_thumb": "https://live.staticflickr.com/65535/50040429636_784e0934e6_n.jpg",
    "id_album": "779690680",
    "description": "Robot_932189",
    "title": "Robot_932189",
    "link_img": "https://live.staticflickr.com/65535/50040429636_94cd6cd15e_o.jpg",
    "id_image": "Robot_932189",
    "count_view": 0
  },
  {
    "link_thumb": "https://live.staticflickr.com/65535/50039381796_dec156a8a0_n.jpg",
    "id_album": "869545341",
    "description": "Astronaut_925911",
    "title": "Astronaut_925911",
    "link_img": "https://live.staticflickr.com/65535/50039381796_cdbb76edff_o.jpg",
    "id_image": "Astronaut_925911",
    "count_view": 0
  },
  {
    "link_thumb": "https://live.staticflickr.com/65535/50039060758_5f9b461be8_n.jpg",
    "id_album": "651930207",
    "description": "Explosion_361783",
    "title": "Explosion_361783",
    "link_img": "https://live.staticflickr.com/65535/50039060758_09ee8fee81_o.jpg",
    "id_image": "Explosion_361783",
    "count_view": 0
  },
  {
    "link_thumb": "https://live.staticflickr.com/65535/50040508637_d01911c1d5_n.jpg",
    "id_album": "-839602625",
    "description": "Predator_489946",
    "title": "Predator_489946",
    "link_img": "https://live.staticflickr.com/65535/50040508637_35e6920c8f_o.jpg",
    "id_image": "Predator_489946",
    "count_view": 0
  },
  {
    "link_thumb": "https://live.staticflickr.com/65535/50039341476_86862e174e_n.jpg",
    "id_album": "523598895",
    "description": "Artistic_662938",
    "title": "Artistic_662938",
    "link_img": "https://live.staticflickr.com/65535/50039341476_64a8d1528c_o.jpg",
    "id_image": "Artistic_662938",
    "count_view": 0
  },
  {
    "link_thumb": "https://live.staticflickr.com/65535/50041557526_42c13be91d_n.jpg",
    "id_album": "-1675918237",
    "description": "WomenWarrior_186067",
    "title": "WomenWarrior_186067",
    "link_img": "https://live.staticflickr.com/65535/50041557526_7777f0c5f4_o.jpg",
    "id_image": "WomenWarrior_186067",
    "count_view": 0
  },
  {
    "link_thumb": "https://live.staticflickr.com/65535/50039565752_1e7cbabd47_n.jpg",
    "id_album": "523598895",
    "description": "Artistic_174836",
    "title": "Artistic_174836",
    "link_img": "https://live.staticflickr.com/65535/50039565752_228023ebce_o.jpg",
    "id_image": "Artistic_174836",
    "count_view": 0
  },
  {
    "link_thumb": "https://live.staticflickr.com/65535/50040744208_994bd91dd7_n.jpg",
    "id_album": "1267121215",
    "description": "Steampunk_199578",
    "title": "Steampunk_199578",
    "link_img": "https://live.staticflickr.com/65535/50040744208_f016845d28_o.jpg",
    "id_image": "Steampunk_199578",
    "count_view": 0
  },
  {
    "link_thumb": "https://live.staticflickr.com/65535/50040745673_4dd989279f_n.jpg",
    "id_album": "1267121215",
    "description": "Steampunk_209609",
    "title": "Steampunk_209609",
    "link_img": "https://live.staticflickr.com/65535/50040745673_522e84913b_o.jpg",
    "id_image": "Steampunk_209609",
    "count_view": 0
  },
  {
    "link_thumb": "https://live.staticflickr.com/65535/50041295486_4e59330704_n.jpg",
    "id_album": "1267121215",
    "description": "Steampunk_190407",
    "title": "Steampunk_190407",
    "link_img": "https://live.staticflickr.com/65535/50041295486_69c01222c7_o.jpg",
    "id_image": "Steampunk_190407",
    "count_view": 0
  },
  {
    "link_thumb": "https://live.staticflickr.com/65535/50039880203_1b1d3e64d3_n.jpg",
    "id_album": "779690680",
    "description": "Robot_938441",
    "title": "Robot_938441",
    "link_img": "https://live.staticflickr.com/65535/50039880203_8ff511f3bc_o.jpg",
    "id_image": "Robot_938441",
    "count_view": 0
  },
  {
    "link_thumb": "https://live.staticflickr.com/65535/50039876132_b8a5770877_n.jpg",
    "id_album": "651930207",
    "description": "Explosion_90498",
    "title": "Explosion_90498",
    "link_img": "https://live.staticflickr.com/65535/50039876132_4ceed72c00_o.jpg",
    "id_image": "Explosion_90498",
    "count_view": 0
  },
  {
    "link_thumb": "https://live.staticflickr.com/65535/50039701008_1a6114a6ab_n.jpg",
    "id_album": "779690680",
    "description": "Robot_11986",
    "title": "Robot_11986",
    "link_img": "https://live.staticflickr.com/65535/50039701008_e6d940a18b_o.jpg",
    "id_image": "Robot_11986",
    "count_view": 0
  },
  {
    "link_thumb": "https://live.staticflickr.com/65535/50039236171_05b3cb10f5_n.jpg",
    "id_album": "-406145265",
    "description": "Aircraft_269816",
    "title": "Aircraft_269816",
    "link_img": "https://live.staticflickr.com/65535/50039236171_0265b8cafc_o.jpg",
    "id_image": "Aircraft_269816",
    "count_view": 0
  },
  {
    "link_thumb": "https://live.staticflickr.com/65535/50040652307_1493fed9e4_n.jpg",
    "id_album": "779690680",
    "description": "Robot_877467",
    "title": "Robot_877467",
    "link_img": "https://live.staticflickr.com/65535/50040652307_2e47f6f612_o.jpg",
    "id_image": "Robot_877467",
    "count_view": 0
  },
  {
    "link_thumb": "https://live.staticflickr.com/65535/50038849178_815c514946_n.jpg",
    "id_album": "1187037014",
    "description": "Battle_242345",
    "title": "Battle_242345",
    "link_img": "https://live.staticflickr.com/65535/50038849178_76918dbdfe_o.jpg",
    "id_image": "Battle_242345",
    "count_view": 0
  },
  {
    "link_thumb": "https://live.staticflickr.com/65535/50040709158_03ef6e235a_n.jpg",
    "id_album": "-1587696329",
    "description": "Stars_333385",
    "title": "Stars_333385",
    "link_img": "https://live.staticflickr.com/65535/50040709158_eab6e0441c_o.jpg",
    "id_image": "Stars_333385",
    "count_view": 0
  },
  {
    "link_thumb": "https://live.staticflickr.com/65535/50039486741_f74b53b616_n.jpg",
    "id_album": "-1964113117",
    "description": "City_677173",
    "title": "City_677173",
    "link_img": "https://live.staticflickr.com/65535/50039486741_afd3a73d3e_o.jpg",
    "id_image": "City_677173",
    "count_view": 0
  },
  {
    "link_thumb": "https://live.staticflickr.com/65535/50039623467_199a891310_n.jpg",
    "id_album": "869545341",
    "description": "Astronaut_641238",
    "title": "Astronaut_641238",
    "link_img": "https://live.staticflickr.com/65535/50039623467_3499c059d6_o.jpg",
    "id_image": "Astronaut_641238",
    "count_view": 0
  },
  {
    "link_thumb": "https://live.staticflickr.com/65535/50039737176_83a85bdae1_n.jpg",
    "id_album": "-1388385651",
    "description": "MilkyWay_649639",
    "title": "MilkyWay_649639",
    "link_img": "https://live.staticflickr.com/65535/50039737176_f5f50ac319_o.jpg",
    "id_image": "MilkyWay_649639",
    "count_view": 0
  },
  {
    "link_thumb": "https://live.staticflickr.com/65535/50039649643_1ee4861fe7_n.jpg",
    "id_album": "-482547208",
    "description": "PostApocalyptic_245473",
    "title": "PostApocalyptic_245473",
    "link_img": "https://live.staticflickr.com/65535/50039649643_086397fb43_o.jpg",
    "id_image": "PostApocalyptic_245473",
    "count_view": 0
  },
  {
    "link_thumb": "https://live.staticflickr.com/65535/50041528832_28ccb471cb_n.jpg",
    "id_album": "-1587696329",
    "description": "Stars_407915",
    "title": "Stars_407915",
    "link_img": "https://live.staticflickr.com/65535/50041528832_50528599db_o.jpg",
    "id_image": "Stars_407915",
    "count_view": 0
  },
  {
    "link_thumb": "https://live.staticflickr.com/65535/50039905061_9805104031_n.jpg",
    "id_album": "395161030",
    "description": "Planet_140189",
    "title": "Planet_140189",
    "link_img": "https://live.staticflickr.com/65535/50039905061_12c871aa1c_o.jpg",
    "id_image": "Planet_140189",
    "count_view": 0
  },
  {
    "link_thumb": "https://live.staticflickr.com/65535/50040047826_166414075c_n.jpg",
    "id_album": "-1102314093",
    "description": "Planets_11371",
    "title": "Planets_11371",
    "link_img": "https://live.staticflickr.com/65535/50040047826_ce6815279a_o.jpg",
    "id_image": "Planets_11371",
    "count_view": 0
  },
  {
    "link_thumb": "https://live.staticflickr.com/65535/50039989598_b42d60fb95_n.jpg",
    "id_album": "1613540653",
    "description": "Space_822480",
    "title": "Space_822480",
    "link_img": "https://live.staticflickr.com/65535/50039989598_81164bc11d_o.jpg",
    "id_image": "Space_822480",
    "count_view": 0
  },
  {
    "link_thumb": "https://live.staticflickr.com/65535/50039544973_f399c24af8_n.jpg",
    "id_album": "-1102314093",
    "description": "Planets_355966",
    "title": "Planets_355966",
    "link_img": "https://live.staticflickr.com/65535/50039544973_66d048a308_o.jpg",
    "id_image": "Planets_355966",
    "count_view": 0
  },
  {
    "link_thumb": "https://live.staticflickr.com/65535/50041282851_33c2dae988_n.jpg",
    "id_album": "-1587696329",
    "description": "Stars_80996",
    "title": "Stars_80996",
    "link_img": "https://live.staticflickr.com/65535/50041282851_c449ce5833_o.jpg",
    "id_image": "Stars_80996",
    "count_view": 0
  },
  {
    "link_thumb": "https://live.staticflickr.com/65535/50039148938_baf4a72767_n.jpg",
    "id_album": "1402713104",
    "description": "Landscape_662791",
    "title": "Landscape_662791",
    "link_img": "https://live.staticflickr.com/65535/50039148938_70f2509b67_o.jpg",
    "id_image": "Landscape_662791",
    "count_view": 0
  },
  {
    "link_thumb": "https://live.staticflickr.com/65535/50039311356_ef8c8ef497_n.jpg",
    "id_album": "523598895",
    "description": "Artistic_202134",
    "title": "Artistic_202134",
    "link_img": "https://live.staticflickr.com/65535/50039311356_194028fe1b_o.jpg",
    "id_image": "Artistic_202134",
    "count_view": 0
  },
  {
    "link_thumb": "https://live.staticflickr.com/65535/50039119713_b17e78a7d7_n.jpg",
    "id_album": "1402713104",
    "description": "Landscape_270108",
    "title": "Landscape_270108",
    "link_img": "https://live.staticflickr.com/65535/50039119713_b35dc33397_o.jpg",
    "id_image": "Landscape_270108",
    "count_view": 0
  },
  {
    "link_thumb": "https://live.staticflickr.com/65535/50038990508_d4c0a4876a_n.jpg",
    "id_album": "894679094",
    "description": "Collision_291861",
    "title": "Collision_291861",
    "link_img": "https://live.staticflickr.com/65535/50038990508_b59242dbff_o.jpg",
    "id_image": "Collision_291861",
    "count_view": 0
  },
  {
    "link_thumb": "https://live.staticflickr.com/65535/50039313813_265741ff50_n.jpg",
    "id_album": "-1862561193",
    "description": "Other_188911",
    "title": "Other_188911",
    "link_img": "https://live.staticflickr.com/65535/50039313813_3fa28acdb6_o.jpg",
    "id_image": "Other_188911",
    "count_view": 0
  },
  {
    "link_thumb": "https://live.staticflickr.com/65535/50041508392_335589e86a_n.jpg",
    "id_album": "-1863373220",
    "description": "StarWars_962334",
    "title": "StarWars_962334",
    "link_img": "https://live.staticflickr.com/65535/50041508392_a8c2c4d8a3_o.jpg",
    "id_image": "StarWars_962334",
    "count_view": 0
  },
  {
    "link_thumb": "https://live.staticflickr.com/65535/50039247473_ca36d71f58_n.jpg",
    "id_album": "-1610342324",
    "description": "Nebula_440486",
    "title": "Nebula_440486",
    "link_img": "https://live.staticflickr.com/65535/50039247473_e53cc56381_o.jpg",
    "id_image": "Nebula_440486",
    "count_view": 0
  },
  {
    "link_thumb": "https://live.staticflickr.com/65535/50041524277_c24b229d14_n.jpg",
    "id_album": "-1587696329",
    "description": "Stars_268324",
    "title": "Stars_268324",
    "link_img": "https://live.staticflickr.com/65535/50041524277_40af40c21a_o.jpg",
    "id_image": "Stars_268324",
    "count_view": 0
  },
  {
    "link_thumb": "https://live.staticflickr.com/65535/50040485351_fe071685bc_n.jpg",
    "id_album": "1613540653",
    "description": "Space_279996",
    "title": "Space_279996",
    "link_img": "https://live.staticflickr.com/65535/50040485351_17569a6980_o.jpg",
    "id_image": "Space_279996",
    "count_view": 0
  },
  {
    "link_thumb": "https://live.staticflickr.com/65535/50040089972_493bf6190b_n.jpg",
    "id_album": "-1610342324",
    "description": "Nebula_726872",
    "title": "Nebula_726872",
    "link_img": "https://live.staticflickr.com/65535/50040089972_3e56455a2f_o.jpg",
    "id_image": "Nebula_726872",
    "count_view": 0
  },
  {
    "link_thumb": "https://live.staticflickr.com/65535/50040045552_e770681567_n.jpg",
    "id_album": "-1610342324",
    "description": "Nebula_286228",
    "title": "Nebula_286228",
    "link_img": "https://live.staticflickr.com/65535/50040045552_652daa8496_o.jpg",
    "id_image": "Nebula_286228",
    "count_view": 0
  },
  {
    "link_thumb": "https://live.staticflickr.com/65535/50040244521_9b9bbf6fb6_n.jpg",
    "id_album": "-839602625",
    "description": "Predator_492471",
    "title": "Predator_492471",
    "link_img": "https://live.staticflickr.com/65535/50040244521_04c8e14e2f_o.jpg",
    "id_image": "Predator_492471",
    "count_view": 0
  },
  {
    "link_thumb": "https://live.staticflickr.com/65535/50038760848_65846f8241_n.jpg",
    "id_album": "523598895",
    "description": "Artistic_189554",
    "title": "Artistic_189554",
    "link_img": "https://live.staticflickr.com/65535/50038760848_e50fde9a45_o.jpg",
    "id_image": "Artistic_189554",
    "count_view": 0
  },
  {
    "link_thumb": "https://live.staticflickr.com/65535/50040425491_5f6449827a_n.jpg",
    "id_album": "779690680",
    "description": "Robot_928639",
    "title": "Robot_928639",
    "link_img": "https://live.staticflickr.com/65535/50040425491_08fbc1b27f_o.jpg",
    "id_image": "Robot_928639",
    "count_view": 0
  },
  {
    "link_thumb": "https://live.staticflickr.com/65535/50039660096_6b29c75710_n.jpg",
    "id_album": "1402713104",
    "description": "Landscape_121896",
    "title": "Landscape_121896",
    "link_img": "https://live.staticflickr.com/65535/50039660096_582a5837ee_o.jpg",
    "id_image": "Landscape_121896",
    "count_view": 0
  },
  {
    "link_thumb": "https://live.staticflickr.com/65535/50039789722_7cce967f17_n.jpg",
    "id_album": "-1964113117",
    "description": "City_958305",
    "title": "City_958305",
    "link_img": "https://live.staticflickr.com/65535/50039789722_6a3592cc65_o.jpg",
    "id_image": "City_958305",
    "count_view": 0
  }
]