[
  {
    "link_thumb": "https://live.staticflickr.com/65535/50039957092_567d333c60_n.jpg",
    "id_album": "1402713104",
    "description": "Landscape_553026",
    "title": "Landscape_553026",
    "link_img": "https://live.staticflickr.com/65535/50039957092_0f700ff7bf_o.jpg",
    "id_image": "Landscape_553026",
    "count_view": 0
  },
  {
    "link_thumb": "https://live.staticflickr.com/65535/50039350968_95fbe45329_n.jpg",
    "id_album": "395161030",
    "description": "Planet_1003035",
    "title": "Planet_1003035",
    "link_img": "https://live.staticflickr.com/65535/50039350968_064a32d958_o.jpg",
    "id_image": "Planet_1003035",
    "count_view": 0
  },
  {
    "link_thumb": "https://live.staticflickr.com/65535/50040098817_bcdbb98d8b_n.jpg",
    "id_album": "-1610342324",
    "description": "Nebula_77311",
    "title": "Nebula_77311",
    "link_img": "https://live.staticflickr.com/65535/50040098817_c9a131e319_o.jpg",
    "id_image": "Nebula_77311",
    "count_view": 0
  },
  {
    "link_thumb": "https://live.staticflickr.com/65535/50041535416_a57c74ca5e_n.jpg",
    "id_album": "-1126835654",
    "description": "Women_551687",
    "title": "Women_551687",
    "link_img": "https://live.staticflickr.com/65535/50041535416_74b7463c84_o.jpg",
    "id_image": "Women_551687",
    "count_view": 0
  },
  {
    "link_thumb": "https://live.staticflickr.com/65535/50038688558_5fab51a413_n.jpg",
    "id_album": "-406145265",
    "description": "Aircraft_269313",
    "title": "Aircraft_269313",
    "link_img": "https://live.staticflickr.com/65535/50038688558_b0b0dd0107_o.jpg",
    "id_image": "Aircraft_269313",
    "count_view": 0
  },
  {
    "link_thumb": "https://live.staticflickr.com/65535/50039851523_712b030e2e_n.jpg",
    "id_album": "779690680",
    "description": "Robot_907941",
    "title": "Robot_907941",
    "link_img": "https://live.staticflickr.com/65535/50039851523_ca7ba091f2_o.jpg",
    "id_image": "Robot_907941",
    "count_view": 0
  },
  {
    "link_thumb": "https://live.staticflickr.com/65535/50039562348_c0f5b6916a_n.jpg",
    "id_album": "-1102314093",
    "description": "Planets_419640",
    "title": "Planets_419640",
    "link_img": "https://live.staticflickr.com/65535/50039562348_13c2841bc8_o.jpg",
    "id_image": "Planets_419640",
    "count_view": 0
  },
  {
    "link_thumb": "https://live.staticflickr.com/65535/50039703068_b81521f01d_n.jpg",
    "id_album": "779690680",
    "description": "Robot_152156",
    "title": "Robot_152156",
    "link_img": "https://live.staticflickr.com/65535/50039703068_ba76896543_o.jpg",
    "id_image": "Robot_152156",
    "count_view": 0
  },
  {
    "link_thumb": "https://live.staticflickr.com/65535/50039837506_b04f773966_n.jpg",
    "id_album": "-1610342324",
    "description": "Nebula_792646",
    "title": "Nebula_792646",
    "link_img": "https://live.staticflickr.com/65535/50039837506_63d4131d9d_o.jpg",
    "id_image": "Nebula_792646",
    "count_view": 0
  },
  {
    "link_thumb": "https://live.staticflickr.com/65535/50039587687_0180ce96bf_n.jpg",
    "id_album": "523598895",
    "description": "Artistic_268293",
    "title": "Artistic_268293",
    "link_img": "https://live.staticflickr.com/65535/50039587687_96342d4d9a_o.jpg",
    "id_image": "Artistic_268293",
    "count_view": 0
  },
  {
    "link_thumb": "https://live.staticflickr.com/65535/50039889732_c64aa2f89d_n.jpg",
    "id_album": "1204249541",
    "description": "Galaxy_221265",
    "title": "Galaxy_221265",
    "link_img": "https://live.staticflickr.com/65535/50039889732_9d679067ba_o.jpg",
    "id_image": "Galaxy_221265",
    "count_view": 0
  },
  {
    "link_thumb": "https://live.staticflickr.com/65535/50039818947_988c3e5e09_n.jpg",
    "id_album": "-437872736",
    "description": "Creature_488456",
    "title": "Creature_488456",
    "link_img": "https://live.staticflickr.com/65535/50039818947_eb21531874_o.jpg",
    "id_image": "Creature_488456",
    "count_view": 0
  },
  {
    "link_thumb": "https://live.staticflickr.com/65535/50039650796_d37e37063e_n.jpg",
    "id_album": "1204249541",
    "description": "Galaxy_689582",
    "title": "Galaxy_689582",
    "link_img": "https://live.staticflickr.com/65535/50039650796_c96b65353c_o.jpg",
    "id_image": "Galaxy_689582",
    "count_view": 0
  },
  {
    "link_thumb": "https://live.staticflickr.com/65535/50040111956_fe0c3e0b44_n.jpg",
    "id_album": "-1102314093",
    "description": "Planets_419632",
    "title": "Planets_419632",
    "link_img": "https://live.staticflickr.com/65535/50040111956_cafae3f439_o.jpg",
    "id_image": "Planets_419632",
    "count_view": 0
  },
  {
    "link_thumb": "https://live.staticflickr.com/65535/50039286931_1553707b50_n.jpg",
    "id_album": "-419633230",
    "description": "Apocalyptic_711999",
    "title": "Apocalyptic_711999",
    "link_img": "https://live.staticflickr.com/65535/50039286931_94e9a435a6_o.jpg",
    "id_image": "Apocalyptic_711999",
    "count_view": 0
  },
  {
    "link_thumb": "https://live.staticflickr.com/65535/50040353661_7a7b63d4a3_n.jpg",
    "id_album": "779690680",
    "description": "Robot_658830",
    "title": "Robot_658830",
    "link_img": "https://live.staticflickr.com/65535/50040353661_c603f441f9_o.jpg",
    "id_image": "Robot_658830",
    "count_view": 0
  },
  {
    "link_thumb": "https://live.staticflickr.com/65535/50039000558_56c14c35eb_n.jpg",
    "id_album": "-437872736",
    "description": "Creature_289945",
    "title": "Creature_289945",
    "link_img": "https://live.staticflickr.com/65535/50039000558_13521c72ba_o.jpg",
    "id_image": "Creature_289945",
    "count_view": 0
  },
  {
    "link_thumb": "https://live.staticflickr.com/65535/50039640801_8073035636_n.jpg",
    "id_album": "1204249541",
    "description": "Galaxy_542444",
    "title": "Galaxy_542444",
    "link_img": "https://live.staticflickr.com/65535/50039640801_cc37616150_o.jpg",
    "id_image": "Galaxy_542444",
    "count_view": 0
  },
  {
    "link_thumb": "https://live.staticflickr.com/65535/50039037173_450d73660f_n.jpg",
    "id_album": "829169633",
    "description": "Cyborg_319696",
    "title": "Cyborg_319696",
    "link_img": "https://live.staticflickr.com/65535/50039037173_a9c5d4bf8d_o.jpg",
    "id_image": "Cyborg_319696",
    "count_view": 0
  },
  {
    "link_thumb": "https://live.staticflickr.com/65535/50039916776_055c509689_n.jpg",
    "id_album": "395161030",
    "description": "Planet_193395",
    "title": "Planet_193395",
    "link_img": "https://live.staticflickr.com/65535/50039916776_4927aaf8b8_o.jpg",
    "id_image": "Planet_193395",
    "count_view": 0
  },
  {
    "link_thumb": "https://live.staticflickr.com/65535/50041620177_835444a20e_n.jpg",
    "id_album": "-1177476763",
    "description": "Sunrise_201123",
    "title": "Sunrise_201123",
    "link_img": "https://live.staticflickr.com/65535/50041620177_38cae4512b_o.jpg",
    "id_image": "Sunrise_201123",
    "count_view": 0
  },
  {
    "link_thumb": "https://live.staticflickr.com/65535/50038836298_04dbd351b3_n.jpg",
    "id_album": "869545341",
    "description": "Astronaut_957394",
    "title": "Astronaut_957394",
    "link_img": "https://live.staticflickr.com/65535/50038836298_dda7a3be0c_o.jpg",
    "id_image": "Astronaut_957394",
    "count_view": 0
  },
  {
    "link_thumb": "https://live.staticflickr.com/65535/50039372793_78dd178761_n.jpg",
    "id_album": "395161030",
    "description": "Planet_282797",
    "title": "Planet_282797",
    "link_img": "https://live.staticflickr.com/65535/50039372793_1f8fd63ab4_o.jpg",
    "id_image": "Planet_282797",
    "count_view": 0
  },
  {
    "link_thumb": "https://live.staticflickr.com/65535/50039904512_13fd750bc0_n.jpg",
    "id_album": "1204249541",
    "description": "Galaxy_548006",
    "title": "Galaxy_548006",
    "link_img": "https://live.staticflickr.com/65535/50039904512_947481e8c7_o.jpg",
    "id_image": "Galaxy_548006",
    "count_view": 0
  },
  {
    "link_thumb": "https://live.staticflickr.com/65535/50039533847_50b512d823_n.jpg",
    "id_album": "849020728",
    "description": "Alien_601517",
    "title": "Alien_601517",
    "link_img": "https://live.staticflickr.com/65535/50039533847_5773e9b983_o.jpg",
    "id_image": "Alien_601517",
    "count_view": 0
  },
  {
    "link_thumb": "https://live.staticflickr.com/65535/50040118537_29269fa6cc_n.jpg",
    "id_album": "-1610342324",
    "description": "Nebula_924263",
    "title": "Nebula_924263",
    "link_img": "https://live.staticflickr.com/65535/50040118537_05a822bc55_o.jpg",
    "id_image": "Nebula_924263",
    "count_view": 0
  },
  {
    "link_thumb": "https://live.staticflickr.com/65535/50039536351_306e8efd4b_n.jpg",
    "id_album": "894679094",
    "description": "Collision_148874",
    "title": "Collision_148874",
    "link_img": "https://live.staticflickr.com/65535/50039536351_b2e99b111a_o.jpg",
    "id_image": "Collision_148874",
    "count_view": 0
  },
  {
    "link_thumb": "https://live.staticflickr.com/65535/50039617881_bf43412254_n.jpg",
    "id_album": "2104507156",
    "description": "Fantasy_177853",
    "title": "Fantasy_177853",
    "link_img": "https://live.staticflickr.com/65535/50039617881_b6fbebab5d_o.jpg",
    "id_image": "Fantasy_177853",
    "count_view": 0
  },
  {
    "link_thumb": "https://live.staticflickr.com/65535/50040423231_e0cce4fc3a_n.jpg",
    "id_album": "779690680",
    "description": "Robot_928580",
    "title": "Robot_928580",
    "link_img": "https://live.staticflickr.com/65535/50040423231_85c217f39e_o.jpg",
    "id_image": "Robot_928580",
    "count_view": 0
  },
  {
    "link_thumb": "https://live.staticflickr.com/65535/50040414831_c92cd4d2bb_n.jpg",
    "id_album": "779690680",
    "description": "Robot_917206",
    "title": "Robot_917206",
    "link_img": "https://live.staticflickr.com/65535/50040414831_df5b4d2287_o.jpg",
    "id_image": "Robot_917206",
    "count_view": 0
  },
  {
    "link_thumb": "https://live.staticflickr.com/65535/50040239696_78de1d087c_n.jpg",
    "id_album": "-839602625",
    "description": "Predator_309515",
    "title": "Predator_309515",
    "link_img": "https://live.staticflickr.com/65535/50040239696_4f944e67b2_o.jpg",
    "id_image": "Predator_309515",
    "count_view": 0
  },
  {
    "link_thumb": "https://live.staticflickr.com/65535/50040041717_7f1d611c8d_n.jpg",
    "id_album": "-1610342324",
    "description": "Nebula_258067",
    "title": "Nebula_258067",
    "link_img": "https://live.staticflickr.com/65535/50040041717_17a17487f4_o.jpg",
    "id_image": "Nebula_258067",
    "count_view": 0
  },
  {
    "link_thumb": "https://live.staticflickr.com/65535/50040098971_d785cd7344_n.jpg",
    "id_album": "-1102314093",
    "description": "Planets_363073",
    "title": "Planets_363073",
    "link_img": "https://live.staticflickr.com/65535/50040098971_e3e4af5715_o.jpg",
    "id_image": "Planets_363073",
    "count_view": 0
  },
  {
    "link_thumb": "https://live.staticflickr.com/65535/50040678167_2454d196c7_n.jpg",
    "id_album": "779690680",
    "description": "Robot_915580",
    "title": "Robot_915580",
    "link_img": "https://live.staticflickr.com/65535/50040678167_87f81c20f2_o.jpg",
    "id_image": "Robot_915580",
    "count_view": 0
  },
  {
    "link_thumb": "https://live.staticflickr.com/65535/50040525872_6fcb82711f_n.jpg",
    "id_album": "779690680",
    "description": "Robot_187163",
    "title": "Robot_187163",
    "link_img": "https://live.staticflickr.com/65535/50040525872_1c5f0711c6_o.jpg",
    "id_image": "Robot_187163",
    "count_view": 0
  },
  {
    "link_thumb": "https://live.staticflickr.com/65535/50040395652_040795f178_n.jpg",
    "id_album": "-1102314093",
    "description": "Planets_737709",
    "title": "Planets_737709",
    "link_img": "https://live.staticflickr.com/65535/50040395652_44f53c7234_o.jpg",
    "id_image": "Planets_737709",
    "count_view": 0
  },
  {
    "link_thumb": "https://live.staticflickr.com/65535/50039787696_29a7f0bc15_n.jpg",
    "id_album": "-1610342324",
    "description": "Nebula_363730",
    "title": "Nebula_363730",
    "link_img": "https://live.staticflickr.com/65535/50039787696_46fc81412d_o.jpg",
    "id_image": "Nebula_363730",
    "count_view": 0
  },
  {
    "link_thumb": "https://live.staticflickr.com/65535/50040890022_e09b7845a6_n.jpg",
    "id_album": "2130067313",
    "description": "Spaceship_284576",
    "title": "Spaceship_284576",
    "link_img": "https://live.staticflickr.com/65535/50040890022_31c67c1b8d_o.jpg",
    "id_image": "Spaceship_284576",
    "count_view": 0
  },
  {
    "link_thumb": "https://live.staticflickr.com/65535/50039904097_5f5201ab68_n.jpg",
    "id_album": "1204249541",
    "description": "Galaxy_542730",
    "title": "Galaxy_542730",
    "link_img": "https://live.staticflickr.com/65535/50039904097_7d7c320582_o.jpg",
    "id_image": "Galaxy_542730",
    "count_view": 0
  },
  {
    "link_thumb": "https://live.staticflickr.com/65535/50040164536_d778df13d8_n.jpg",
    "id_album": "376235057",
    "description": "Planetscape_355911",
    "title": "Planetscape_355911",
    "link_img": "https://live.staticflickr.com/65535/50040164536_374aa2ec4d_o.jpg",
    "id_image": "Planetscape_355911",
    "count_view": 0
  },
  {
    "link_thumb": "https://live.staticflickr.com/65535/50040541592_826c60b8a7_n.jpg",
    "id_album": "779690680",
    "description": "Robot_267556",
    "title": "Robot_267556",
    "link_img": "https://live.staticflickr.com/65535/50040541592_038682a85c_o.jpg",
    "id_image": "Robot_267556",
    "count_view": 0
  },
  {
    "link_thumb": "https://live.staticflickr.com/65535/50041244146_531497f7d5_n.jpg",
    "id_album": "-1863373220",
    "description": "StarWars_942817",
    "title": "StarWars_942817",
    "link_img": "https://live.staticflickr.com/65535/50041244146_d01baed035_o.jpg",
    "id_image": "StarWars_942817",
    "count_view": 0
  },
  {
    "link_thumb": "https://live.staticflickr.com/65535/50038879778_018990a8ea_n.jpg",
    "id_album": "406431601",
    "description": "Building_958301",
    "title": "Building_958301",
    "link_img": "https://live.staticflickr.com/65535/50038879778_8ca1f51139_o.jpg",
    "id_image": "Building_958301",
    "count_view": 0
  },
  {
    "link_thumb": "https://live.staticflickr.com/65535/50041248791_2e0a22919b_n.jpg",
    "id_album": "-1863373220",
    "description": "StarWars_980526",
    "title": "StarWars_980526",
    "link_img": "https://live.staticflickr.com/65535/50041248791_9cce4a1571_o.jpg",
    "id_image": "StarWars_980526",
    "count_view": 0
  },
  {
    "link_thumb": "https://live.staticflickr.com/65535/50039732496_51e3b6f7bb_n.jpg",
    "id_album": "-1388385651",
    "description": "MilkyWay_550058",
    "title": "MilkyWay_550058",
    "link_img": "https://live.staticflickr.com/65535/50039732496_7bacbfc362_o.jpg",
    "id_image": "MilkyWay_550058",
    "count_view": 0
  },
  {
    "link_thumb": "https://live.staticflickr.com/65535/50040191016_732a15bdcf_n.jpg",
    "id_album": "-482547208",
    "description": "PostApocalyptic_157308",
    "title": "PostApocalyptic_157308",
    "link_img": "https://live.staticflickr.com/65535/50040191016_a9f085f483_o.jpg",
    "id_image": "PostApocalyptic_157308",
    "count_view": 0
  },
  {
    "link_thumb": "https://live.staticflickr.com/65535/50040153903_a2e2dd3987_n.jpg",
    "id_album": "2130067313",
    "description": "Spaceship_528591",
    "title": "Spaceship_528591",
    "link_img": "https://live.staticflickr.com/65535/50040153903_1f0d5d8af9_o.jpg",
    "id_image": "Spaceship_528591",
    "count_view": 0
  },
  {
    "link_thumb": "https://live.staticflickr.com/65535/50039926978_c0fd6d5530_n.jpg",
    "id_album": "1613540653",
    "description": "Space_227839",
    "title": "Space_227839",
    "link_img": "https://live.staticflickr.com/65535/50039926978_6d01590ccd_o.jpg",
    "id_image": "Space_227839",
    "count_view": 0
  },
  {
    "link_thumb": "https://live.staticflickr.com/65535/50041281266_87d7ce22cd_n.jpg",
    "id_album": "-1587696329",
    "description": "Stars_737787",
    "title": "Stars_737787",
    "link_img": "https://live.staticflickr.com/65535/50041281266_652bc9bc4c_o.jpg",
    "id_image": "Stars_737787",
    "count_view": 0
  },
  {
    "link_thumb": "https://live.staticflickr.com/65535/50039809611_843324bb07_n.jpg",
    "id_album": "-1610342324",
    "description": "Nebula_555941",
    "title": "Nebula_555941",
    "link_img": "https://live.staticflickr.com/65535/50039809611_a391ed91d2_o.jpg",
    "id_image": "Nebula_555941",
    "count_view": 0
  },
  {
    "link_thumb": "https://live.staticflickr.com/65535/50039073328_d162f464ec_n.jpg",
    "id_album": "2104507156",
    "description": "Fantasy_855866",
    "title": "Fantasy_855866",
    "link_img": "https://live.staticflickr.com/65535/50039073328_3376e3563b_o.jpg",
    "id_image": "Fantasy_855866",
    "count_view": 0
  },
  {
    "link_thumb": "https://live.staticflickr.com/65535/50040235916_06d389a247_n.jpg",
    "id_album": "-482547208",
    "description": "PostApocalyptic_972164",
    "title": "PostApocalyptic_972164",
    "link_img": "https://live.staticflickr.com/65535/50040235916_632e06bc57_o.jpg",
    "id_image": "PostApocalyptic_972164",
    "count_view": 0
  },
  {
    "link_thumb": "https://live.staticflickr.com/65535/50039654571_53c5c625a7_n.jpg",
    "id_album": "1204249541",
    "description": "Galaxy_86678",
    "title": "Galaxy_86678",
    "link_img": "https://live.staticflickr.com/65535/50039654571_325b45ba47_o.jpg",
    "id_image": "Galaxy_86678",
    "count_view": 0
  },
  {
    "link_thumb": "https://live.staticflickr.com/65535/50040452672_fd861f117a_n.jpg",
    "id_album": "-482547208",
    "description": "PostApocalyptic_103035",
    "title": "PostApocalyptic_103035",
    "link_img": "https://live.staticflickr.com/65535/50040452672_0ef2490ebb_o.jpg",
    "id_image": "PostApocalyptic_103035",
    "count_view": 0
  },
  {
    "link_thumb": "https://live.staticflickr.com/65535/50039796997_a47cba9667_n.jpg",
    "id_album": "-1964113117",
    "description": "City_999564",
    "title": "City_999564",
    "link_img": "https://live.staticflickr.com/65535/50039796997_a3b6e3d71b_o.jpg",
    "id_image": "City_999564",
    "count_view": 0
  },
  {
    "link_thumb": "https://live.staticflickr.com/65535/50038810163_4fed36046e_n.jpg",
    "id_album": "869545341",
    "description": "Astronaut_565707",
    "title": "Astronaut_565707",
    "link_img": "https://live.staticflickr.com/65535/50038810163_446a8e2ddd_o.jpg",
    "id_image": "Astronaut_565707",
    "count_view": 0
  },
  {
    "link_thumb": "https://live.staticflickr.com/65535/50040568672_0fe9b57ab5_n.jpg",
    "id_album": "779690680",
    "description": "Robot_407249",
    "title": "Robot_407249",
    "link_img": "https://live.staticflickr.com/65535/50040568672_c9b9ac0a36_o.jpg",
    "id_image": "Robot_407249",
    "count_view": 0
  },
  {
    "link_thumb": "https://live.staticflickr.com/65535/50039587961_3f355c2d5f_n.jpg",
    "id_album": "829169633",
    "description": "Cyborg_384607",
    "title": "Cyborg_384607",
    "link_img": "https://live.staticflickr.com/65535/50039587961_b05f35c376_o.jpg",
    "id_image": "Cyborg_384607",
    "count_view": 0
  },
  {
    "link_thumb": "https://live.staticflickr.com/65535/50039996496_c81784ef63_n.jpg",
    "id_album": "1443611160",
    "description": "PlanetRise_150176",
    "title": "PlanetRise_150176",
    "link_img": "https://live.staticflickr.com/65535/50039996496_85e5d2f2ef_o.jpg",
    "id_image": "PlanetRise_150176",
    "count_view": 0
  },
  {
    "link_thumb": "https://live.staticflickr.com/65535/50041283401_4a87f0645a_n.jpg",
    "id_album": "-1587696329",
    "description": "Stars_846724",
    "title": "Stars_846724",
    "link_img": "https://live.staticflickr.com/65535/50041283401_4fe8faeca7_o.jpg",
    "id_image": "Stars_846724",
    "count_view": 0
  },
  {
    "link_thumb": "https://live.staticflickr.com/65535/50039482246_2ecb721db4_n.jpg",
    "id_album": "-1964113117",
    "description": "City_631675",
    "title": "City_631675",
    "link_img": "https://live.staticflickr.com/65535/50039482246_035a518f4c_o.jpg",
    "id_image": "City_631675",
    "count_view": 0
  },
  {
    "link_thumb": "https://live.staticflickr.com/65535/50040141242_b78363f3c9_n.jpg",
    "id_album": "1402713104",
    "description": "Landscape_319082",
    "title": "Landscape_319082",
    "link_img": "https://live.staticflickr.com/65535/50040141242_54783b3160_o.jpg",
    "id_image": "Landscape_319082",
    "count_view": 0
  },
  {
    "link_thumb": "https://live.staticflickr.com/65535/50041436532_5fa4366a71_n.jpg",
    "id_album": "-1863373220",
    "description": "StarWars_382008",
    "title": "StarWars_382008",
    "link_img": "https://live.staticflickr.com/65535/50041436532_f0db220b66_o.jpg",
    "id_image": "StarWars_382008",
    "count_view": 0
  },
  {
    "link_thumb": "https://live.staticflickr.com/65535/50040347411_e2b1344a6a_n.jpg",
    "id_album": "779690680",
    "description": "Robot_617579",
    "title": "Robot_617579",
    "link_img": "https://live.staticflickr.com/65535/50040347411_2973147c05_o.jpg",
    "id_image": "Robot_617579",
    "count_view": 0
  },
  {
    "link_thumb": "https://live.staticflickr.com/65535/50039550986_774572321e_n.jpg",
    "id_album": "-437872736",
    "description": "Creature_321082",
    "title": "Creature_321082",
    "link_img": "https://live.staticflickr.com/65535/50039550986_eb8f2a33a5_o.jpg",
    "id_image": "Creature_321082",
    "count_view": 0
  },
  {
    "link_thumb": "https://live.staticflickr.com/65535/50040709978_395eb955ce_n.jpg",
    "id_album": "-1587696329",
    "description": "Stars_373654",
    "title": "Stars_373654",
    "link_img": "https://live.staticflickr.com/65535/50040709978_99cf24e204_o.jpg",
    "id_image": "Stars_373654",
    "count_view": 0
  },
  {
    "link_thumb": "https://live.staticflickr.com/65535/50040144782_fe867d058e_n.jpg",
    "id_album": "-1862561193",
    "description": "Other_266919",
    "title": "Other_266919",
    "link_img": "https://live.staticflickr.com/65535/50040144782_d726009e3d_o.jpg",
    "id_image": "Other_266919",
    "count_view": 0
  },
  {
    "link_thumb": "https://live.staticflickr.com/65535/50039783051_70caed282a_n.jpg",
    "id_album": "-1610342324",
    "description": "Nebula_287042",
    "title": "Nebula_287042",
    "link_img": "https://live.staticflickr.com/65535/50039783051_36f966df01_o.jpg",
    "id_image": "Nebula_287042",
    "count_view": 0
  },
  {
    "link_thumb": "https://live.staticflickr.com/65535/50040744897_fca21fe1c2_n.jpg",
    "id_album": "1613540653",
    "description": "Space_218839",
    "title": "Space_218839",
    "link_img": "https://live.staticflickr.com/65535/50040744897_e0c4173615_o.jpg",
    "id_image": "Space_218839",
    "count_view": 0
  },
  {
    "link_thumb": "https://live.staticflickr.com/65535/50040311142_67c4993e9e_n.jpg",
    "id_album": "-1102314093",
    "description": "Planets_114345",
    "title": "Planets_114345",
    "link_img": "https://live.staticflickr.com/65535/50040311142_a5686c9892_o.jpg",
    "id_image": "Planets_114345",
    "count_view": 0
  },
  {
    "link_thumb": "https://live.staticflickr.com/65535/50039876132_b8a5770877_n.jpg",
    "id_album": "651930207",
    "description": "Explosion_90498",
    "title": "Explosion_90498",
    "link_img": "https://live.staticflickr.com/65535/50039876132_4ceed72c00_o.jpg",
    "id_image": "Explosion_90498",
    "count_view": 0
  },
  {
    "link_thumb": "https://live.staticflickr.com/65535/50041582861_d816785948_n.jpg",
    "id_album": "-1675918237",
    "description": "WomenWarrior_594687",
    "title": "WomenWarrior_594687",
    "link_img": "https://live.staticflickr.com/65535/50041582861_96ea516c04_o.jpg",
    "id_image": "WomenWarrior_594687",
    "count_view": 0
  },
  {
    "link_thumb": "https://live.staticflickr.com/65535/50039678577_b7cd89677b_n.jpg",
    "id_album": "-1780971522",
    "description": "Biohazard_526786",
    "title": "Biohazard_526786",
    "link_img": "https://live.staticflickr.com/65535/50039678577_57b0c4305d_o.jpg",
    "id_image": "Biohazard_526786",
    "count_view": 0
  },
  {
    "link_thumb": "https://live.staticflickr.com/65535/50039614442_85b471c8aa_n.jpg",
    "id_album": "869545341",
    "description": "Astronaut_249171",
    "title": "Astronaut_249171",
    "link_img": "https://live.staticflickr.com/65535/50039614442_64c4de3ffd_o.jpg",
    "id_image": "Astronaut_249171",
    "count_view": 0
  },
  {
    "link_thumb": "https://live.staticflickr.com/65535/50039687182_b1843cab62_n.jpg",
    "id_album": "406431601",
    "description": "Building_871300",
    "title": "Building_871300",
    "link_img": "https://live.staticflickr.com/65535/50039687182_5b5d3fa4ea_o.jpg",
    "id_image": "Building_871300",
    "count_view": 0
  },
  {
    "link_thumb": "https://live.staticflickr.com/65535/50039320406_b79a1e6db5_n.jpg",
    "id_album": "523598895",
    "description": "Artistic_228785",
    "title": "Artistic_228785",
    "link_img": "https://live.staticflickr.com/65535/50039320406_86738a7c81_o.jpg",
    "id_image": "Artistic_228785",
    "count_view": 0
  },
  {
    "link_thumb": "https://live.staticflickr.com/65535/50041154141_fe68c417e0_n.jpg",
    "id_album": "-1863373220",
    "description": "StarWars_248869",
    "title": "StarWars_248869",
    "link_img": "https://live.staticflickr.com/65535/50041154141_997845326d_o.jpg",
    "id_image": "StarWars_248869",
    "count_view": 0
  },
  {
    "link_thumb": "https://live.staticflickr.com/65535/50039912652_4c511c8038_n.jpg",
    "id_album": "1204249541",
    "description": "Galaxy_608333",
    "title": "Galaxy_608333",
    "link_img": "https://live.staticflickr.com/65535/50039912652_3a9405acc2_o.jpg",
    "id_image": "Galaxy_608333",
    "count_view": 0
  },
  {
    "link_thumb": "https://live.staticflickr.com/65535/50041715167_42a09b7b0a_n.jpg",
    "id_album": "-1261420436",
    "description": "Warrior_366402",
    "title": "Warrior_366402",
    "link_img": "https://live.staticflickr.com/65535/50041715167_0940f9af67_o.jpg",
    "id_image": "Warrior_366402",
    "count_view": 0
  },
  {
    "link_thumb": "https://live.staticflickr.com/65535/50039382566_2856543f9c_n.jpg",
    "id_album": "869545341",
    "description": "Astronaut_938823",
    "title": "Astronaut_938823",
    "link_img": "https://live.staticflickr.com/65535/50039382566_5c0f7b6f88_o.jpg",
    "id_image": "Astronaut_938823",
    "count_view": 0
  },
  {
    "link_thumb": "https://live.staticflickr.com/65535/50039255148_8511669564_n.jpg",
    "id_album": "-1610342324",
    "description": "Nebula_531446",
    "title": "Nebula_531446",
    "link_img": "https://live.staticflickr.com/65535/50039255148_a69c39827e_o.jpg",
    "id_image": "Nebula_531446",
    "count_view": 0
  },
  {
    "link_thumb": "https://live.staticflickr.com/65535/50040471706_5f9d29bd2b_n.jpg",
    "id_album": "1613540653",
    "description": "Space_171898",
    "title": "Space_171898",
    "link_img": "https://live.staticflickr.com/65535/50040471706_37e893056a_o.jpg",
    "id_image": "Space_171898",
    "count_view": 0
  },
  {
    "link_thumb": "https://live.staticflickr.com/65535/50039540046_3e8a3123ac_n.jpg",
    "id_album": "894679094",
    "description": "Collision_353147",
    "title": "Collision_353147",
    "link_img": "https://live.staticflickr.com/65535/50039540046_dbc4804e44_o.jpg",
    "id_image": "Collision_353147",
    "count_view": 0
  },
  {
    "link_thumb": "https://live.staticflickr.com/65535/50040776776_b328e02d00_n.jpg",
    "id_album": "2130067313",
    "description": "Spaceship_972168",
    "title": "Spaceship_972168",
    "link_img": "https://live.staticflickr.com/65535/50040776776_eba15d9d76_o.jpg",
    "id_image": "Spaceship_972168",
    "count_view": 0
  },
  {
    "link_thumb": "https://live.staticflickr.com/65535/50040611002_c52f79cb0d_n.jpg",
    "id_album": "779690680",
    "description": "Robot_616678",
    "title": "Robot_616678",
    "link_img": "https://live.staticflickr.com/65535/50040611002_7b230e409b_o.jpg",
    "id_image": "Robot_616678",
    "count_view": 0
  },
  {
    "link_thumb": "https://live.staticflickr.com/65535/50039912316_0c3fbe6277_n.jpg",
    "id_album": "395161030",
    "description": "Planet_182737",
    "title": "Planet_182737",
    "link_img": "https://live.staticflickr.com/65535/50039912316_e854397927_o.jpg",
    "id_image": "Planet_182737",
    "count_view": 0
  },
  {
    "link_thumb": "https://live.staticflickr.com/65535/50039775357_68a95167e6_n.jpg",
    "id_album": "-1964113117",
    "description": "City_889486",
    "title": "City_889486",
    "link_img": "https://live.staticflickr.com/65535/50039775357_88a6b9ca0a_o.jpg",
    "id_image": "City_889486",
    "count_view": 0
  },
  {
    "link_thumb": "https://live.staticflickr.com/65535/50039629922_73bf3b2918_n.jpg",
    "id_album": "869545341",
    "description": "Astronaut_801382",
    "title": "Astronaut_801382",
    "link_img": "https://live.staticflickr.com/65535/50039629922_83a3c844f7_o.jpg",
    "id_image": "Astronaut_801382",
    "count_view": 0
  },
  {
    "link_thumb": "https://live.staticflickr.com/65535/50039357901_10896687e9_n.jpg",
    "id_album": "869545341",
    "description": "Astronaut_565690",
    "title": "Astronaut_565690",
    "link_img": "https://live.staticflickr.com/65535/50039357901_1d4d8bf517_o.jpg",
    "id_image": "Astronaut_565690",
    "count_view": 0
  },
  {
    "link_thumb": "https://live.staticflickr.com/65535/50039660323_458b45eded_n.jpg",
    "id_album": "-482547208",
    "description": "PostApocalyptic_528310",
    "title": "PostApocalyptic_528310",
    "link_img": "https://live.staticflickr.com/65535/50039660323_e44d008937_o.jpg",
    "id_image": "PostApocalyptic_528310",
    "count_view": 0
  },
  {
    "link_thumb": "https://live.staticflickr.com/65535/50038892518_ab150f04bb_n.jpg",
    "id_album": "-1964113117",
    "description": "City_198679",
    "title": "City_198679",
    "link_img": "https://live.staticflickr.com/65535/50038892518_fd8749240e_o.jpg",
    "id_image": "City_198679",
    "count_view": 0
  },
  {
    "link_thumb": "https://live.staticflickr.com/65535/50039460048_48de866866_n.jpg",
    "id_album": "1443611160",
    "description": "PlanetRise_685295",
    "title": "PlanetRise_685295",
    "link_img": "https://live.staticflickr.com/65535/50039460048_c42c4c93be_o.jpg",
    "id_image": "PlanetRise_685295",
    "count_view": 0
  },
  {
    "link_thumb": "https://live.staticflickr.com/65535/50039219878_bed946ffee_n.jpg",
    "id_album": "-1610342324",
    "description": "Nebula_206199",
    "title": "Nebula_206199",
    "link_img": "https://live.staticflickr.com/65535/50039219878_8e85aea120_o.jpg",
    "id_image": "Nebula_206199",
    "count_view": 0
  },
  {
    "link_thumb": "https://live.staticflickr.com/65535/50039221328_d8237f3741_n.jpg",
    "id_album": "-1610342324",
    "description": "Nebula_215880",
    "title": "Nebula_215880",
    "link_img": "https://live.staticflickr.com/65535/50039221328_4dbfb4da69_o.jpg",
    "id_image": "Nebula_215880",
    "count_view": 0
  },
  {
    "link_thumb": "https://live.staticflickr.com/65535/50040232246_66fe0d5084_n.jpg",
    "id_album": "-482547208",
    "description": "PostApocalyptic_940000",
    "title": "PostApocalyptic_940000",
    "link_img": "https://live.staticflickr.com/65535/50040232246_e72d170975_o.jpg",
    "id_image": "PostApocalyptic_940000",
    "count_view": 0
  },
  {
    "link_thumb": "https://live.staticflickr.com/65535/50040324266_d7896ee185_n.jpg",
    "id_album": "779690680",
    "description": "Robot_476108",
    "title": "Robot_476108",
    "link_img": "https://live.staticflickr.com/65535/50040324266_97dddc093c_o.jpg",
    "id_image": "Robot_476108",
    "count_view": 0
  },
  {
    "link_thumb": "https://live.staticflickr.com/65535/50040176552_8e5e3005e9_n.jpg",
    "id_album": "395161030",
    "description": "Planet_182327",
    "title": "Planet_182327",
    "link_img": "https://live.staticflickr.com/65535/50040176552_98875384ba_o.jpg",
    "id_image": "Planet_182327",
    "count_view": 0
  },
  {
    "link_thumb": "https://live.staticflickr.com/65535/50038741313_0cb0603c67_n.jpg",
    "id_album": "-419633230",
    "description": "Apocalyptic_957419",
    "title": "Apocalyptic_957419",
    "link_img": "https://live.staticflickr.com/65535/50038741313_98897a6315_o.jpg",
    "id_image": "Apocalyptic_957419",
    "count_view": 0
  },
  {
    "link_thumb": "https://live.staticflickr.com/65535/50039159053_b339d649f2_n.jpg",
    "id_album": "1402713104",
    "description": "Landscape_80660",
    "title": "Landscape_80660",
    "link_img": "https://live.staticflickr.com/65535/50039159053_3302981f3f_o.jpg",
    "id_image": "Landscape_80660",
    "count_view": 0
  },
  {
    "link_thumb": "https://live.staticflickr.com/65535/50039630892_d86c9eb4cb_n.jpg",
    "id_album": "869545341",
    "description": "Astronaut_816998",
    "title": "Astronaut_816998",
    "link_img": "https://live.staticflickr.com/65535/50039630892_4d5c17998f_o.jpg",
    "id_image": "Astronaut_816998",
    "count_view": 0
  },
  {
    "link_thumb": "https://live.staticflickr.com/65535/50041716882_c3a240f1f1_n.jpg",
    "id_album": "-1261420436",
    "description": "Warrior_377831",
    "title": "Warrior_377831",
    "link_img": "https://live.staticflickr.com/65535/50041716882_db2504c770_o.jpg",
    "id_image": "Warrior_377831",
    "count_view": 0
  },
  {
    "link_thumb": "https://live.staticflickr.com/65535/50039564977_a0a8dafdec_n.jpg",
    "id_album": "523598895",
    "description": "Artistic_173232",
    "title": "Artistic_173232",
    "link_img": "https://live.staticflickr.com/65535/50039564977_5173348c25_o.jpg",
    "id_image": "Artistic_173232",
    "count_view": 0
  },
  {
    "link_thumb": "https://live.staticflickr.com/65535/50039922358_016f2ae0c6_n.jpg",
    "id_album": "1613540653",
    "description": "Space_192895",
    "title": "Space_192895",
    "link_img": "https://live.staticflickr.com/65535/50039922358_3107c8dc11_o.jpg",
    "id_image": "Space_192895",
    "count_view": 0
  },
  {
    "link_thumb": "https://live.staticflickr.com/65535/50039745763_b2f1731d69_n.jpg",
    "id_album": "779690680",
    "description": "Robot_381885",
    "title": "Robot_381885",
    "link_img": "https://live.staticflickr.com/65535/50039745763_0d09996b7e_o.jpg",
    "id_image": "Robot_381885",
    "count_view": 0
  },
  {
    "link_thumb": "https://live.staticflickr.com/65535/50041550656_aa4cb95652_n.jpg",
    "id_album": "-1126835654",
    "description": "Women_911000",
    "title": "Women_911000",
    "link_img": "https://live.staticflickr.com/65535/50041550656_251482dd1f_o.jpg",
    "id_image": "Women_911000",
    "count_view": 0
  },
  {
    "link_thumb": "https://live.staticflickr.com/65535/50039789022_985ec29e20_n.jpg",
    "id_album": "-1964113117",
    "description": "City_956725",
    "title": "City_956725",
    "link_img": "https://live.staticflickr.com/65535/50039789022_dd6a5919e4_o.jpg",
    "id_image": "City_956725",
    "count_view": 0
  },
  {
    "link_thumb": "https://live.staticflickr.com/65535/50041701702_88f361d27c_n.jpg",
    "id_album": "-1261420436",
    "description": "Warrior_262545",
    "title": "Warrior_262545",
    "link_img": "https://live.staticflickr.com/65535/50041701702_8b89ebd29f_o.jpg",
    "id_image": "Warrior_262545",
    "count_view": 0
  },
  {
    "link_thumb": "https://live.staticflickr.com/65535/50040014346_851808c428_n.jpg",
    "id_album": "1443611160",
    "description": "PlanetRise_777595",
    "title": "PlanetRise_777595",
    "link_img": "https://live.staticflickr.com/65535/50040014346_58266d9997_o.jpg",
    "id_image": "PlanetRise_777595",
    "count_view": 0
  },
  {
    "link_thumb": "https://live.staticflickr.com/65535/50038974028_5fb216dc33_n.jpg",
    "id_album": "-1964113117",
    "description": "City_922968",
    "title": "City_922968",
    "link_img": "https://live.staticflickr.com/65535/50038974028_9aed3b7587_o.jpg",
    "id_image": "City_922968",
    "count_view": 0
  },
  {
    "link_thumb": "https://live.staticflickr.com/65535/50040692458_215cd2c8d8_n.jpg",
    "id_album": "-1863373220",
    "description": "StarWars_971383",
    "title": "StarWars_971383",
    "link_img": "https://live.staticflickr.com/65535/50040692458_bcb7946201_o.jpg",
    "id_image": "StarWars_971383",
    "count_view": 0
  },
  {
    "link_thumb": "https://live.staticflickr.com/65535/50040117033_4f9cae898b_n.jpg",
    "id_album": "2130067313",
    "description": "Spaceship_377029",
    "title": "Spaceship_377029",
    "link_img": "https://live.staticflickr.com/65535/50040117033_d37dee069b_o.jpg",
    "id_image": "Spaceship_377029",
    "count_view": 0
  },
  {
    "link_thumb": "https://live.staticflickr.com/65535/50039293898_e0349bc015_n.jpg",
    "id_album": "-1610342324",
    "description": "Nebula_841902",
    "title": "Nebula_841902",
    "link_img": "https://live.staticflickr.com/65535/50039293898_dea4026b24_o.jpg",
    "id_image": "Nebula_841902",
    "count_view": 0
  },
  {
    "link_thumb": "https://live.staticflickr.com/65535/50039750138_9c7b974a62_n.jpg",
    "id_album": "779690680",
    "description": "Robot_403396",
    "title": "Robot_403396",
    "link_img": "https://live.staticflickr.com/65535/50039750138_6a0d5ee0f9_o.jpg",
    "id_image": "Robot_403396",
    "count_view": 0
  },
  {
    "link_thumb": "https://live.staticflickr.com/65535/50040104627_f90e3909a7_n.jpg",
    "id_album": "-1610342324",
    "description": "Nebula_822477",
    "title": "Nebula_822477",
    "link_img": "https://live.staticflickr.com/65535/50040104627_13b6a0ee44_o.jpg",
    "id_image": "Nebula_822477",
    "count_view": 0
  },
  {
    "link_thumb": "https://live.staticflickr.com/65535/50041231801_88e88ee419_n.jpg",
    "id_album": "-1863373220",
    "description": "StarWars_867726",
    "title": "StarWars_867726",
    "link_img": "https://live.staticflickr.com/65535/50041231801_3f4f7642ce_o.jpg",
    "id_image": "StarWars_867726",
    "count_view": 0
  },
  {
    "link_thumb": "https://live.staticflickr.com/65535/50038692053_9058bba008_n.jpg",
    "id_album": "-406145265",
    "description": "Aircraft_391137",
    "title": "Aircraft_391137",
    "link_img": "https://live.staticflickr.com/65535/50038692053_7ae2bb814b_o.jpg",
    "id_image": "Aircraft_391137",
    "count_view": 0
  },
  {
    "link_thumb": "https://live.staticflickr.com/65535/50039433691_498591e3fe_n.jpg",
    "id_album": "-1964113117",
    "description": "City_123330",
    "title": "City_123330",
    "link_img": "https://live.staticflickr.com/65535/50039433691_48637e3d08_o.jpg",
    "id_image": "City_123330",
    "count_view": 0
  },
  {
    "link_thumb": "https://live.staticflickr.com/65535/50039905922_0e2698a0c4_n.jpg",
    "id_album": "1204249541",
    "description": "Galaxy_555689",
    "title": "Galaxy_555689",
    "link_img": "https://live.staticflickr.com/65535/50039905922_e0ba21bb8d_o.jpg",
    "id_image": "Galaxy_555689",
    "count_view": 0
  },
  {
    "link_thumb": "https://live.staticflickr.com/65535/50038864813_c4f0b210a7_n.jpg",
    "id_album": "-1780971522",
    "description": "Biohazard_333718",
    "title": "Biohazard_333718",
    "link_img": "https://live.staticflickr.com/65535/50038864813_1dc0694ce0_o.jpg",
    "id_image": "Biohazard_333718",
    "count_view": 0
  },
  {
    "link_thumb": "https://live.staticflickr.com/65535/50039502432_bda6dfd791_n.jpg",
    "id_album": "-406145265",
    "description": "Aircraft_405087",
    "title": "Aircraft_405087",
    "link_img": "https://live.staticflickr.com/65535/50039502432_6131cef8fb_o.jpg",
    "id_image": "Aircraft_405087",
    "count_view": 0
  },
  {
    "link_thumb": "https://live.staticflickr.com/65535/50040651538_34665b7b40_n.jpg",
    "id_album": "-1863373220",
    "description": "StarWars_657281",
    "title": "StarWars_657281",
    "link_img": "https://live.staticflickr.com/65535/50040651538_b3eca80acd_o.jpg",
    "id_image": "StarWars_657281",
    "count_view": 0
  },
  {
    "link_thumb": "https://live.staticflickr.com/65535/50040033052_51d89bd09a_n.jpg",
    "id_album": "-1610342324",
    "description": "Nebula_206533",
    "title": "Nebula_206533",
    "link_img": "https://live.staticflickr.com/65535/50040033052_7236fd1d92_o.jpg",
    "id_image": "Nebula_206533",
    "count_view": 0
  },
  {
    "link_thumb": "https://live.staticflickr.com/65535/50040762247_05992692fd_n.jpg",
    "id_album": "1613540653",
    "description": "Space_345414",
    "title": "Space_345414",
    "link_img": "https://live.staticflickr.com/65535/50040762247_6999ffbb5b_o.jpg",
    "id_image": "Space_345414",
    "count_view": 0
  },
  {
    "link_thumb": "https://live.staticflickr.com/65535/50041797317_8683349f0a_n.jpg",
    "id_album": "-1126835654",
    "description": "Women_530822",
    "title": "Women_530822",
    "link_img": "https://live.staticflickr.com/65535/50041797317_a00641bf4b_o.jpg",
    "id_image": "Women_530822",
    "count_view": 0
  },
  {
    "link_thumb": "https://live.staticflickr.com/65535/50039909437_e2263a1674_n.jpg",
    "id_album": "1204249541",
    "description": "Galaxy_593259",
    "title": "Galaxy_593259",
    "link_img": "https://live.staticflickr.com/65535/50039909437_f23b6319c6_o.jpg",
    "id_image": "Galaxy_593259",
    "count_view": 0
  },
  {
    "link_thumb": "https://live.staticflickr.com/65535/50039613841_1092ac979d_n.jpg",
    "id_album": "651930207",
    "description": "Explosion_995433",
    "title": "Explosion_995433",
    "link_img": "https://live.staticflickr.com/65535/50039613841_f23ea79c1c_o.jpg",
    "id_image": "Explosion_995433",
    "count_view": 0
  },
  {
    "link_thumb": "https://live.staticflickr.com/65535/50040549621_3f5035986c_n.jpg",
    "id_album": "1613540653",
    "description": "Space_882497",
    "title": "Space_882497",
    "link_img": "https://live.staticflickr.com/65535/50040549621_79ff5d853c_o.jpg",
    "id_image": "Space_882497",
    "count_view": 0
  },
  {
    "link_thumb": "https://live.staticflickr.com/65535/50039612017_84dcc037a7_n.jpg",
    "id_album": "869545341",
    "description": "Astronaut_211959",
    "title": "Astronaut_211959",
    "link_img": "https://live.staticflickr.com/65535/50039612017_d13ce00ffb_o.jpg",
    "id_image": "Astronaut_211959",
    "count_view": 0
  },
  {
    "link_thumb": "https://live.staticflickr.com/65535/50040194251_bc3bac2981_n.jpg",
    "id_album": "-482547208",
    "description": "PostApocalyptic_201817",
    "title": "PostApocalyptic_201817",
    "link_img": "https://live.staticflickr.com/65535/50040194251_dfb4110be5_o.jpg",
    "id_image": "PostApocalyptic_201817",
    "count_view": 0
  },
  {
    "link_thumb": "https://live.staticflickr.com/65535/50040034821_12b2f59a6b_n.jpg",
    "id_album": "814701616",
    "description": "PlanetaryRing_463721",
    "title": "PlanetaryRing_463721",
    "link_img": "https://live.staticflickr.com/65535/50040034821_09b987c7f3_o.jpg",
    "id_image": "PlanetaryRing_463721",
    "count_view": 0
  },
  {
    "link_thumb": "https://live.staticflickr.com/65535/50038723368_2c932f44cc_n.jpg",
    "id_album": "849020728",
    "description": "Alien_592249",
    "title": "Alien_592249",
    "link_img": "https://live.staticflickr.com/65535/50038723368_12485c47f3_o.jpg",
    "id_image": "Alien_592249",
    "count_view": 0
  },
  {
    "link_thumb": "https://live.staticflickr.com/65535/50041512557_670439bf2e_n.jpg",
    "id_album": "-1863373220",
    "description": "StarWars_980534",
    "title": "StarWars_980534",
    "link_img": "https://live.staticflickr.com/65535/50041512557_81dd6d72f8_o.jpg",
    "id_image": "StarWars_980534",
    "count_view": 0
  },
  {
    "link_thumb": "https://live.staticflickr.com/65535/50040570272_b1ce40aaab_n.jpg",
    "id_album": "779690680",
    "description": "Robot_414741",
    "title": "Robot_414741",
    "link_img": "https://live.staticflickr.com/65535/50040570272_4dd3930bf3_o.jpg",
    "id_image": "Robot_414741",
    "count_view": 0
  },
  {
    "link_thumb": "https://live.staticflickr.com/65535/50040981523_c6703e20b7_n.jpg",
    "id_album": "-1126835654",
    "description": "Women_545307",
    "title": "Women_545307",
    "link_img": "https://live.staticflickr.com/65535/50040981523_a2d3a50b47_o.jpg",
    "id_image": "Women_545307",
    "count_view": 0
  },
  {
    "link_thumb": "https://live.staticflickr.com/65535/50040435672_5d1a6f989a_n.jpg",
    "id_album": "376235057",
    "description": "Planetscape_387291",
    "title": "Planetscape_387291",
    "link_img": "https://live.staticflickr.com/65535/50040435672_d8a17dd3cb_o.jpg",
    "id_image": "Planetscape_387291",
    "count_view": 0
  },
  {
    "link_thumb": "https://live.staticflickr.com/65535/50040089096_cc2de463a6_n.jpg",
    "id_album": "-1102314093",
    "description": "Planets_346529",
    "title": "Planets_346529",
    "link_img": "https://live.staticflickr.com/65535/50040089096_77848d2598_o.jpg",
    "id_image": "Planets_346529",
    "count_view": 0
  },
  {
    "link_thumb": "https://live.staticflickr.com/65535/50039534122_c0604ca57b_n.jpg",
    "id_album": "849020728",
    "description": "Alien_609323",
    "title": "Alien_609323",
    "link_img": "https://live.staticflickr.com/65535/50039534122_137e5e1ede_o.jpg",
    "id_image": "Alien_609323",
    "count_view": 0
  },
  {
    "link_thumb": "https://live.staticflickr.com/65535/50039340943_f02943babb_n.jpg",
    "id_album": "-1862561193",
    "description": "Other_347657",
    "title": "Other_347657",
    "link_img": "https://live.staticflickr.com/65535/50039340943_02b4919946_o.jpg",
    "id_image": "Other_347657",
    "count_view": 0
  },
  {
    "link_thumb": "https://live.staticflickr.com/65535/50041250401_1742b4fe2a_n.jpg",
    "id_album": "-1863373220",
    "description": "StarWars_980565",
    "title": "StarWars_980565",
    "link_img": "https://live.staticflickr.com/65535/50041250401_a7d6c4fed1_o.jpg",
    "id_image": "StarWars_980565",
    "count_view": 0
  },
  {
    "link_thumb": "https://live.staticflickr.com/65535/50039804392_253815970c_n.jpg",
    "id_album": "894679094",
    "description": "Collision_674915",
    "title": "Collision_674915",
    "link_img": "https://live.staticflickr.com/65535/50039804392_6e520631b6_o.jpg",
    "id_image": "Collision_674915",
    "count_view": 0
  },
  {
    "link_thumb": "https://live.staticflickr.com/65535/50039423908_cf1b8f8b65_n.jpg",
    "id_album": "395161030",
    "description": "Planet_717757",
    "title": "Planet_717757",
    "link_img": "https://live.staticflickr.com/65535/50039423908_79f8be1352_o.jpg",
    "id_image": "Planet_717757",
    "count_view": 0
  },
  {
    "link_thumb": "https://live.staticflickr.com/65535/50039861596_b7bbbfb1f1_n.jpg",
    "id_album": "-1862561193",
    "description": "Other_145921",
    "title": "Other_145921",
    "link_img": "https://live.staticflickr.com/65535/50039861596_16990c0fc8_o.jpg",
    "id_image": "Other_145921",
    "count_view": 0
  },
  {
    "link_thumb": "https://live.staticflickr.com/65535/50040863763_fb7e8a5d25_n.jpg",
    "id_album": "2020068132",
    "description": "Vehicle_879546",
    "title": "Vehicle_879546",
    "link_img": "https://live.staticflickr.com/65535/50040863763_86b7b69a0c_o.jpg",
    "id_image": "Vehicle_879546",
    "count_view": 0
  },
  {
    "link_thumb": "https://live.staticflickr.com/65535/50041692782_259fe6ecfa_n.jpg",
    "id_album": "-1261420436",
    "description": "Warrior_112335",
    "title": "Warrior_112335",
    "link_img": "https://live.staticflickr.com/65535/50041692782_5e6e66a611_o.jpg",
    "id_image": "Warrior_112335",
    "count_view": 0
  },
  {
    "link_thumb": "https://live.staticflickr.com/65535/50039417503_1ded3a6869_n.jpg",
    "id_album": "395161030",
    "description": "Planet_585117",
    "title": "Planet_585117",
    "link_img": "https://live.staticflickr.com/65535/50039417503_e035886e79_o.jpg",
    "id_image": "Planet_585117",
    "count_view": 0
  },
  {
    "link_thumb": "https://live.staticflickr.com/65535/50039491837_89371c0d2f_n.jpg",
    "id_album": "280884763",
    "description": "Abstract_286952",
    "title": "Abstract_286952",
    "link_img": "https://live.staticflickr.com/65535/50039491837_a201e18886_o.jpg",
    "id_image": "Abstract_286952",
    "count_view": 0
  },
  {
    "link_thumb": "https://live.staticflickr.com/65535/50039795957_e3f6aedda6_n.jpg",
    "id_album": "-1964113117",
    "description": "City_997271",
    "title": "City_997271",
    "link_img": "https://live.staticflickr.com/65535/50039795957_f3d4634362_o.jpg",
    "id_image": "City_997271",
    "count_view": 0
  },
  {
    "link_thumb": "https://live.staticflickr.com/65535/50039760721_54f16e6931_n.jpg",
    "id_album": "-1610342324",
    "description": "Nebula_103406",
    "title": "Nebula_103406",
    "link_img": "https://live.staticflickr.com/65535/50039760721_4aa34dafb3_o.jpg",
    "id_image": "Nebula_103406",
    "count_view": 0
  },
  {
    "link_thumb": "https://live.staticflickr.com/65535/50039633968_1cb0fd48e0_n.jpg",
    "id_album": "376235057",
    "description": "Planetscape_957476",
    "title": "Planetscape_957476",
    "link_img": "https://live.staticflickr.com/65535/50039633968_c4563680c7_o.jpg",
    "id_image": "Planetscape_957476",
    "count_view": 0
  },
  {
    "link_thumb": "https://live.staticflickr.com/65535/50039707591_988f3f6bde_n.jpg",
    "id_album": "1402713104",
    "description": "Landscape_805183",
    "title": "Landscape_805183",
    "link_img": "https://live.staticflickr.com/65535/50039707591_8d1dc3f3ef_o.jpg",
    "id_image": "Landscape_805183",
    "count_view": 0
  },
  {
    "link_thumb": "https://live.staticflickr.com/65535/50040036572_86b7163123_n.jpg",
    "id_album": "-1610342324",
    "description": "Nebula_225127",
    "title": "Nebula_225127",
    "link_img": "https://live.staticflickr.com/65535/50040036572_e862dc15fb_o.jpg",
    "id_image": "Nebula_225127",
    "count_view": 0
  },
  {
    "link_thumb": "https://live.staticflickr.com/65535/50039733351_70c32044d6_n.jpg",
    "id_album": "-1388385651",
    "description": "MilkyWay_555679",
    "title": "MilkyWay_555679",
    "link_img": "https://live.staticflickr.com/65535/50039733351_c7deceebc4_o.jpg",
    "id_image": "MilkyWay_555679",
    "count_view": 0
  },
  {
    "link_thumb": "https://live.staticflickr.com/65535/50039497578_5d437b536f_n.jpg",
    "id_album": "-1102314093",
    "description": "Planets_113495",
    "title": "Planets_113495",
    "link_img": "https://live.staticflickr.com/65535/50039497578_ff7585a5c6_o.jpg",
    "id_image": "Planets_113495",
    "count_view": 0
  },
  {
    "link_thumb": "https://live.staticflickr.com/65535/50040482366_c5182a4b8d_n.jpg",
    "id_album": "1613540653",
    "description": "Space_231380",
    "title": "Space_231380",
    "link_img": "https://live.staticflickr.com/65535/50040482366_6e05303284_o.jpg",
    "id_image": "Space_231380",
    "count_view": 0
  },
  {
    "link_thumb": "https://live.staticflickr.com/65535/50039266463_e1bd6e2755_n.jpg",
    "id_album": "-1610342324",
    "description": "Nebula_594626",
    "title": "Nebula_594626",
    "link_img": "https://live.staticflickr.com/65535/50039266463_8cc435596e_o.jpg",
    "id_image": "Nebula_594626",
    "count_view": 0
  },
  {
    "link_thumb": "https://live.staticflickr.com/65535/50039275803_32483a594f_n.jpg",
    "id_album": "-1610342324",
    "description": "Nebula_705340",
    "title": "Nebula_705340",
    "link_img": "https://live.staticflickr.com/65535/50039275803_7f866733cc_o.jpg",
    "id_image": "Nebula_705340",
    "count_view": 0
  },
  {
    "link_thumb": "https://live.staticflickr.com/65535/50039424846_0181c86c19_n.jpg",
    "id_album": "406431601",
    "description": "Building_872518",
    "title": "Building_872518",
    "link_img": "https://live.staticflickr.com/65535/50039424846_7a672d67ed_o.jpg",
    "id_image": "Building_872518",
    "count_view": 0
  },
  {
    "link_thumb": "https://live.staticflickr.com/65535/50039878733_d999599070_n.jpg",
    "id_album": "779690680",
    "description": "Robot_936224",
    "title": "Robot_936224",
    "link_img": "https://live.staticflickr.com/65535/50039878733_bb5d3cb10f_o.jpg",
    "id_image": "Robot_936224",
    "count_view": 0
  },
  {
    "link_thumb": "https://live.staticflickr.com/65535/50040912373_73670ffd7d_n.jpg",
    "id_album": "-1261420436",
    "description": "Warrior_514705",
    "title": "Warrior_514705",
    "link_img": "https://live.staticflickr.com/65535/50040912373_a92c420ab1_o.jpg",
    "id_image": "Warrior_514705",
    "count_view": 0
  },
  {
    "link_thumb": "https://live.staticflickr.com/65535/50040282571_49416b28f9_n.jpg",
    "id_album": "779690680",
    "description": "Robot_291074",
    "title": "Robot_291074",
    "link_img": "https://live.staticflickr.com/65535/50040282571_3527398830_o.jpg",
    "id_image": "Robot_291074",
    "count_view": 0
  },
  {
    "link_thumb": "https://live.staticflickr.com/65535/50039726346_48ffe3dcb9_n.jpg",
    "id_album": "1402713104",
    "description": "Landscape_949072",
    "title": "Landscape_949072",
    "link_img": "https://live.staticflickr.com/65535/50039726346_0bc7cc9bd3_o.jpg",
    "id_image": "Landscape_949072",
    "count_view": 0
  },
  {
    "link_thumb": "https://live.staticflickr.com/65535/50039940857_6944cb7149_n.jpg",
    "id_album": "1402713104",
    "description": "Landscape_328307",
    "title": "Landscape_328307",
    "link_img": "https://live.staticflickr.com/65535/50039940857_2c792dc0d3_o.jpg",
    "id_image": "Landscape_328307",
    "count_view": 0
  },
  {
    "link_thumb": "https://live.staticflickr.com/65535/50040001488_915e2a8f0c_n.jpg",
    "id_album": "1613540653",
    "description": "Space_982964",
    "title": "Space_982964",
    "link_img": "https://live.staticflickr.com/65535/50040001488_483cf2549e_o.jpg",
    "id_image": "Space_982964",
    "count_view": 0
  },
  {
    "link_thumb": "https://live.staticflickr.com/65535/50039818652_f579e94ff7_n.jpg",
    "id_album": "-437872736",
    "description": "Creature_455768",
    "title": "Creature_455768",
    "link_img": "https://live.staticflickr.com/65535/50039818652_0e4dbfb7f7_o.jpg",
    "id_image": "Creature_455768",
    "count_view": 0
  },
  {
    "link_thumb": "https://live.staticflickr.com/65535/50039435343_79ebb3e140_n.jpg",
    "id_album": "395161030",
    "description": "Planet_941745",
    "title": "Planet_941745",
    "link_img": "https://live.staticflickr.com/65535/50039435343_1734836a16_o.jpg",
    "id_image": "Planet_941745",
    "count_view": 0
  },
  {
    "link_thumb": "https://live.staticflickr.com/65535/50040799636_740e1e55a9_n.jpg",
    "id_album": "-1449720967",
    "description": "StarTrek_182728",
    "title": "StarTrek_182728",
    "link_img": "https://live.staticflickr.com/65535/50040799636_e5e3eaca61_o.jpg",
    "id_image": "StarTrek_182728",
    "count_view": 0
  },
  {
    "link_thumb": "https://live.staticflickr.com/65535/50039341476_86862e174e_n.jpg",
    "id_album": "523598895",
    "description": "Artistic_662938",
    "title": "Artistic_662938",
    "link_img": "https://live.staticflickr.com/65535/50039341476_64a8d1528c_o.jpg",
    "id_image": "Artistic_662938",
    "count_view": 0
  },
  {
    "link_thumb": "https://live.staticflickr.com/65535/50039463936_b6df08e8c9_n.jpg",
    "id_album": "-1964113117",
    "description": "City_332525",
    "title": "City_332525",
    "link_img": "https://live.staticflickr.com/65535/50039463936_fe05499c4e_o.jpg",
    "id_image": "City_332525",
    "count_view": 0
  },
  {
    "link_thumb": "https://live.staticflickr.com/65535/50038953483_e9bd090140_n.jpg",
    "id_album": "-1964113117",
    "description": "City_854794",
    "title": "City_854794",
    "link_img": "https://live.staticflickr.com/65535/50038953483_afca357b5e_o.jpg",
    "id_image": "City_854794",
    "count_view": 0
  },
  {
    "link_thumb": "https://live.staticflickr.com/65535/50040906763_ee5fc02ae7_n.jpg",
    "id_album": "-1261420436",
    "description": "Warrior_427872",
    "title": "Warrior_427872",
    "link_img": "https://live.staticflickr.com/65535/50040906763_160598ecff_o.jpg",
    "id_image": "Warrior_427872",
    "count_view": 0
  },
  {
    "link_thumb": "https://live.staticflickr.com/65535/50041530941_08e3ec261c_n.jpg",
    "id_album": "-1126835654",
    "description": "Women_421665",
    "title": "Women_421665",
    "link_img": "https://live.staticflickr.com/65535/50041530941_373fbbc196_o.jpg",
    "id_image": "Women_421665",
    "count_view": 0
  },
  {
    "link_thumb": "https://live.staticflickr.com/65535/50039451431_e5cca83cab_n.jpg",
    "id_album": "-1964113117",
    "description": "City_233924",
    "title": "City_233924",
    "link_img": "https://live.staticflickr.com/65535/50039451431_7c57f7ac06_o.jpg",
    "id_image": "City_233924",
    "count_view": 0
  },
  {
    "link_thumb": "https://live.staticflickr.com/65535/50040047172_d6ec255742_n.jpg",
    "id_album": "-1610342324",
    "description": "Nebula_289240",
    "title": "Nebula_289240",
    "link_img": "https://live.staticflickr.com/65535/50040047172_00e8a6053a_o.jpg",
    "id_image": "Nebula_289240",
    "count_view": 0
  },
  {
    "link_thumb": "https://live.staticflickr.com/65535/50040597427_0060b066a5_n.jpg",
    "id_album": "779690680",
    "description": "Robot_554881",
    "title": "Robot_554881",
    "link_img": "https://live.staticflickr.com/65535/50040597427_f6891d505a_o.jpg",
    "id_image": "Robot_554881",
    "count_view": 0
  },
  {
    "link_thumb": "https://live.staticflickr.com/65535/50038855628_7aeda00024_n.jpg",
    "id_album": "1187037014",
    "description": "Battle_585062",
    "title": "Battle_585062",
    "link_img": "https://live.staticflickr.com/65535/50038855628_7d071cc005_o.jpg",
    "id_image": "Battle_585062",
    "count_view": 0
  },
  {
    "link_thumb": "https://live.staticflickr.com/65535/50040414416_6e882b04e5_n.jpg",
    "id_album": "779690680",
    "description": "Robot_917203",
    "title": "Robot_917203",
    "link_img": "https://live.staticflickr.com/65535/50040414416_72f0037c6a_o.jpg",
    "id_image": "Robot_917203",
    "count_view": 0
  },
  {
    "link_thumb": "https://live.staticflickr.com/65535/50040406922_9522ec41e3_n.jpg",
    "id_album": "-1102314093",
    "description": "Planets_86673",
    "title": "Planets_86673",
    "link_img": "https://live.staticflickr.com/65535/50040406922_b893d4e152_o.jpg",
    "id_image": "Planets_86673",
    "count_view": 0
  },
  {
    "link_thumb": "https://live.staticflickr.com/65535/50039658692_50dc5dab3a_n.jpg",
    "id_album": "1187037014",
    "description": "Battle_194031",
    "title": "Battle_194031",
    "link_img": "https://live.staticflickr.com/65535/50039658692_283957610d_o.jpg",
    "id_image": "Battle_194031",
    "count_view": 0
  },
  {
    "link_thumb": "https://live.staticflickr.com/65535/50039592757_6354181898_n.jpg",
    "id_album": "523598895",
    "description": "Artistic_353782",
    "title": "Artistic_353782",
    "link_img": "https://live.staticflickr.com/65535/50039592757_c3e10ca174_o.jpg",
    "id_image": "Artistic_353782",
    "count_view": 0
  },
  {
    "link_thumb": "https://live.staticflickr.com/65535/50039085638_f3f1f15e65_n.jpg",
    "id_album": "1204249541",
    "description": "Galaxy_441052",
    "title": "Galaxy_441052",
    "link_img": "https://live.staticflickr.com/65535/50039085638_1dab90f29d_o.jpg",
    "id_image": "Galaxy_441052",
    "count_view": 0
  },
  {
    "link_thumb": "https://live.staticflickr.com/65535/50040863333_04fc14c97f_n.jpg",
    "id_album": "2020068132",
    "description": "Vehicle_876293",
    "title": "Vehicle_876293",
    "link_img": "https://live.staticflickr.com/65535/50040863333_4526303139_o.jpg",
    "id_image": "Vehicle_876293",
    "count_view": 0
  },
  {
    "link_thumb": "https://live.staticflickr.com/65535/50040599676_7ed842bcf8_n.jpg",
    "id_album": "2130067313",
    "description": "Spaceship_215129",
    "title": "Spaceship_215129",
    "link_img": "https://live.staticflickr.com/65535/50040599676_789dd29d26_o.jpg",
    "id_image": "Spaceship_215129",
    "count_view": 0
  },
  {
    "link_thumb": "https://live.staticflickr.com/65535/50040702207_b039b704bd_n.jpg",
    "id_album": "779690680",
    "description": "Robot_9444",
    "title": "Robot_9444",
    "link_img": "https://live.staticflickr.com/65535/50040702207_9d6facde04_o.jpg",
    "id_image": "Robot_9444",
    "count_view": 0
  },
  {
    "link_thumb": "https://live.staticflickr.com/65535/50040727772_3c026f59f0_n.jpg",
    "id_album": "1613540653",
    "description": "Space_110229",
    "title": "Space_110229",
    "link_img": "https://live.staticflickr.com/65535/50040727772_dc3a4d2bec_o.jpg",
    "id_image": "Space_110229",
    "count_view": 0
  },
  {
    "link_thumb": "https://live.staticflickr.com/65535/50040988738_6187f99009_n.jpg",
    "id_album": "-1126835654",
    "description": "Women_608896",
    "title": "Women_608896",
    "link_img": "https://live.staticflickr.com/65535/50040988738_36af47bdfd_o.jpg",
    "id_image": "Women_608896",
    "count_view": 0
  },
  {
    "link_thumb": "https://live.staticflickr.com/65535/50040441806_1d3072103c_n.jpg",
    "id_album": "779690680",
    "description": "Robot_949793",
    "title": "Robot_949793",
    "link_img": "https://live.staticflickr.com/65535/50040441806_eba835940c_o.jpg",
    "id_image": "Robot_949793",
    "count_view": 0
  },
  {
    "link_thumb": "https://live.staticflickr.com/65535/50040925803_c0cbf7d138_n.jpg",
    "id_album": "-1261420436",
    "description": "Warrior_649049",
    "title": "Warrior_649049",
    "link_img": "https://live.staticflickr.com/65535/50040925803_2a06f15c00_o.jpg",
    "id_image": "Warrior_649049",
    "count_view": 0
  },
  {
    "link_thumb": "https://live.staticflickr.com/65535/50039316241_d6fce596cf_n.jpg",
    "id_album": "523598895",
    "description": "Artistic_220358",
    "title": "Artistic_220358",
    "link_img": "https://live.staticflickr.com/65535/50039316241_c78fd99072_o.jpg",
    "id_image": "Artistic_220358",
    "count_view": 0
  },
  {
    "link_thumb": "https://live.staticflickr.com/65535/50039747612_1d8f2eb968_n.jpg",
    "id_album": "-1964113117",
    "description": "City_671368",
    "title": "City_671368",
    "link_img": "https://live.staticflickr.com/65535/50039747612_8a3372d712_o.jpg",
    "id_image": "City_671368",
    "count_view": 0
  },
  {
    "link_thumb": "https://live.staticflickr.com/65535/50039606777_a6ccbb3636_n.jpg",
    "id_album": "523598895",
    "description": "Artistic_808400",
    "title": "Artistic_808400",
    "link_img": "https://live.staticflickr.com/65535/50039606777_09f2d76885_o.jpg",
    "id_image": "Artistic_808400",
    "count_view": 0
  },
  {
    "link_thumb": "https://live.staticflickr.com/65535/50039675871_6c68d89b52_n.jpg",
    "id_album": "1402713104",
    "description": "Landscape_323795",
    "title": "Landscape_323795",
    "link_img": "https://live.staticflickr.com/65535/50039675871_96e5113680_o.jpg",
    "id_image": "Landscape_323795",
    "count_view": 0
  },
  {
    "link_thumb": "https://live.staticflickr.com/65535/50041488226_d42793aa2f_n.jpg",
    "id_album": "-1261420436",
    "description": "Warrior_82405",
    "title": "Warrior_82405",
    "link_img": "https://live.staticflickr.com/65535/50041488226_306cf68125_o.jpg",
    "id_image": "Warrior_82405",
    "count_view": 0
  },
  {
    "link_thumb": "https://live.staticflickr.com/65535/50039805311_4bd9dec186_n.jpg",
    "id_album": "-1610342324",
    "description": "Nebula_539744",
    "title": "Nebula_539744",
    "link_img": "https://live.staticflickr.com/65535/50039805311_52141fd0fa_o.jpg",
    "id_image": "Nebula_539744",
    "count_view": 0
  },
  {
    "link_thumb": "https://live.staticflickr.com/65535/50039491462_f44802d3c4_n.jpg",
    "id_album": "280884763",
    "description": "Abstract_286792",
    "title": "Abstract_286792",
    "link_img": "https://live.staticflickr.com/65535/50039491462_9ac75134d8_o.jpg",
    "id_image": "Abstract_286792",
    "count_view": 0
  },
  {
    "link_thumb": "https://live.staticflickr.com/65535/50038987518_2a665c4755_n.jpg",
    "id_album": "894679094",
    "description": "Collision_13253",
    "title": "Collision_13253",
    "link_img": "https://live.staticflickr.com/65535/50038987518_3f981130ae_o.jpg",
    "id_image": "Collision_13253",
    "count_view": 0
  },
  {
    "link_thumb": "https://live.staticflickr.com/65535/50039757821_c0060d6c17_n.jpg",
    "id_album": "416351698",
    "description": "Moon_665843",
    "title": "Moon_665843",
    "link_img": "https://live.staticflickr.com/65535/50039757821_60130df15c_o.jpg",
    "id_image": "Moon_665843",
    "count_view": 0
  },
  {
    "link_thumb": "https://live.staticflickr.com/65535/50039352163_b85574b31c_n.jpg",
    "id_album": "395161030",
    "description": "Planet_1007692",
    "title": "Planet_1007692",
    "link_img": "https://live.staticflickr.com/65535/50039352163_d1bfdd4bee_o.jpg",
    "id_image": "Planet_1007692",
    "count_view": 0
  },
  {
    "link_thumb": "https://live.staticflickr.com/65535/50039547106_bb98946138_n.jpg",
    "id_album": "-437872736",
    "description": "Creature_218508",
    "title": "Creature_218508",
    "link_img": "https://live.staticflickr.com/65535/50039547106_111fe677cf_o.jpg",
    "id_image": "Creature_218508",
    "count_view": 0
  },
  {
    "link_thumb": "https://live.staticflickr.com/65535/50039897118_fba5303639_n.jpg",
    "id_album": "779690680",
    "description": "Robot_978187",
    "title": "Robot_978187",
    "link_img": "https://live.staticflickr.com/65535/50039897118_6f4b0b6f11_o.jpg",
    "id_image": "Robot_978187",
    "count_view": 0
  },
  {
    "link_thumb": "https://live.staticflickr.com/65535/50039606183_cda5d2b2dc_n.jpg",
    "id_album": "376235057",
    "description": "Planetscape_286985",
    "title": "Planetscape_286985",
    "link_img": "https://live.staticflickr.com/65535/50039606183_44d6e38c20_o.jpg",
    "id_image": "Planetscape_286985",
    "count_view": 0
  },
  {
    "link_thumb": "https://live.staticflickr.com/65535/50041560802_3bb2dff9f7_n.jpg",
    "id_album": "1267121215",
    "description": "Steampunk_191453",
    "title": "Steampunk_191453",
    "link_img": "https://live.staticflickr.com/65535/50041560802_b24a4d44b4_o.jpg",
    "id_image": "Steampunk_191453",
    "count_view": 0
  },
  {
    "link_thumb": "https://live.staticflickr.com/65535/50040534327_86e49cbb1e_n.jpg",
    "id_album": "779690680",
    "description": "Robot_243468",
    "title": "Robot_243468",
    "link_img": "https://live.staticflickr.com/65535/50040534327_4232b5dd20_o.jpg",
    "id_image": "Robot_243468",
    "count_view": 0
  },
  {
    "link_thumb": "https://live.staticflickr.com/65535/50039875563_d1d7d73a2d_n.jpg",
    "id_album": "779690680",
    "description": "Robot_933176",
    "title": "Robot_933176",
    "link_img": "https://live.staticflickr.com/65535/50039875563_3fabc64571_o.jpg",
    "id_image": "Robot_933176",
    "count_view": 0
  },
  {
    "link_thumb": "https://live.staticflickr.com/65535/50039538408_44ebcb12d8_n.jpg",
    "id_album": "-1102314093",
    "description": "Planets_344840",
    "title": "Planets_344840",
    "link_img": "https://live.staticflickr.com/65535/50039538408_6e6eace4a0_o.jpg",
    "id_image": "Planets_344840",
    "count_view": 0
  },
  {
    "link_thumb": "https://live.staticflickr.com/65535/50039381796_dec156a8a0_n.jpg",
    "id_album": "869545341",
    "description": "Astronaut_925911",
    "title": "Astronaut_925911",
    "link_img": "https://live.staticflickr.com/65535/50039381796_cdbb76edff_o.jpg",
    "id_image": "Astronaut_925911",
    "count_view": 0
  },
  {
    "link_thumb": "https://live.staticflickr.com/65535/50039181093_54a34dd311_n.jpg",
    "id_album": "-1388385651",
    "description": "MilkyWay_153297",
    "title": "MilkyWay_153297",
    "link_img": "https://live.staticflickr.com/65535/50039181093_61f7bef3af_o.jpg",
    "id_image": "MilkyWay_153297",
    "count_view": 0
  },
  {
    "link_thumb": "https://live.staticflickr.com/65535/50041573897_d351be8e93_n.jpg",
    "id_album": "1267121215",
    "description": "Steampunk_291142",
    "title": "Steampunk_291142",
    "link_img": "https://live.staticflickr.com/65535/50041573897_e8d93ab351_o.jpg",
    "id_image": "Steampunk_291142",
    "count_view": 0
  },
  {
    "link_thumb": "https://live.staticflickr.com/65535/50039775206_95665748ea_n.jpg",
    "id_album": "-1610342324",
    "description": "Nebula_243346",
    "title": "Nebula_243346",
    "link_img": "https://live.staticflickr.com/65535/50039775206_0ae0d0f322_o.jpg",
    "id_image": "Nebula_243346",
    "count_view": 0
  },
  {
    "link_thumb": "https://live.staticflickr.com/65535/50040261297_5994d0ac1c_n.jpg",
    "id_album": "1443611160",
    "description": "PlanetRise_210467",
    "title": "PlanetRise_210467",
    "link_img": "https://live.staticflickr.com/65535/50040261297_0a635f0a19_o.jpg",
    "id_image": "PlanetRise_210467",
    "count_view": 0
  },
  {
    "link_thumb": "https://live.staticflickr.com/65535/50040123217_b9a514aa26_n.jpg",
    "id_album": "-1610342324",
    "description": "Nebula_997315",
    "title": "Nebula_997315",
    "link_img": "https://live.staticflickr.com/65535/50040123217_3fef5baa52_o.jpg",
    "id_image": "Nebula_997315",
    "count_view": 0
  },
  {
    "link_thumb": "https://live.staticflickr.com/65535/50039870548_5a38cfcf28_n.jpg",
    "id_album": "779690680",
    "description": "Robot_928592",
    "title": "Robot_928592",
    "link_img": "https://live.staticflickr.com/65535/50039870548_fa55d0ceac_o.jpg",
    "id_image": "Robot_928592",
    "count_view": 0
  },
  {
    "link_thumb": "https://live.staticflickr.com/65535/50039911526_09810bb1de_n.jpg",
    "id_album": "395161030",
    "description": "Planet_18033",
    "title": "Planet_18033",
    "link_img": "https://live.staticflickr.com/65535/50039911526_1034241a39_o.jpg",
    "id_image": "Planet_18033",
    "count_view": 0
  },
  {
    "link_thumb": "https://live.staticflickr.com/65535/50040906633_665cb7d8f8_n.jpg",
    "id_album": "-1261420436",
    "description": "Warrior_426470",
    "title": "Warrior_426470",
    "link_img": "https://live.staticflickr.com/65535/50040906633_6c024b8064_o.jpg",
    "id_image": "Warrior_426470",
    "count_view": 0
  },
  {
    "link_thumb": "https://live.staticflickr.com/65535/50039876902_34e1cda371_n.jpg",
    "id_album": "2104507156",
    "description": "Fantasy_151186",
    "title": "Fantasy_151186",
    "link_img": "https://live.staticflickr.com/65535/50039876902_8da3de3c24_o.jpg",
    "id_image": "Fantasy_151186",
    "count_view": 0
  },
  {
    "link_thumb": "https://live.staticflickr.com/65535/50038940478_3db020d6dc_n.jpg",
    "id_album": "-1964113117",
    "description": "City_694107",
    "title": "City_694107",
    "link_img": "https://live.staticflickr.com/65535/50038940478_28f04d2dd3_o.jpg",
    "id_image": "City_694107",
    "count_view": 0
  },
  {
    "link_thumb": "https://live.staticflickr.com/65535/50040246168_f937beb9e3_n.jpg",
    "id_album": "-1449720967",
    "description": "StarTrek_177180",
    "title": "StarTrek_177180",
    "link_img": "https://live.staticflickr.com/65535/50040246168_fdcde32423_o.jpg",
    "id_image": "StarTrek_177180",
    "count_view": 0
  },
  {
    "link_thumb": "https://live.staticflickr.com/65535/50038687753_5773180ccc_n.jpg",
    "id_album": "-406145265",
    "description": "Aircraft_267630",
    "title": "Aircraft_267630",
    "link_img": "https://live.staticflickr.com/65535/50038687753_24c1d75268_o.jpg",
    "id_image": "Aircraft_267630",
    "count_view": 0
  },
  {
    "link_thumb": "https://live.staticflickr.com/65535/50040063376_dae70f6ec7_n.jpg",
    "id_album": "-1102314093",
    "description": "Planets_234617",
    "title": "Planets_234617",
    "link_img": "https://live.staticflickr.com/65535/50040063376_69a75e928a_o.jpg",
    "id_image": "Planets_234617",
    "count_view": 0
  },
  {
    "link_thumb": "https://live.staticflickr.com/65535/50040428352_a82f28aaf7_n.jpg",
    "id_album": "376235057",
    "description": "Planetscape_353659",
    "title": "Planetscape_353659",
    "link_img": "https://live.staticflickr.com/65535/50040428352_1117f7a025_o.jpg",
    "id_image": "Planetscape_353659",
    "count_view": 0
  },
  {
    "link_thumb": "https://live.staticflickr.com/65535/50040148671_7f6a74cd77_n.jpg",
    "id_album": "-1102314093",
    "description": "Planets_957396",
    "title": "Planets_957396",
    "link_img": "https://live.staticflickr.com/65535/50040148671_3feb3b2926_o.jpg",
    "id_image": "Planets_957396",
    "count_view": 0
  },
  {
    "link_thumb": "https://live.staticflickr.com/65535/50039114988_e17c782d9b_n.jpg",
    "id_album": "1402713104",
    "description": "Landscape_189233",
    "title": "Landscape_189233",
    "link_img": "https://live.staticflickr.com/65535/50039114988_61bf52bf4e_o.jpg",
    "id_image": "Landscape_189233",
    "count_view": 0
  },
  {
    "link_thumb": "https://live.staticflickr.com/65535/50041434292_d05790b167_n.jpg",
    "id_album": "-1863373220",
    "description": "StarWars_377752",
    "title": "StarWars_377752",
    "link_img": "https://live.staticflickr.com/65535/50041434292_65aed7d36f_o.jpg",
    "id_image": "StarWars_377752",
    "count_view": 0
  },
  {
    "link_thumb": "https://live.staticflickr.com/65535/50040620673_b5e78741f2_n.jpg",
    "id_album": "-1863373220",
    "description": "StarWars_386934",
    "title": "StarWars_386934",
    "link_img": "https://live.staticflickr.com/65535/50040620673_a896c1b5b4_o.jpg",
    "id_image": "StarWars_386934",
    "count_view": 0
  },
  {
    "link_thumb": "https://live.staticflickr.com/65535/50040051167_90d3afcffd_n.jpg",
    "id_album": "-1610342324",
    "description": "Nebula_352108",
    "title": "Nebula_352108",
    "link_img": "https://live.staticflickr.com/65535/50040051167_eb871663e8_o.jpg",
    "id_image": "Nebula_352108",
    "count_view": 0
  },
  {
    "link_thumb": "https://live.staticflickr.com/65535/50040119336_4dfb371931_n.jpg",
    "id_album": "-1102314093",
    "description": "Planets_502963",
    "title": "Planets_502963",
    "link_img": "https://live.staticflickr.com/65535/50040119336_806373b1ea_o.jpg",
    "id_image": "Planets_502963",
    "count_view": 0
  },
  {
    "link_thumb": "https://live.staticflickr.com/65535/50039775792_040525c922_n.jpg",
    "id_album": "-1964113117",
    "description": "City_891503",
    "title": "City_891503",
    "link_img": "https://live.staticflickr.com/65535/50039775792_70dacee717_o.jpg",
    "id_image": "City_891503",
    "count_view": 0
  },
  {
    "link_thumb": "https://live.staticflickr.com/65535/50040611483_7b5761554a_n.jpg",
    "id_album": "-1863373220",
    "description": "StarWars_320291",
    "title": "StarWars_320291",
    "link_img": "https://live.staticflickr.com/65535/50040611483_1ed0a76c7c_o.jpg",
    "id_image": "StarWars_320291",
    "count_view": 0
  },
  {
    "link_thumb": "https://live.staticflickr.com/65535/50039005868_3f7113c53e_n.jpg",
    "id_album": "-437872736",
    "description": "Creature_372781",
    "title": "Creature_372781",
    "link_img": "https://live.staticflickr.com/65535/50039005868_3d30f29d99_o.jpg",
    "id_image": "Creature_372781",
    "count_view": 0
  },
  {
    "link_thumb": "https://live.staticflickr.com/65535/50039880378_8bbfcfbb7d_n.jpg",
    "id_album": "779690680",
    "description": "Robot_940953",
    "title": "Robot_940953",
    "link_img": "https://live.staticflickr.com/65535/50039880378_3f764b3171_o.jpg",
    "id_image": "Robot_940953",
    "count_view": 0
  },
  {
    "link_thumb": "https://live.staticflickr.com/65535/50039245426_0d752812e5_n.jpg",
    "id_album": "849020728",
    "description": "Alien_133339",
    "title": "Alien_133339",
    "link_img": "https://live.staticflickr.com/65535/50039245426_831d62c485_o.jpg",
    "id_image": "Alien_133339",
    "count_view": 0
  },
  {
    "link_thumb": "https://live.staticflickr.com/65535/50038994348_8b720a29f6_n.jpg",
    "id_album": "894679094",
    "description": "Collision_677704",
    "title": "Collision_677704",
    "link_img": "https://live.staticflickr.com/65535/50038994348_e8ef029a18_o.jpg",
    "id_image": "Collision_677704",
    "count_view": 0
  },
  {
    "link_thumb": "https://live.staticflickr.com/65535/50039798427_f136207562_n.jpg",
    "id_album": "894679094",
    "description": "Collision_192887",
    "title": "Collision_192887",
    "link_img": "https://live.staticflickr.com/65535/50039798427_c5ac94d265_o.jpg",
    "id_image": "Collision_192887",
    "count_view": 0
  },
  {
    "link_thumb": "https://live.staticflickr.com/65535/50039497947_6116e7ddd0_n.jpg",
    "id_album": "-406145265",
    "description": "Aircraft_269232",
    "title": "Aircraft_269232",
    "link_img": "https://live.staticflickr.com/65535/50039497947_10750e8705_o.jpg",
    "id_image": "Aircraft_269232",
    "count_view": 0
  },
  {
    "link_thumb": "https://live.staticflickr.com/65535/50039810966_74a8e4e6a3_n.jpg",
    "id_album": "-1610342324",
    "description": "Nebula_560769",
    "title": "Nebula_560769",
    "link_img": "https://live.staticflickr.com/65535/50039810966_cabd38a3ca_o.jpg",
    "id_image": "Nebula_560769",
    "count_view": 0
  },
  {
    "link_thumb": "https://live.staticflickr.com/65535/50039709587_f82e5926b3_n.jpg",
    "id_album": "-1964113117",
    "description": "City_214299",
    "title": "City_214299",
    "link_img": "https://live.staticflickr.com/65535/50039709587_4709dbcbf1_o.jpg",
    "id_image": "City_214299",
    "count_view": 0
  },
  {
    "link_thumb": "https://live.staticflickr.com/65535/50040023957_a5d6ce6c3a_n.jpg",
    "id_album": "-1610342324",
    "description": "Nebula_1009935",
    "title": "Nebula_1009935",
    "link_img": "https://live.staticflickr.com/65535/50040023957_bfcdd3754f_o.jpg",
    "id_image": "Nebula_1009935",
    "count_view": 0
  },
  {
    "link_thumb": "https://live.staticflickr.com/65535/50039564948_13493836fc_n.jpg",
    "id_album": "-1102314093",
    "description": "Planets_433687",
    "title": "Planets_433687",
    "link_img": "https://live.staticflickr.com/65535/50039564948_d486e48f1e_o.jpg",
    "id_image": "Planets_433687",
    "count_view": 0
  },
  {
    "link_thumb": "https://live.staticflickr.com/65535/50038987633_432da20b57_n.jpg",
    "id_album": "894679094",
    "description": "Collision_134860",
    "title": "Collision_134860",
    "link_img": "https://live.staticflickr.com/65535/50038987633_a39eb220a7_o.jpg",
    "id_image": "Collision_134860",
    "count_view": 0
  },
  {
    "link_thumb": "https://live.staticflickr.com/65535/50040277987_7580a49da4_n.jpg",
    "id_album": "1443611160",
    "description": "PlanetRise_785848",
    "title": "PlanetRise_785848",
    "link_img": "https://live.staticflickr.com/65535/50040277987_a91df36e70_o.jpg",
    "id_image": "PlanetRise_785848",
    "count_view": 0
  },
  {
    "link_thumb": "https://live.staticflickr.com/65535/50040204277_f7dc4fc3b7_n.jpg",
    "id_album": "395161030",
    "description": "Planet_373692",
    "title": "Planet_373692",
    "link_img": "https://live.staticflickr.com/65535/50040204277_b175835819_o.jpg",
    "id_image": "Planet_373692",
    "count_view": 0
  },
  {
    "link_thumb": "https://live.staticflickr.com/65535/50039994677_0af103918c_n.jpg",
    "id_album": "-1388385651",
    "description": "MilkyWay_308365",
    "title": "MilkyWay_308365",
    "link_img": "https://live.staticflickr.com/65535/50039994677_4912721877_o.jpg",
    "id_image": "MilkyWay_308365",
    "count_view": 0
  },
  {
    "link_thumb": "https://live.staticflickr.com/65535/50041574461_699d2d5bfd_n.jpg",
    "id_album": "-1675918237",
    "description": "WomenWarrior_410152",
    "title": "WomenWarrior_410152",
    "link_img": "https://live.staticflickr.com/65535/50041574461_e442702eb4_o.jpg",
    "id_image": "WomenWarrior_410152",
    "count_view": 0
  },
  {
    "link_thumb": "https://live.staticflickr.com/65535/50040162231_b449095da9_n.jpg",
    "id_album": "376235057",
    "description": "Planetscape_347456",
    "title": "Planetscape_347456",
    "link_img": "https://live.staticflickr.com/65535/50040162231_054af219ed_o.jpg",
    "id_image": "Planetscape_347456",
    "count_view": 0
  },
  {
    "link_thumb": "https://live.staticflickr.com/65535/50038849728_d0ce966729_n.jpg",
    "id_album": "1187037014",
    "description": "Battle_248486",
    "title": "Battle_248486",
    "link_img": "https://live.staticflickr.com/65535/50038849728_14a4a84a62_o.jpg",
    "id_image": "Battle_248486",
    "count_view": 0
  },
  {
    "link_thumb": "https://live.staticflickr.com/65535/50040046462_d624e6e3f8_n.jpg",
    "id_album": "-1610342324",
    "description": "Nebula_286815",
    "title": "Nebula_286815",
    "link_img": "https://live.staticflickr.com/65535/50040046462_9bd5346b30_o.jpg",
    "id_image": "Nebula_286815",
    "count_view": 0
  },
  {
    "link_thumb": "https://live.staticflickr.com/65535/50040087207_57b21758b7_n.jpg",
    "id_album": "-1610342324",
    "description": "Nebula_701721",
    "title": "Nebula_701721",
    "link_img": "https://live.staticflickr.com/65535/50040087207_e30a920517_o.jpg",
    "id_image": "Nebula_701721",
    "count_view": 0
  },
  {
    "link_thumb": "https://live.staticflickr.com/65535/50040405616_aa499aca4a_n.jpg",
    "id_album": "779690680",
    "description": "Robot_909549",
    "title": "Robot_909549",
    "link_img": "https://live.staticflickr.com/65535/50040405616_863990d946_o.jpg",
    "id_image": "Robot_909549",
    "count_view": 0
  },
  {
    "link_thumb": "https://live.staticflickr.com/65535/50038996103_7b8c71927e_n.jpg",
    "id_album": "894679094",
    "description": "Collision_920770",
    "title": "Collision_920770",
    "link_img": "https://live.staticflickr.com/65535/50038996103_d459aa3720_o.jpg",
    "id_image": "Collision_920770",
    "count_view": 0
  },
  {
    "link_thumb": "https://live.staticflickr.com/65535/50040476091_070d951d74_n.jpg",
    "id_album": "1613540653",
    "description": "Space_188882",
    "title": "Space_188882",
    "link_img": "https://live.staticflickr.com/65535/50040476091_d41fd1c8cd_o.jpg",
    "id_image": "Space_188882",
    "count_view": 0
  },
  {
    "link_thumb": "https://live.staticflickr.com/65535/50039723526_b8282f4a7d_n.jpg",
    "id_album": "1402713104",
    "description": "Landscape_920078",
    "title": "Landscape_920078",
    "link_img": "https://live.staticflickr.com/65535/50039723526_d8dde91cf1_o.jpg",
    "id_image": "Landscape_920078",
    "count_view": 0
  },
  {
    "link_thumb": "https://live.staticflickr.com/65535/50039639662_691c56fdf3_n.jpg",
    "id_album": "869545341",
    "description": "Astronaut_907775",
    "title": "Astronaut_907775",
    "link_img": "https://live.staticflickr.com/65535/50039639662_66afdbd081_o.jpg",
    "id_image": "Astronaut_907775",
    "count_view": 0
  },
  {
    "link_thumb": "https://live.staticflickr.com/65535/50038917188_1870a05359_n.jpg",
    "id_album": "-1964113117",
    "description": "City_356713",
    "title": "City_356713",
    "link_img": "https://live.staticflickr.com/65535/50038917188_a9dba55148_o.jpg",
    "id_image": "City_356713",
    "count_view": 0
  },
  {
    "link_thumb": "https://live.staticflickr.com/65535/50040867048_2e9290dc4e_n.jpg",
    "id_album": "2020068132",
    "description": "Vehicle_937790",
    "title": "Vehicle_937790",
    "link_img": "https://live.staticflickr.com/65535/50040867048_df299a208b_o.jpg",
    "id_image": "Vehicle_937790",
    "count_view": 0
  },
  {
    "link_thumb": "https://live.staticflickr.com/65535/50040135701_46bafa5edd_n.jpg",
    "id_album": "-1102314093",
    "description": "Planets_786785",
    "title": "Planets_786785",
    "link_img": "https://live.staticflickr.com/65535/50040135701_442f527d34_o.jpg",
    "id_image": "Planets_786785",
    "count_view": 0
  },
  {
    "link_thumb": "https://live.staticflickr.com/65535/50038985263_fb9a017570_n.jpg",
    "id_album": "-1964113117",
    "description": "City_996545",
    "title": "City_996545",
    "link_img": "https://live.staticflickr.com/65535/50038985263_7a1f2cdfd0_o.jpg",
    "id_image": "City_996545",
    "count_view": 0
  },
  {
    "link_thumb": "https://live.staticflickr.com/65535/50040075756_1150f098d3_n.jpg",
    "id_album": "-1102314093",
    "description": "Planets_286826",
    "title": "Planets_286826",
    "link_img": "https://live.staticflickr.com/65535/50040075756_a575035bff_o.jpg",
    "id_image": "Planets_286826",
    "count_view": 0
  },
  {
    "link_thumb": "https://live.staticflickr.com/65535/50039931896_f272d30857_n.jpg",
    "id_album": "395161030",
    "description": "Planet_347830",
    "title": "Planet_347830",
    "link_img": "https://live.staticflickr.com/65535/50039931896_5b03c12046_o.jpg",
    "id_image": "Planet_347830",
    "count_view": 0
  },
  {
    "link_thumb": "https://live.staticflickr.com/65535/50039170858_1d3223b838_n.jpg",
    "id_album": "1402713104",
    "description": "Landscape_901333",
    "title": "Landscape_901333",
    "link_img": "https://live.staticflickr.com/65535/50039170858_6a8ea4833b_o.jpg",
    "id_image": "Landscape_901333",
    "count_view": 0
  },
  {
    "link_thumb": "https://live.staticflickr.com/65535/50040082661_b536248a55_n.jpg",
    "id_album": "-1102314093",
    "description": "Planets_327612",
    "title": "Planets_327612",
    "link_img": "https://live.staticflickr.com/65535/50040082661_21d2dafaab_o.jpg",
    "id_image": "Planets_327612",
    "count_view": 0
  },
  {
    "link_thumb": "https://live.staticflickr.com/65535/50039071633_44d1d631cf_n.jpg",
    "id_album": "2104507156",
    "description": "Fantasy_651323",
    "title": "Fantasy_651323",
    "link_img": "https://live.staticflickr.com/65535/50039071633_44e85c1f45_o.jpg",
    "id_image": "Fantasy_651323",
    "count_view": 0
  },
  {
    "link_thumb": "https://live.staticflickr.com/65535/50040544336_6e298b19e4_n.jpg",
    "id_album": "1613540653",
    "description": "Space_822482",
    "title": "Space_822482",
    "link_img": "https://live.staticflickr.com/65535/50040544336_0a2c07a8ca_o.jpg",
    "id_image": "Space_822482",
    "count_view": 0
  },
  {
    "link_thumb": "https://live.staticflickr.com/65535/50040394107_75d1569728_n.jpg",
    "id_album": "-1102314093",
    "description": "Planets_71704",
    "title": "Planets_71704",
    "link_img": "https://live.staticflickr.com/65535/50040394107_e0fa4ec86d_o.jpg",
    "id_image": "Planets_71704",
    "count_view": 0
  },
  {
    "link_thumb": "https://live.staticflickr.com/65535/50039782861_e874991a2d_n.jpg",
    "id_album": "-1610342324",
    "description": "Nebula_286825",
    "title": "Nebula_286825",
    "link_img": "https://live.staticflickr.com/65535/50039782861_22931596a8_o.jpg",
    "id_image": "Nebula_286825",
    "count_view": 0
  },
  {
    "link_thumb": "https://live.staticflickr.com/65535/50039060398_fab95df1b7_n.jpg",
    "id_album": "651930207",
    "description": "Explosion_353616",
    "title": "Explosion_353616",
    "link_img": "https://live.staticflickr.com/65535/50039060398_e2897d0cac_o.jpg",
    "id_image": "Explosion_353616",
    "count_view": 0
  },
  {
    "link_thumb": "https://live.staticflickr.com/65535/50040297451_a4358d555b_n.jpg",
    "id_album": "779690680",
    "description": "Robot_373439",
    "title": "Robot_373439",
    "link_img": "https://live.staticflickr.com/65535/50040297451_e5c8147826_o.jpg",
    "id_image": "Robot_373439",
    "count_view": 0
  },
  {
    "link_thumb": "https://live.staticflickr.com/65535/50040479196_91af8c5407_n.jpg",
    "id_album": "1613540653",
    "description": "Space_207816",
    "title": "Space_207816",
    "link_img": "https://live.staticflickr.com/65535/50040479196_6678cdc929_o.jpg",
    "id_image": "Space_207816",
    "count_view": 0
  },
  {
    "link_thumb": "https://live.staticflickr.com/65535/50040671337_a5ebc1ea95_n.jpg",
    "id_album": "779690680",
    "description": "Robot_910943",
    "title": "Robot_910943",
    "link_img": "https://live.staticflickr.com/65535/50040671337_66f3616f26_o.jpg",
    "id_image": "Robot_910943",
    "count_view": 0
  },
  {
    "link_thumb": "https://live.staticflickr.com/65535/50039895187_e847e0aa6c_n.jpg",
    "id_album": "1204249541",
    "description": "Galaxy_397540",
    "title": "Galaxy_397540",
    "link_img": "https://live.staticflickr.com/65535/50039895187_d05524a1fc_o.jpg",
    "id_image": "Galaxy_397540",
    "count_view": 0
  },
  {
    "link_thumb": "https://live.staticflickr.com/65535/50039474601_d3e534b062_n.jpg",
    "id_album": "-1964113117",
    "description": "City_51459",
    "title": "City_51459",
    "link_img": "https://live.staticflickr.com/65535/50039474601_b2083b5ba7_o.jpg",
    "id_image": "City_51459",
    "count_view": 0
  },
  {
    "link_thumb": "https://live.staticflickr.com/65535/50039583331_06522fb2f4_n.jpg",
    "id_album": "829169633",
    "description": "Cyborg_265063",
    "title": "Cyborg_265063",
    "link_img": "https://live.staticflickr.com/65535/50039583331_bea7fb02ed_o.jpg",
    "id_image": "Cyborg_265063",
    "count_view": 0
  },
  {
    "link_thumb": "https://live.staticflickr.com/65535/50040461347_7a203ff34a_n.jpg",
    "id_album": "-482547208",
    "description": "PostApocalyptic_221988",
    "title": "PostApocalyptic_221988",
    "link_img": "https://live.staticflickr.com/65535/50040461347_123d3296f8_o.jpg",
    "id_image": "PostApocalyptic_221988",
    "count_view": 0
  },
  {
    "link_thumb": "https://live.staticflickr.com/65535/50040852462_9216c8208b_n.jpg",
    "id_album": "2130067313",
    "description": "Spaceship_179006",
    "title": "Spaceship_179006",
    "link_img": "https://live.staticflickr.com/65535/50040852462_d1b810da87_o.jpg",
    "id_image": "Spaceship_179006",
    "count_view": 0
  },
  {
    "link_thumb": "https://live.staticflickr.com/65535/50038738103_2cf552aa28_n.jpg",
    "id_album": "-419633230",
    "description": "Apocalyptic_678101",
    "title": "Apocalyptic_678101",
    "link_img": "https://live.staticflickr.com/65535/50038738103_94aa5ba697_o.jpg",
    "id_image": "Apocalyptic_678101",
    "count_view": 0
  },
  {
    "link_thumb": "https://live.staticflickr.com/65535/50040085946_e2e157dc7c_n.jpg",
    "id_album": "-1102314093",
    "description": "Planets_333001",
    "title": "Planets_333001",
    "link_img": "https://live.staticflickr.com/65535/50040085946_e61175d46f_o.jpg",
    "id_image": "Planets_333001",
    "count_view": 0
  },
  {
    "link_thumb": "https://live.staticflickr.com/65535/50040111847_4e70bb7b4e_n.jpg",
    "id_album": "-1610342324",
    "description": "Nebula_876168",
    "title": "Nebula_876168",
    "link_img": "https://live.staticflickr.com/65535/50040111847_ef0a697003_o.jpg",
    "id_image": "Nebula_876168",
    "count_view": 0
  },
  {
    "link_thumb": "https://live.staticflickr.com/65535/50040146337_df9a7a2c97_n.jpg",
    "id_album": "-1862561193",
    "description": "Other_269524",
    "title": "Other_269524",
    "link_img": "https://live.staticflickr.com/65535/50040146337_c0d8d588f8_o.jpg",
    "id_image": "Other_269524",
    "count_view": 0
  },
  {
    "link_thumb": "https://live.staticflickr.com/65535/50039249806_7ab4020e6a_n.jpg",
    "id_album": "849020728",
    "description": "Alien_179427",
    "title": "Alien_179427",
    "link_img": "https://live.staticflickr.com/65535/50039249806_31046f521c_o.jpg",
    "id_image": "Alien_179427",
    "count_view": 0
  },
  {
    "link_thumb": "https://live.staticflickr.com/65535/50040714458_0d99f10ec3_n.jpg",
    "id_album": "-1587696329",
    "description": "Stars_438994",
    "title": "Stars_438994",
    "link_img": "https://live.staticflickr.com/65535/50040714458_7c5f042b8c_o.jpg",
    "id_image": "Stars_438994",
    "count_view": 0
  },
  {
    "link_thumb": "https://live.staticflickr.com/65535/50039646813_0a42f50b96_n.jpg",
    "id_album": "-482547208",
    "description": "PostApocalyptic_237054",
    "title": "PostApocalyptic_237054",
    "link_img": "https://live.staticflickr.com/65535/50039646813_e28939975b_o.jpg",
    "id_image": "PostApocalyptic_237054",
    "count_view": 0
  },
  {
    "link_thumb": "https://live.staticflickr.com/65535/50040808182_d770ece8da_n.jpg",
    "id_album": "1613540653",
    "description": "Space_822469",
    "title": "Space_822469",
    "link_img": "https://live.staticflickr.com/65535/50040808182_84af645c86_o.jpg",
    "id_image": "Space_822469",
    "count_view": 0
  },
  {
    "link_thumb": "https://live.staticflickr.com/65535/50039010773_f5450cb403_n.jpg",
    "id_album": "-437872736",
    "description": "Creature_881685",
    "title": "Creature_881685",
    "link_img": "https://live.staticflickr.com/65535/50039010773_0d120dcbd3_o.jpg",
    "id_image": "Creature_881685",
    "count_view": 0
  },
  {
    "link_thumb": "https://live.staticflickr.com/65535/50039958782_f20dbffaba_n.jpg",
    "id_album": "1402713104",
    "description": "Landscape_588480",
    "title": "Landscape_588480",
    "link_img": "https://live.staticflickr.com/65535/50039958782_69e05a8109_o.jpg",
    "id_image": "Landscape_588480",
    "count_view": 0
  },
  {
    "link_thumb": "https://live.staticflickr.com/65535/50039996046_e56066bfdb_n.jpg",
    "id_album": "1443611160",
    "description": "PlanetRise_121801",
    "title": "PlanetRise_121801",
    "link_img": "https://live.staticflickr.com/65535/50039996046_a46456ab6e_o.jpg",
    "id_image": "PlanetRise_121801",
    "count_view": 0
  },
  {
    "link_thumb": "https://live.staticflickr.com/65535/50038721758_5aeda8d848_n.jpg",
    "id_album": "849020728",
    "description": "Alien_556059",
    "title": "Alien_556059",
    "link_img": "https://live.staticflickr.com/65535/50038721758_ba2b32158e_o.jpg",
    "id_image": "Alien_556059",
    "count_view": 0
  },
  {
    "link_thumb": "https://live.staticflickr.com/65535/50039235308_6b102764e1_n.jpg",
    "id_album": "-1610342324",
    "description": "Nebula_302720",
    "title": "Nebula_302720",
    "link_img": "https://live.staticflickr.com/65535/50039235308_ebcea8fa0b_o.jpg",
    "id_image": "Nebula_302720",
    "count_view": 0
  },
  {
    "link_thumb": "https://live.staticflickr.com/65535/50039867783_23f14f5a24_n.jpg",
    "id_album": "779690680",
    "description": "Robot_928546",
    "title": "Robot_928546",
    "link_img": "https://live.staticflickr.com/65535/50039867783_7237550a22_o.jpg",
    "id_image": "Robot_928546",
    "count_view": 0
  },
  {
    "link_thumb": "https://live.staticflickr.com/65535/50040876418_4d95380fdf_n.jpg",
    "id_album": "-1261420436",
    "description": "Warrior_112610",
    "title": "Warrior_112610",
    "link_img": "https://live.staticflickr.com/65535/50040876418_6eac8480f4_o.jpg",
    "id_image": "Warrior_112610",
    "count_view": 0
  },
  {
    "link_thumb": "https://live.staticflickr.com/65535/50041446046_3f04f449db_n.jpg",
    "id_album": "-1261420436",
    "description": "Warrior_313857",
    "title": "Warrior_313857",
    "link_img": "https://live.staticflickr.com/65535/50041446046_9312e351db_o.jpg",
    "id_image": "Warrior_313857",
    "count_view": 0
  },
  {
    "link_thumb": "https://live.staticflickr.com/65535/50038844318_5b4f7275d4_n.jpg",
    "id_album": "869545341",
    "description": "Astronaut_996258",
    "title": "Astronaut_996258",
    "link_img": "https://live.staticflickr.com/65535/50038844318_244c098fc4_o.jpg",
    "id_image": "Astronaut_996258",
    "count_view": 0
  },
  {
    "link_thumb": "https://live.staticflickr.com/65535/50039015418_d5a7a41381_n.jpg",
    "id_album": "-1372247677",
    "description": "Cyberpunk_872307",
    "title": "Cyberpunk_872307",
    "link_img": "https://live.staticflickr.com/65535/50039015418_af7b16e04a_o.jpg",
    "id_image": "Cyberpunk_872307",
    "count_view": 0
  },
  {
    "link_thumb": "https://live.staticflickr.com/65535/50039828293_577d6ef6aa_n.jpg",
    "id_album": "779690680",
    "description": "Robot_871703",
    "title": "Robot_871703",
    "link_img": "https://live.staticflickr.com/65535/50039828293_c46163a98b_o.jpg",
    "id_image": "Robot_871703",
    "count_view": 0
  },
  {
    "link_thumb": "https://live.staticflickr.com/65535/50040062922_13859f8575_n.jpg",
    "id_album": "-1610342324",
    "description": "Nebula_45819",
    "title": "Nebula_45819",
    "link_img": "https://live.staticflickr.com/65535/50040062922_351788faca_o.jpg",
    "id_image": "Nebula_45819",
    "count_view": 0
  },
  {
    "link_thumb": "https://live.staticflickr.com/65535/50039261461_a17a0fb36b_n.jpg",
    "id_album": "849020728",
    "description": "Alien_354791",
    "title": "Alien_354791",
    "link_img": "https://live.staticflickr.com/65535/50039261461_e00f5fa779_o.jpg",
    "id_image": "Alien_354791",
    "count_view": 0
  },
  {
    "link_thumb": "https://live.staticflickr.com/65535/50039663242_eb7d862795_n.jpg",
    "id_album": "1187037014",
    "description": "Battle_304903",
    "title": "Battle_304903",
    "link_img": "https://live.staticflickr.com/65535/50039663242_4285e78999_o.jpg",
    "id_image": "Battle_304903",
    "count_view": 0
  },
  {
    "link_thumb": "https://live.staticflickr.com/65535/50040187356_0aa9aea747_n.jpg",
    "id_album": "-482547208",
    "description": "PostApocalyptic_1001692",
    "title": "PostApocalyptic_1001692",
    "link_img": "https://live.staticflickr.com/65535/50040187356_8a3483b44c_o.jpg",
    "id_image": "PostApocalyptic_1001692",
    "count_view": 0
  },
  {
    "link_thumb": "https://live.staticflickr.com/65535/50040325237_26a1067750_n.jpg",
    "id_album": "-1102314093",
    "description": "Planets_22375",
    "title": "Planets_22375",
    "link_img": "https://live.staticflickr.com/65535/50040325237_4fe4a29c54_o.jpg",
    "id_image": "Planets_22375",
    "count_view": 0
  },
  {
    "link_thumb": "https://live.staticflickr.com/65535/50041246281_a67b101dd3_n.jpg",
    "id_album": "-1863373220",
    "description": "StarWars_972995",
    "title": "StarWars_972995",
    "link_img": "https://live.staticflickr.com/65535/50041246281_c426289fab_o.jpg",
    "id_image": "StarWars_972995",
    "count_view": 0
  },
  {
    "link_thumb": "https://live.staticflickr.com/65535/50040395511_931bce6f91_n.jpg",
    "id_album": "779690680",
    "description": "Robot_887987",
    "title": "Robot_887987",
    "link_img": "https://live.staticflickr.com/65535/50040395511_0dc88fa65f_o.jpg",
    "id_image": "Robot_887987",
    "count_view": 0
  },
  {
    "link_thumb": "https://live.staticflickr.com/65535/50039061098_31b8e5929b_n.jpg",
    "id_album": "651930207",
    "description": "Explosion_370831",
    "title": "Explosion_370831",
    "link_img": "https://live.staticflickr.com/65535/50039061098_aeda350901_o.jpg",
    "id_image": "Explosion_370831",
    "count_view": 0
  },
  {
    "link_thumb": "https://live.staticflickr.com/65535/50039330736_1e80cccd75_n.jpg",
    "id_album": "523598895",
    "description": "Artistic_347038",
    "title": "Artistic_347038",
    "link_img": "https://live.staticflickr.com/65535/50039330736_9a245ae235_o.jpg",
    "id_image": "Artistic_347038",
    "count_view": 0
  }
]