[
  {
    "link_thumb": "https://live.staticflickr.com/65535/50040034821_12b2f59a6b_n.jpg",
    "id_album": "814701616",
    "description": "PlanetaryRing_463721",
    "title": "PlanetaryRing_463721",
    "link_img": "https://live.staticflickr.com/65535/50040034821_09b987c7f3_o.jpg",
    "id_image": "PlanetaryRing_463721",
    "count_view": 0
  },
  {
    "link_thumb": "https://live.staticflickr.com/65535/50040810557_5ae3fc0466_n.jpg",
    "id_album": "1613540653",
    "description": "Space_841233",
    "title": "Space_841233",
    "link_img": "https://live.staticflickr.com/65535/50040810557_6fd8d78d5b_o.jpg",
    "id_image": "Space_841233",
    "count_view": 0
  },
  {
    "link_thumb": "https://live.staticflickr.com/65535/50039476911_d21ca10a08_n.jpg",
    "id_album": "-1964113117",
    "description": "City_542529",
    "title": "City_542529",
    "link_img": "https://live.staticflickr.com/65535/50039476911_928efa3534_o.jpg",
    "id_image": "City_542529",
    "count_view": 0
  },
  {
    "link_thumb": "https://live.staticflickr.com/65535/50039120158_2d8c61157d_n.jpg",
    "id_album": "1402713104",
    "description": "Landscape_273938",
    "title": "Landscape_273938",
    "link_img": "https://live.staticflickr.com/65535/50039120158_1e1a068bde_o.jpg",
    "id_image": "Landscape_273938",
    "count_view": 0
  },
  {
    "link_thumb": "https://live.staticflickr.com/65535/50040058347_d976ba9bee_n.jpg",
    "id_album": "-1610342324",
    "description": "Nebula_419970",
    "title": "Nebula_419970",
    "link_img": "https://live.staticflickr.com/65535/50040058347_3342a79549_o.jpg",
    "id_image": "Nebula_419970",
    "count_view": 0
  },
  {
    "link_thumb": "https://live.staticflickr.com/65535/50040525713_a008b1745a_n.jpg",
    "id_album": "-1863373220",
    "description": "StarWars_107098",
    "title": "StarWars_107098",
    "link_img": "https://live.staticflickr.com/65535/50040525713_cd1ff158da_o.jpg",
    "id_image": "StarWars_107098",
    "count_view": 0
  },
  {
    "link_thumb": "https://live.staticflickr.com/65535/50040853442_3cb41c6be1_n.jpg",
    "id_album": "2130067313",
    "description": "Spaceship_184501",
    "title": "Spaceship_184501",
    "link_img": "https://live.staticflickr.com/65535/50040853442_16662b4d4f_o.jpg",
    "id_image": "Spaceship_184501",
    "count_view": 0
  },
  {
    "link_thumb": "https://live.staticflickr.com/65535/50039823912_ff9d5aff92_n.jpg",
    "id_album": "-1372247677",
    "description": "Cyberpunk_735467",
    "title": "Cyberpunk_735467",
    "link_img": "https://live.staticflickr.com/65535/50039823912_c2f61a5865_o.jpg",
    "id_image": "Cyberpunk_735467",
    "count_view": 0
  },
  {
    "link_thumb": "https://live.staticflickr.com/65535/50038978883_6c79e5b607_n.jpg",
    "id_album": "-1964113117",
    "description": "City_956741",
    "title": "City_956741",
    "link_img": "https://live.staticflickr.com/65535/50038978883_cdfd0f03c2_o.jpg",
    "id_image": "City_956741",
    "count_view": 0
  },
  {
    "link_thumb": "https://live.staticflickr.com/65535/50041706152_9b9df7bdbc_n.jpg",
    "id_album": "-1261420436",
    "description": "Warrior_283601",
    "title": "Warrior_283601",
    "link_img": "https://live.staticflickr.com/65535/50041706152_b332401af9_o.jpg",
    "id_image": "Warrior_283601",
    "count_view": 0
  },
  {
    "link_thumb": "https://live.staticflickr.com/65535/50039679863_66a41b60e9_n.jpg",
    "id_album": "-482547208",
    "description": "PostApocalyptic_941238",
    "title": "PostApocalyptic_941238",
    "link_img": "https://live.staticflickr.com/65535/50039679863_62529091e1_o.jpg",
    "id_image": "PostApocalyptic_941238",
    "count_view": 0
  },
  {
    "link_thumb": "https://live.staticflickr.com/65535/50039768401_0027491d8c_n.jpg",
    "id_album": "-1610342324",
    "description": "Nebula_203086",
    "title": "Nebula_203086",
    "link_img": "https://live.staticflickr.com/65535/50039768401_2cb9b58f98_o.jpg",
    "id_image": "Nebula_203086",
    "count_view": 0
  },
  {
    "link_thumb": "https://live.staticflickr.com/65535/50039877977_1e51ab50fd_n.jpg",
    "id_album": "2104507156",
    "description": "Fantasy_154341",
    "title": "Fantasy_154341",
    "link_img": "https://live.staticflickr.com/65535/50039877977_193f3b4166_o.jpg",
    "id_image": "Fantasy_154341",
    "count_view": 0
  },
  {
    "link_thumb": "https://live.staticflickr.com/65535/50039853527_ae9a1f888f_n.jpg",
    "id_album": "829169633",
    "description": "Cyborg_488054",
    "title": "Cyborg_488054",
    "link_img": "https://live.staticflickr.com/65535/50039853527_b2c571966e_o.jpg",
    "id_image": "Cyborg_488054",
    "count_view": 0
  },
  {
    "link_thumb": "https://live.staticflickr.com/65535/50040989917_4cf97342fe_n.jpg",
    "id_album": "2130067313",
    "description": "Spaceship_618003",
    "title": "Spaceship_618003",
    "link_img": "https://live.staticflickr.com/65535/50040989917_7225c2f8fe_o.jpg",
    "id_image": "Spaceship_618003",
    "count_view": 0
  },
  {
    "link_thumb": "https://live.staticflickr.com/65535/50041217851_3fea386a18_n.jpg",
    "id_album": "-1863373220",
    "description": "StarWars_711018",
    "title": "StarWars_711018",
    "link_img": "https://live.staticflickr.com/65535/50041217851_af92c3eef6_o.jpg",
    "id_image": "StarWars_711018",
    "count_view": 0
  },
  {
    "link_thumb": "https://live.staticflickr.com/65535/50040549872_eea889a3d7_n.jpg",
    "id_album": "779690680",
    "description": "Robot_309455",
    "title": "Robot_309455",
    "link_img": "https://live.staticflickr.com/65535/50040549872_152c55883b_o.jpg",
    "id_image": "Robot_309455",
    "count_view": 0
  },
  {
    "link_thumb": "https://live.staticflickr.com/65535/50039233878_0bf6f13ce6_n.jpg",
    "id_album": "-1610342324",
    "description": "Nebula_289232",
    "title": "Nebula_289232",
    "link_img": "https://live.staticflickr.com/65535/50039233878_26d3cb40d8_o.jpg",
    "id_image": "Nebula_289232",
    "count_view": 0
  },
  {
    "link_thumb": "https://live.staticflickr.com/65535/50041552641_4fe4c5682e_n.jpg",
    "id_album": "-1126835654",
    "description": "Women_981418",
    "title": "Women_981418",
    "link_img": "https://live.staticflickr.com/65535/50041552641_28700dc9a7_o.jpg",
    "id_image": "Women_981418",
    "count_view": 0
  },
  {
    "link_thumb": "https://live.staticflickr.com/65535/50040303146_73d8b37b50_n.jpg",
    "id_album": "779690680",
    "description": "Robot_404327",
    "title": "Robot_404327",
    "link_img": "https://live.staticflickr.com/65535/50040303146_10130a4844_o.jpg",
    "id_image": "Robot_404327",
    "count_view": 0
  },
  {
    "link_thumb": "https://live.staticflickr.com/65535/50040993588_cbfdf537f3_n.jpg",
    "id_album": "-1126835654",
    "description": "Women_803085",
    "title": "Women_803085",
    "link_img": "https://live.staticflickr.com/65535/50040993588_2a776c4c89_o.jpg",
    "id_image": "Women_803085",
    "count_view": 0
  },
  {
    "link_thumb": "https://live.staticflickr.com/65535/50040209106_07fc87bde5_n.jpg",
    "id_album": "-482547208",
    "description": "PostApocalyptic_373107",
    "title": "PostApocalyptic_373107",
    "link_img": "https://live.staticflickr.com/65535/50040209106_be423b5919_o.jpg",
    "id_image": "PostApocalyptic_373107",
    "count_view": 0
  },
  {
    "link_thumb": "https://live.staticflickr.com/65535/50040043342_cc483293c1_n.jpg",
    "id_album": "-1610342324",
    "description": "Nebula_266266",
    "title": "Nebula_266266",
    "link_img": "https://live.staticflickr.com/65535/50040043342_fc7bacfbbe_o.jpg",
    "id_image": "Nebula_266266",
    "count_view": 0
  },
  {
    "link_thumb": "https://live.staticflickr.com/65535/50038885663_416f6703df_n.jpg",
    "id_album": "-1964113117",
    "description": "City_145242",
    "title": "City_145242",
    "link_img": "https://live.staticflickr.com/65535/50038885663_35b2595cbc_o.jpg",
    "id_image": "City_145242",
    "count_view": 0
  },
  {
    "link_thumb": "https://live.staticflickr.com/65535/50039773401_a78d8b2db0_n.jpg",
    "id_album": "-1610342324",
    "description": "Nebula_225904",
    "title": "Nebula_225904",
    "link_img": "https://live.staticflickr.com/65535/50039773401_f76bef9e82_o.jpg",
    "id_image": "Nebula_225904",
    "count_view": 0
  },
  {
    "link_thumb": "https://live.staticflickr.com/65535/50039624936_a421343e42_n.jpg",
    "id_album": "1204249541",
    "description": "Galaxy_15777",
    "title": "Galaxy_15777",
    "link_img": "https://live.staticflickr.com/65535/50039624936_b4716cc284_o.jpg",
    "id_image": "Galaxy_15777",
    "count_view": 0
  },
  {
    "link_thumb": "https://live.staticflickr.com/65535/50038865963_515c8bd23c_n.jpg",
    "id_album": "-1780971522",
    "description": "Biohazard_458261",
    "title": "Biohazard_458261",
    "link_img": "https://live.staticflickr.com/65535/50038865963_d6d01657e7_o.jpg",
    "id_image": "Biohazard_458261",
    "count_view": 0
  },
  {
    "link_thumb": "https://live.staticflickr.com/65535/50039350968_95fbe45329_n.jpg",
    "id_album": "395161030",
    "description": "Planet_1003035",
    "title": "Planet_1003035",
    "link_img": "https://live.staticflickr.com/65535/50039350968_064a32d958_o.jpg",
    "id_image": "Planet_1003035",
    "count_view": 0
  },
  {
    "link_thumb": "https://live.staticflickr.com/65535/50039245778_1317aaf82f_n.jpg",
    "id_album": "-1610342324",
    "description": "Nebula_422747",
    "title": "Nebula_422747",
    "link_img": "https://live.staticflickr.com/65535/50039245778_700770494c_o.jpg",
    "id_image": "Nebula_422747",
    "count_view": 0
  },
  {
    "link_thumb": "https://live.staticflickr.com/65535/50040817888_2639998c75_n.jpg",
    "id_album": "2020068132",
    "description": "Vehicle_118042",
    "title": "Vehicle_118042",
    "link_img": "https://live.staticflickr.com/65535/50040817888_4454d8f6ae_o.jpg",
    "id_image": "Vehicle_118042",
    "count_view": 0
  },
  {
    "link_thumb": "https://live.staticflickr.com/65535/50040553092_099596f516_n.jpg",
    "id_album": "779690680",
    "description": "Robot_322092",
    "title": "Robot_322092",
    "link_img": "https://live.staticflickr.com/65535/50040553092_8ecf91d1a7_o.jpg",
    "id_image": "Robot_322092",
    "count_view": 0
  },
  {
    "link_thumb": "https://live.staticflickr.com/65535/50040464491_1ae9736992_n.jpg",
    "id_album": "1613540653",
    "description": "Space_113986",
    "title": "Space_113986",
    "link_img": "https://live.staticflickr.com/65535/50040464491_dd8d6066f8_o.jpg",
    "id_image": "Space_113986",
    "count_view": 0
  },
  {
    "link_thumb": "https://live.staticflickr.com/65535/50039131428_2c034d92f0_n.jpg",
    "id_album": "1402713104",
    "description": "Landscape_341730",
    "title": "Landscape_341730",
    "link_img": "https://live.staticflickr.com/65535/50039131428_73d977111c_o.jpg",
    "id_image": "Landscape_341730",
    "count_view": 0
  },
  {
    "link_thumb": "https://live.staticflickr.com/65535/50039696391_a9a75d223f_n.jpg",
    "id_album": "1402713104",
    "description": "Landscape_640392",
    "title": "Landscape_640392",
    "link_img": "https://live.staticflickr.com/65535/50039696391_090394a94e_o.jpg",
    "id_image": "Landscape_640392",
    "count_view": 0
  },
  {
    "link_thumb": "https://live.staticflickr.com/65535/50041459731_2ee3baa194_n.jpg",
    "id_album": "-1261420436",
    "description": "Warrior_409691",
    "title": "Warrior_409691",
    "link_img": "https://live.staticflickr.com/65535/50041459731_7aa44bb43e_o.jpg",
    "id_image": "Warrior_409691",
    "count_view": 0
  },
  {
    "link_thumb": "https://live.staticflickr.com/65535/50041630072_da43943cdc_n.jpg",
    "id_album": "-1177476763",
    "description": "Sunrise_525903",
    "title": "Sunrise_525903",
    "link_img": "https://live.staticflickr.com/65535/50041630072_c391828260_o.jpg",
    "id_image": "Sunrise_525903",
    "count_view": 0
  },
  {
    "link_thumb": "https://live.staticflickr.com/65535/50038814173_be2ed81301_n.jpg",
    "id_album": "869545341",
    "description": "Astronaut_675851",
    "title": "Astronaut_675851",
    "link_img": "https://live.staticflickr.com/65535/50038814173_3b82da9693_o.jpg",
    "id_image": "Astronaut_675851",
    "count_view": 0
  },
  {
    "link_thumb": "https://live.staticflickr.com/65535/50039871287_117c7750a5_n.jpg",
    "id_album": "651930207",
    "description": "Explosion_2868",
    "title": "Explosion_2868",
    "link_img": "https://live.staticflickr.com/65535/50039871287_1f1c844395_o.jpg",
    "id_image": "Explosion_2868",
    "count_view": 0
  },
  {
    "link_thumb": "https://live.staticflickr.com/65535/50041389372_d98a541f5a_n.jpg",
    "id_album": "-1863373220",
    "description": "StarWars_201769",
    "title": "StarWars_201769",
    "link_img": "https://live.staticflickr.com/65535/50041389372_c463534a8d_o.jpg",
    "id_image": "StarWars_201769",
    "count_view": 0
  },
  {
    "link_thumb": "https://live.staticflickr.com/65535/50039598176_8c9a691cf7_n.jpg",
    "id_album": "829169633",
    "description": "Cyborg_602359",
    "title": "Cyborg_602359",
    "link_img": "https://live.staticflickr.com/65535/50039598176_7385be5871_o.jpg",
    "id_image": "Cyborg_602359",
    "count_view": 0
  },
  {
    "link_thumb": "https://live.staticflickr.com/65535/50040418037_b9406fae54_n.jpg",
    "id_album": "376235057",
    "description": "Planetscape_216511",
    "title": "Planetscape_216511",
    "link_img": "https://live.staticflickr.com/65535/50040418037_3993a95d08_o.jpg",
    "id_image": "Planetscape_216511",
    "count_view": 0
  },
  {
    "link_thumb": "https://live.staticflickr.com/65535/50040480922_950edd208c_n.jpg",
    "id_album": "-482547208",
    "description": "PostApocalyptic_599881",
    "title": "PostApocalyptic_599881",
    "link_img": "https://live.staticflickr.com/65535/50040480922_2e0d604ba5_o.jpg",
    "id_image": "PostApocalyptic_599881",
    "count_view": 0
  },
  {
    "link_thumb": "https://live.staticflickr.com/65535/50039013688_12decfa0eb_n.jpg",
    "id_album": "-1372247677",
    "description": "Cyberpunk_779618",
    "title": "Cyberpunk_779618",
    "link_img": "https://live.staticflickr.com/65535/50039013688_570a4568ab_o.jpg",
    "id_image": "Cyberpunk_779618",
    "count_view": 0
  },
  {
    "link_thumb": "https://live.staticflickr.com/65535/50039239438_0d01b7ff46_n.jpg",
    "id_album": "-1610342324",
    "description": "Nebula_374907",
    "title": "Nebula_374907",
    "link_img": "https://live.staticflickr.com/65535/50039239438_7e12912bb6_o.jpg",
    "id_image": "Nebula_374907",
    "count_view": 0
  },
  {
    "link_thumb": "https://live.staticflickr.com/65535/50040103067_ed379f3380_n.jpg",
    "id_album": "-1610342324",
    "description": "Nebula_807540",
    "title": "Nebula_807540",
    "link_img": "https://live.staticflickr.com/65535/50040103067_b69c61c1f4_o.jpg",
    "id_image": "Nebula_807540",
    "count_view": 0
  },
  {
    "link_thumb": "https://live.staticflickr.com/65535/50039421471_4bfd39ee46_n.jpg",
    "id_album": "406431601",
    "description": "Building_309918",
    "title": "Building_309918",
    "link_img": "https://live.staticflickr.com/65535/50039421471_ce450275c1_o.jpg",
    "id_image": "Building_309918",
    "count_view": 0
  },
  {
    "link_thumb": "https://live.staticflickr.com/65535/50041449031_4f6fc4cf77_n.jpg",
    "id_album": "-1261420436",
    "description": "Warrior_331577",
    "title": "Warrior_331577",
    "link_img": "https://live.staticflickr.com/65535/50041449031_7b777b345d_o.jpg",
    "id_image": "Warrior_331577",
    "count_view": 0
  },
  {
    "link_thumb": "https://live.staticflickr.com/65535/50039659866_0c7057fd38_n.jpg",
    "id_album": "1402713104",
    "description": "Landscape_119739",
    "title": "Landscape_119739",
    "link_img": "https://live.staticflickr.com/65535/50039659866_1048fc0503_o.jpg",
    "id_image": "Landscape_119739",
    "count_view": 0
  },
  {
    "link_thumb": "https://live.staticflickr.com/65535/50041547042_495c6001bf_n.jpg",
    "id_album": "-1587696329",
    "description": "Stars_947554",
    "title": "Stars_947554",
    "link_img": "https://live.staticflickr.com/65535/50041547042_b1822768e8_o.jpg",
    "id_image": "Stars_947554",
    "count_view": 0
  },
  {
    "link_thumb": "https://live.staticflickr.com/65535/50039730278_74eda11a41_n.jpg",
    "id_album": "779690680",
    "description": "Robot_291956",
    "title": "Robot_291956",
    "link_img": "https://live.staticflickr.com/65535/50039730278_4f854ed7fa_o.jpg",
    "id_image": "Robot_291956",
    "count_view": 0
  },
  {
    "link_thumb": "https://live.staticflickr.com/65535/50039983556_b036447188_n.jpg",
    "id_album": "395161030",
    "description": "Planet_920772",
    "title": "Planet_920772",
    "link_img": "https://live.staticflickr.com/65535/50039983556_7e1619c1ef_o.jpg",
    "id_image": "Planet_920772",
    "count_view": 0
  },
  {
    "link_thumb": "https://live.staticflickr.com/65535/50040876447_a161627095_n.jpg",
    "id_album": "2130067313",
    "description": "Spaceship_268620",
    "title": "Spaceship_268620",
    "link_img": "https://live.staticflickr.com/65535/50040876447_8256128a40_o.jpg",
    "id_image": "Spaceship_268620",
    "count_view": 0
  },
  {
    "link_thumb": "https://live.staticflickr.com/65535/50039343596_69f58c8e2d_n.jpg",
    "id_album": "523598895",
    "description": "Artistic_720518",
    "title": "Artistic_720518",
    "link_img": "https://live.staticflickr.com/65535/50039343596_54abd55a5c_o.jpg",
    "id_image": "Artistic_720518",
    "count_view": 0
  },
  {
    "link_thumb": "https://live.staticflickr.com/65535/50041297751_95e5ffc1fd_n.jpg",
    "id_album": "1267121215",
    "description": "Steampunk_190593",
    "title": "Steampunk_190593",
    "link_img": "https://live.staticflickr.com/65535/50041297751_a700c86c2a_o.jpg",
    "id_image": "Steampunk_190593",
    "count_view": 0
  },
  {
    "link_thumb": "https://live.staticflickr.com/65535/50038922903_e8d70eed64_n.jpg",
    "id_album": "-1964113117",
    "description": "City_438318",
    "title": "City_438318",
    "link_img": "https://live.staticflickr.com/65535/50038922903_82bf5c9114_o.jpg",
    "id_image": "City_438318",
    "count_view": 0
  },
  {
    "link_thumb": "https://live.staticflickr.com/65535/50039423908_cf1b8f8b65_n.jpg",
    "id_album": "395161030",
    "description": "Planet_717757",
    "title": "Planet_717757",
    "link_img": "https://live.staticflickr.com/65535/50039423908_79f8be1352_o.jpg",
    "id_image": "Planet_717757",
    "count_view": 0
  },
  {
    "link_thumb": "https://live.staticflickr.com/65535/50039775357_68a95167e6_n.jpg",
    "id_album": "-1964113117",
    "description": "City_889486",
    "title": "City_889486",
    "link_img": "https://live.staticflickr.com/65535/50039775357_88a6b9ca0a_o.jpg",
    "id_image": "City_889486",
    "count_view": 0
  },
  {
    "link_thumb": "https://live.staticflickr.com/65535/50041526527_8fb7e24834_n.jpg",
    "id_album": "-1587696329",
    "description": "Stars_369530",
    "title": "Stars_369530",
    "link_img": "https://live.staticflickr.com/65535/50041526527_21abf5ef5f_o.jpg",
    "id_image": "Stars_369530",
    "count_view": 0
  },
  {
    "link_thumb": "https://live.staticflickr.com/65535/50038895608_0253e0f96f_n.jpg",
    "id_album": "-1964113117",
    "description": "City_208233",
    "title": "City_208233",
    "link_img": "https://live.staticflickr.com/65535/50038895608_fd40f528c8_o.jpg",
    "id_image": "City_208233",
    "count_view": 0
  },
  {
    "link_thumb": "https://live.staticflickr.com/65535/50040805137_367b5238df_n.jpg",
    "id_album": "1613540653",
    "description": "Space_79500",
    "title": "Space_79500",
    "link_img": "https://live.staticflickr.com/65535/50040805137_c9463e66bb_o.jpg",
    "id_image": "Space_79500",
    "count_view": 0
  },
  {
    "link_thumb": "https://live.staticflickr.com/65535/50039639662_691c56fdf3_n.jpg",
    "id_album": "869545341",
    "description": "Astronaut_907775",
    "title": "Astronaut_907775",
    "link_img": "https://live.staticflickr.com/65535/50039639662_66afdbd081_o.jpg",
    "id_image": "Astronaut_907775",
    "count_view": 0
  },
  {
    "link_thumb": "https://live.staticflickr.com/65535/50039338636_e23444dfe0_n.jpg",
    "id_album": "523598895",
    "description": "Artistic_547511",
    "title": "Artistic_547511",
    "link_img": "https://live.staticflickr.com/65535/50039338636_1f23890212_o.jpg",
    "id_image": "Artistic_547511",
    "count_view": 0
  },
  {
    "link_thumb": "https://live.staticflickr.com/65535/50040395652_040795f178_n.jpg",
    "id_album": "-1102314093",
    "description": "Planets_737709",
    "title": "Planets_737709",
    "link_img": "https://live.staticflickr.com/65535/50040395652_44f53c7234_o.jpg",
    "id_image": "Planets_737709",
    "count_view": 0
  },
  {
    "link_thumb": "https://live.staticflickr.com/65535/50040104217_1e102aa780_n.jpg",
    "id_album": "-1610342324",
    "description": "Nebula_816133",
    "title": "Nebula_816133",
    "link_img": "https://live.staticflickr.com/65535/50040104217_7eb45ca903_o.jpg",
    "id_image": "Nebula_816133",
    "count_view": 0
  },
  {
    "link_thumb": "https://live.staticflickr.com/65535/50039574312_ab925016de_n.jpg",
    "id_album": "523598895",
    "description": "Artistic_206213",
    "title": "Artistic_206213",
    "link_img": "https://live.staticflickr.com/65535/50039574312_b68c5c4c7f_o.jpg",
    "id_image": "Artistic_206213",
    "count_view": 0
  },
  {
    "link_thumb": "https://live.staticflickr.com/65535/50039698092_3d31cf6608_n.jpg",
    "id_album": "-1964113117",
    "description": "City_146486",
    "title": "City_146486",
    "link_img": "https://live.staticflickr.com/65535/50039698092_d683fb35c4_o.jpg",
    "id_image": "City_146486",
    "count_view": 0
  },
  {
    "link_thumb": "https://live.staticflickr.com/65535/50040027167_15bbd3d787_n.jpg",
    "id_album": "-1610342324",
    "description": "Nebula_166114",
    "title": "Nebula_166114",
    "link_img": "https://live.staticflickr.com/65535/50040027167_0a642cd744_o.jpg",
    "id_image": "Nebula_166114",
    "count_view": 0
  },
  {
    "link_thumb": "https://live.staticflickr.com/65535/50040501532_e119287726_n.jpg",
    "id_album": "-839602625",
    "description": "Predator_113128",
    "title": "Predator_113128",
    "link_img": "https://live.staticflickr.com/65535/50040501532_dc6b3cd073_o.jpg",
    "id_image": "Predator_113128",
    "count_view": 0
  },
  {
    "link_thumb": "https://live.staticflickr.com/65535/50041574461_699d2d5bfd_n.jpg",
    "id_album": "-1675918237",
    "description": "WomenWarrior_410152",
    "title": "WomenWarrior_410152",
    "link_img": "https://live.staticflickr.com/65535/50041574461_e442702eb4_o.jpg",
    "id_image": "WomenWarrior_410152",
    "count_view": 0
  },
  {
    "link_thumb": "https://live.staticflickr.com/65535/50039220708_589d06abed_n.jpg",
    "id_album": "-1610342324",
    "description": "Nebula_211858",
    "title": "Nebula_211858",
    "link_img": "https://live.staticflickr.com/65535/50039220708_e3530b0e4d_o.jpg",
    "id_image": "Nebula_211858",
    "count_view": 0
  },
  {
    "link_thumb": "https://live.staticflickr.com/65535/50039257933_f91264a16c_n.jpg",
    "id_album": "-1610342324",
    "description": "Nebula_550129",
    "title": "Nebula_550129",
    "link_img": "https://live.staticflickr.com/65535/50039257933_8a59b03464_o.jpg",
    "id_image": "Nebula_550129",
    "count_view": 0
  },
  {
    "link_thumb": "https://live.staticflickr.com/65535/50039692672_bf57dbaf6a_n.jpg",
    "id_album": "-1964113117",
    "description": "City_1005747",
    "title": "City_1005747",
    "link_img": "https://live.staticflickr.com/65535/50039692672_6db98fe4f9_o.jpg",
    "id_image": "City_1005747",
    "count_view": 0
  },
  {
    "link_thumb": "https://live.staticflickr.com/65535/50038932093_6eebbe97c1_n.jpg",
    "id_album": "-1964113117",
    "description": "City_610991",
    "title": "City_610991",
    "link_img": "https://live.staticflickr.com/65535/50038932093_179d5a5607_o.jpg",
    "id_image": "City_610991",
    "count_view": 0
  },
  {
    "link_thumb": "https://live.staticflickr.com/65535/50040029187_2c81f6e6b1_n.jpg",
    "id_album": "-1610342324",
    "description": "Nebula_179730",
    "title": "Nebula_179730",
    "link_img": "https://live.staticflickr.com/65535/50040029187_f207fdc38f_o.jpg",
    "id_image": "Nebula_179730",
    "count_view": 0
  },
  {
    "link_thumb": "https://live.staticflickr.com/65535/50038967573_0c04283e28_n.jpg",
    "id_album": "-1964113117",
    "description": "City_902605",
    "title": "City_902605",
    "link_img": "https://live.staticflickr.com/65535/50038967573_208d72b5fa_o.jpg",
    "id_image": "City_902605",
    "count_view": 0
  },
  {
    "link_thumb": "https://live.staticflickr.com/65535/50039819147_f7cd26e7ba_n.jpg",
    "id_album": "-437872736",
    "description": "Creature_503794",
    "title": "Creature_503794",
    "link_img": "https://live.staticflickr.com/65535/50039819147_72d4193f70_o.jpg",
    "id_image": "Creature_503794",
    "count_view": 0
  },
  {
    "link_thumb": "https://live.staticflickr.com/65535/50040725318_33f99ae796_n.jpg",
    "id_album": "-1587696329",
    "description": "Stars_697717",
    "title": "Stars_697717",
    "link_img": "https://live.staticflickr.com/65535/50040725318_017772e3e3_o.jpg",
    "id_image": "Stars_697717",
    "count_view": 0
  },
  {
    "link_thumb": "https://live.staticflickr.com/65535/50039917867_e3412c1ac5_n.jpg",
    "id_album": "1204249541",
    "description": "Galaxy_864037",
    "title": "Galaxy_864037",
    "link_img": "https://live.staticflickr.com/65535/50039917867_a1216c32ce_o.jpg",
    "id_image": "Galaxy_864037",
    "count_view": 0
  },
  {
    "link_thumb": "https://live.staticflickr.com/65535/50040423231_e0cce4fc3a_n.jpg",
    "id_album": "779690680",
    "description": "Robot_928580",
    "title": "Robot_928580",
    "link_img": "https://live.staticflickr.com/65535/50040423231_85c217f39e_o.jpg",
    "id_image": "Robot_928580",
    "count_view": 0
  },
  {
    "link_thumb": "https://live.staticflickr.com/65535/50039886927_db42a99c16_n.jpg",
    "id_album": "1204249541",
    "description": "Galaxy_110263",
    "title": "Galaxy_110263",
    "link_img": "https://live.staticflickr.com/65535/50039886927_9e288ca1d7_o.jpg",
    "id_image": "Galaxy_110263",
    "count_view": 0
  },
  {
    "link_thumb": "https://live.staticflickr.com/65535/50041580427_bc5d7227cb_n.jpg",
    "id_album": "1267121215",
    "description": "Steampunk_413261",
    "title": "Steampunk_413261",
    "link_img": "https://live.staticflickr.com/65535/50041580427_e06013a9d7_o.jpg",
    "id_image": "Steampunk_413261",
    "count_view": 0
  },
  {
    "link_thumb": "https://live.staticflickr.com/65535/50038996243_43568351de_n.jpg",
    "id_album": "894679094",
    "description": "Collision_925940",
    "title": "Collision_925940",
    "link_img": "https://live.staticflickr.com/65535/50038996243_b4e1f71b4e_o.jpg",
    "id_image": "Collision_925940",
    "count_view": 0
  },
  {
    "link_thumb": "https://live.staticflickr.com/65535/50040783788_5291b56dfe_n.jpg",
    "id_album": "-221671103",
    "description": "Sun_1270",
    "title": "Sun_1270",
    "link_img": "https://live.staticflickr.com/65535/50040783788_0d481f6fbd_o.jpg",
    "id_image": "Sun_1270",
    "count_view": 0
  },
  {
    "link_thumb": "https://live.staticflickr.com/65535/50041754642_3e91db6a1f_n.jpg",
    "id_album": "-1261420436",
    "description": "Warrior_885743",
    "title": "Warrior_885743",
    "link_img": "https://live.staticflickr.com/65535/50041754642_71b55c8998_o.jpg",
    "id_image": "Warrior_885743",
    "count_view": 0
  },
  {
    "link_thumb": "https://live.staticflickr.com/65535/50039594553_d8996e1eff_n.jpg",
    "id_album": "-1102314093",
    "description": "Planets_924505",
    "title": "Planets_924505",
    "link_img": "https://live.staticflickr.com/65535/50039594553_647da04600_o.jpg",
    "id_image": "Planets_924505",
    "count_view": 0
  },
  {
    "link_thumb": "https://live.staticflickr.com/65535/50039903496_4460e06453_n.jpg",
    "id_album": "395161030",
    "description": "Planet_106114",
    "title": "Planet_106114",
    "link_img": "https://live.staticflickr.com/65535/50039903496_9b51bc6347_o.jpg",
    "id_image": "Planet_106114",
    "count_view": 0
  },
  {
    "link_thumb": "https://live.staticflickr.com/65535/50039564977_a0a8dafdec_n.jpg",
    "id_album": "523598895",
    "description": "Artistic_173232",
    "title": "Artistic_173232",
    "link_img": "https://live.staticflickr.com/65535/50039564977_5173348c25_o.jpg",
    "id_image": "Artistic_173232",
    "count_view": 0
  },
  {
    "link_thumb": "https://live.staticflickr.com/65535/50039311076_81dcf73a3d_n.jpg",
    "id_album": "523598895",
    "description": "Artistic_200406",
    "title": "Artistic_200406",
    "link_img": "https://live.staticflickr.com/65535/50039311076_52dd21e194_o.jpg",
    "id_image": "Artistic_200406",
    "count_view": 0
  },
  {
    "link_thumb": "https://live.staticflickr.com/65535/50039602273_824f43111a_n.jpg",
    "id_album": "376235057",
    "description": "Planetscape_106854",
    "title": "Planetscape_106854",
    "link_img": "https://live.staticflickr.com/65535/50039602273_43fd3438da_o.jpg",
    "id_image": "Planetscape_106854",
    "count_view": 0
  },
  {
    "link_thumb": "https://live.staticflickr.com/65535/50040089836_21545a399d_n.jpg",
    "id_album": "-1102314093",
    "description": "Planets_347227",
    "title": "Planets_347227",
    "link_img": "https://live.staticflickr.com/65535/50040089836_b6b907eaa1_o.jpg",
    "id_image": "Planets_347227",
    "count_view": 0
  },
  {
    "link_thumb": "https://live.staticflickr.com/65535/50038818263_051bf37dca_n.jpg",
    "id_album": "869545341",
    "description": "Astronaut_752336",
    "title": "Astronaut_752336",
    "link_img": "https://live.staticflickr.com/65535/50038818263_cdf828f1a5_o.jpg",
    "id_image": "Astronaut_752336",
    "count_view": 0
  },
  {
    "link_thumb": "https://live.staticflickr.com/65535/50039932867_225c849820_n.jpg",
    "id_album": "1402713104",
    "description": "Landscape_274642",
    "title": "Landscape_274642",
    "link_img": "https://live.staticflickr.com/65535/50039932867_51bc5495b4_o.jpg",
    "id_image": "Landscape_274642",
    "count_view": 0
  },
  {
    "link_thumb": "https://live.staticflickr.com/65535/50039096248_7eb05a4357_n.jpg",
    "id_album": "1204249541",
    "description": "Galaxy_590646",
    "title": "Galaxy_590646",
    "link_img": "https://live.staticflickr.com/65535/50039096248_34a1b15141_o.jpg",
    "id_image": "Galaxy_590646",
    "count_view": 0
  },
  {
    "link_thumb": "https://live.staticflickr.com/65535/50040863583_a6a51548b3_n.jpg",
    "id_album": "2020068132",
    "description": "Vehicle_879537",
    "title": "Vehicle_879537",
    "link_img": "https://live.staticflickr.com/65535/50040863583_d5207bd673_o.jpg",
    "id_image": "Vehicle_879537",
    "count_view": 0
  },
  {
    "link_thumb": "https://live.staticflickr.com/65535/50040042111_19b90b28a9_n.jpg",
    "id_album": "814701616",
    "description": "PlanetaryRing_717756",
    "title": "PlanetaryRing_717756",
    "link_img": "https://live.staticflickr.com/65535/50040042111_a7f8d5312d_o.jpg",
    "id_image": "PlanetaryRing_717756",
    "count_view": 0
  },
  {
    "link_thumb": "https://live.staticflickr.com/65535/50040075756_1150f098d3_n.jpg",
    "id_album": "-1102314093",
    "description": "Planets_286826",
    "title": "Planets_286826",
    "link_img": "https://live.staticflickr.com/65535/50040075756_a575035bff_o.jpg",
    "id_image": "Planets_286826",
    "count_view": 0
  },
  {
    "link_thumb": "https://live.staticflickr.com/65535/50039659017_143e3feec8_n.jpg",
    "id_album": "1187037014",
    "description": "Battle_221914",
    "title": "Battle_221914",
    "link_img": "https://live.staticflickr.com/65535/50039659017_98ab5f27d2_o.jpg",
    "id_image": "Battle_221914",
    "count_view": 0
  },
  {
    "link_thumb": "https://live.staticflickr.com/65535/50039532848_a1a77e918a_n.jpg",
    "id_album": "-1102314093",
    "description": "Planets_328726",
    "title": "Planets_328726",
    "link_img": "https://live.staticflickr.com/65535/50039532848_cd53a14aca_o.jpg",
    "id_image": "Planets_328726",
    "count_view": 0
  },
  {
    "link_thumb": "https://live.staticflickr.com/65535/50041754197_3969bb6de9_n.jpg",
    "id_album": "-1261420436",
    "description": "Warrior_877706",
    "title": "Warrior_877706",
    "link_img": "https://live.staticflickr.com/65535/50041754197_6d231afc99_o.jpg",
    "id_image": "Warrior_877706",
    "count_view": 0
  },
  {
    "link_thumb": "https://live.staticflickr.com/65535/50040299813_9491c7e14d_n.jpg",
    "id_album": "-1449720967",
    "description": "StarTrek_337654",
    "title": "StarTrek_337654",
    "link_img": "https://live.staticflickr.com/65535/50040299813_ed6919f9fc_o.jpg",
    "id_image": "StarTrek_337654",
    "count_view": 0
  },
  {
    "link_thumb": "https://live.staticflickr.com/65535/50040440972_5fd7f89036_n.jpg",
    "id_album": "376235057",
    "description": "Planetscape_533765",
    "title": "Planetscape_533765",
    "link_img": "https://live.staticflickr.com/65535/50040440972_9ee5d9cb79_o.jpg",
    "id_image": "Planetscape_533765",
    "count_view": 0
  },
  {
    "link_thumb": "https://live.staticflickr.com/65535/50040078206_b71e45a38b_n.jpg",
    "id_album": "-1102314093",
    "description": "Planets_291226",
    "title": "Planets_291226",
    "link_img": "https://live.staticflickr.com/65535/50040078206_2f09e40cc6_o.jpg",
    "id_image": "Planets_291226",
    "count_view": 0
  },
  {
    "link_thumb": "https://live.staticflickr.com/65535/50038898438_13d5511b22_n.jpg",
    "id_album": "-1964113117",
    "description": "City_214300",
    "title": "City_214300",
    "link_img": "https://live.staticflickr.com/65535/50038898438_efe9b0f30c_o.jpg",
    "id_image": "City_214300",
    "count_view": 0
  },
  {
    "link_thumb": "https://live.staticflickr.com/65535/50041843017_89dbc1c09d_n.jpg",
    "id_album": "-1675918237",
    "description": "WomenWarrior_584726",
    "title": "WomenWarrior_584726",
    "link_img": "https://live.staticflickr.com/65535/50041843017_d9fdbe7036_o.jpg",
    "id_image": "WomenWarrior_584726",
    "count_view": 0
  },
  {
    "link_thumb": "https://live.staticflickr.com/65535/50040054262_9a5098a8ab_n.jpg",
    "id_album": "-1610342324",
    "description": "Nebula_393982",
    "title": "Nebula_393982",
    "link_img": "https://live.staticflickr.com/65535/50040054262_c7e6552d98_o.jpg",
    "id_image": "Nebula_393982",
    "count_view": 0
  },
  {
    "link_thumb": "https://live.staticflickr.com/65535/50039107673_47b5c11a14_n.jpg",
    "id_album": "1204249541",
    "description": "Galaxy_948044",
    "title": "Galaxy_948044",
    "link_img": "https://live.staticflickr.com/65535/50039107673_89a0a3fcaa_o.jpg",
    "id_image": "Galaxy_948044",
    "count_view": 0
  },
  {
    "link_thumb": "https://live.staticflickr.com/65535/50039782291_0d57b419ff_n.jpg",
    "id_album": "-1610342324",
    "description": "Nebula_286785",
    "title": "Nebula_286785",
    "link_img": "https://live.staticflickr.com/65535/50039782291_17b266d001_o.jpg",
    "id_image": "Nebula_286785",
    "count_view": 0
  },
  {
    "link_thumb": "https://live.staticflickr.com/65535/50039666897_eedc816c93_n.jpg",
    "id_album": "1187037014",
    "description": "Battle_602694",
    "title": "Battle_602694",
    "link_img": "https://live.staticflickr.com/65535/50039666897_c334d918ae_o.jpg",
    "id_image": "Battle_602694",
    "count_view": 0
  },
  {
    "link_thumb": "https://live.staticflickr.com/65535/50039779152_52742aa2b3_n.jpg",
    "id_album": "-1964113117",
    "description": "City_905532",
    "title": "City_905532",
    "link_img": "https://live.staticflickr.com/65535/50039779152_c1d545c88b_o.jpg",
    "id_image": "City_905532",
    "count_view": 0
  },
  {
    "link_thumb": "https://live.staticflickr.com/65535/50039314311_8f0f2c6b3d_n.jpg",
    "id_album": "523598895",
    "description": "Artistic_210704",
    "title": "Artistic_210704",
    "link_img": "https://live.staticflickr.com/65535/50039314311_24685474ca_o.jpg",
    "id_image": "Artistic_210704",
    "count_view": 0
  },
  {
    "link_thumb": "https://live.staticflickr.com/65535/50039356261_5b5c5b6fc0_n.jpg",
    "id_album": "869545341",
    "description": "Astronaut_526374",
    "title": "Astronaut_526374",
    "link_img": "https://live.staticflickr.com/65535/50039356261_dfdfe309e4_o.jpg",
    "id_image": "Astronaut_526374",
    "count_view": 0
  },
  {
    "link_thumb": "https://live.staticflickr.com/65535/50039223973_ff682b100f_n.jpg",
    "id_album": "-1610342324",
    "description": "Nebula_226013",
    "title": "Nebula_226013",
    "link_img": "https://live.staticflickr.com/65535/50039223973_9e6fe1866a_o.jpg",
    "id_image": "Nebula_226013",
    "count_view": 0
  },
  {
    "link_thumb": "https://live.staticflickr.com/65535/50039942598_79340d4ec1_n.jpg",
    "id_album": "1613540653",
    "description": "Space_345775",
    "title": "Space_345775",
    "link_img": "https://live.staticflickr.com/65535/50039942598_2932e78ff0_o.jpg",
    "id_image": "Space_345775",
    "count_view": 0
  },
  {
    "link_thumb": "https://live.staticflickr.com/65535/50040754471_04c79ffc44_n.jpg",
    "id_album": "2130067313",
    "description": "Spaceship_852661",
    "title": "Spaceship_852661",
    "link_img": "https://live.staticflickr.com/65535/50040754471_6dfafedba3_o.jpg",
    "id_image": "Spaceship_852661",
    "count_view": 0
  },
  {
    "link_thumb": "https://live.staticflickr.com/65535/50040532762_a089be458a_n.jpg",
    "id_album": "779690680",
    "description": "Robot_237202",
    "title": "Robot_237202",
    "link_img": "https://live.staticflickr.com/65535/50040532762_1f80b08813_o.jpg",
    "id_image": "Robot_237202",
    "count_view": 0
  },
  {
    "link_thumb": "https://live.staticflickr.com/65535/50038861993_e160d49852_n.jpg",
    "id_album": "1187037014",
    "description": "Battle_975635",
    "title": "Battle_975635",
    "link_img": "https://live.staticflickr.com/65535/50038861993_342ef24dc1_o.jpg",
    "id_image": "Battle_975635",
    "count_view": 0
  },
  {
    "link_thumb": "https://live.staticflickr.com/65535/50041844932_fab888606c_n.jpg",
    "id_album": "-1675918237",
    "description": "WomenWarrior_600019",
    "title": "WomenWarrior_600019",
    "link_img": "https://live.staticflickr.com/65535/50041844932_40d5eefa69_o.jpg",
    "id_image": "WomenWarrior_600019",
    "count_view": 0
  },
  {
    "link_thumb": "https://live.staticflickr.com/65535/50040375926_53f8ece7fe_n.jpg",
    "id_album": "779690680",
    "description": "Robot_857300",
    "title": "Robot_857300",
    "link_img": "https://live.staticflickr.com/65535/50040375926_93d5d88c7d_o.jpg",
    "id_image": "Robot_857300",
    "count_view": 0
  },
  {
    "link_thumb": "https://live.staticflickr.com/65535/50039498588_48063ffbf7_n.jpg",
    "id_album": "-1102314093",
    "description": "Planets_115034",
    "title": "Planets_115034",
    "link_img": "https://live.staticflickr.com/65535/50039498588_69589699e8_o.jpg",
    "id_image": "Planets_115034",
    "count_view": 0
  },
  {
    "link_thumb": "https://live.staticflickr.com/65535/50039794822_e12cb4a02e_n.jpg",
    "id_album": "-1964113117",
    "description": "City_993693",
    "title": "City_993693",
    "link_img": "https://live.staticflickr.com/65535/50039794822_4d59a8fd31_o.jpg",
    "id_image": "City_993693",
    "count_view": 0
  },
  {
    "link_thumb": "https://live.staticflickr.com/65535/50039339306_8d45e436de_n.jpg",
    "id_album": "523598895",
    "description": "Artistic_563761",
    "title": "Artistic_563761",
    "link_img": "https://live.staticflickr.com/65535/50039339306_2666b2eab2_o.jpg",
    "id_image": "Artistic_563761",
    "count_view": 0
  },
  {
    "link_thumb": "https://live.staticflickr.com/65535/50038747103_28d7bb27f9_n.jpg",
    "id_album": "523598895",
    "description": "Artistic_116288",
    "title": "Artistic_116288",
    "link_img": "https://live.staticflickr.com/65535/50038747103_3656f952f8_o.jpg",
    "id_image": "Artistic_116288",
    "count_view": 0
  },
  {
    "link_thumb": "https://live.staticflickr.com/65535/50041148306_8e0d2c8a96_n.jpg",
    "id_album": "-1863373220",
    "description": "StarWars_234730",
    "title": "StarWars_234730",
    "link_img": "https://live.staticflickr.com/65535/50041148306_cb4b94929b_o.jpg",
    "id_image": "StarWars_234730",
    "count_view": 0
  },
  {
    "link_thumb": "https://live.staticflickr.com/65535/50039854023_58566d8048_n.jpg",
    "id_album": "779690680",
    "description": "Robot_910947",
    "title": "Robot_910947",
    "link_img": "https://live.staticflickr.com/65535/50039854023_ce17a48a4e_o.jpg",
    "id_image": "Robot_910947",
    "count_view": 0
  },
  {
    "link_thumb": "https://live.staticflickr.com/65535/50039923072_c3cb090a65_n.jpg",
    "id_album": "1402713104",
    "description": "Landscape_117129",
    "title": "Landscape_117129",
    "link_img": "https://live.staticflickr.com/65535/50039923072_8a10242ce7_o.jpg",
    "id_image": "Landscape_117129",
    "count_view": 0
  },
  {
    "link_thumb": "https://live.staticflickr.com/65535/50040238091_6696756caf_n.jpg",
    "id_album": "-839602625",
    "description": "Predator_196974",
    "title": "Predator_196974",
    "link_img": "https://live.staticflickr.com/65535/50040238091_1f905a8878_o.jpg",
    "id_image": "Predator_196974",
    "count_view": 0
  },
  {
    "link_thumb": "https://live.staticflickr.com/65535/50039461011_e01bf1c217_n.jpg",
    "id_album": "-1964113117",
    "description": "City_301681",
    "title": "City_301681",
    "link_img": "https://live.staticflickr.com/65535/50039461011_a64ced3f84_o.jpg",
    "id_image": "City_301681",
    "count_view": 0
  },
  {
    "link_thumb": "https://live.staticflickr.com/65535/50040485816_6b6fc2abe3_n.jpg",
    "id_album": "1613540653",
    "description": "Space_280026",
    "title": "Space_280026",
    "link_img": "https://live.staticflickr.com/65535/50040485816_8c4b667870_o.jpg",
    "id_image": "Space_280026",
    "count_view": 0
  },
  {
    "link_thumb": "https://live.staticflickr.com/65535/50039520951_a3c4536b62_n.jpg",
    "id_album": "-1964113117",
    "description": "City_918482",
    "title": "City_918482",
    "link_img": "https://live.staticflickr.com/65535/50039520951_40ceecabab_o.jpg",
    "id_image": "City_918482",
    "count_view": 0
  },
  {
    "link_thumb": "https://live.staticflickr.com/65535/50040099582_357012e678_n.jpg",
    "id_album": "-1610342324",
    "description": "Nebula_7823",
    "title": "Nebula_7823",
    "link_img": "https://live.staticflickr.com/65535/50040099582_840061a40d_o.jpg",
    "id_image": "Nebula_7823",
    "count_view": 0
  },
  {
    "link_thumb": "https://live.staticflickr.com/65535/50040401752_8615630afb_n.jpg",
    "id_album": "-1102314093",
    "description": "Planets_807193",
    "title": "Planets_807193",
    "link_img": "https://live.staticflickr.com/65535/50040401752_43083a9949_o.jpg",
    "id_image": "Planets_807193",
    "count_view": 0
  },
  {
    "link_thumb": "https://live.staticflickr.com/65535/50039875563_d1d7d73a2d_n.jpg",
    "id_album": "779690680",
    "description": "Robot_933176",
    "title": "Robot_933176",
    "link_img": "https://live.staticflickr.com/65535/50039875563_3fabc64571_o.jpg",
    "id_image": "Robot_933176",
    "count_view": 0
  },
  {
    "link_thumb": "https://live.staticflickr.com/65535/50039558777_09589b9c2d_n.jpg",
    "id_album": "523598895",
    "description": "Artistic_151780",
    "title": "Artistic_151780",
    "link_img": "https://live.staticflickr.com/65535/50039558777_88aa948e62_o.jpg",
    "id_image": "Artistic_151780",
    "count_view": 0
  },
  {
    "link_thumb": "https://live.staticflickr.com/65535/50039505287_bd61cca65b_n.jpg",
    "id_album": "849020728",
    "description": "Alien_1011232",
    "title": "Alien_1011232",
    "link_img": "https://live.staticflickr.com/65535/50039505287_d42de51647_o.jpg",
    "id_image": "Alien_1011232",
    "count_view": 0
  },
  {
    "link_thumb": "https://live.staticflickr.com/65535/50039855492_f8cc35f7ef_n.jpg",
    "id_album": "829169633",
    "description": "Cyborg_547371",
    "title": "Cyborg_547371",
    "link_img": "https://live.staticflickr.com/65535/50039855492_dc958a0396_o.jpg",
    "id_image": "Cyborg_547371",
    "count_view": 0
  },
  {
    "link_thumb": "https://live.staticflickr.com/65535/50039034553_a7d296a05e_n.jpg",
    "id_album": "829169633",
    "description": "Cyborg_282884",
    "title": "Cyborg_282884",
    "link_img": "https://live.staticflickr.com/65535/50039034553_0563fb8a4d_o.jpg",
    "id_image": "Cyborg_282884",
    "count_view": 0
  },
  {
    "link_thumb": "https://live.staticflickr.com/65535/50040434281_7300398eda_n.jpg",
    "id_album": "779690680",
    "description": "Robot_937814",
    "title": "Robot_937814",
    "link_img": "https://live.staticflickr.com/65535/50040434281_1994ef38d8_o.jpg",
    "id_image": "Robot_937814",
    "count_view": 0
  },
  {
    "link_thumb": "https://live.staticflickr.com/65535/50039801441_7c7bbc5bd0_n.jpg",
    "id_album": "-1610342324",
    "description": "Nebula_501296",
    "title": "Nebula_501296",
    "link_img": "https://live.staticflickr.com/65535/50039801441_8e82ccc801_o.jpg",
    "id_image": "Nebula_501296",
    "count_view": 0
  },
  {
    "link_thumb": "https://live.staticflickr.com/65535/50039572817_6a64c0b2f0_n.jpg",
    "id_album": "523598895",
    "description": "Artistic_199917",
    "title": "Artistic_199917",
    "link_img": "https://live.staticflickr.com/65535/50039572817_fe40758c86_o.jpg",
    "id_image": "Artistic_199917",
    "count_view": 0
  },
  {
    "link_thumb": "https://live.staticflickr.com/65535/50040452092_49cd281973_n.jpg",
    "id_album": "-482547208",
    "description": "PostApocalyptic_1008081",
    "title": "PostApocalyptic_1008081",
    "link_img": "https://live.staticflickr.com/65535/50040452092_0681413991_o.jpg",
    "id_image": "PostApocalyptic_1008081",
    "count_view": 0
  },
  {
    "link_thumb": "https://live.staticflickr.com/65535/50040729763_a8e6135f0a_n.jpg",
    "id_album": "-1587696329",
    "description": "Stars_957400",
    "title": "Stars_957400",
    "link_img": "https://live.staticflickr.com/65535/50040729763_6305470c18_o.jpg",
    "id_image": "Stars_957400",
    "count_view": 0
  },
  {
    "link_thumb": "https://live.staticflickr.com/65535/50039224283_a049baf06b_n.jpg",
    "id_album": "-1610342324",
    "description": "Nebula_230466",
    "title": "Nebula_230466",
    "link_img": "https://live.staticflickr.com/65535/50039224283_320b095183_o.jpg",
    "id_image": "Nebula_230466",
    "count_view": 0
  },
  {
    "link_thumb": "https://live.staticflickr.com/65535/50040731903_a62606664f_n.jpg",
    "id_album": "1267121215",
    "description": "Steampunk_111647",
    "title": "Steampunk_111647",
    "link_img": "https://live.staticflickr.com/65535/50040731903_30a4c1e4af_o.jpg",
    "id_image": "Steampunk_111647",
    "count_view": 0
  },
  {
    "link_thumb": "https://live.staticflickr.com/65535/50039281336_85b973835b_n.jpg",
    "id_album": "-419633230",
    "description": "Apocalyptic_285801",
    "title": "Apocalyptic_285801",
    "link_img": "https://live.staticflickr.com/65535/50039281336_5e396acd33_o.jpg",
    "id_image": "Apocalyptic_285801",
    "count_view": 0
  },
  {
    "link_thumb": "https://live.staticflickr.com/65535/50039504737_64a0b12285_n.jpg",
    "id_album": "-406145265",
    "description": "Aircraft_969699",
    "title": "Aircraft_969699",
    "link_img": "https://live.staticflickr.com/65535/50039504737_5370af2d52_o.jpg",
    "id_image": "Aircraft_969699",
    "count_view": 0
  },
  {
    "link_thumb": "https://live.staticflickr.com/65535/50039780367_7e1b84899f_n.jpg",
    "id_album": "-1964113117",
    "description": "City_906337",
    "title": "City_906337",
    "link_img": "https://live.staticflickr.com/65535/50039780367_6ec599353f_o.jpg",
    "id_image": "City_906337",
    "count_view": 0
  },
  {
    "link_thumb": "https://live.staticflickr.com/65535/50039364148_cb68eeed25_n.jpg",
    "id_album": "395161030",
    "description": "Planet_186661",
    "title": "Planet_186661",
    "link_img": "https://live.staticflickr.com/65535/50039364148_abfdd05b66_o.jpg",
    "id_image": "Planet_186661",
    "count_view": 0
  },
  {
    "link_thumb": "https://live.staticflickr.com/65535/50039113068_26e36a2749_n.jpg",
    "id_album": "1402713104",
    "description": "Landscape_171795",
    "title": "Landscape_171795",
    "link_img": "https://live.staticflickr.com/65535/50039113068_116514c868_o.jpg",
    "id_image": "Landscape_171795",
    "count_view": 0
  },
  {
    "link_thumb": "https://live.staticflickr.com/65535/50039066448_4d71a7f076_n.jpg",
    "id_album": "2104507156",
    "description": "Fantasy_161551",
    "title": "Fantasy_161551",
    "link_img": "https://live.staticflickr.com/65535/50039066448_4a775ef0aa_o.jpg",
    "id_image": "Fantasy_161551",
    "count_view": 0
  },
  {
    "link_thumb": "https://live.staticflickr.com/65535/50039822658_61833177da_n.jpg",
    "id_album": "779690680",
    "description": "Robot_857297",
    "title": "Robot_857297",
    "link_img": "https://live.staticflickr.com/65535/50039822658_1af1e325ec_o.jpg",
    "id_image": "Robot_857297",
    "count_view": 0
  },
  {
    "link_thumb": "https://live.staticflickr.com/65535/50040057617_c1c34d0aaf_n.jpg",
    "id_album": "-1610342324",
    "description": "Nebula_414621",
    "title": "Nebula_414621",
    "link_img": "https://live.staticflickr.com/65535/50040057617_9024850e5a_o.jpg",
    "id_image": "Nebula_414621",
    "count_view": 0
  },
  {
    "link_thumb": "https://live.staticflickr.com/65535/50039434676_7874f86231_n.jpg",
    "id_album": "-1964113117",
    "description": "City_145401",
    "title": "City_145401",
    "link_img": "https://live.staticflickr.com/65535/50039434676_e60e48be0f_o.jpg",
    "id_image": "City_145401",
    "count_view": 0
  },
  {
    "link_thumb": "https://live.staticflickr.com/65535/50041616952_36a93e0928_n.jpg",
    "id_album": "-221671103",
    "description": "Sun_709935",
    "title": "Sun_709935",
    "link_img": "https://live.staticflickr.com/65535/50041616952_cfa3052446_o.jpg",
    "id_image": "Sun_709935",
    "count_view": 0
  },
  {
    "link_thumb": "https://live.staticflickr.com/65535/50039391641_67c8024444_n.jpg",
    "id_album": "869545341",
    "description": "Astronaut_993600",
    "title": "Astronaut_993600",
    "link_img": "https://live.staticflickr.com/65535/50039391641_04be26a35b_o.jpg",
    "id_image": "Astronaut_993600",
    "count_view": 0
  },
  {
    "link_thumb": "https://live.staticflickr.com/65535/50039611183_6d0db710da_n.jpg",
    "id_album": "376235057",
    "description": "Planetscape_347270",
    "title": "Planetscape_347270",
    "link_img": "https://live.staticflickr.com/65535/50039611183_07415720df_o.jpg",
    "id_image": "Planetscape_347270",
    "count_view": 0
  },
  {
    "link_thumb": "https://live.staticflickr.com/65535/50039642291_0042308154_n.jpg",
    "id_album": "1204249541",
    "description": "Galaxy_550128",
    "title": "Galaxy_550128",
    "link_img": "https://live.staticflickr.com/65535/50039642291_05a56058a5_o.jpg",
    "id_image": "Galaxy_550128",
    "count_view": 0
  },
  {
    "link_thumb": "https://live.staticflickr.com/65535/50041262911_7eda8271d9_n.jpg",
    "id_album": "-1587696329",
    "description": "Stars_332353",
    "title": "Stars_332353",
    "link_img": "https://live.staticflickr.com/65535/50041262911_01159e7ed0_o.jpg",
    "id_image": "Stars_332353",
    "count_view": 0
  },
  {
    "link_thumb": "https://live.staticflickr.com/65535/50039533161_8c3a5bf048_n.jpg",
    "id_album": "-1964113117",
    "description": "City_992759",
    "title": "City_992759",
    "link_img": "https://live.staticflickr.com/65535/50039533161_fec4689f84_o.jpg",
    "id_image": "City_992759",
    "count_view": 0
  },
  {
    "link_thumb": "https://live.staticflickr.com/65535/50039658142_09d8e94c66_n.jpg",
    "id_album": "1187037014",
    "description": "Battle_174030",
    "title": "Battle_174030",
    "link_img": "https://live.staticflickr.com/65535/50039658142_e35af38573_o.jpg",
    "id_image": "Battle_174030",
    "count_view": 0
  },
  {
    "link_thumb": "https://live.staticflickr.com/65535/50039755787_04ce990403_n.jpg",
    "id_album": "-1964113117",
    "description": "City_726447",
    "title": "City_726447",
    "link_img": "https://live.staticflickr.com/65535/50039755787_4a56d216d2_o.jpg",
    "id_image": "City_726447",
    "count_view": 0
  },
  {
    "link_thumb": "https://live.staticflickr.com/65535/50040195377_56dbcceb01_n.jpg",
    "id_album": "395161030",
    "description": "Planet_335814",
    "title": "Planet_335814",
    "link_img": "https://live.staticflickr.com/65535/50040195377_6b8c72a68b_o.jpg",
    "id_image": "Planet_335814",
    "count_view": 0
  },
  {
    "link_thumb": "https://live.staticflickr.com/65535/50039690172_e7ac279400_n.jpg",
    "id_album": "406431601",
    "description": "Building_938829",
    "title": "Building_938829",
    "link_img": "https://live.staticflickr.com/65535/50039690172_b47a2b3c8a_o.jpg",
    "id_image": "Building_938829",
    "count_view": 0
  },
  {
    "link_thumb": "https://live.staticflickr.com/65535/50040648988_82a0b09406_n.jpg",
    "id_album": "-1863373220",
    "description": "StarWars_639744",
    "title": "StarWars_639744",
    "link_img": "https://live.staticflickr.com/65535/50040648988_3942c5ca72_o.jpg",
    "id_image": "StarWars_639744",
    "count_view": 0
  },
  {
    "link_thumb": "https://live.staticflickr.com/65535/50039305461_62da245ab9_n.jpg",
    "id_album": "523598895",
    "description": "Artistic_179637",
    "title": "Artistic_179637",
    "link_img": "https://live.staticflickr.com/65535/50039305461_269aa6c6cd_o.jpg",
    "id_image": "Artistic_179637",
    "count_view": 0
  },
  {
    "link_thumb": "https://live.staticflickr.com/65535/50039608782_e8d2c1dee1_n.jpg",
    "id_album": "523598895",
    "description": "Artistic_914474",
    "title": "Artistic_914474",
    "link_img": "https://live.staticflickr.com/65535/50039608782_ccb2febf2b_o.jpg",
    "id_image": "Artistic_914474",
    "count_view": 0
  },
  {
    "link_thumb": "https://live.staticflickr.com/65535/50039102288_f3dd5ae90d_n.jpg",
    "id_album": "1204249541",
    "description": "Galaxy_719905",
    "title": "Galaxy_719905",
    "link_img": "https://live.staticflickr.com/65535/50039102288_84954f2fb1_o.jpg",
    "id_image": "Galaxy_719905",
    "count_view": 0
  },
  {
    "link_thumb": "https://live.staticflickr.com/65535/50039333721_edc65baf9e_n.jpg",
    "id_album": "523598895",
    "description": "Artistic_397573",
    "title": "Artistic_397573",
    "link_img": "https://live.staticflickr.com/65535/50039333721_98972a8b1e_o.jpg",
    "id_image": "Artistic_397573",
    "count_view": 0
  },
  {
    "link_thumb": "https://live.staticflickr.com/65535/50038942053_29212946b0_n.jpg",
    "id_album": "-1964113117",
    "description": "City_709118",
    "title": "City_709118",
    "link_img": "https://live.staticflickr.com/65535/50038942053_bb84aba71d_o.jpg",
    "id_image": "City_709118",
    "count_view": 0
  },
  {
    "link_thumb": "https://live.staticflickr.com/65535/50039348496_bced6d40d0_n.jpg",
    "id_album": "869545341",
    "description": "Astronaut_1008983",
    "title": "Astronaut_1008983",
    "link_img": "https://live.staticflickr.com/65535/50039348496_7620831dd1_o.jpg",
    "id_image": "Astronaut_1008983",
    "count_view": 0
  },
  {
    "link_thumb": "https://live.staticflickr.com/65535/50038847928_7d385237e4_n.jpg",
    "id_album": "1187037014",
    "description": "Battle_189558",
    "title": "Battle_189558",
    "link_img": "https://live.staticflickr.com/65535/50038847928_43e3d95a89_o.jpg",
    "id_image": "Battle_189558",
    "count_view": 0
  },
  {
    "link_thumb": "https://live.staticflickr.com/65535/50039970022_51f08f1ac5_n.jpg",
    "id_album": "1402713104",
    "description": "Landscape_782626",
    "title": "Landscape_782626",
    "link_img": "https://live.staticflickr.com/65535/50039970022_ee5b71364e_o.jpg",
    "id_image": "Landscape_782626",
    "count_view": 0
  },
  {
    "link_thumb": "https://live.staticflickr.com/65535/50038694123_3f80107f92_n.jpg",
    "id_album": "-406145265",
    "description": "Aircraft_66799",
    "title": "Aircraft_66799",
    "link_img": "https://live.staticflickr.com/65535/50038694123_06a3f0a529_o.jpg",
    "id_image": "Aircraft_66799",
    "count_view": 0
  },
  {
    "link_thumb": "https://live.staticflickr.com/65535/50039385053_c46ea66163_n.jpg",
    "id_album": "395161030",
    "description": "Planet_350452",
    "title": "Planet_350452",
    "link_img": "https://live.staticflickr.com/65535/50039385053_f2d40b96bf_o.jpg",
    "id_image": "Planet_350452",
    "count_view": 0
  },
  {
    "link_thumb": "https://live.staticflickr.com/65535/50040102517_6c3ca35308_n.jpg",
    "id_album": "-1610342324",
    "description": "Nebula_805185",
    "title": "Nebula_805185",
    "link_img": "https://live.staticflickr.com/65535/50040102517_1414b01bc4_o.jpg",
    "id_image": "Nebula_805185",
    "count_view": 0
  },
  {
    "link_thumb": "https://live.staticflickr.com/65535/50039768126_0350da0c0d_n.jpg",
    "id_album": "-1610342324",
    "description": "Nebula_200197",
    "title": "Nebula_200197",
    "link_img": "https://live.staticflickr.com/65535/50039768126_0a58b825b6_o.jpg",
    "id_image": "Nebula_200197",
    "count_view": 0
  },
  {
    "link_thumb": "https://live.staticflickr.com/65535/50038966678_3f8e297388_n.jpg",
    "id_album": "-1964113117",
    "description": "City_896214",
    "title": "City_896214",
    "link_img": "https://live.staticflickr.com/65535/50038966678_2e48e46991_o.jpg",
    "id_image": "City_896214",
    "count_view": 0
  },
  {
    "link_thumb": "https://live.staticflickr.com/65535/50039275396_c75fe84ae1_n.jpg",
    "id_album": "849020728",
    "description": "Alien_871692",
    "title": "Alien_871692",
    "link_img": "https://live.staticflickr.com/65535/50039275396_0fdb2bbd62_o.jpg",
    "id_image": "Alien_871692",
    "count_view": 0
  },
  {
    "link_thumb": "https://live.staticflickr.com/65535/50038973278_95feebfe96_n.jpg",
    "id_album": "-1964113117",
    "description": "City_920201",
    "title": "City_920201",
    "link_img": "https://live.staticflickr.com/65535/50038973278_392e8407d4_o.jpg",
    "id_image": "City_920201",
    "count_view": 0
  },
  {
    "link_thumb": "https://live.staticflickr.com/65535/50039604612_7d36edcd04_n.jpg",
    "id_album": "523598895",
    "description": "Artistic_712985",
    "title": "Artistic_712985",
    "link_img": "https://live.staticflickr.com/65535/50039604612_bf9185c40a_o.jpg",
    "id_image": "Artistic_712985",
    "count_view": 0
  },
  {
    "link_thumb": "https://live.staticflickr.com/65535/50040204277_f7dc4fc3b7_n.jpg",
    "id_album": "395161030",
    "description": "Planet_373692",
    "title": "Planet_373692",
    "link_img": "https://live.staticflickr.com/65535/50040204277_b175835819_o.jpg",
    "id_image": "Planet_373692",
    "count_view": 0
  },
  {
    "link_thumb": "https://live.staticflickr.com/65535/50039505486_417670b1cf_n.jpg",
    "id_album": "-1964113117",
    "description": "City_862704",
    "title": "City_862704",
    "link_img": "https://live.staticflickr.com/65535/50039505486_9ca3973435_o.jpg",
    "id_image": "City_862704",
    "count_view": 0
  },
  {
    "link_thumb": "https://live.staticflickr.com/65535/50038766898_954e4ff850_n.jpg",
    "id_album": "523598895",
    "description": "Artistic_212012",
    "title": "Artistic_212012",
    "link_img": "https://live.staticflickr.com/65535/50038766898_5fa7ab2ca4_o.jpg",
    "id_image": "Artistic_212012",
    "count_view": 0
  },
  {
    "link_thumb": "https://live.staticflickr.com/65535/50039437311_e30a7eea65_n.jpg",
    "id_album": "-1964113117",
    "description": "City_156954",
    "title": "City_156954",
    "link_img": "https://live.staticflickr.com/65535/50039437311_e30cb41114_o.jpg",
    "id_image": "City_156954",
    "count_view": 0
  },
  {
    "link_thumb": "https://live.staticflickr.com/65535/50039869468_714a4c991d_n.jpg",
    "id_album": "779690680",
    "description": "Robot_928581",
    "title": "Robot_928581",
    "link_img": "https://live.staticflickr.com/65535/50039869468_351aaf21a9_o.jpg",
    "id_image": "Robot_928581",
    "count_view": 0
  },
  {
    "link_thumb": "https://live.staticflickr.com/65535/50040047437_ccfc136755_n.jpg",
    "id_album": "-1610342324",
    "description": "Nebula_291161",
    "title": "Nebula_291161",
    "link_img": "https://live.staticflickr.com/65535/50040047437_975432b9a6_o.jpg",
    "id_image": "Nebula_291161",
    "count_view": 0
  },
  {
    "link_thumb": "https://live.staticflickr.com/65535/50040247682_ca11c7de8f_n.jpg",
    "id_album": "395161030",
    "description": "Planet_926468",
    "title": "Planet_926468",
    "link_img": "https://live.staticflickr.com/65535/50040247682_08395c9580_o.jpg",
    "id_image": "Planet_926468",
    "count_view": 0
  },
  {
    "link_thumb": "https://live.staticflickr.com/65535/50040061682_57eeed42ef_n.jpg",
    "id_album": "-1610342324",
    "description": "Nebula_441069",
    "title": "Nebula_441069",
    "link_img": "https://live.staticflickr.com/65535/50040061682_f61573f9c9_o.jpg",
    "id_image": "Nebula_441069",
    "count_view": 0
  },
  {
    "link_thumb": "https://live.staticflickr.com/65535/50039410471_c97a3fb773_n.jpg",
    "id_album": "-1780971522",
    "description": "Biohazard_10386",
    "title": "Biohazard_10386",
    "link_img": "https://live.staticflickr.com/65535/50039410471_99b60198a8_o.jpg",
    "id_image": "Biohazard_10386",
    "count_view": 0
  },
  {
    "link_thumb": "https://live.staticflickr.com/65535/50040597361_204ae7faab_n.jpg",
    "id_album": "2130067313",
    "description": "Spaceship_204513",
    "title": "Spaceship_204513",
    "link_img": "https://live.staticflickr.com/65535/50040597361_14dc183c05_o.jpg",
    "id_image": "Spaceship_204513",
    "count_view": 0
  },
  {
    "link_thumb": "https://live.staticflickr.com/65535/50041423727_1780434133_n.jpg",
    "id_album": "-1863373220",
    "description": "StarWars_292216",
    "title": "StarWars_292216",
    "link_img": "https://live.staticflickr.com/65535/50041423727_eed8290404_o.jpg",
    "id_image": "StarWars_292216",
    "count_view": 0
  },
  {
    "link_thumb": "https://live.staticflickr.com/65535/50039937467_5d6c5e7808_n.jpg",
    "id_album": "1402713104",
    "description": "Landscape_309993",
    "title": "Landscape_309993",
    "link_img": "https://live.staticflickr.com/65535/50039937467_e28dc996e1_o.jpg",
    "id_image": "Landscape_309993",
    "count_view": 0
  },
  {
    "link_thumb": "https://live.staticflickr.com/65535/50039596212_c636242f32_n.jpg",
    "id_album": "523598895",
    "description": "Artistic_411413",
    "title": "Artistic_411413",
    "link_img": "https://live.staticflickr.com/65535/50039596212_907b54cb7e_o.jpg",
    "id_image": "Artistic_411413",
    "count_view": 0
  },
  {
    "link_thumb": "https://live.staticflickr.com/65535/50040066152_58229be646_n.jpg",
    "id_album": "-1610342324",
    "description": "Nebula_505516",
    "title": "Nebula_505516",
    "link_img": "https://live.staticflickr.com/65535/50040066152_914ba7d824_o.jpg",
    "id_image": "Nebula_505516",
    "count_view": 0
  },
  {
    "link_thumb": "https://live.staticflickr.com/65535/50039439111_cc2ee1ec3b_n.jpg",
    "id_album": "-1964113117",
    "description": "City_169619",
    "title": "City_169619",
    "link_img": "https://live.staticflickr.com/65535/50039439111_f714e3c770_o.jpg",
    "id_image": "City_169619",
    "count_view": 0
  },
  {
    "link_thumb": "https://live.staticflickr.com/65535/50038989393_2e76e003f9_n.jpg",
    "id_album": "894679094",
    "description": "Collision_229334",
    "title": "Collision_229334",
    "link_img": "https://live.staticflickr.com/65535/50038989393_65ba25ccc1_o.jpg",
    "id_image": "Collision_229334",
    "count_view": 0
  },
  {
    "link_thumb": "https://live.staticflickr.com/65535/50039606456_e04a839e10_n.jpg",
    "id_album": "829169633",
    "description": "Cyborg_964102",
    "title": "Cyborg_964102",
    "link_img": "https://live.staticflickr.com/65535/50039606456_c8c59d4ff1_o.jpg",
    "id_image": "Cyborg_964102",
    "count_view": 0
  },
  {
    "link_thumb": "https://live.staticflickr.com/65535/50040015061_57813fd94a_n.jpg",
    "id_album": "1443611160",
    "description": "PlanetRise_79231",
    "title": "PlanetRise_79231",
    "link_img": "https://live.staticflickr.com/65535/50040015061_92d4cd086e_o.jpg",
    "id_image": "PlanetRise_79231",
    "count_view": 0
  },
  {
    "link_thumb": "https://live.staticflickr.com/65535/50039848511_49c5b7c785_n.jpg",
    "id_album": "-1610342324",
    "description": "Nebula_879755",
    "title": "Nebula_879755",
    "link_img": "https://live.staticflickr.com/65535/50039848511_8597a80c72_o.jpg",
    "id_image": "Nebula_879755",
    "count_view": 0
  },
  {
    "link_thumb": "https://live.staticflickr.com/65535/50040064552_44ecf40d85_n.jpg",
    "id_album": "-1610342324",
    "description": "Nebula_500766",
    "title": "Nebula_500766",
    "link_img": "https://live.staticflickr.com/65535/50040064552_c1f1c28989_o.jpg",
    "id_image": "Nebula_500766",
    "count_view": 0
  },
  {
    "link_thumb": "https://live.staticflickr.com/65535/50041391786_ce8c83050b_n.jpg",
    "id_album": "2020068132",
    "description": "Vehicle_343994",
    "title": "Vehicle_343994",
    "link_img": "https://live.staticflickr.com/65535/50041391786_f04c29c0b4_o.jpg",
    "id_image": "Vehicle_343994",
    "count_view": 0
  },
  {
    "link_thumb": "https://live.staticflickr.com/65535/50038728568_ae39649ff0_n.jpg",
    "id_album": "849020728",
    "description": "Alien_910952",
    "title": "Alien_910952",
    "link_img": "https://live.staticflickr.com/65535/50038728568_c1a2d3038d_o.jpg",
    "id_image": "Alien_910952",
    "count_view": 0
  },
  {
    "link_thumb": "https://live.staticflickr.com/65535/50039709587_f82e5926b3_n.jpg",
    "id_album": "-1964113117",
    "description": "City_214299",
    "title": "City_214299",
    "link_img": "https://live.staticflickr.com/65535/50039709587_4709dbcbf1_o.jpg",
    "id_image": "City_214299",
    "count_view": 0
  },
  {
    "link_thumb": "https://live.staticflickr.com/65535/50040164417_aa351d236f_n.jpg",
    "id_album": "395161030",
    "description": "Planet_10004",
    "title": "Planet_10004",
    "link_img": "https://live.staticflickr.com/65535/50040164417_37dae06533_o.jpg",
    "id_image": "Planet_10004",
    "count_view": 0
  },
  {
    "link_thumb": "https://live.staticflickr.com/65535/50038894908_9904164de4_n.jpg",
    "id_album": "-1964113117",
    "description": "City_205954",
    "title": "City_205954",
    "link_img": "https://live.staticflickr.com/65535/50038894908_a3cafe46f1_o.jpg",
    "id_image": "City_205954",
    "count_view": 0
  },
  {
    "link_thumb": "https://live.staticflickr.com/65535/50039897253_9177f2f720_n.jpg",
    "id_album": "779690680",
    "description": "Robot_981199",
    "title": "Robot_981199",
    "link_img": "https://live.staticflickr.com/65535/50039897253_1ef7554509_o.jpg",
    "id_image": "Robot_981199",
    "count_view": 0
  },
  {
    "link_thumb": "https://live.staticflickr.com/65535/50039606992_6eb20e51c3_n.jpg",
    "id_album": "523598895",
    "description": "Artistic_85249",
    "title": "Artistic_85249",
    "link_img": "https://live.staticflickr.com/65535/50039606992_902cfb23ff_o.jpg",
    "id_image": "Artistic_85249",
    "count_view": 0
  },
  {
    "link_thumb": "https://live.staticflickr.com/65535/50039295466_7bdfb4c4c4_n.jpg",
    "id_album": "523598895",
    "description": "Artistic_123759",
    "title": "Artistic_123759",
    "link_img": "https://live.staticflickr.com/65535/50039295466_54c4df2a56_o.jpg",
    "id_image": "Artistic_123759",
    "count_view": 0
  },
  {
    "link_thumb": "https://live.staticflickr.com/65535/50040678642_7f228dc9ea_n.jpg",
    "id_album": "779690680",
    "description": "Robot_917194",
    "title": "Robot_917194",
    "link_img": "https://live.staticflickr.com/65535/50040678642_28ee7033fd_o.jpg",
    "id_image": "Robot_917194",
    "count_view": 0
  },
  {
    "link_thumb": "https://live.staticflickr.com/65535/50039841676_956db39d3b_n.jpg",
    "id_album": "-1610342324",
    "description": "Nebula_825785",
    "title": "Nebula_825785",
    "link_img": "https://live.staticflickr.com/65535/50039841676_4bcd40e282_o.jpg",
    "id_image": "Nebula_825785",
    "count_view": 0
  },
  {
    "link_thumb": "https://live.staticflickr.com/65535/50039261276_41f15e10bd_n.jpg",
    "id_album": "849020728",
    "description": "Alien_347653",
    "title": "Alien_347653",
    "link_img": "https://live.staticflickr.com/65535/50039261276_f5a17d9d75_o.jpg",
    "id_image": "Alien_347653",
    "count_view": 0
  },
  {
    "link_thumb": "https://live.staticflickr.com/65535/50039311946_75e49eacb1_n.jpg",
    "id_album": "523598895",
    "description": "Artistic_204793",
    "title": "Artistic_204793",
    "link_img": "https://live.staticflickr.com/65535/50039311946_e9e099f858_o.jpg",
    "id_image": "Artistic_204793",
    "count_view": 0
  },
  {
    "link_thumb": "https://live.staticflickr.com/65535/50040608637_5fd342b921_n.jpg",
    "id_album": "779690680",
    "description": "Robot_615955",
    "title": "Robot_615955",
    "link_img": "https://live.staticflickr.com/65535/50040608637_0d5e7bef53_o.jpg",
    "id_image": "Robot_615955",
    "count_view": 0
  },
  {
    "link_thumb": "https://live.staticflickr.com/65535/50039956927_62e2ed043f_n.jpg",
    "id_album": "1402713104",
    "description": "Landscape_552105",
    "title": "Landscape_552105",
    "link_img": "https://live.staticflickr.com/65535/50039956927_07905ffb02_o.jpg",
    "id_image": "Landscape_552105",
    "count_view": 0
  },
  {
    "link_thumb": "https://live.staticflickr.com/65535/50040249642_f4bd86296f_n.jpg",
    "id_album": "395161030",
    "description": "Planet_944011",
    "title": "Planet_944011",
    "link_img": "https://live.staticflickr.com/65535/50040249642_c2f29bf419_o.jpg",
    "id_image": "Planet_944011",
    "count_view": 0
  },
  {
    "link_thumb": "https://live.staticflickr.com/65535/50040432261_e60d0b39ec_n.jpg",
    "id_album": "779690680",
    "description": "Robot_936220",
    "title": "Robot_936220",
    "link_img": "https://live.staticflickr.com/65535/50040432261_f51f96eaa7_o.jpg",
    "id_image": "Robot_936220",
    "count_view": 0
  },
  {
    "link_thumb": "https://live.staticflickr.com/65535/50041639322_82093aeb78_n.jpg",
    "id_album": "2020068132",
    "description": "Vehicle_211341",
    "title": "Vehicle_211341",
    "link_img": "https://live.staticflickr.com/65535/50041639322_c860e2374e_o.jpg",
    "id_image": "Vehicle_211341",
    "count_view": 0
  },
  {
    "link_thumb": "https://live.staticflickr.com/65535/50039684223_9cbb4a32db_n.jpg",
    "id_album": "-482547208",
    "description": "PostApocalyptic_991003",
    "title": "PostApocalyptic_991003",
    "link_img": "https://live.staticflickr.com/65535/50039684223_30739a70d5_o.jpg",
    "id_image": "PostApocalyptic_991003",
    "count_view": 0
  },
  {
    "link_thumb": "https://live.staticflickr.com/65535/50041388652_952c09fc2c_n.jpg",
    "id_album": "-1863373220",
    "description": "StarWars_195358",
    "title": "StarWars_195358",
    "link_img": "https://live.staticflickr.com/65535/50041388652_9efbf2a39d_o.jpg",
    "id_image": "StarWars_195358",
    "count_view": 0
  },
  {
    "link_thumb": "https://live.staticflickr.com/65535/50039501756_c8d72d593d_n.jpg",
    "id_album": "-1964113117",
    "description": "City_845866",
    "title": "City_845866",
    "link_img": "https://live.staticflickr.com/65535/50039501756_929229266e_o.jpg",
    "id_image": "City_845866",
    "count_view": 0
  },
  {
    "link_thumb": "https://live.staticflickr.com/65535/50039522887_57f54f1536_n.jpg",
    "id_album": "849020728",
    "description": "Alien_327579",
    "title": "Alien_327579",
    "link_img": "https://live.staticflickr.com/65535/50039522887_2dbd16f7ba_o.jpg",
    "id_image": "Alien_327579",
    "count_view": 0
  },
  {
    "link_thumb": "https://live.staticflickr.com/65535/50040148836_5fe3c3e59d_n.jpg",
    "id_album": "-1102314093",
    "description": "Planets_957404",
    "title": "Planets_957404",
    "link_img": "https://live.staticflickr.com/65535/50040148836_f55cbc2e49_o.jpg",
    "id_image": "Planets_957404",
    "count_view": 0
  },
  {
    "link_thumb": "https://live.staticflickr.com/65535/50038985098_519a1e87a1_n.jpg",
    "id_album": "-1964113117",
    "description": "City_995644",
    "title": "City_995644",
    "link_img": "https://live.staticflickr.com/65535/50038985098_b720a48bda_o.jpg",
    "id_image": "City_995644",
    "count_view": 0
  },
  {
    "link_thumb": "https://live.staticflickr.com/65535/50039564347_5c374c10c5_n.jpg",
    "id_album": "523598895",
    "description": "Artistic_171767",
    "title": "Artistic_171767",
    "link_img": "https://live.staticflickr.com/65535/50039564347_e1cfe2b605_o.jpg",
    "id_image": "Artistic_171767",
    "count_view": 0
  },
  {
    "link_thumb": "https://live.staticflickr.com/65535/50039381643_231cea97fa_n.jpg",
    "id_album": "395161030",
    "description": "Planet_334591",
    "title": "Planet_334591",
    "link_img": "https://live.staticflickr.com/65535/50039381643_cd0cd08044_o.jpg",
    "id_image": "Planet_334591",
    "count_view": 0
  },
  {
    "link_thumb": "https://live.staticflickr.com/65535/50040872918_f78d0f58b2_n.jpg",
    "id_album": "2020068132",
    "description": "Vehicle_972129",
    "title": "Vehicle_972129",
    "link_img": "https://live.staticflickr.com/65535/50040872918_077d190938_o.jpg",
    "id_image": "Vehicle_972129",
    "count_view": 0
  },
  {
    "link_thumb": "https://live.staticflickr.com/65535/50040668421_74da87febb_n.jpg",
    "id_album": "2130067313",
    "description": "Spaceship_375614",
    "title": "Spaceship_375614",
    "link_img": "https://live.staticflickr.com/65535/50040668421_e450a2796b_o.jpg",
    "id_image": "Spaceship_375614",
    "count_view": 0
  },
  {
    "link_thumb": "https://live.staticflickr.com/65535/50039331911_14a80797da_n.jpg",
    "id_album": "523598895",
    "description": "Artistic_370813",
    "title": "Artistic_370813",
    "link_img": "https://live.staticflickr.com/65535/50039331911_0fe14b2ecd_o.jpg",
    "id_image": "Artistic_370813",
    "count_view": 0
  },
  {
    "link_thumb": "https://live.staticflickr.com/65535/50040822498_7f784f6934_n.jpg",
    "id_album": "2020068132",
    "description": "Vehicle_206639",
    "title": "Vehicle_206639",
    "link_img": "https://live.staticflickr.com/65535/50040822498_84fa1cbabd_o.jpg",
    "id_image": "Vehicle_206639",
    "count_view": 0
  },
  {
    "link_thumb": "https://live.staticflickr.com/65535/50039747263_76202ba6f5_n.jpg",
    "id_album": "779690680",
    "description": "Robot_391117",
    "title": "Robot_391117",
    "link_img": "https://live.staticflickr.com/65535/50039747263_53b4c9149b_o.jpg",
    "id_image": "Robot_391117",
    "count_view": 0
  },
  {
    "link_thumb": "https://live.staticflickr.com/65535/50038843673_1deb7d6c35_n.jpg",
    "id_album": "869545341",
    "description": "Astronaut_992537",
    "title": "Astronaut_992537",
    "link_img": "https://live.staticflickr.com/65535/50038843673_bd7a1fa430_o.jpg",
    "id_image": "Astronaut_992537",
    "count_view": 0
  },
  {
    "link_thumb": "https://live.staticflickr.com/65535/50040477132_962f5826eb_n.jpg",
    "id_album": "-482547208",
    "description": "PostApocalyptic_529240",
    "title": "PostApocalyptic_529240",
    "link_img": "https://live.staticflickr.com/65535/50040477132_bc1726fc25_o.jpg",
    "id_image": "PostApocalyptic_529240",
    "count_view": 0
  },
  {
    "link_thumb": "https://live.staticflickr.com/65535/50040697167_74f69abd9b_n.jpg",
    "id_album": "779690680",
    "description": "Robot_936223",
    "title": "Robot_936223",
    "link_img": "https://live.staticflickr.com/65535/50040697167_cff9239b38_o.jpg",
    "id_image": "Robot_936223",
    "count_view": 0
  },
  {
    "link_thumb": "https://live.staticflickr.com/65535/50039104443_27cf8a928a_n.jpg",
    "id_album": "1204249541",
    "description": "Galaxy_835682",
    "title": "Galaxy_835682",
    "link_img": "https://live.staticflickr.com/65535/50039104443_30a1e493e5_o.jpg",
    "id_image": "Galaxy_835682",
    "count_view": 0
  },
  {
    "link_thumb": "https://live.staticflickr.com/65535/50040842313_8b080f2802_n.jpg",
    "id_album": "2020068132",
    "description": "Vehicle_393222",
    "title": "Vehicle_393222",
    "link_img": "https://live.staticflickr.com/65535/50040842313_d8141c36c5_o.jpg",
    "id_image": "Vehicle_393222",
    "count_view": 0
  },
  {
    "link_thumb": "https://live.staticflickr.com/65535/50039759486_914866ba6a_n.jpg",
    "id_album": "-1610342324",
    "description": "Nebula_1002215",
    "title": "Nebula_1002215",
    "link_img": "https://live.staticflickr.com/65535/50039759486_1ce6de9cc0_o.jpg",
    "id_image": "Nebula_1002215",
    "count_view": 0
  },
  {
    "link_thumb": "https://live.staticflickr.com/65535/50041690132_5b04492a65_n.jpg",
    "id_album": "2020068132",
    "description": "Vehicle_978184",
    "title": "Vehicle_978184",
    "link_img": "https://live.staticflickr.com/65535/50041690132_3b8b8287ac_o.jpg",
    "id_image": "Vehicle_978184",
    "count_view": 0
  },
  {
    "link_thumb": "https://live.staticflickr.com/65535/50039915622_d3718ee57c_n.jpg",
    "id_album": "1204249541",
    "description": "Galaxy_74140",
    "title": "Galaxy_74140",
    "link_img": "https://live.staticflickr.com/65535/50039915622_efefb22a82_o.jpg",
    "id_image": "Galaxy_74140",
    "count_view": 0
  },
  {
    "link_thumb": "https://live.staticflickr.com/65535/50039829477_25f147e123_n.jpg",
    "id_album": "-1372247677",
    "description": "Cyberpunk_931367",
    "title": "Cyberpunk_931367",
    "link_img": "https://live.staticflickr.com/65535/50039829477_02aa12d727_o.jpg",
    "id_image": "Cyberpunk_931367",
    "count_view": 0
  },
  {
    "link_thumb": "https://live.staticflickr.com/65535/50039754668_8bc198f22c_n.jpg",
    "id_album": "779690680",
    "description": "Robot_437510",
    "title": "Robot_437510",
    "link_img": "https://live.staticflickr.com/65535/50039754668_067c03e7f4_o.jpg",
    "id_image": "Robot_437510",
    "count_view": 0
  },
  {
    "link_thumb": "https://live.staticflickr.com/65535/50038836408_fe014bf5e0_n.jpg",
    "id_album": "869545341",
    "description": "Astronaut_957397",
    "title": "Astronaut_957397",
    "link_img": "https://live.staticflickr.com/65535/50038836408_19183c80a8_o.jpg",
    "id_image": "Astronaut_957397",
    "count_view": 0
  },
  {
    "link_thumb": "https://live.staticflickr.com/65535/50040036217_ca6d665f68_n.jpg",
    "id_album": "-1610342324",
    "description": "Nebula_221804",
    "title": "Nebula_221804",
    "link_img": "https://live.staticflickr.com/65535/50040036217_1aa5a66967_o.jpg",
    "id_image": "Nebula_221804",
    "count_view": 0
  },
  {
    "link_thumb": "https://live.staticflickr.com/65535/50039893182_e636ba3c38_n.jpg",
    "id_album": "1204249541",
    "description": "Galaxy_305308",
    "title": "Galaxy_305308",
    "link_img": "https://live.staticflickr.com/65535/50039893182_89dfddf850_o.jpg",
    "id_image": "Galaxy_305308",
    "count_view": 0
  },
  {
    "link_thumb": "https://live.staticflickr.com/65535/50039660096_6b29c75710_n.jpg",
    "id_album": "1402713104",
    "description": "Landscape_121896",
    "title": "Landscape_121896",
    "link_img": "https://live.staticflickr.com/65535/50039660096_582a5837ee_o.jpg",
    "id_image": "Landscape_121896",
    "count_view": 0
  },
  {
    "link_thumb": "https://live.staticflickr.com/65535/50041180431_3b77b6f923_n.jpg",
    "id_album": "-1863373220",
    "description": "StarWars_438738",
    "title": "StarWars_438738",
    "link_img": "https://live.staticflickr.com/65535/50041180431_0aa98fa141_o.jpg",
    "id_image": "StarWars_438738",
    "count_view": 0
  },
  {
    "link_thumb": "https://live.staticflickr.com/65535/50040014667_efc2708031_n.jpg",
    "id_album": "-1388385651",
    "description": "MilkyWay_851521",
    "title": "MilkyWay_851521",
    "link_img": "https://live.staticflickr.com/65535/50040014667_8a4c283816_o.jpg",
    "id_image": "MilkyWay_851521",
    "count_view": 0
  },
  {
    "link_thumb": "https://live.staticflickr.com/65535/50038725523_2868fcd058_n.jpg",
    "id_album": "849020728",
    "description": "Alien_697088",
    "title": "Alien_697088",
    "link_img": "https://live.staticflickr.com/65535/50038725523_c50633c96c_o.jpg",
    "id_image": "Alien_697088",
    "count_view": 0
  },
  {
    "link_thumb": "https://live.staticflickr.com/65535/50041245706_12f7858be4_n.jpg",
    "id_album": "-1863373220",
    "description": "StarWars_965772",
    "title": "StarWars_965772",
    "link_img": "https://live.staticflickr.com/65535/50041245706_c6d299dc19_o.jpg",
    "id_image": "StarWars_965772",
    "count_view": 0
  },
  {
    "link_thumb": "https://live.staticflickr.com/65535/50039624873_98f4293153_n.jpg",
    "id_album": "376235057",
    "description": "Planetscape_531444",
    "title": "Planetscape_531444",
    "link_img": "https://live.staticflickr.com/65535/50039624873_48e2e179f1_o.jpg",
    "id_image": "Planetscape_531444",
    "count_view": 0
  },
  {
    "link_thumb": "https://live.staticflickr.com/65535/50039537006_56f26a0e9a_n.jpg",
    "id_album": "894679094",
    "description": "Collision_20430",
    "title": "Collision_20430",
    "link_img": "https://live.staticflickr.com/65535/50039537006_ed9e780085_o.jpg",
    "id_image": "Collision_20430",
    "count_view": 0
  },
  {
    "link_thumb": "https://live.staticflickr.com/65535/50040035577_219d78b278_n.jpg",
    "id_album": "-1610342324",
    "description": "Nebula_220585",
    "title": "Nebula_220585",
    "link_img": "https://live.staticflickr.com/65535/50040035577_a4f9a328cc_o.jpg",
    "id_image": "Nebula_220585",
    "count_view": 0
  },
  {
    "link_thumb": "https://live.staticflickr.com/65535/50039554651_b9942970fe_n.jpg",
    "id_album": "-437872736",
    "description": "Creature_375609",
    "title": "Creature_375609",
    "link_img": "https://live.staticflickr.com/65535/50039554651_6281ca4442_o.jpg",
    "id_image": "Creature_375609",
    "count_view": 0
  },
  {
    "link_thumb": "https://live.staticflickr.com/65535/50039888537_88d9eaa396_n.jpg",
    "id_album": "1204249541",
    "description": "Galaxy_194225",
    "title": "Galaxy_194225",
    "link_img": "https://live.staticflickr.com/65535/50039888537_4d72e38e2e_o.jpg",
    "id_image": "Galaxy_194225",
    "count_view": 0
  },
  {
    "link_thumb": "https://live.staticflickr.com/65535/50039215573_e4f6e2df4f_n.jpg",
    "id_album": "-1610342324",
    "description": "Nebula_179724",
    "title": "Nebula_179724",
    "link_img": "https://live.staticflickr.com/65535/50039215573_1bb7885b4e_o.jpg",
    "id_image": "Nebula_179724",
    "count_view": 0
  },
  {
    "link_thumb": "https://live.staticflickr.com/65535/50039968367_894ef16b11_n.jpg",
    "id_album": "1402713104",
    "description": "Landscape_776210",
    "title": "Landscape_776210",
    "link_img": "https://live.staticflickr.com/65535/50039968367_e4f058c788_o.jpg",
    "id_image": "Landscape_776210",
    "count_view": 0
  },
  {
    "link_thumb": "https://live.staticflickr.com/65535/50040450521_4f362f9f4d_n.jpg",
    "id_album": "779690680",
    "description": "Robot_959320",
    "title": "Robot_959320",
    "link_img": "https://live.staticflickr.com/65535/50040450521_15b9474e7d_o.jpg",
    "id_image": "Robot_959320",
    "count_view": 0
  },
  {
    "link_thumb": "https://live.staticflickr.com/65535/50039004458_9cb173b3bf_n.jpg",
    "id_album": "-437872736",
    "description": "Creature_333323",
    "title": "Creature_333323",
    "link_img": "https://live.staticflickr.com/65535/50039004458_32602a5cff_o.jpg",
    "id_image": "Creature_333323",
    "count_view": 0
  },
  {
    "link_thumb": "https://live.staticflickr.com/65535/50039234101_47916c6b9e_n.jpg",
    "id_album": "-406145265",
    "description": "Aircraft_145916",
    "title": "Aircraft_145916",
    "link_img": "https://live.staticflickr.com/65535/50039234101_52b1bf0684_o.jpg",
    "id_image": "Aircraft_145916",
    "count_view": 0
  },
  {
    "link_thumb": "https://live.staticflickr.com/65535/50038742178_029a671127_n.jpg",
    "id_album": "-419633230",
    "description": "Apocalyptic_957495",
    "title": "Apocalyptic_957495",
    "link_img": "https://live.staticflickr.com/65535/50038742178_e762978d8f_o.jpg",
    "id_image": "Apocalyptic_957495",
    "count_view": 0
  },
  {
    "link_thumb": "https://live.staticflickr.com/65535/50040256281_591351776d_n.jpg",
    "id_album": "779690680",
    "description": "Robot_155010",
    "title": "Robot_155010",
    "link_img": "https://live.staticflickr.com/65535/50040256281_9bb595e518_o.jpg",
    "id_image": "Robot_155010",
    "count_view": 0
  },
  {
    "link_thumb": "https://live.staticflickr.com/65535/50038780388_79ff1aa6b0_n.jpg",
    "id_album": "523598895",
    "description": "Artistic_316832",
    "title": "Artistic_316832",
    "link_img": "https://live.staticflickr.com/65535/50038780388_61e412a90b_o.jpg",
    "id_image": "Artistic_316832",
    "count_view": 0
  },
  {
    "link_thumb": "https://live.staticflickr.com/65535/50039388616_fb3d3d693e_n.jpg",
    "id_album": "869545341",
    "description": "Astronaut_975794",
    "title": "Astronaut_975794",
    "link_img": "https://live.staticflickr.com/65535/50039388616_9b986457d0_o.jpg",
    "id_image": "Astronaut_975794",
    "count_view": 0
  },
  {
    "link_thumb": "https://live.staticflickr.com/65535/50041026433_d3fee9b958_n.jpg",
    "id_album": "-1675918237",
    "description": "WomenWarrior_551721",
    "title": "WomenWarrior_551721",
    "link_img": "https://live.staticflickr.com/65535/50041026433_95ce8fb518_o.jpg",
    "id_image": "WomenWarrior_551721",
    "count_view": 0
  },
  {
    "link_thumb": "https://live.staticflickr.com/65535/50041351426_00ee3a4f1d_n.jpg",
    "id_album": "-221671103",
    "description": "Sun_549919",
    "title": "Sun_549919",
    "link_img": "https://live.staticflickr.com/65535/50041351426_6177a6fa10_o.jpg",
    "id_image": "Sun_549919",
    "count_view": 0
  },
  {
    "link_thumb": "https://live.staticflickr.com/65535/50040024472_9b06c7544c_n.jpg",
    "id_album": "-1610342324",
    "description": "Nebula_104078",
    "title": "Nebula_104078",
    "link_img": "https://live.staticflickr.com/65535/50040024472_89cc183962_o.jpg",
    "id_image": "Nebula_104078",
    "count_view": 0
  },
  {
    "link_thumb": "https://live.staticflickr.com/65535/50039761227_6d64370923_n.jpg",
    "id_album": "-1964113117",
    "description": "City_819046",
    "title": "City_819046",
    "link_img": "https://live.staticflickr.com/65535/50039761227_61727c0eb7_o.jpg",
    "id_image": "City_819046",
    "count_view": 0
  },
  {
    "link_thumb": "https://live.staticflickr.com/65535/50039258161_4f2d0a3f91_n.jpg",
    "id_album": "849020728",
    "description": "Alien_278243",
    "title": "Alien_278243",
    "link_img": "https://live.staticflickr.com/65535/50039258161_9a398a1334_o.jpg",
    "id_image": "Alien_278243",
    "count_view": 0
  },
  {
    "link_thumb": "https://live.staticflickr.com/65535/50039576387_81840b56be_n.jpg",
    "id_album": "523598895",
    "description": "Artistic_211370",
    "title": "Artistic_211370",
    "link_img": "https://live.staticflickr.com/65535/50039576387_6a43fea9f1_o.jpg",
    "id_image": "Artistic_211370",
    "count_view": 0
  },
  {
    "link_thumb": "https://live.staticflickr.com/65535/50040682602_0e8e359e62_n.jpg",
    "id_album": "779690680",
    "description": "Robot_922856",
    "title": "Robot_922856",
    "link_img": "https://live.staticflickr.com/65535/50040682602_28f52e3680_o.jpg",
    "id_image": "Robot_922856",
    "count_view": 0
  },
  {
    "link_thumb": "https://live.staticflickr.com/65535/50041845847_0ef8cd8134_n.jpg",
    "id_album": "-1675918237",
    "description": "WomenWarrior_603751",
    "title": "WomenWarrior_603751",
    "link_img": "https://live.staticflickr.com/65535/50041845847_461beb6118_o.jpg",
    "id_image": "WomenWarrior_603751",
    "count_view": 0
  },
  {
    "link_thumb": "https://live.staticflickr.com/65535/50039772013_14b6343bbd_n.jpg",
    "id_album": "779690680",
    "description": "Robot_489387",
    "title": "Robot_489387",
    "link_img": "https://live.staticflickr.com/65535/50039772013_84b9ca787c_o.jpg",
    "id_image": "Robot_489387",
    "count_view": 0
  },
  {
    "link_thumb": "https://live.staticflickr.com/65535/50039840393_362ab7f104_n.jpg",
    "id_album": "779690680",
    "description": "Robot_884818",
    "title": "Robot_884818",
    "link_img": "https://live.staticflickr.com/65535/50039840393_0c266092de_o.jpg",
    "id_image": "Robot_884818",
    "count_view": 0
  },
  {
    "link_thumb": "https://live.staticflickr.com/65535/50039402326_e2090342e5_n.jpg",
    "id_album": "1187037014",
    "description": "Battle_509019",
    "title": "Battle_509019",
    "link_img": "https://live.staticflickr.com/65535/50039402326_081ee78a69_o.jpg",
    "id_image": "Battle_509019",
    "count_view": 0
  },
  {
    "link_thumb": "https://live.staticflickr.com/65535/50040735137_cc84b1502c_n.jpg",
    "id_album": "1613540653",
    "description": "Space_159491",
    "title": "Space_159491",
    "link_img": "https://live.staticflickr.com/65535/50040735137_873c9233c1_o.jpg",
    "id_image": "Space_159491",
    "count_view": 0
  },
  {
    "link_thumb": "https://live.staticflickr.com/65535/50039778981_889e3ee9f9_n.jpg",
    "id_album": "-1610342324",
    "description": "Nebula_264712",
    "title": "Nebula_264712",
    "link_img": "https://live.staticflickr.com/65535/50039778981_4cb3b871a2_o.jpg",
    "id_image": "Nebula_264712",
    "count_view": 0
  },
  {
    "link_thumb": "https://live.staticflickr.com/65535/50039413206_4d82ea1f2a_n.jpg",
    "id_album": "-1780971522",
    "description": "Biohazard_332959",
    "title": "Biohazard_332959",
    "link_img": "https://live.staticflickr.com/65535/50039413206_81fc0b585f_o.jpg",
    "id_image": "Biohazard_332959",
    "count_view": 0
  },
  {
    "link_thumb": "https://live.staticflickr.com/65535/50039011638_1b34a7dd4e_n.jpg",
    "id_album": "-437872736",
    "description": "Creature_967850",
    "title": "Creature_967850",
    "link_img": "https://live.staticflickr.com/65535/50039011638_14695bba44_o.jpg",
    "id_image": "Creature_967850",
    "count_view": 0
  },
  {
    "link_thumb": "https://live.staticflickr.com/65535/50040004086_b838615ef9_n.jpg",
    "id_album": "1443611160",
    "description": "PlanetRise_369752",
    "title": "PlanetRise_369752",
    "link_img": "https://live.staticflickr.com/65535/50040004086_f1bccdbf3b_o.jpg",
    "id_image": "PlanetRise_369752",
    "count_view": 0
  },
  {
    "link_thumb": "https://live.staticflickr.com/65535/50041040197_8c235f9455_n.jpg",
    "id_album": "2130067313",
    "description": "Spaceship_972167",
    "title": "Spaceship_972167",
    "link_img": "https://live.staticflickr.com/65535/50041040197_0e87f2bd5e_o.jpg",
    "id_image": "Spaceship_972167",
    "count_view": 0
  },
  {
    "link_thumb": "https://live.staticflickr.com/65535/50039667638_90340d3309_n.jpg",
    "id_album": "-482547208",
    "description": "PostApocalyptic_703348",
    "title": "PostApocalyptic_703348",
    "link_img": "https://live.staticflickr.com/65535/50039667638_24d651bbeb_o.jpg",
    "id_image": "PostApocalyptic_703348",
    "count_view": 0
  },
  {
    "link_thumb": "https://live.staticflickr.com/65535/50039677001_e3988b5c11_n.jpg",
    "id_album": "1402713104",
    "description": "Landscape_325811",
    "title": "Landscape_325811",
    "link_img": "https://live.staticflickr.com/65535/50039677001_e18dc63e8d_o.jpg",
    "id_image": "Landscape_325811",
    "count_view": 0
  },
  {
    "link_thumb": "https://live.staticflickr.com/65535/50038757958_b194714199_n.jpg",
    "id_album": "523598895",
    "description": "Artistic_179712",
    "title": "Artistic_179712",
    "link_img": "https://live.staticflickr.com/65535/50038757958_f73358b1e4_o.jpg",
    "id_image": "Artistic_179712",
    "count_view": 0
  },
  {
    "link_thumb": "https://live.staticflickr.com/65535/50040012796_baa5d909a7_n.jpg",
    "id_album": "1443611160",
    "description": "PlanetRise_76944",
    "title": "PlanetRise_76944",
    "link_img": "https://live.staticflickr.com/65535/50040012796_83f0305a18_o.jpg",
    "id_image": "PlanetRise_76944",
    "count_view": 0
  },
  {
    "link_thumb": "https://live.staticflickr.com/65535/50040781697_e3392c844e_n.jpg",
    "id_album": "1613540653",
    "description": "Space_608325",
    "title": "Space_608325",
    "link_img": "https://live.staticflickr.com/65535/50040781697_c9f0daed0c_o.jpg",
    "id_image": "Space_608325",
    "count_view": 0
  },
  {
    "link_thumb": "https://live.staticflickr.com/65535/50039646727_eb784f45c0_n.jpg",
    "id_album": "869545341",
    "description": "Astronaut_957344",
    "title": "Astronaut_957344",
    "link_img": "https://live.staticflickr.com/65535/50039646727_27bce795c8_o.jpg",
    "id_image": "Astronaut_957344",
    "count_view": 0
  },
  {
    "link_thumb": "https://live.staticflickr.com/65535/50040804872_a3f8d2393b_n.jpg",
    "id_album": "1613540653",
    "description": "Space_787307",
    "title": "Space_787307",
    "link_img": "https://live.staticflickr.com/65535/50040804872_bb5bb36746_o.jpg",
    "id_image": "Space_787307",
    "count_view": 0
  },
  {
    "link_thumb": "https://live.staticflickr.com/65535/50039667763_c3ba9fa86f_n.jpg",
    "id_album": "-482547208",
    "description": "PostApocalyptic_709113",
    "title": "PostApocalyptic_709113",
    "link_img": "https://live.staticflickr.com/65535/50039667763_0172c9c9e2_o.jpg",
    "id_image": "PostApocalyptic_709113",
    "count_view": 0
  },
  {
    "link_thumb": "https://live.staticflickr.com/65535/50041277051_81789ed1e8_n.jpg",
    "id_album": "-1587696329",
    "description": "Stars_548447",
    "title": "Stars_548447",
    "link_img": "https://live.staticflickr.com/65535/50041277051_27a20e0e7c_o.jpg",
    "id_image": "Stars_548447",
    "count_view": 0
  },
  {
    "link_thumb": "https://live.staticflickr.com/65535/50039879423_2392deb211_n.jpg",
    "id_album": "779690680",
    "description": "Robot_937811",
    "title": "Robot_937811",
    "link_img": "https://live.staticflickr.com/65535/50039879423_44f3045475_o.jpg",
    "id_image": "Robot_937811",
    "count_view": 0
  },
  {
    "link_thumb": "https://live.staticflickr.com/65535/50039631446_4bb723d955_n.jpg",
    "id_album": "1204249541",
    "description": "Galaxy_337200",
    "title": "Galaxy_337200",
    "link_img": "https://live.staticflickr.com/65535/50039631446_8462c1aafb_o.jpg",
    "id_image": "Galaxy_337200",
    "count_view": 0
  },
  {
    "link_thumb": "https://live.staticflickr.com/65535/50039552432_b9f08e0a74_n.jpg",
    "id_album": "-419633230",
    "description": "Apocalyptic_997968",
    "title": "Apocalyptic_997968",
    "link_img": "https://live.staticflickr.com/65535/50039552432_4002d7efe0_o.jpg",
    "id_image": "Apocalyptic_997968",
    "count_view": 0
  },
  {
    "link_thumb": "https://live.staticflickr.com/65535/50040200352_9209c10269_n.jpg",
    "id_album": "395161030",
    "description": "Planet_357811",
    "title": "Planet_357811",
    "link_img": "https://live.staticflickr.com/65535/50040200352_72dd4582d3_o.jpg",
    "id_image": "Planet_357811",
    "count_view": 0
  },
  {
    "link_thumb": "https://live.staticflickr.com/65535/50039308383_9453ddbb75_n.jpg",
    "id_album": "-1610342324",
    "description": "Nebula_957881",
    "title": "Nebula_957881",
    "link_img": "https://live.staticflickr.com/65535/50039308383_6cba99f4e0_o.jpg",
    "id_image": "Nebula_957881",
    "count_view": 0
  },
  {
    "link_thumb": "https://live.staticflickr.com/65535/50040890227_7f1793b6c4_n.jpg",
    "id_album": "2130067313",
    "description": "Spaceship_284589",
    "title": "Spaceship_284589",
    "link_img": "https://live.staticflickr.com/65535/50040890227_fa55ba9c10_o.jpg",
    "id_image": "Spaceship_284589",
    "count_view": 0
  },
  {
    "link_thumb": "https://live.staticflickr.com/65535/50039582173_2677ac82e3_n.jpg",
    "id_album": "-1102314093",
    "description": "Planets_75971",
    "title": "Planets_75971",
    "link_img": "https://live.staticflickr.com/65535/50039582173_cff3ec1831_o.jpg",
    "id_image": "Planets_75971",
    "count_view": 0
  },
  {
    "link_thumb": "https://live.staticflickr.com/65535/50039464858_a130db80d5_n.jpg",
    "id_album": "1443611160",
    "description": "PlanetRise_82372",
    "title": "PlanetRise_82372",
    "link_img": "https://live.staticflickr.com/65535/50039464858_c141e44dca_o.jpg",
    "id_image": "PlanetRise_82372",
    "count_view": 0
  },
  {
    "link_thumb": "https://live.staticflickr.com/65535/50039385376_60365939f2_n.jpg",
    "id_album": "869545341",
    "description": "Astronaut_957462",
    "title": "Astronaut_957462",
    "link_img": "https://live.staticflickr.com/65535/50039385376_b5a7ccb7a2_o.jpg",
    "id_image": "Astronaut_957462",
    "count_view": 0
  },
  {
    "link_thumb": "https://live.staticflickr.com/65535/50039349228_0366df0b33_n.jpg",
    "id_album": "1896531081",
    "description": "People_871008",
    "title": "People_871008",
    "link_img": "https://live.staticflickr.com/65535/50039349228_dd10ca56be_o.jpg",
    "id_image": "People_871008",
    "count_view": 0
  },
  {
    "link_thumb": "https://live.staticflickr.com/65535/50039699848_2ca234fcd0_n.jpg",
    "id_album": "779690680",
    "description": "Robot_114142",
    "title": "Robot_114142",
    "link_img": "https://live.staticflickr.com/65535/50039699848_ca654009a2_o.jpg",
    "id_image": "Robot_114142",
    "count_view": 0
  },
  {
    "link_thumb": "https://live.staticflickr.com/65535/50039663302_ce573d826a_n.jpg",
    "id_album": "1187037014",
    "description": "Battle_309436",
    "title": "Battle_309436",
    "link_img": "https://live.staticflickr.com/65535/50039663302_30d73b62f1_o.jpg",
    "id_image": "Battle_309436",
    "count_view": 0
  },
  {
    "link_thumb": "https://live.staticflickr.com/65535/50038898223_aced839c06_n.jpg",
    "id_album": "-1964113117",
    "description": "City_214293",
    "title": "City_214293",
    "link_img": "https://live.staticflickr.com/65535/50038898223_5699db0fa4_o.jpg",
    "id_image": "City_214293",
    "count_view": 0
  }
]