[
  {
    "link_thumb": "https://live.staticflickr.com/65535/50040067892_106aaa6c42_n.jpg",
    "id_album": "-1610342324",
    "description": "Nebula_529281",
    "title": "Nebula_529281",
    "link_img": "https://live.staticflickr.com/65535/50040067892_9f5f0196ff_o.jpg",
    "id_image": "Nebula_529281",
    "count_view": 0
  },
  {
    "link_thumb": "https://live.staticflickr.com/65535/50040182462_f4bd8744b3_n.jpg",
    "id_album": "395161030",
    "description": "Planet_202873",
    "title": "Planet_202873",
    "link_img": "https://live.staticflickr.com/65535/50040182462_5fd20889b7_o.jpg",
    "id_image": "Planet_202873",
    "count_view": 0
  },
  {
    "link_thumb": "https://live.staticflickr.com/65535/50041613927_2a0b8a04d3_n.jpg",
    "id_album": "-221671103",
    "description": "Sun_551154",
    "title": "Sun_551154",
    "link_img": "https://live.staticflickr.com/65535/50041613927_075bd4829e_o.jpg",
    "id_image": "Sun_551154",
    "count_view": 0
  },
  {
    "link_thumb": "https://live.staticflickr.com/65535/50039299043_ea5b6c7aa4_n.jpg",
    "id_album": "-1610342324",
    "description": "Nebula_880085",
    "title": "Nebula_880085",
    "link_img": "https://live.staticflickr.com/65535/50039299043_f7387a2c75_o.jpg",
    "id_image": "Nebula_880085",
    "count_view": 0
  },
  {
    "link_thumb": "https://live.staticflickr.com/65535/50039718837_c5665e74a4_n.jpg",
    "id_album": "-1964113117",
    "description": "City_269368",
    "title": "City_269368",
    "link_img": "https://live.staticflickr.com/65535/50039718837_b10c22b6fb_o.jpg",
    "id_image": "City_269368",
    "count_view": 0
  },
  {
    "link_thumb": "https://live.staticflickr.com/65535/50041578751_0e405c1a99_n.jpg",
    "id_album": "-1675918237",
    "description": "WomenWarrior_529257",
    "title": "WomenWarrior_529257",
    "link_img": "https://live.staticflickr.com/65535/50041578751_8291a699d7_o.jpg",
    "id_image": "WomenWarrior_529257",
    "count_view": 0
  },
  {
    "link_thumb": "https://live.staticflickr.com/65535/50040743793_e6147cb1de_n.jpg",
    "id_album": "1267121215",
    "description": "Steampunk_199576",
    "title": "Steampunk_199576",
    "link_img": "https://live.staticflickr.com/65535/50040743793_223ce8a47c_o.jpg",
    "id_image": "Steampunk_199576",
    "count_view": 0
  },
  {
    "link_thumb": "https://live.staticflickr.com/65535/50039433691_498591e3fe_n.jpg",
    "id_album": "-1964113117",
    "description": "City_123330",
    "title": "City_123330",
    "link_img": "https://live.staticflickr.com/65535/50039433691_48637e3d08_o.jpg",
    "id_image": "City_123330",
    "count_view": 0
  },
  {
    "link_thumb": "https://live.staticflickr.com/65535/50039708747_250e4661b0_n.jpg",
    "id_album": "-1964113117",
    "description": "City_213527",
    "title": "City_213527",
    "link_img": "https://live.staticflickr.com/65535/50039708747_6a37194e44_o.jpg",
    "id_image": "City_213527",
    "count_view": 0
  },
  {
    "link_thumb": "https://live.staticflickr.com/65535/50039288848_83c4740851_n.jpg",
    "id_album": "-1610342324",
    "description": "Nebula_793712",
    "title": "Nebula_793712",
    "link_img": "https://live.staticflickr.com/65535/50039288848_a042f4d022_o.jpg",
    "id_image": "Nebula_793712",
    "count_view": 0
  },
  {
    "link_thumb": "https://live.staticflickr.com/65535/50039473636_666ec171db_n.jpg",
    "id_album": "-1964113117",
    "description": "City_499355",
    "title": "City_499355",
    "link_img": "https://live.staticflickr.com/65535/50039473636_2fdc1ea29c_o.jpg",
    "id_image": "City_499355",
    "count_view": 0
  },
  {
    "link_thumb": "https://live.staticflickr.com/65535/50040115386_f63a693e41_n.jpg",
    "id_album": "-1102314093",
    "description": "Planets_436890",
    "title": "Planets_436890",
    "link_img": "https://live.staticflickr.com/65535/50040115386_bb2d8554ea_o.jpg",
    "id_image": "Planets_436890",
    "count_view": 0
  },
  {
    "link_thumb": "https://live.staticflickr.com/65535/50040752877_a32626a2d9_n.jpg",
    "id_album": "1613540653",
    "description": "Space_287043",
    "title": "Space_287043",
    "link_img": "https://live.staticflickr.com/65535/50040752877_7cc0bb4da7_o.jpg",
    "id_image": "Space_287043",
    "count_view": 0
  },
  {
    "link_thumb": "https://live.staticflickr.com/65535/50041568766_c4d5b47603_n.jpg",
    "id_album": "-1675918237",
    "description": "WomenWarrior_327448",
    "title": "WomenWarrior_327448",
    "link_img": "https://live.staticflickr.com/65535/50041568766_8172810821_o.jpg",
    "id_image": "WomenWarrior_327448",
    "count_view": 0
  },
  {
    "link_thumb": "https://live.staticflickr.com/65535/50040087797_7131a8ed3f_n.jpg",
    "id_album": "-1610342324",
    "description": "Nebula_704886",
    "title": "Nebula_704886",
    "link_img": "https://live.staticflickr.com/65535/50040087797_557a30da1d_o.jpg",
    "id_image": "Nebula_704886",
    "count_view": 0
  },
  {
    "link_thumb": "https://live.staticflickr.com/65535/50038805458_ebc52159f1_n.jpg",
    "id_album": "869545341",
    "description": "Astronaut_337255",
    "title": "Astronaut_337255",
    "link_img": "https://live.staticflickr.com/65535/50038805458_87333bc07e_o.jpg",
    "id_image": "Astronaut_337255",
    "count_view": 0
  },
  {
    "link_thumb": "https://live.staticflickr.com/65535/50039999788_61551e103a_n.jpg",
    "id_album": "1613540653",
    "description": "Space_957428",
    "title": "Space_957428",
    "link_img": "https://live.staticflickr.com/65535/50039999788_0455526275_o.jpg",
    "id_image": "Space_957428",
    "count_view": 0
  },
  {
    "link_thumb": "https://live.staticflickr.com/65535/50039383368_318351d954_n.jpg",
    "id_album": "395161030",
    "description": "Planet_345103",
    "title": "Planet_345103",
    "link_img": "https://live.staticflickr.com/65535/50039383368_e4de7886ef_o.jpg",
    "id_image": "Planet_345103",
    "count_view": 0
  },
  {
    "link_thumb": "https://live.staticflickr.com/65535/50039397386_cd492264e9_n.jpg",
    "id_album": "1187037014",
    "description": "Battle_248326",
    "title": "Battle_248326",
    "link_img": "https://live.staticflickr.com/65535/50039397386_baf57e87b5_o.jpg",
    "id_image": "Battle_248326",
    "count_view": 0
  },
  {
    "link_thumb": "https://live.staticflickr.com/65535/50040107722_d7e8c4ccfa_n.jpg",
    "id_album": "-1610342324",
    "description": "Nebula_84362",
    "title": "Nebula_84362",
    "link_img": "https://live.staticflickr.com/65535/50040107722_ca8c9fdff4_o.jpg",
    "id_image": "Nebula_84362",
    "count_view": 0
  },
  {
    "link_thumb": "https://live.staticflickr.com/65535/50040043232_6e684a75c4_n.jpg",
    "id_album": "-1610342324",
    "description": "Nebula_265756",
    "title": "Nebula_265756",
    "link_img": "https://live.staticflickr.com/65535/50040043232_ee635abc43_o.jpg",
    "id_image": "Nebula_265756",
    "count_view": 0
  },
  {
    "link_thumb": "https://live.staticflickr.com/65535/50039507062_e422f401e9_n.jpg",
    "id_album": "849020728",
    "description": "Alien_120337",
    "title": "Alien_120337",
    "link_img": "https://live.staticflickr.com/65535/50039507062_2051e8b2b5_o.jpg",
    "id_image": "Alien_120337",
    "count_view": 0
  },
  {
    "link_thumb": "https://live.staticflickr.com/65535/50039733686_afb3fcbc5c_n.jpg",
    "id_album": "-1388385651",
    "description": "MilkyWay_555693",
    "title": "MilkyWay_555693",
    "link_img": "https://live.staticflickr.com/65535/50039733686_6491480d2f_o.jpg",
    "id_image": "MilkyWay_555693",
    "count_view": 0
  },
  {
    "link_thumb": "https://live.staticflickr.com/65535/50040042503_6e2433f607_n.jpg",
    "id_album": "2130067313",
    "description": "Spaceship_195156",
    "title": "Spaceship_195156",
    "link_img": "https://live.staticflickr.com/65535/50040042503_dc4f3bf7d9_o.jpg",
    "id_image": "Spaceship_195156",
    "count_view": 0
  },
  {
    "link_thumb": "https://live.staticflickr.com/65535/50040201657_346430a541_n.jpg",
    "id_album": "395161030",
    "description": "Planet_363682",
    "title": "Planet_363682",
    "link_img": "https://live.staticflickr.com/65535/50040201657_b2ccbe537b_o.jpg",
    "id_image": "Planet_363682",
    "count_view": 0
  },
  {
    "link_thumb": "https://live.staticflickr.com/65535/50039839628_42f9381d6b_n.jpg",
    "id_album": "779690680",
    "description": "Robot_884808",
    "title": "Robot_884808",
    "link_img": "https://live.staticflickr.com/65535/50039839628_ecac9bda29_o.jpg",
    "id_image": "Robot_884808",
    "count_view": 0
  },
  {
    "link_thumb": "https://live.staticflickr.com/65535/50039003053_99b1076cd4_n.jpg",
    "id_album": "-437872736",
    "description": "Creature_321344",
    "title": "Creature_321344",
    "link_img": "https://live.staticflickr.com/65535/50039003053_f18664a921_o.jpg",
    "id_image": "Creature_321344",
    "count_view": 0
  },
  {
    "link_thumb": "https://live.staticflickr.com/65535/50039293086_4a155cc712_n.jpg",
    "id_album": "523598895",
    "description": "Artistic_113011",
    "title": "Artistic_113011",
    "link_img": "https://live.staticflickr.com/65535/50039293086_a865f3ca3c_o.jpg",
    "id_image": "Artistic_113011",
    "count_view": 0
  },
  {
    "link_thumb": "https://live.staticflickr.com/65535/50039745763_b2f1731d69_n.jpg",
    "id_album": "779690680",
    "description": "Robot_381885",
    "title": "Robot_381885",
    "link_img": "https://live.staticflickr.com/65535/50039745763_0d09996b7e_o.jpg",
    "id_image": "Robot_381885",
    "count_view": 0
  },
  {
    "link_thumb": "https://live.staticflickr.com/65535/50041446321_204259e43b_n.jpg",
    "id_album": "-1261420436",
    "description": "Warrior_314774",
    "title": "Warrior_314774",
    "link_img": "https://live.staticflickr.com/65535/50041446321_e2d7c66f88_o.jpg",
    "id_image": "Warrior_314774",
    "count_view": 0
  },
  {
    "link_thumb": "https://live.staticflickr.com/65535/50039360141_271e03bc19_n.jpg",
    "id_album": "869545341",
    "description": "Astronaut_591948",
    "title": "Astronaut_591948",
    "link_img": "https://live.staticflickr.com/65535/50039360141_bcf6c72a38_o.jpg",
    "id_image": "Astronaut_591948",
    "count_view": 0
  },
  {
    "link_thumb": "https://live.staticflickr.com/65535/50038988118_a06088e567_n.jpg",
    "id_album": "894679094",
    "description": "Collision_154805",
    "title": "Collision_154805",
    "link_img": "https://live.staticflickr.com/65535/50038988118_57e508dec9_o.jpg",
    "id_image": "Collision_154805",
    "count_view": 0
  },
  {
    "link_thumb": "https://live.staticflickr.com/65535/50041624522_491abaff18_n.jpg",
    "id_album": "-1177476763",
    "description": "Sunrise_357522",
    "title": "Sunrise_357522",
    "link_img": "https://live.staticflickr.com/65535/50041624522_87d3695889_o.jpg",
    "id_image": "Sunrise_357522",
    "count_view": 0
  },
  {
    "link_thumb": "https://live.staticflickr.com/65535/50039257301_b019429c2b_n.jpg",
    "id_album": "849020728",
    "description": "Alien_270110",
    "title": "Alien_270110",
    "link_img": "https://live.staticflickr.com/65535/50039257301_f5a7a1b074_o.jpg",
    "id_image": "Alien_270110",
    "count_view": 0
  },
  {
    "link_thumb": "https://live.staticflickr.com/65535/50039234223_ba04df02fc_n.jpg",
    "id_album": "-1610342324",
    "description": "Nebula_291109",
    "title": "Nebula_291109",
    "link_img": "https://live.staticflickr.com/65535/50039234223_af54406c6c_o.jpg",
    "id_image": "Nebula_291109",
    "count_view": 0
  },
  {
    "link_thumb": "https://live.staticflickr.com/65535/50038732913_d286cff8d5_n.jpg",
    "id_album": "-419633230",
    "description": "Apocalyptic_242682",
    "title": "Apocalyptic_242682",
    "link_img": "https://live.staticflickr.com/65535/50038732913_a798c53102_o.jpg",
    "id_image": "Apocalyptic_242682",
    "count_view": 0
  },
  {
    "link_thumb": "https://live.staticflickr.com/65535/50040226186_700a564fd2_n.jpg",
    "id_album": "-482547208",
    "description": "PostApocalyptic_857259",
    "title": "PostApocalyptic_857259",
    "link_img": "https://live.staticflickr.com/65535/50040226186_434a029de4_o.jpg",
    "id_image": "PostApocalyptic_857259",
    "count_view": 0
  },
  {
    "link_thumb": "https://live.staticflickr.com/65535/50041719902_cbb29a169e_n.jpg",
    "id_album": "-1261420436",
    "description": "Warrior_393645",
    "title": "Warrior_393645",
    "link_img": "https://live.staticflickr.com/65535/50041719902_78a94b522a_o.jpg",
    "id_image": "Warrior_393645",
    "count_view": 0
  },
  {
    "link_thumb": "https://live.staticflickr.com/65535/50039281146_ea71bbf2c1_n.jpg",
    "id_album": "-419633230",
    "description": "Apocalyptic_275161",
    "title": "Apocalyptic_275161",
    "link_img": "https://live.staticflickr.com/65535/50039281146_27ddebe673_o.jpg",
    "id_image": "Apocalyptic_275161",
    "count_view": 0
  },
  {
    "link_thumb": "https://live.staticflickr.com/65535/50039149598_f139013642_n.jpg",
    "id_album": "1402713104",
    "description": "Landscape_674916",
    "title": "Landscape_674916",
    "link_img": "https://live.staticflickr.com/65535/50039149598_118d728efa_o.jpg",
    "id_image": "Landscape_674916",
    "count_view": 0
  },
  {
    "link_thumb": "https://live.staticflickr.com/65535/50039424846_0181c86c19_n.jpg",
    "id_album": "406431601",
    "description": "Building_872518",
    "title": "Building_872518",
    "link_img": "https://live.staticflickr.com/65535/50039424846_7a672d67ed_o.jpg",
    "id_image": "Building_872518",
    "count_view": 0
  },
  {
    "link_thumb": "https://live.staticflickr.com/65535/50039033693_d1688ba6a0_n.jpg",
    "id_album": "829169633",
    "description": "Cyborg_261245",
    "title": "Cyborg_261245",
    "link_img": "https://live.staticflickr.com/65535/50039033693_2b4a442f39_o.jpg",
    "id_image": "Cyborg_261245",
    "count_view": 0
  },
  {
    "link_thumb": "https://live.staticflickr.com/65535/50039729398_02c3b897fe_n.jpg",
    "id_album": "779690680",
    "description": "Robot_286476",
    "title": "Robot_286476",
    "link_img": "https://live.staticflickr.com/65535/50039729398_eb0edd3a9c_o.jpg",
    "id_image": "Robot_286476",
    "count_view": 0
  },
  {
    "link_thumb": "https://live.staticflickr.com/65535/50040941408_3a1fb390d4_n.jpg",
    "id_album": "-1261420436",
    "description": "Warrior_948468",
    "title": "Warrior_948468",
    "link_img": "https://live.staticflickr.com/65535/50040941408_e1cb239e63_o.jpg",
    "id_image": "Warrior_948468",
    "count_view": 0
  },
  {
    "link_thumb": "https://live.staticflickr.com/65535/50040214857_a7d3409e4b_n.jpg",
    "id_album": "395161030",
    "description": "Planet_450504",
    "title": "Planet_450504",
    "link_img": "https://live.staticflickr.com/65535/50040214857_0089e54cd0_o.jpg",
    "id_image": "Planet_450504",
    "count_view": 0
  },
  {
    "link_thumb": "https://live.staticflickr.com/65535/50039785822_d9dddc7a4c_n.jpg",
    "id_album": "-1964113117",
    "description": "City_936233",
    "title": "City_936233",
    "link_img": "https://live.staticflickr.com/65535/50039785822_797b176c20_o.jpg",
    "id_image": "City_936233",
    "count_view": 0
  },
  {
    "link_thumb": "https://live.staticflickr.com/65535/50041442072_e3393faabe_n.jpg",
    "id_album": "-1863373220",
    "description": "StarWars_420414",
    "title": "StarWars_420414",
    "link_img": "https://live.staticflickr.com/65535/50041442072_bd5fde368a_o.jpg",
    "id_image": "StarWars_420414",
    "count_view": 0
  },
  {
    "link_thumb": "https://live.staticflickr.com/65535/50039791156_d96350b474_n.jpg",
    "id_album": "-1610342324",
    "description": "Nebula_396533",
    "title": "Nebula_396533",
    "link_img": "https://live.staticflickr.com/65535/50039791156_7742a3d843_o.jpg",
    "id_image": "Nebula_396533",
    "count_view": 0
  },
  {
    "link_thumb": "https://live.staticflickr.com/65535/50041196911_0cdfc2cf81_n.jpg",
    "id_album": "-1863373220",
    "description": "StarWars_584833",
    "title": "StarWars_584833",
    "link_img": "https://live.staticflickr.com/65535/50041196911_628197da34_o.jpg",
    "id_image": "StarWars_584833",
    "count_view": 0
  },
  {
    "link_thumb": "https://live.staticflickr.com/65535/50039717503_c063842eeb_n.jpg",
    "id_album": "779690680",
    "description": "Robot_245595",
    "title": "Robot_245595",
    "link_img": "https://live.staticflickr.com/65535/50039717503_b2358b2398_o.jpg",
    "id_image": "Robot_245595",
    "count_view": 0
  },
  {
    "link_thumb": "https://live.staticflickr.com/65535/50039183338_2b777f71a8_n.jpg",
    "id_album": "-1388385651",
    "description": "MilkyWay_550096",
    "title": "MilkyWay_550096",
    "link_img": "https://live.staticflickr.com/65535/50039183338_a5960c2b1b_o.jpg",
    "id_image": "MilkyWay_550096",
    "count_view": 0
  },
  {
    "link_thumb": "https://live.staticflickr.com/65535/50039338636_e23444dfe0_n.jpg",
    "id_album": "523598895",
    "description": "Artistic_547511",
    "title": "Artistic_547511",
    "link_img": "https://live.staticflickr.com/65535/50039338636_1f23890212_o.jpg",
    "id_image": "Artistic_547511",
    "count_view": 0
  },
  {
    "link_thumb": "https://live.staticflickr.com/65535/50039581522_6ec592067c_n.jpg",
    "id_album": "523598895",
    "description": "Artistic_225561",
    "title": "Artistic_225561",
    "link_img": "https://live.staticflickr.com/65535/50039581522_31b7006eb3_o.jpg",
    "id_image": "Artistic_225561",
    "count_view": 0
  },
  {
    "link_thumb": "https://live.staticflickr.com/65535/50039806991_772c603269_n.jpg",
    "id_album": "-1610342324",
    "description": "Nebula_548279",
    "title": "Nebula_548279",
    "link_img": "https://live.staticflickr.com/65535/50039806991_1aa265ca3f_o.jpg",
    "id_image": "Nebula_548279",
    "count_view": 0
  },
  {
    "link_thumb": "https://live.staticflickr.com/65535/50040027167_15bbd3d787_n.jpg",
    "id_album": "-1610342324",
    "description": "Nebula_166114",
    "title": "Nebula_166114",
    "link_img": "https://live.staticflickr.com/65535/50040027167_0a642cd744_o.jpg",
    "id_image": "Nebula_166114",
    "count_view": 0
  },
  {
    "link_thumb": "https://live.staticflickr.com/65535/50040082572_951d0cd5d2_n.jpg",
    "id_album": "-1610342324",
    "description": "Nebula_658853",
    "title": "Nebula_658853",
    "link_img": "https://live.staticflickr.com/65535/50040082572_6de689239f_o.jpg",
    "id_image": "Nebula_658853",
    "count_view": 0
  },
  {
    "link_thumb": "https://live.staticflickr.com/65535/50039885988_64343aa07e_n.jpg",
    "id_album": "779690680",
    "description": "Robot_949786",
    "title": "Robot_949786",
    "link_img": "https://live.staticflickr.com/65535/50039885988_76b6ddaa08_o.jpg",
    "id_image": "Robot_949786",
    "count_view": 0
  },
  {
    "link_thumb": "https://live.staticflickr.com/65535/50040516437_6a0488d52c_n.jpg",
    "id_album": "779690680",
    "description": "Robot_112627",
    "title": "Robot_112627",
    "link_img": "https://live.staticflickr.com/65535/50040516437_cd7725eaf2_o.jpg",
    "id_image": "Robot_112627",
    "count_view": 0
  },
  {
    "link_thumb": "https://live.staticflickr.com/65535/50040461347_7a203ff34a_n.jpg",
    "id_album": "-482547208",
    "description": "PostApocalyptic_221988",
    "title": "PostApocalyptic_221988",
    "link_img": "https://live.staticflickr.com/65535/50040461347_123d3296f8_o.jpg",
    "id_image": "PostApocalyptic_221988",
    "count_view": 0
  },
  {
    "link_thumb": "https://live.staticflickr.com/65535/50038943553_7ce4d43c88_n.jpg",
    "id_album": "-1964113117",
    "description": "City_712330",
    "title": "City_712330",
    "link_img": "https://live.staticflickr.com/65535/50038943553_43e9e36e40_o.jpg",
    "id_image": "City_712330",
    "count_view": 0
  },
  {
    "link_thumb": "https://live.staticflickr.com/65535/50040395091_f865f50c00_n.jpg",
    "id_album": "779690680",
    "description": "Robot_887980",
    "title": "Robot_887980",
    "link_img": "https://live.staticflickr.com/65535/50040395091_5458e30cea_o.jpg",
    "id_image": "Robot_887980",
    "count_view": 0
  },
  {
    "link_thumb": "https://live.staticflickr.com/65535/50039747787_afa6d75362_n.jpg",
    "id_album": "-1964113117",
    "description": "City_671372",
    "title": "City_671372",
    "link_img": "https://live.staticflickr.com/65535/50039747787_410e44d7d9_o.jpg",
    "id_image": "City_671372",
    "count_view": 0
  },
  {
    "link_thumb": "https://live.staticflickr.com/65535/50038900478_17de58b3dd_n.jpg",
    "id_album": "-1964113117",
    "description": "City_220572",
    "title": "City_220572",
    "link_img": "https://live.staticflickr.com/65535/50038900478_c510b96934_o.jpg",
    "id_image": "City_220572",
    "count_view": 0
  },
  {
    "link_thumb": "https://live.staticflickr.com/65535/50039218748_7083f63e31_n.jpg",
    "id_album": "-1610342324",
    "description": "Nebula_202551",
    "title": "Nebula_202551",
    "link_img": "https://live.staticflickr.com/65535/50039218748_5e3193d18e_o.jpg",
    "id_image": "Nebula_202551",
    "count_view": 0
  },
  {
    "link_thumb": "https://live.staticflickr.com/65535/50039853527_ae9a1f888f_n.jpg",
    "id_album": "829169633",
    "description": "Cyborg_488054",
    "title": "Cyborg_488054",
    "link_img": "https://live.staticflickr.com/65535/50039853527_b2c571966e_o.jpg",
    "id_image": "Cyborg_488054",
    "count_view": 0
  },
  {
    "link_thumb": "https://live.staticflickr.com/65535/50040828848_83378202cc_n.jpg",
    "id_album": "2020068132",
    "description": "Vehicle_271142",
    "title": "Vehicle_271142",
    "link_img": "https://live.staticflickr.com/65535/50040828848_0755b1ed6b_o.jpg",
    "id_image": "Vehicle_271142",
    "count_view": 0
  },
  {
    "link_thumb": "https://live.staticflickr.com/65535/50040408201_a4617195df_n.jpg",
    "id_album": "779690680",
    "description": "Robot_911868",
    "title": "Robot_911868",
    "link_img": "https://live.staticflickr.com/65535/50040408201_7af0d4aa36_o.jpg",
    "id_image": "Robot_911868",
    "count_view": 0
  },
  {
    "link_thumb": "https://live.staticflickr.com/65535/50039285638_d627146b02_n.jpg",
    "id_album": "-1610342324",
    "description": "Nebula_772698",
    "title": "Nebula_772698",
    "link_img": "https://live.staticflickr.com/65535/50039285638_019232b02a_o.jpg",
    "id_image": "Nebula_772698",
    "count_view": 0
  },
  {
    "link_thumb": "https://live.staticflickr.com/65535/50039582956_7a73624ffa_n.jpg",
    "id_album": "829169633",
    "description": "Cyborg_249599",
    "title": "Cyborg_249599",
    "link_img": "https://live.staticflickr.com/65535/50039582956_7857a52a2e_o.jpg",
    "id_image": "Cyborg_249599",
    "count_view": 0
  },
  {
    "link_thumb": "https://live.staticflickr.com/65535/50038879668_e28835008c_n.jpg",
    "id_album": "406431601",
    "description": "Building_958188",
    "title": "Building_958188",
    "link_img": "https://live.staticflickr.com/65535/50038879668_c00dc455fb_o.jpg",
    "id_image": "Building_958188",
    "count_view": 0
  },
  {
    "link_thumb": "https://live.staticflickr.com/65535/50039661526_f2f08a4e81_n.jpg",
    "id_album": "1402713104",
    "description": "Landscape_163727",
    "title": "Landscape_163727",
    "link_img": "https://live.staticflickr.com/65535/50039661526_8f50f206e1_o.jpg",
    "id_image": "Landscape_163727",
    "count_view": 0
  },
  {
    "link_thumb": "https://live.staticflickr.com/65535/50040588698_a5b95d75a7_n.jpg",
    "id_album": "-1863373220",
    "description": "StarWars_226928",
    "title": "StarWars_226928",
    "link_img": "https://live.staticflickr.com/65535/50040588698_b26eb2769b_o.jpg",
    "id_image": "StarWars_226928",
    "count_view": 0
  },
  {
    "link_thumb": "https://live.staticflickr.com/65535/50039659048_8fdb1f90ce_n.jpg",
    "id_album": "-482547208",
    "description": "PostApocalyptic_453012",
    "title": "PostApocalyptic_453012",
    "link_img": "https://live.staticflickr.com/65535/50039659048_88c8f395fb_o.jpg",
    "id_image": "PostApocalyptic_453012",
    "count_view": 0
  },
  {
    "link_thumb": "https://live.staticflickr.com/65535/50041622647_3d911b35d2_n.jpg",
    "id_album": "-1177476763",
    "description": "Sunrise_324435",
    "title": "Sunrise_324435",
    "link_img": "https://live.staticflickr.com/65535/50041622647_a3e83a4598_o.jpg",
    "id_image": "Sunrise_324435",
    "count_view": 0
  },
  {
    "link_thumb": "https://live.staticflickr.com/65535/50039646727_eb784f45c0_n.jpg",
    "id_album": "869545341",
    "description": "Astronaut_957344",
    "title": "Astronaut_957344",
    "link_img": "https://live.staticflickr.com/65535/50039646727_27bce795c8_o.jpg",
    "id_image": "Astronaut_957344",
    "count_view": 0
  },
  {
    "link_thumb": "https://live.staticflickr.com/65535/50040734137_450b28d0ed_n.jpg",
    "id_album": "1613540653",
    "description": "Space_151138",
    "title": "Space_151138",
    "link_img": "https://live.staticflickr.com/65535/50040734137_fbdcc3be44_o.jpg",
    "id_image": "Space_151138",
    "count_view": 0
  },
  {
    "link_thumb": "https://live.staticflickr.com/65535/50038976963_ed8d18cbe0_n.jpg",
    "id_album": "-1964113117",
    "description": "City_949602",
    "title": "City_949602",
    "link_img": "https://live.staticflickr.com/65535/50038976963_52788bbcb5_o.jpg",
    "id_image": "City_949602",
    "count_view": 0
  },
  {
    "link_thumb": "https://live.staticflickr.com/65535/50040067392_d11e3d98d7_n.jpg",
    "id_album": "-1610342324",
    "description": "Nebula_525904",
    "title": "Nebula_525904",
    "link_img": "https://live.staticflickr.com/65535/50040067392_b671de7fa0_o.jpg",
    "id_image": "Nebula_525904",
    "count_view": 0
  },
  {
    "link_thumb": "https://live.staticflickr.com/65535/50039274921_da0c310953_n.jpg",
    "id_album": "849020728",
    "description": "Alien_852647",
    "title": "Alien_852647",
    "link_img": "https://live.staticflickr.com/65535/50039274921_3260221177_o.jpg",
    "id_image": "Alien_852647",
    "count_view": 0
  },
  {
    "link_thumb": "https://live.staticflickr.com/65535/50038934443_0fa63bfcde_n.jpg",
    "id_album": "-1964113117",
    "description": "City_649146",
    "title": "City_649146",
    "link_img": "https://live.staticflickr.com/65535/50038934443_494983d6c7_o.jpg",
    "id_image": "City_649146",
    "count_view": 0
  },
  {
    "link_thumb": "https://live.staticflickr.com/65535/50039313386_6d7f209cee_n.jpg",
    "id_album": "523598895",
    "description": "Artistic_207800",
    "title": "Artistic_207800",
    "link_img": "https://live.staticflickr.com/65535/50039313386_7a1a5dfe5b_o.jpg",
    "id_image": "Artistic_207800",
    "count_view": 0
  },
  {
    "link_thumb": "https://live.staticflickr.com/65535/50038679693_a35264e421_n.jpg",
    "id_album": "280884763",
    "description": "Abstract_123869",
    "title": "Abstract_123869",
    "link_img": "https://live.staticflickr.com/65535/50038679693_38997663ae_o.jpg",
    "id_image": "Abstract_123869",
    "count_view": 0
  },
  {
    "link_thumb": "https://live.staticflickr.com/65535/50039843838_f5613b123a_n.jpg",
    "id_album": "779690680",
    "description": "Robot_894431",
    "title": "Robot_894431",
    "link_img": "https://live.staticflickr.com/65535/50039843838_4eb9872abf_o.jpg",
    "id_image": "Robot_894431",
    "count_view": 0
  },
  {
    "link_thumb": "https://live.staticflickr.com/65535/50041422771_1b607aaf7a_n.jpg",
    "id_album": "2020068132",
    "description": "Vehicle_955936",
    "title": "Vehicle_955936",
    "link_img": "https://live.staticflickr.com/65535/50041422771_389dd09114_o.jpg",
    "id_image": "Vehicle_955936",
    "count_view": 0
  },
  {
    "link_thumb": "https://live.staticflickr.com/65535/50040428352_a82f28aaf7_n.jpg",
    "id_album": "376235057",
    "description": "Planetscape_353659",
    "title": "Planetscape_353659",
    "link_img": "https://live.staticflickr.com/65535/50040428352_1117f7a025_o.jpg",
    "id_image": "Planetscape_353659",
    "count_view": 0
  },
  {
    "link_thumb": "https://live.staticflickr.com/65535/50039409681_b987e415ee_n.jpg",
    "id_album": "1187037014",
    "description": "Battle_957841",
    "title": "Battle_957841",
    "link_img": "https://live.staticflickr.com/65535/50039409681_e2f9d42fe7_o.jpg",
    "id_image": "Battle_957841",
    "count_view": 0
  },
  {
    "link_thumb": "https://live.staticflickr.com/65535/50040030977_8a31a7ced4_n.jpg",
    "id_album": "-1610342324",
    "description": "Nebula_19652",
    "title": "Nebula_19652",
    "link_img": "https://live.staticflickr.com/65535/50040030977_2db422affe_o.jpg",
    "id_image": "Nebula_19652",
    "count_view": 0
  },
  {
    "link_thumb": "https://live.staticflickr.com/65535/50039789722_7cce967f17_n.jpg",
    "id_album": "-1964113117",
    "description": "City_958305",
    "title": "City_958305",
    "link_img": "https://live.staticflickr.com/65535/50039789722_6a3592cc65_o.jpg",
    "id_image": "City_958305",
    "count_view": 0
  },
  {
    "link_thumb": "https://live.staticflickr.com/65535/50040538706_74380bdbea_n.jpg",
    "id_album": "1613540653",
    "description": "Space_781842",
    "title": "Space_781842",
    "link_img": "https://live.staticflickr.com/65535/50040538706_2b2245d5b0_o.jpg",
    "id_image": "Space_781842",
    "count_view": 0
  },
  {
    "link_thumb": "https://live.staticflickr.com/65535/50039226691_95c3d32a43_n.jpg",
    "id_album": "280884763",
    "description": "Abstract_123843",
    "title": "Abstract_123843",
    "link_img": "https://live.staticflickr.com/65535/50039226691_7638ca1d6d_o.jpg",
    "id_image": "Abstract_123843",
    "count_view": 0
  },
  {
    "link_thumb": "https://live.staticflickr.com/65535/50040554947_05015d646b_n.jpg",
    "id_album": "779690680",
    "description": "Robot_328761",
    "title": "Robot_328761",
    "link_img": "https://live.staticflickr.com/65535/50040554947_54505e737b_o.jpg",
    "id_image": "Robot_328761",
    "count_view": 0
  },
  {
    "link_thumb": "https://live.staticflickr.com/65535/50039965658_8385b85254_n.jpg",
    "id_album": "1613540653",
    "description": "Space_659468",
    "title": "Space_659468",
    "link_img": "https://live.staticflickr.com/65535/50039965658_f71722f6e0_o.jpg",
    "id_image": "Space_659468",
    "count_view": 0
  },
  {
    "link_thumb": "https://live.staticflickr.com/65535/50040744122_fa8e0fe206_n.jpg",
    "id_album": "1613540653",
    "description": "Space_212846",
    "title": "Space_212846",
    "link_img": "https://live.staticflickr.com/65535/50040744122_63638a48ff_o.jpg",
    "id_image": "Space_212846",
    "count_view": 0
  },
  {
    "link_thumb": "https://live.staticflickr.com/65535/50040760477_4178f05227_n.jpg",
    "id_album": "1613540653",
    "description": "Space_330721",
    "title": "Space_330721",
    "link_img": "https://live.staticflickr.com/65535/50040760477_9062783c13_o.jpg",
    "id_image": "Space_330721",
    "count_view": 0
  },
  {
    "link_thumb": "https://live.staticflickr.com/65535/50039742542_870655067e_n.jpg",
    "id_album": "-1964113117",
    "description": "City_587717",
    "title": "City_587717",
    "link_img": "https://live.staticflickr.com/65535/50039742542_e942f5ee32_o.jpg",
    "id_image": "City_587717",
    "count_view": 0
  },
  {
    "link_thumb": "https://live.staticflickr.com/65535/50040977812_32b5f93e0b_n.jpg",
    "id_album": "2130067313",
    "description": "Spaceship_552094",
    "title": "Spaceship_552094",
    "link_img": "https://live.staticflickr.com/65535/50040977812_574e950736_o.jpg",
    "id_image": "Spaceship_552094",
    "count_view": 0
  },
  {
    "link_thumb": "https://live.staticflickr.com/65535/50040416416_378b6bf80b_n.jpg",
    "id_album": "779690680",
    "description": "Robot_920330",
    "title": "Robot_920330",
    "link_img": "https://live.staticflickr.com/65535/50040416416_2f1c9e665d_o.jpg",
    "id_image": "Robot_920330",
    "count_view": 0
  },
  {
    "link_thumb": "https://live.staticflickr.com/65535/50039836176_8fd5da9265_n.jpg",
    "id_album": "-1610342324",
    "description": "Nebula_785314",
    "title": "Nebula_785314",
    "link_img": "https://live.staticflickr.com/65535/50039836176_0e2076b7b1_o.jpg",
    "id_image": "Nebula_785314",
    "count_view": 0
  },
  {
    "link_thumb": "https://live.staticflickr.com/65535/50039634888_f4308a0d6e_n.jpg",
    "id_album": "376235057",
    "description": "Planetscape_957994",
    "title": "Planetscape_957994",
    "link_img": "https://live.staticflickr.com/65535/50039634888_4174b59776_o.jpg",
    "id_image": "Planetscape_957994",
    "count_view": 0
  },
  {
    "link_thumb": "https://live.staticflickr.com/65535/50039817272_ce33e72734_n.jpg",
    "id_album": "-437872736",
    "description": "Creature_393234",
    "title": "Creature_393234",
    "link_img": "https://live.staticflickr.com/65535/50039817272_d1efb8501e_o.jpg",
    "id_image": "Creature_393234",
    "count_view": 0
  },
  {
    "link_thumb": "https://live.staticflickr.com/65535/50040667402_8d08d4c4db_n.jpg",
    "id_album": "779690680",
    "description": "Robot_906347",
    "title": "Robot_906347",
    "link_img": "https://live.staticflickr.com/65535/50040667402_1ae59b7f89_o.jpg",
    "id_image": "Robot_906347",
    "count_view": 0
  },
  {
    "link_thumb": "https://live.staticflickr.com/65535/50040406412_49c5b8f6c9_n.jpg",
    "id_album": "-1102314093",
    "description": "Planets_858026",
    "title": "Planets_858026",
    "link_img": "https://live.staticflickr.com/65535/50040406412_76efc3efe8_o.jpg",
    "id_image": "Planets_858026",
    "count_view": 0
  },
  {
    "link_thumb": "https://live.staticflickr.com/65535/50040557617_839b0e52c1_n.jpg",
    "id_album": "779690680",
    "description": "Robot_338444",
    "title": "Robot_338444",
    "link_img": "https://live.staticflickr.com/65535/50040557617_d9b40d8ec4_o.jpg",
    "id_image": "Robot_338444",
    "count_view": 0
  },
  {
    "link_thumb": "https://live.staticflickr.com/65535/50039871287_117c7750a5_n.jpg",
    "id_album": "651930207",
    "description": "Explosion_2868",
    "title": "Explosion_2868",
    "link_img": "https://live.staticflickr.com/65535/50039871287_1f1c844395_o.jpg",
    "id_image": "Explosion_2868",
    "count_view": 0
  },
  {
    "link_thumb": "https://live.staticflickr.com/65535/50038794068_ba8c496e60_n.jpg",
    "id_album": "523598895",
    "description": "Artistic_677074",
    "title": "Artistic_677074",
    "link_img": "https://live.staticflickr.com/65535/50038794068_eb52b9bb1c_o.jpg",
    "id_image": "Artistic_677074",
    "count_view": 0
  },
  {
    "link_thumb": "https://live.staticflickr.com/65535/50039015418_d5a7a41381_n.jpg",
    "id_album": "-1372247677",
    "description": "Cyberpunk_872307",
    "title": "Cyberpunk_872307",
    "link_img": "https://live.staticflickr.com/65535/50039015418_af7b16e04a_o.jpg",
    "id_image": "Cyberpunk_872307",
    "count_view": 0
  },
  {
    "link_thumb": "https://live.staticflickr.com/65535/50039890217_8f2bb3522d_n.jpg",
    "id_album": "1204249541",
    "description": "Galaxy_234675",
    "title": "Galaxy_234675",
    "link_img": "https://live.staticflickr.com/65535/50039890217_3d5dc82063_o.jpg",
    "id_image": "Galaxy_234675",
    "count_view": 0
  },
  {
    "link_thumb": "https://live.staticflickr.com/65535/50039727248_c355600403_n.jpg",
    "id_album": "779690680",
    "description": "Robot_275360",
    "title": "Robot_275360",
    "link_img": "https://live.staticflickr.com/65535/50039727248_07d07569bd_o.jpg",
    "id_image": "Robot_275360",
    "count_view": 0
  },
  {
    "link_thumb": "https://live.staticflickr.com/65535/50039791686_05547740db_n.jpg",
    "id_album": "-1610342324",
    "description": "Nebula_397349",
    "title": "Nebula_397349",
    "link_img": "https://live.staticflickr.com/65535/50039791686_a2659e9e3d_o.jpg",
    "id_image": "Nebula_397349",
    "count_view": 0
  },
  {
    "link_thumb": "https://live.staticflickr.com/65535/50039171473_1b7a2f843e_n.jpg",
    "id_album": "1402713104",
    "description": "Landscape_906137",
    "title": "Landscape_906137",
    "link_img": "https://live.staticflickr.com/65535/50039171473_795d1a99e0_o.jpg",
    "id_image": "Landscape_906137",
    "count_view": 0
  },
  {
    "link_thumb": "https://live.staticflickr.com/65535/50038772998_f77c595558_n.jpg",
    "id_album": "523598895",
    "description": "Artistic_234592",
    "title": "Artistic_234592",
    "link_img": "https://live.staticflickr.com/65535/50038772998_870021ace2_o.jpg",
    "id_image": "Artistic_234592",
    "count_view": 0
  },
  {
    "link_thumb": "https://live.staticflickr.com/65535/50039278481_4fec0bf99b_n.jpg",
    "id_album": "849020728",
    "description": "Alien_996736",
    "title": "Alien_996736",
    "link_img": "https://live.staticflickr.com/65535/50039278481_8a1ee6cc84_o.jpg",
    "id_image": "Alien_996736",
    "count_view": 0
  },
  {
    "link_thumb": "https://live.staticflickr.com/65535/50039785606_f8a7e5c48b_n.jpg",
    "id_album": "-1610342324",
    "description": "Nebula_311564",
    "title": "Nebula_311564",
    "link_img": "https://live.staticflickr.com/65535/50039785606_4b65e83681_o.jpg",
    "id_image": "Nebula_311564",
    "count_view": 0
  },
  {
    "link_thumb": "https://live.staticflickr.com/65535/50040742238_7dd79d006d_n.jpg",
    "id_album": "1267121215",
    "description": "Steampunk_190418",
    "title": "Steampunk_190418",
    "link_img": "https://live.staticflickr.com/65535/50040742238_7a3d69b78f_o.jpg",
    "id_image": "Steampunk_190418",
    "count_view": 0
  },
  {
    "link_thumb": "https://live.staticflickr.com/65535/50039183448_bd47fd7b79_n.jpg",
    "id_album": "-1388385651",
    "description": "MilkyWay_550926",
    "title": "MilkyWay_550926",
    "link_img": "https://live.staticflickr.com/65535/50039183448_4bc8ed835e_o.jpg",
    "id_image": "MilkyWay_550926",
    "count_view": 0
  },
  {
    "link_thumb": "https://live.staticflickr.com/65535/50040562547_51d3432fef_n.jpg",
    "id_album": "779690680",
    "description": "Robot_376314",
    "title": "Robot_376314",
    "link_img": "https://live.staticflickr.com/65535/50040562547_409a137410_o.jpg",
    "id_image": "Robot_376314",
    "count_view": 0
  },
  {
    "link_thumb": "https://live.staticflickr.com/65535/50039665102_54501794ec_n.jpg",
    "id_album": "1187037014",
    "description": "Battle_503665",
    "title": "Battle_503665",
    "link_img": "https://live.staticflickr.com/65535/50039665102_251a060ccc_o.jpg",
    "id_image": "Battle_503665",
    "count_view": 0
  },
  {
    "link_thumb": "https://live.staticflickr.com/65535/50038849828_03e0f88cae_n.jpg",
    "id_album": "1187037014",
    "description": "Battle_248634",
    "title": "Battle_248634",
    "link_img": "https://live.staticflickr.com/65535/50038849828_5d287c3246_o.jpg",
    "id_image": "Battle_248634",
    "count_view": 0
  },
  {
    "link_thumb": "https://live.staticflickr.com/65535/50039418598_37ba97221f_n.jpg",
    "id_album": "395161030",
    "description": "Planet_598886",
    "title": "Planet_598886",
    "link_img": "https://live.staticflickr.com/65535/50039418598_c77ffdaac4_o.jpg",
    "id_image": "Planet_598886",
    "count_view": 0
  },
  {
    "link_thumb": "https://live.staticflickr.com/65535/50039983593_9c6dd70cb4_n.jpg",
    "id_album": "1613540653",
    "description": "Space_772701",
    "title": "Space_772701",
    "link_img": "https://live.staticflickr.com/65535/50039983593_fe1e462465_o.jpg",
    "id_image": "Space_772701",
    "count_view": 0
  },
  {
    "link_thumb": "https://live.staticflickr.com/65535/50039081008_b6bd6fdcc2_n.jpg",
    "id_album": "1204249541",
    "description": "Galaxy_298926",
    "title": "Galaxy_298926",
    "link_img": "https://live.staticflickr.com/65535/50039081008_e8778a0803_o.jpg",
    "id_image": "Galaxy_298926",
    "count_view": 0
  },
  {
    "link_thumb": "https://live.staticflickr.com/65535/50039852963_4b0eafcea6_n.jpg",
    "id_album": "779690680",
    "description": "Robot_910928",
    "title": "Robot_910928",
    "link_img": "https://live.staticflickr.com/65535/50039852963_2e43908fc9_o.jpg",
    "id_image": "Robot_910928",
    "count_view": 0
  },
  {
    "link_thumb": "https://live.staticflickr.com/65535/50040734442_70c36b6815_n.jpg",
    "id_album": "1613540653",
    "description": "Space_152143",
    "title": "Space_152143",
    "link_img": "https://live.staticflickr.com/65535/50040734442_a25933a6e2_o.jpg",
    "id_image": "Space_152143",
    "count_view": 0
  },
  {
    "link_thumb": "https://live.staticflickr.com/65535/50039808526_05da88f98d_n.jpg",
    "id_album": "-1610342324",
    "description": "Nebula_552350",
    "title": "Nebula_552350",
    "link_img": "https://live.staticflickr.com/65535/50039808526_6fb9f14188_o.jpg",
    "id_image": "Nebula_552350",
    "count_view": 0
  },
  {
    "link_thumb": "https://live.staticflickr.com/65535/50039705851_6515c41e0c_n.jpg",
    "id_album": "1402713104",
    "description": "Landscape_777308",
    "title": "Landscape_777308",
    "link_img": "https://live.staticflickr.com/65535/50039705851_b286131c50_o.jpg",
    "id_image": "Landscape_777308",
    "count_view": 0
  },
  {
    "link_thumb": "https://live.staticflickr.com/65535/50041464562_769a22a91e_n.jpg",
    "id_album": "-1863373220",
    "description": "StarWars_631990",
    "title": "StarWars_631990",
    "link_img": "https://live.staticflickr.com/65535/50041464562_bef14daf75_o.jpg",
    "id_image": "StarWars_631990",
    "count_view": 0
  },
  {
    "link_thumb": "https://live.staticflickr.com/65535/50039423831_ae6ba612f1_n.jpg",
    "id_album": "406431601",
    "description": "Building_827328",
    "title": "Building_827328",
    "link_img": "https://live.staticflickr.com/65535/50039423831_b7877522c3_o.jpg",
    "id_image": "Building_827328",
    "count_view": 0
  },
  {
    "link_thumb": "https://live.staticflickr.com/65535/50039433606_3316558ca6_n.jpg",
    "id_album": "-1964113117",
    "description": "City_118677",
    "title": "City_118677",
    "link_img": "https://live.staticflickr.com/65535/50039433606_dbe69aeddb_o.jpg",
    "id_image": "City_118677",
    "count_view": 0
  },
  {
    "link_thumb": "https://live.staticflickr.com/65535/50040228152_d15999c0aa_n.jpg",
    "id_album": "395161030",
    "description": "Planet_559160",
    "title": "Planet_559160",
    "link_img": "https://live.staticflickr.com/65535/50040228152_52e8538be3_o.jpg",
    "id_image": "Planet_559160",
    "count_view": 0
  },
  {
    "link_thumb": "https://live.staticflickr.com/65535/50040706148_73ae3064af_n.jpg",
    "id_album": "-1587696329",
    "description": "Stars_216544",
    "title": "Stars_216544",
    "link_img": "https://live.staticflickr.com/65535/50040706148_fcaa84ffa5_o.jpg",
    "id_image": "Stars_216544",
    "count_view": 0
  },
  {
    "link_thumb": "https://live.staticflickr.com/65535/50039670126_cef0d1bf80_n.jpg",
    "id_album": "1402713104",
    "description": "Landscape_283646",
    "title": "Landscape_283646",
    "link_img": "https://live.staticflickr.com/65535/50039670126_c1c1803d0a_o.jpg",
    "id_image": "Landscape_283646",
    "count_view": 0
  },
  {
    "link_thumb": "https://live.staticflickr.com/65535/50039755482_92035f070a_n.jpg",
    "id_album": "-1964113117",
    "description": "City_725221",
    "title": "City_725221",
    "link_img": "https://live.staticflickr.com/65535/50039755482_0d4f29361c_o.jpg",
    "id_image": "City_725221",
    "count_view": 0
  },
  {
    "link_thumb": "https://live.staticflickr.com/65535/50039922501_1521de8191_n.jpg",
    "id_album": "395161030",
    "description": "Planet_286824",
    "title": "Planet_286824",
    "link_img": "https://live.staticflickr.com/65535/50039922501_72f4dcbb3c_o.jpg",
    "id_image": "Planet_286824",
    "count_view": 0
  },
  {
    "link_thumb": "https://live.staticflickr.com/65535/50040191016_732a15bdcf_n.jpg",
    "id_album": "-482547208",
    "description": "PostApocalyptic_157308",
    "title": "PostApocalyptic_157308",
    "link_img": "https://live.staticflickr.com/65535/50040191016_a9f085f483_o.jpg",
    "id_image": "PostApocalyptic_157308",
    "count_view": 0
  },
  {
    "link_thumb": "https://live.staticflickr.com/65535/50040802121_34cc083a44_n.jpg",
    "id_album": "-1449720967",
    "description": "StarTrek_186206",
    "title": "StarTrek_186206",
    "link_img": "https://live.staticflickr.com/65535/50040802121_d05002a5fb_o.jpg",
    "id_image": "StarTrek_186206",
    "count_view": 0
  },
  {
    "link_thumb": "https://live.staticflickr.com/65535/50040434446_2fe392da32_n.jpg",
    "id_album": "779690680",
    "description": "Robot_937815",
    "title": "Robot_937815",
    "link_img": "https://live.staticflickr.com/65535/50040434446_4ef6e68723_o.jpg",
    "id_image": "Robot_937815",
    "count_view": 0
  },
  {
    "link_thumb": "https://live.staticflickr.com/65535/50039861596_b7bbbfb1f1_n.jpg",
    "id_album": "-1862561193",
    "description": "Other_145921",
    "title": "Other_145921",
    "link_img": "https://live.staticflickr.com/65535/50039861596_16990c0fc8_o.jpg",
    "id_image": "Other_145921",
    "count_view": 0
  },
  {
    "link_thumb": "https://live.staticflickr.com/65535/50041266431_801d72372f_n.jpg",
    "id_album": "-1587696329",
    "description": "Stars_421662",
    "title": "Stars_421662",
    "link_img": "https://live.staticflickr.com/65535/50041266431_72993ab4d4_o.jpg",
    "id_image": "Stars_421662",
    "count_view": 0
  },
  {
    "link_thumb": "https://live.staticflickr.com/65535/50039687182_b1843cab62_n.jpg",
    "id_album": "406431601",
    "description": "Building_871300",
    "title": "Building_871300",
    "link_img": "https://live.staticflickr.com/65535/50039687182_5b5d3fa4ea_o.jpg",
    "id_image": "Building_871300",
    "count_view": 0
  },
  {
    "link_thumb": "https://live.staticflickr.com/65535/50039553156_423eb8d31b_n.jpg",
    "id_album": "-437872736",
    "description": "Creature_339011",
    "title": "Creature_339011",
    "link_img": "https://live.staticflickr.com/65535/50039553156_311f038483_o.jpg",
    "id_image": "Creature_339011",
    "count_view": 0
  },
  {
    "link_thumb": "https://live.staticflickr.com/65535/50040815973_e1c1ee7618_n.jpg",
    "id_album": "-1177476763",
    "description": "Sunrise_931978",
    "title": "Sunrise_931978",
    "link_img": "https://live.staticflickr.com/65535/50040815973_4d7785e11e_o.jpg",
    "id_image": "Sunrise_931978",
    "count_view": 0
  },
  {
    "link_thumb": "https://live.staticflickr.com/65535/50039639361_86286b0af7_n.jpg",
    "id_album": "1204249541",
    "description": "Galaxy_526202",
    "title": "Galaxy_526202",
    "link_img": "https://live.staticflickr.com/65535/50039639361_051349ba14_o.jpg",
    "id_image": "Galaxy_526202",
    "count_view": 0
  },
  {
    "link_thumb": "https://live.staticflickr.com/65535/50039817462_8970c3e228_n.jpg",
    "id_album": "-437872736",
    "description": "Creature_401751",
    "title": "Creature_401751",
    "link_img": "https://live.staticflickr.com/65535/50039817462_e7a02c5453_o.jpg",
    "id_image": "Creature_401751",
    "count_view": 0
  },
  {
    "link_thumb": "https://live.staticflickr.com/65535/50040710741_9a5b9ea642_n.jpg",
    "id_album": "2130067313",
    "description": "Spaceship_532547",
    "title": "Spaceship_532547",
    "link_img": "https://live.staticflickr.com/65535/50040710741_a1ba32cc25_o.jpg",
    "id_image": "Spaceship_532547",
    "count_view": 0
  },
  {
    "link_thumb": "https://live.staticflickr.com/65535/50039735668_2beebca9fd_n.jpg",
    "id_album": "779690680",
    "description": "Robot_321425",
    "title": "Robot_321425",
    "link_img": "https://live.staticflickr.com/65535/50039735668_04425cd93d_o.jpg",
    "id_image": "Robot_321425",
    "count_view": 0
  },
  {
    "link_thumb": "https://live.staticflickr.com/65535/50040152928_acc1795a54_n.jpg",
    "id_album": "2130067313",
    "description": "Spaceship_526714",
    "title": "Spaceship_526714",
    "link_img": "https://live.staticflickr.com/65535/50040152928_0b68c0b152_o.jpg",
    "id_image": "Spaceship_526714",
    "count_view": 0
  },
  {
    "link_thumb": "https://live.staticflickr.com/65535/50039858683_8d3dc5fe65_n.jpg",
    "id_album": "779690680",
    "description": "Robot_915571",
    "title": "Robot_915571",
    "link_img": "https://live.staticflickr.com/65535/50039858683_5e470e33f9_o.jpg",
    "id_image": "Robot_915571",
    "count_view": 0
  },
  {
    "link_thumb": "https://live.staticflickr.com/65535/50040145912_c29b2df310_n.jpg",
    "id_album": "-1862561193",
    "description": "Other_268362",
    "title": "Other_268362",
    "link_img": "https://live.staticflickr.com/65535/50040145912_f6d4ddb3f7_o.jpg",
    "id_image": "Other_268362",
    "count_view": 0
  },
  {
    "link_thumb": "https://live.staticflickr.com/65535/50041586966_53240c0131_n.jpg",
    "id_album": "-1675918237",
    "description": "WomenWarrior_731027",
    "title": "WomenWarrior_731027",
    "link_img": "https://live.staticflickr.com/65535/50041586966_09dc18d95b_o.jpg",
    "id_image": "WomenWarrior_731027",
    "count_view": 0
  },
  {
    "link_thumb": "https://live.staticflickr.com/65535/50040061942_7a99618352_n.jpg",
    "id_album": "-1610342324",
    "description": "Nebula_441070",
    "title": "Nebula_441070",
    "link_img": "https://live.staticflickr.com/65535/50040061942_da0e8b8cfa_o.jpg",
    "id_image": "Nebula_441070",
    "count_view": 0
  },
  {
    "link_thumb": "https://live.staticflickr.com/65535/50040749992_b3b1d09777_n.jpg",
    "id_album": "1613540653",
    "description": "Space_286641",
    "title": "Space_286641",
    "link_img": "https://live.staticflickr.com/65535/50040749992_d732e3e0c9_o.jpg",
    "id_image": "Space_286641",
    "count_view": 0
  },
  {
    "link_thumb": "https://live.staticflickr.com/65535/50039941632_663b69667f_n.jpg",
    "id_album": "1402713104",
    "description": "Landscape_330883",
    "title": "Landscape_330883",
    "link_img": "https://live.staticflickr.com/65535/50039941632_74a0df42ca_o.jpg",
    "id_image": "Landscape_330883",
    "count_view": 0
  },
  {
    "link_thumb": "https://live.staticflickr.com/65535/50039519947_19028df962_n.jpg",
    "id_album": "849020728",
    "description": "Alien_278137",
    "title": "Alien_278137",
    "link_img": "https://live.staticflickr.com/65535/50039519947_0d50fc9b73_o.jpg",
    "id_image": "Alien_278137",
    "count_view": 0
  },
  {
    "link_thumb": "https://live.staticflickr.com/65535/50038784683_695071f981_n.jpg",
    "id_album": "523598895",
    "description": "Artistic_388044",
    "title": "Artistic_388044",
    "link_img": "https://live.staticflickr.com/65535/50038784683_1d8175e7f4_o.jpg",
    "id_image": "Artistic_388044",
    "count_view": 0
  },
  {
    "link_thumb": "https://live.staticflickr.com/65535/50039752581_b10a63cba1_n.jpg",
    "id_album": "-1388385651",
    "description": "MilkyWay_928833",
    "title": "MilkyWay_928833",
    "link_img": "https://live.staticflickr.com/65535/50039752581_e611a49e0f_o.jpg",
    "id_image": "MilkyWay_928833",
    "count_view": 0
  },
  {
    "link_thumb": "https://live.staticflickr.com/65535/50039885121_3a4e80c493_n.jpg",
    "id_album": "-1862561193",
    "description": "Other_287695",
    "title": "Other_287695",
    "link_img": "https://live.staticflickr.com/65535/50039885121_f0eb82d1c6_o.jpg",
    "id_image": "Other_287695",
    "count_view": 0
  },
  {
    "link_thumb": "https://live.staticflickr.com/65535/50039722226_25e8615fe3_n.jpg",
    "id_album": "1402713104",
    "description": "Landscape_914396",
    "title": "Landscape_914396",
    "link_img": "https://live.staticflickr.com/65535/50039722226_7c26b070b9_o.jpg",
    "id_image": "Landscape_914396",
    "count_view": 0
  },
  {
    "link_thumb": "https://live.staticflickr.com/65535/50038699423_24633445e9_n.jpg",
    "id_album": "849020728",
    "description": "Alien_153079",
    "title": "Alien_153079",
    "link_img": "https://live.staticflickr.com/65535/50038699423_b709267d8f_o.jpg",
    "id_image": "Alien_153079",
    "count_view": 0
  },
  {
    "link_thumb": "https://live.staticflickr.com/65535/50040735463_6fff73ff05_n.jpg",
    "id_album": "1267121215",
    "description": "Steampunk_170997",
    "title": "Steampunk_170997",
    "link_img": "https://live.staticflickr.com/65535/50040735463_e7a1007976_o.jpg",
    "id_image": "Steampunk_170997",
    "count_view": 0
  },
  {
    "link_thumb": "https://live.staticflickr.com/65535/50040166562_3d64daaac9_n.jpg",
    "id_album": "395161030",
    "description": "Planet_1011269",
    "title": "Planet_1011269",
    "link_img": "https://live.staticflickr.com/65535/50040166562_64cb5f1b88_o.jpg",
    "id_image": "Planet_1011269",
    "count_view": 0
  },
  {
    "link_thumb": "https://live.staticflickr.com/65535/50040807622_5df400d8e0_n.jpg",
    "id_album": "1613540653",
    "description": "Space_822462",
    "title": "Space_822462",
    "link_img": "https://live.staticflickr.com/65535/50040807622_8f3e4666d0_o.jpg",
    "id_image": "Space_822462",
    "count_view": 0
  },
  {
    "link_thumb": "https://live.staticflickr.com/65535/50039353208_d35a3f83fc_n.jpg",
    "id_album": "395161030",
    "description": "Planet_102670",
    "title": "Planet_102670",
    "link_img": "https://live.staticflickr.com/65535/50039353208_14c18580ab_o.jpg",
    "id_image": "Planet_102670",
    "count_view": 0
  },
  {
    "link_thumb": "https://live.staticflickr.com/65535/50039710998_827ef0d8ee_n.jpg",
    "id_album": "779690680",
    "description": "Robot_200565",
    "title": "Robot_200565",
    "link_img": "https://live.staticflickr.com/65535/50039710998_f37df81a69_o.jpg",
    "id_image": "Robot_200565",
    "count_view": 0
  },
  {
    "link_thumb": "https://live.staticflickr.com/65535/50039237193_37f800ca81_n.jpg",
    "id_album": "-1610342324",
    "description": "Nebula_324630",
    "title": "Nebula_324630",
    "link_img": "https://live.staticflickr.com/65535/50039237193_7a821ec3cf_o.jpg",
    "id_image": "Nebula_324630",
    "count_view": 0
  },
  {
    "link_thumb": "https://live.staticflickr.com/65535/50041361076_24ecc6ca89_n.jpg",
    "id_album": "-1177476763",
    "description": "Sunrise_343553",
    "title": "Sunrise_343553",
    "link_img": "https://live.staticflickr.com/65535/50041361076_200ec8bcc8_o.jpg",
    "id_image": "Sunrise_343553",
    "count_view": 0
  },
  {
    "link_thumb": "https://live.staticflickr.com/65535/50039657762_2d4ea6c4e3_n.jpg",
    "id_album": "1187037014",
    "description": "Battle_163940",
    "title": "Battle_163940",
    "link_img": "https://live.staticflickr.com/65535/50039657762_7c0b8fea0a_o.jpg",
    "id_image": "Battle_163940",
    "count_view": 0
  },
  {
    "link_thumb": "https://live.staticflickr.com/65535/50040477132_962f5826eb_n.jpg",
    "id_album": "-482547208",
    "description": "PostApocalyptic_529240",
    "title": "PostApocalyptic_529240",
    "link_img": "https://live.staticflickr.com/65535/50040477132_bc1726fc25_o.jpg",
    "id_image": "PostApocalyptic_529240",
    "count_view": 0
  },
  {
    "link_thumb": "https://live.staticflickr.com/65535/50040264303_9c477e855b_n.jpg",
    "id_album": "-1449720967",
    "description": "StarTrek_275123",
    "title": "StarTrek_275123",
    "link_img": "https://live.staticflickr.com/65535/50040264303_370f33f96a_o.jpg",
    "id_image": "StarTrek_275123",
    "count_view": 0
  },
  {
    "link_thumb": "https://live.staticflickr.com/65535/50040853072_89d1454de2_n.jpg",
    "id_album": "2130067313",
    "description": "Spaceship_183938",
    "title": "Spaceship_183938",
    "link_img": "https://live.staticflickr.com/65535/50040853072_38e72c4b33_o.jpg",
    "id_image": "Spaceship_183938",
    "count_view": 0
  },
  {
    "link_thumb": "https://live.staticflickr.com/65535/50039635183_7039c8730b_n.jpg",
    "id_album": "376235057",
    "description": "Planetscape_959121",
    "title": "Planetscape_959121",
    "link_img": "https://live.staticflickr.com/65535/50039635183_62017d1465_o.jpg",
    "id_image": "Planetscape_959121",
    "count_view": 0
  },
  {
    "link_thumb": "https://live.staticflickr.com/65535/50039641261_687ed7df93_n.jpg",
    "id_album": "1204249541",
    "description": "Galaxy_543989",
    "title": "Galaxy_543989",
    "link_img": "https://live.staticflickr.com/65535/50039641261_704fae0705_o.jpg",
    "id_image": "Galaxy_543989",
    "count_view": 0
  },
  {
    "link_thumb": "https://live.staticflickr.com/65535/50039843246_9ece353449_n.jpg",
    "id_album": "-1610342324",
    "description": "Nebula_842164",
    "title": "Nebula_842164",
    "link_img": "https://live.staticflickr.com/65535/50039843246_cac8c9c0c9_o.jpg",
    "id_image": "Nebula_842164",
    "count_view": 0
  },
  {
    "link_thumb": "https://live.staticflickr.com/65535/50039322551_ea675d382d_n.jpg",
    "id_album": "523598895",
    "description": "Artistic_237740",
    "title": "Artistic_237740",
    "link_img": "https://live.staticflickr.com/65535/50039322551_8e1fc43566_o.jpg",
    "id_image": "Artistic_237740",
    "count_view": 0
  },
  {
    "link_thumb": "https://live.staticflickr.com/65535/50039247473_ca36d71f58_n.jpg",
    "id_album": "-1610342324",
    "description": "Nebula_440486",
    "title": "Nebula_440486",
    "link_img": "https://live.staticflickr.com/65535/50039247473_e53cc56381_o.jpg",
    "id_image": "Nebula_440486",
    "count_view": 0
  },
  {
    "link_thumb": "https://live.staticflickr.com/65535/50040545156_7a666c73b0_n.jpg",
    "id_album": "1613540653",
    "description": "Space_83512",
    "title": "Space_83512",
    "link_img": "https://live.staticflickr.com/65535/50040545156_1c8a888b3c_o.jpg",
    "id_image": "Space_83512",
    "count_view": 0
  },
  {
    "link_thumb": "https://live.staticflickr.com/65535/50039779547_3e004bce36_n.jpg",
    "id_album": "-1964113117",
    "description": "City_906131",
    "title": "City_906131",
    "link_img": "https://live.staticflickr.com/65535/50039779547_c2e3bbaf2b_o.jpg",
    "id_image": "City_906131",
    "count_view": 0
  },
  {
    "link_thumb": "https://live.staticflickr.com/65535/50039678718_c9b108de0f_n.jpg",
    "id_album": "-482547208",
    "description": "PostApocalyptic_922866",
    "title": "PostApocalyptic_922866",
    "link_img": "https://live.staticflickr.com/65535/50039678718_5dbddf9928_o.jpg",
    "id_image": "PostApocalyptic_922866",
    "count_view": 0
  },
  {
    "link_thumb": "https://live.staticflickr.com/65535/50040093803_10c88dd68e_n.jpg",
    "id_album": "2130067313",
    "description": "Spaceship_317008",
    "title": "Spaceship_317008",
    "link_img": "https://live.staticflickr.com/65535/50040093803_3aea09940a_o.jpg",
    "id_image": "Spaceship_317008",
    "count_view": 0
  },
  {
    "link_thumb": "https://live.staticflickr.com/65535/50040298947_6bfb3b0494_n.jpg",
    "id_album": "814701616",
    "description": "PlanetaryRing_514552",
    "title": "PlanetaryRing_514552",
    "link_img": "https://live.staticflickr.com/65535/50040298947_e0d0d78fb2_o.jpg",
    "id_image": "PlanetaryRing_514552",
    "count_view": 0
  },
  {
    "link_thumb": "https://live.staticflickr.com/65535/50041337606_67241e2bc4_n.jpg",
    "id_album": "-221671103",
    "description": "Sun_1009888",
    "title": "Sun_1009888",
    "link_img": "https://live.staticflickr.com/65535/50041337606_9c02e905c3_o.jpg",
    "id_image": "Sun_1009888",
    "count_view": 0
  },
  {
    "link_thumb": "https://live.staticflickr.com/65535/50040019892_c2ef3ddbaf_n.jpg",
    "id_album": "416351698",
    "description": "Moon_422190",
    "title": "Moon_422190",
    "link_img": "https://live.staticflickr.com/65535/50040019892_da7cfe3333_o.jpg",
    "id_image": "Moon_422190",
    "count_view": 0
  },
  {
    "link_thumb": "https://live.staticflickr.com/65535/50038855088_3dff19c148_n.jpg",
    "id_album": "1187037014",
    "description": "Battle_538870",
    "title": "Battle_538870",
    "link_img": "https://live.staticflickr.com/65535/50038855088_6b6f1f77e1_o.jpg",
    "id_image": "Battle_538870",
    "count_view": 0
  },
  {
    "link_thumb": "https://live.staticflickr.com/65535/50039283851_f10cdc73fb_n.jpg",
    "id_album": "-419633230",
    "description": "Apocalyptic_418200",
    "title": "Apocalyptic_418200",
    "link_img": "https://live.staticflickr.com/65535/50039283851_05fdcdd881_o.jpg",
    "id_image": "Apocalyptic_418200",
    "count_view": 0
  },
  {
    "link_thumb": "https://live.staticflickr.com/65535/50039866978_2df9175ea5_n.jpg",
    "id_album": "779690680",
    "description": "Robot_926852",
    "title": "Robot_926852",
    "link_img": "https://live.staticflickr.com/65535/50039866978_22c0a26c5f_o.jpg",
    "id_image": "Robot_926852",
    "count_view": 0
  },
  {
    "link_thumb": "https://live.staticflickr.com/65535/50040086737_3c84f22486_n.jpg",
    "id_album": "-1610342324",
    "description": "Nebula_699332",
    "title": "Nebula_699332",
    "link_img": "https://live.staticflickr.com/65535/50040086737_1725800d53_o.jpg",
    "id_image": "Nebula_699332",
    "count_view": 0
  },
  {
    "link_thumb": "https://live.staticflickr.com/65535/50040053327_c8c0ac95cb_n.jpg",
    "id_album": "-1610342324",
    "description": "Nebula_38847",
    "title": "Nebula_38847",
    "link_img": "https://live.staticflickr.com/65535/50040053327_8256c2d53e_o.jpg",
    "id_image": "Nebula_38847",
    "count_view": 0
  },
  {
    "link_thumb": "https://live.staticflickr.com/65535/50041739942_25fd76083f_n.jpg",
    "id_album": "-1261420436",
    "description": "Warrior_599815",
    "title": "Warrior_599815",
    "link_img": "https://live.staticflickr.com/65535/50041739942_e4b3b1bfc0_o.jpg",
    "id_image": "Warrior_599815",
    "count_view": 0
  },
  {
    "link_thumb": "https://live.staticflickr.com/65535/50040784703_626a6fa13a_n.jpg",
    "id_album": "-221671103",
    "description": "Sun_180015",
    "title": "Sun_180015",
    "link_img": "https://live.staticflickr.com/65535/50040784703_8e9cbf30ec_o.jpg",
    "id_image": "Sun_180015",
    "count_view": 0
  },
  {
    "link_thumb": "https://live.staticflickr.com/65535/50039812943_0880dca44b_n.jpg",
    "id_album": "779690680",
    "description": "Robot_777005",
    "title": "Robot_777005",
    "link_img": "https://live.staticflickr.com/65535/50039812943_0b627374b7_o.jpg",
    "id_image": "Robot_777005",
    "count_view": 0
  },
  {
    "link_thumb": "https://live.staticflickr.com/65535/50040611708_ce11666f95_n.jpg",
    "id_album": "-1863373220",
    "description": "StarWars_321366",
    "title": "StarWars_321366",
    "link_img": "https://live.staticflickr.com/65535/50040611708_5d20105e10_o.jpg",
    "id_image": "StarWars_321366",
    "count_view": 0
  },
  {
    "link_thumb": "https://live.staticflickr.com/65535/50039770788_4559a8f61d_n.jpg",
    "id_album": "779690680",
    "description": "Robot_471101",
    "title": "Robot_471101",
    "link_img": "https://live.staticflickr.com/65535/50039770788_bb0616b453_o.jpg",
    "id_image": "Robot_471101",
    "count_view": 0
  },
  {
    "link_thumb": "https://live.staticflickr.com/65535/50039529261_edc841190e_n.jpg",
    "id_album": "-1964113117",
    "description": "City_971390",
    "title": "City_971390",
    "link_img": "https://live.staticflickr.com/65535/50039529261_2c158bd0c8_o.jpg",
    "id_image": "City_971390",
    "count_view": 0
  },
  {
    "link_thumb": "https://live.staticflickr.com/65535/50040223023_fe23614ab4_n.jpg",
    "id_album": "2130067313",
    "description": "Spaceship_972165",
    "title": "Spaceship_972165",
    "link_img": "https://live.staticflickr.com/65535/50040223023_50830400fa_o.jpg",
    "id_image": "Spaceship_972165",
    "count_view": 0
  },
  {
    "link_thumb": "https://live.staticflickr.com/65535/50040608088_049114f041_n.jpg",
    "id_album": "-1863373220",
    "description": "StarWars_296347",
    "title": "StarWars_296347",
    "link_img": "https://live.staticflickr.com/65535/50040608088_9321894a23_o.jpg",
    "id_image": "StarWars_296347",
    "count_view": 0
  },
  {
    "link_thumb": "https://live.staticflickr.com/65535/50039352256_cfb8ff0a04_n.jpg",
    "id_album": "869545341",
    "description": "Astronaut_247116",
    "title": "Astronaut_247116",
    "link_img": "https://live.staticflickr.com/65535/50039352256_261f21f70f_o.jpg",
    "id_image": "Astronaut_247116",
    "count_view": 0
  },
  {
    "link_thumb": "https://live.staticflickr.com/65535/50040744208_994bd91dd7_n.jpg",
    "id_album": "1267121215",
    "description": "Steampunk_199578",
    "title": "Steampunk_199578",
    "link_img": "https://live.staticflickr.com/65535/50040744208_f016845d28_o.jpg",
    "id_image": "Steampunk_199578",
    "count_view": 0
  },
  {
    "link_thumb": "https://live.staticflickr.com/65535/50039660976_09abfcef3a_n.jpg",
    "id_album": "1402713104",
    "description": "Landscape_151181",
    "title": "Landscape_151181",
    "link_img": "https://live.staticflickr.com/65535/50039660976_fe25dbff0c_o.jpg",
    "id_image": "Landscape_151181",
    "count_view": 0
  },
  {
    "link_thumb": "https://live.staticflickr.com/65535/50039204128_c8cb2db35a_n.jpg",
    "id_album": "416351698",
    "description": "Moon_115680",
    "title": "Moon_115680",
    "link_img": "https://live.staticflickr.com/65535/50039204128_13e536417f_o.jpg",
    "id_image": "Moon_115680",
    "count_view": 0
  },
  {
    "link_thumb": "https://live.staticflickr.com/65535/50039797427_37f9a98f20_n.jpg",
    "id_album": "894679094",
    "description": "Collision_121048",
    "title": "Collision_121048",
    "link_img": "https://live.staticflickr.com/65535/50039797427_6a4655f70b_o.jpg",
    "id_image": "Collision_121048",
    "count_view": 0
  },
  {
    "link_thumb": "https://live.staticflickr.com/65535/50039613608_9eba5028ce_n.jpg",
    "id_album": "376235057",
    "description": "Planetscape_357197",
    "title": "Planetscape_357197",
    "link_img": "https://live.staticflickr.com/65535/50039613608_f144b12b63_o.jpg",
    "id_image": "Planetscape_357197",
    "count_view": 0
  },
  {
    "link_thumb": "https://live.staticflickr.com/65535/50040921043_1e8c7a7bb5_n.jpg",
    "id_album": "-1261420436",
    "description": "Warrior_592181",
    "title": "Warrior_592181",
    "link_img": "https://live.staticflickr.com/65535/50040921043_b8af30f262_o.jpg",
    "id_image": "Warrior_592181",
    "count_view": 0
  },
  {
    "link_thumb": "https://live.staticflickr.com/65535/50039504737_64a0b12285_n.jpg",
    "id_album": "-406145265",
    "description": "Aircraft_969699",
    "title": "Aircraft_969699",
    "link_img": "https://live.staticflickr.com/65535/50039504737_5370af2d52_o.jpg",
    "id_image": "Aircraft_969699",
    "count_view": 0
  },
  {
    "link_thumb": "https://live.staticflickr.com/65535/50039674297_fd73a08a4d_n.jpg",
    "id_album": "-1780971522",
    "description": "Biohazard_2967",
    "title": "Biohazard_2967",
    "link_img": "https://live.staticflickr.com/65535/50039674297_73c73787d9_o.jpg",
    "id_image": "Biohazard_2967",
    "count_view": 0
  },
  {
    "link_thumb": "https://live.staticflickr.com/65535/50038963063_308171d183_n.jpg",
    "id_album": "-1964113117",
    "description": "City_878302",
    "title": "City_878302",
    "link_img": "https://live.staticflickr.com/65535/50038963063_9f00e507d5_o.jpg",
    "id_image": "City_878302",
    "count_view": 0
  },
  {
    "link_thumb": "https://live.staticflickr.com/65535/50038735358_30a2181952_n.jpg",
    "id_album": "-419633230",
    "description": "Apocalyptic_319075",
    "title": "Apocalyptic_319075",
    "link_img": "https://live.staticflickr.com/65535/50038735358_be99913b8f_o.jpg",
    "id_image": "Apocalyptic_319075",
    "count_view": 0
  },
  {
    "link_thumb": "https://live.staticflickr.com/65535/50040246168_f937beb9e3_n.jpg",
    "id_album": "-1449720967",
    "description": "StarTrek_177180",
    "title": "StarTrek_177180",
    "link_img": "https://live.staticflickr.com/65535/50040246168_fdcde32423_o.jpg",
    "id_image": "StarTrek_177180",
    "count_view": 0
  },
  {
    "link_thumb": "https://live.staticflickr.com/65535/50040812583_902348c3d1_n.jpg",
    "id_album": "-1177476763",
    "description": "Sunrise_464557",
    "title": "Sunrise_464557",
    "link_img": "https://live.staticflickr.com/65535/50040812583_dca425bf30_o.jpg",
    "id_image": "Sunrise_464557",
    "count_view": 0
  },
  {
    "link_thumb": "https://live.staticflickr.com/65535/50039947261_762afe8259_n.jpg",
    "id_album": "395161030",
    "description": "Planet_413994",
    "title": "Planet_413994",
    "link_img": "https://live.staticflickr.com/65535/50039947261_7e4deae1ec_o.jpg",
    "id_image": "Planet_413994",
    "count_view": 0
  },
  {
    "link_thumb": "https://live.staticflickr.com/65535/50039841023_344c5db0c6_n.jpg",
    "id_album": "779690680",
    "description": "Robot_886631",
    "title": "Robot_886631",
    "link_img": "https://live.staticflickr.com/65535/50039841023_2141924e95_o.jpg",
    "id_image": "Robot_886631",
    "count_view": 0
  },
  {
    "link_thumb": "https://live.staticflickr.com/65535/50040509771_a78a1a99fd_n.jpg",
    "id_album": "1613540653",
    "description": "Space_505515",
    "title": "Space_505515",
    "link_img": "https://live.staticflickr.com/65535/50040509771_3c88f45a57_o.jpg",
    "id_image": "Space_505515",
    "count_view": 0
  },
  {
    "link_thumb": "https://live.staticflickr.com/65535/50039536421_ff467119af_n.jpg",
    "id_album": "894679094",
    "description": "Collision_152137",
    "title": "Collision_152137",
    "link_img": "https://live.staticflickr.com/65535/50039536421_16f4842c2e_o.jpg",
    "id_image": "Collision_152137",
    "count_view": 0
  },
  {
    "link_thumb": "https://live.staticflickr.com/65535/50039520583_8d25929891_n.jpg",
    "id_album": "-1102314093",
    "description": "Planets_274825",
    "title": "Planets_274825",
    "link_img": "https://live.staticflickr.com/65535/50039520583_7dd0e257e3_o.jpg",
    "id_image": "Planets_274825",
    "count_view": 0
  },
  {
    "link_thumb": "https://live.staticflickr.com/65535/50039500177_92f33abff7_n.jpg",
    "id_album": "-406145265",
    "description": "Aircraft_341264",
    "title": "Aircraft_341264",
    "link_img": "https://live.staticflickr.com/65535/50039500177_c0db2e300d_o.jpg",
    "id_image": "Aircraft_341264",
    "count_view": 0
  },
  {
    "link_thumb": "https://live.staticflickr.com/65535/50039679373_6c58e022f3_n.jpg",
    "id_album": "-482547208",
    "description": "PostApocalyptic_940278",
    "title": "PostApocalyptic_940278",
    "link_img": "https://live.staticflickr.com/65535/50039679373_7daa749f76_o.jpg",
    "id_image": "PostApocalyptic_940278",
    "count_view": 0
  },
  {
    "link_thumb": "https://live.staticflickr.com/65535/50039409266_9ee1190df3_n.jpg",
    "id_album": "1187037014",
    "description": "Battle_957796",
    "title": "Battle_957796",
    "link_img": "https://live.staticflickr.com/65535/50039409266_a576a93bf6_o.jpg",
    "id_image": "Battle_957796",
    "count_view": 0
  },
  {
    "link_thumb": "https://live.staticflickr.com/65535/50041751662_30e6f7efea_n.jpg",
    "id_album": "-1261420436",
    "description": "Warrior_829891",
    "title": "Warrior_829891",
    "link_img": "https://live.staticflickr.com/65535/50041751662_a966e6164f_o.jpg",
    "id_image": "Warrior_829891",
    "count_view": 0
  },
  {
    "link_thumb": "https://live.staticflickr.com/65535/50039692786_a4a8d07572_n.jpg",
    "id_album": "1402713104",
    "description": "Landscape_548906",
    "title": "Landscape_548906",
    "link_img": "https://live.staticflickr.com/65535/50039692786_41c24f623c_o.jpg",
    "id_image": "Landscape_548906",
    "count_view": 0
  },
  {
    "link_thumb": "https://live.staticflickr.com/65535/50039607238_b3a40020fd_n.jpg",
    "id_album": "376235057",
    "description": "Planetscape_290160",
    "title": "Planetscape_290160",
    "link_img": "https://live.staticflickr.com/65535/50039607238_927e1c9b80_o.jpg",
    "id_image": "Planetscape_290160",
    "count_view": 0
  },
  {
    "link_thumb": "https://live.staticflickr.com/65535/50039540838_b55378709d_n.jpg",
    "id_album": "-1102314093",
    "description": "Planets_349442",
    "title": "Planets_349442",
    "link_img": "https://live.staticflickr.com/65535/50039540838_9824ef2455_o.jpg",
    "id_image": "Planets_349442",
    "count_view": 0
  },
  {
    "link_thumb": "https://live.staticflickr.com/65535/50039944132_925c381b4a_n.jpg",
    "id_album": "1402713104",
    "description": "Landscape_347837",
    "title": "Landscape_347837",
    "link_img": "https://live.staticflickr.com/65535/50039944132_dd466a872c_o.jpg",
    "id_image": "Landscape_347837",
    "count_view": 0
  },
  {
    "link_thumb": "https://live.staticflickr.com/65535/50040421021_78e93f2fbe_n.jpg",
    "id_album": "779690680",
    "description": "Robot_926854",
    "title": "Robot_926854",
    "link_img": "https://live.staticflickr.com/65535/50040421021_1179190ce8_o.jpg",
    "id_image": "Robot_926854",
    "count_view": 0
  },
  {
    "link_thumb": "https://live.staticflickr.com/65535/50040441872_0682cedd97_n.jpg",
    "id_album": "376235057",
    "description": "Planetscape_589835",
    "title": "Planetscape_589835",
    "link_img": "https://live.staticflickr.com/65535/50040441872_4213ea89cc_o.jpg",
    "id_image": "Planetscape_589835",
    "count_view": 0
  },
  {
    "link_thumb": "https://live.staticflickr.com/65535/50039867783_23f14f5a24_n.jpg",
    "id_album": "779690680",
    "description": "Robot_928546",
    "title": "Robot_928546",
    "link_img": "https://live.staticflickr.com/65535/50039867783_7237550a22_o.jpg",
    "id_image": "Robot_928546",
    "count_view": 0
  },
  {
    "link_thumb": "https://live.staticflickr.com/65535/50039589338_24e8c06c73_n.jpg",
    "id_album": "-1102314093",
    "description": "Planets_82727",
    "title": "Planets_82727",
    "link_img": "https://live.staticflickr.com/65535/50039589338_0c179607bf_o.jpg",
    "id_image": "Planets_82727",
    "count_view": 0
  },
  {
    "link_thumb": "https://live.staticflickr.com/65535/50039892393_1d6b366433_n.jpg",
    "id_album": "779690680",
    "description": "Robot_959169",
    "title": "Robot_959169",
    "link_img": "https://live.staticflickr.com/65535/50039892393_69cd244856_o.jpg",
    "id_image": "Robot_959169",
    "count_view": 0
  },
  {
    "link_thumb": "https://live.staticflickr.com/65535/50041690132_5b04492a65_n.jpg",
    "id_album": "2020068132",
    "description": "Vehicle_978184",
    "title": "Vehicle_978184",
    "link_img": "https://live.staticflickr.com/65535/50041690132_3b8b8287ac_o.jpg",
    "id_image": "Vehicle_978184",
    "count_view": 0
  },
  {
    "link_thumb": "https://live.staticflickr.com/65535/50038896228_27dc721944_n.jpg",
    "id_album": "-1964113117",
    "description": "City_211071",
    "title": "City_211071",
    "link_img": "https://live.staticflickr.com/65535/50038896228_9f0f56e99a_o.jpg",
    "id_image": "City_211071",
    "count_view": 0
  },
  {
    "link_thumb": "https://live.staticflickr.com/65535/50041700912_d413469871_n.jpg",
    "id_album": "-1261420436",
    "description": "Warrior_248663",
    "title": "Warrior_248663",
    "link_img": "https://live.staticflickr.com/65535/50041700912_a924d4822c_o.jpg",
    "id_image": "Warrior_248663",
    "count_view": 0
  },
  {
    "link_thumb": "https://live.staticflickr.com/65535/50038866263_3a3b22db40_n.jpg",
    "id_album": "-1780971522",
    "description": "Biohazard_494253",
    "title": "Biohazard_494253",
    "link_img": "https://live.staticflickr.com/65535/50038866263_35fde003af_o.jpg",
    "id_image": "Biohazard_494253",
    "count_view": 0
  },
  {
    "link_thumb": "https://live.staticflickr.com/65535/50040685842_10878fcac6_n.jpg",
    "id_album": "779690680",
    "description": "Robot_928550",
    "title": "Robot_928550",
    "link_img": "https://live.staticflickr.com/65535/50040685842_558bc1b795_o.jpg",
    "id_image": "Robot_928550",
    "count_view": 0
  },
  {
    "link_thumb": "https://live.staticflickr.com/65535/50039874972_1d925201ae_n.jpg",
    "id_album": "651930207",
    "description": "Explosion_712632",
    "title": "Explosion_712632",
    "link_img": "https://live.staticflickr.com/65535/50039874972_dcd9c444f4_o.jpg",
    "id_image": "Explosion_712632",
    "count_view": 0
  },
  {
    "link_thumb": "https://live.staticflickr.com/65535/50039749617_b57e1ddccf_n.jpg",
    "id_album": "-1964113117",
    "description": "City_681245",
    "title": "City_681245",
    "link_img": "https://live.staticflickr.com/65535/50039749617_536c1cede9_o.jpg",
    "id_image": "City_681245",
    "count_view": 0
  },
  {
    "link_thumb": "https://live.staticflickr.com/65535/50040734782_1f1029276b_n.jpg",
    "id_album": "1613540653",
    "description": "Space_153710",
    "title": "Space_153710",
    "link_img": "https://live.staticflickr.com/65535/50040734782_cff1296998_o.jpg",
    "id_image": "Space_153710",
    "count_view": 0
  },
  {
    "link_thumb": "https://live.staticflickr.com/65535/50038900308_502e7e5aa5_n.jpg",
    "id_album": "-1964113117",
    "description": "City_220203",
    "title": "City_220203",
    "link_img": "https://live.staticflickr.com/65535/50038900308_367e43586b_o.jpg",
    "id_image": "City_220203",
    "count_view": 0
  },
  {
    "link_thumb": "https://live.staticflickr.com/65535/50038891133_930c061610_n.jpg",
    "id_album": "-1964113117",
    "description": "City_187110",
    "title": "City_187110",
    "link_img": "https://live.staticflickr.com/65535/50038891133_0332db3b53_o.jpg",
    "id_image": "City_187110",
    "count_view": 0
  },
  {
    "link_thumb": "https://live.staticflickr.com/65535/50039537377_bc746d7b48_n.jpg",
    "id_album": "849020728",
    "description": "Alien_868749",
    "title": "Alien_868749",
    "link_img": "https://live.staticflickr.com/65535/50039537377_ccc2f24a95_o.jpg",
    "id_image": "Alien_868749",
    "count_view": 0
  },
  {
    "link_thumb": "https://live.staticflickr.com/65535/50038767988_280f8ac4dc_n.jpg",
    "id_album": "523598895",
    "description": "Artistic_218934",
    "title": "Artistic_218934",
    "link_img": "https://live.staticflickr.com/65535/50038767988_0e6ea7f4f9_o.jpg",
    "id_image": "Artistic_218934",
    "count_view": 0
  },
  {
    "link_thumb": "https://live.staticflickr.com/65535/50040741362_b0e241b18d_n.jpg",
    "id_album": "1613540653",
    "description": "Space_192889",
    "title": "Space_192889",
    "link_img": "https://live.staticflickr.com/65535/50040741362_403dac0a45_o.jpg",
    "id_image": "Space_192889",
    "count_view": 0
  },
  {
    "link_thumb": "https://live.staticflickr.com/65535/50039869987_d6190761a5_n.jpg",
    "id_album": "651930207",
    "description": "Explosion_163941",
    "title": "Explosion_163941",
    "link_img": "https://live.staticflickr.com/65535/50039869987_ea9899d80f_o.jpg",
    "id_image": "Explosion_163941",
    "count_view": 0
  },
  {
    "link_thumb": "https://live.staticflickr.com/65535/50038679073_dfa488d1dd_n.jpg",
    "id_album": "280884763",
    "description": "Abstract_120530",
    "title": "Abstract_120530",
    "link_img": "https://live.staticflickr.com/65535/50038679073_ccbb4a6b20_o.jpg",
    "id_image": "Abstract_120530",
    "count_view": 0
  },
  {
    "link_thumb": "https://live.staticflickr.com/65535/50040745673_4dd989279f_n.jpg",
    "id_album": "1267121215",
    "description": "Steampunk_209609",
    "title": "Steampunk_209609",
    "link_img": "https://live.staticflickr.com/65535/50040745673_522e84913b_o.jpg",
    "id_image": "Steampunk_209609",
    "count_view": 0
  },
  {
    "link_thumb": "https://live.staticflickr.com/65535/50039213683_8d6fa42b9c_n.jpg",
    "id_album": "-1610342324",
    "description": "Nebula_15041",
    "title": "Nebula_15041",
    "link_img": "https://live.staticflickr.com/65535/50039213683_f766180341_o.jpg",
    "id_image": "Nebula_15041",
    "count_view": 0
  },
  {
    "link_thumb": "https://live.staticflickr.com/65535/50039292753_1cf7cdfcd1_n.jpg",
    "id_album": "-1610342324",
    "description": "Nebula_832140",
    "title": "Nebula_832140",
    "link_img": "https://live.staticflickr.com/65535/50039292753_9be7040c26_o.jpg",
    "id_image": "Nebula_832140",
    "count_view": 0
  },
  {
    "link_thumb": "https://live.staticflickr.com/65535/50041421582_fd902eb28e_n.jpg",
    "id_album": "-1863373220",
    "description": "StarWars_276422",
    "title": "StarWars_276422",
    "link_img": "https://live.staticflickr.com/65535/50041421582_7793e604cb_o.jpg",
    "id_image": "StarWars_276422",
    "count_view": 0
  },
  {
    "link_thumb": "https://live.staticflickr.com/65535/50040225512_e1648fe3cb_n.jpg",
    "id_album": "395161030",
    "description": "Planet_558947",
    "title": "Planet_558947",
    "link_img": "https://live.staticflickr.com/65535/50040225512_cb2cae0345_o.jpg",
    "id_image": "Planet_558947",
    "count_view": 0
  },
  {
    "link_thumb": "https://live.staticflickr.com/65535/50041214456_48033379c4_n.jpg",
    "id_album": "-1863373220",
    "description": "StarWars_672006",
    "title": "StarWars_672006",
    "link_img": "https://live.staticflickr.com/65535/50041214456_15f9cb2419_o.jpg",
    "id_image": "StarWars_672006",
    "count_view": 0
  },
  {
    "link_thumb": "https://live.staticflickr.com/65535/50039670226_4747860ca9_n.jpg",
    "id_album": "1402713104",
    "description": "Landscape_283724",
    "title": "Landscape_283724",
    "link_img": "https://live.staticflickr.com/65535/50039670226_05a3bacc4c_o.jpg",
    "id_image": "Landscape_283724",
    "count_view": 0
  },
  {
    "link_thumb": "https://live.staticflickr.com/65535/50039763967_a3f17f2859_n.jpg",
    "id_album": "-1964113117",
    "description": "City_856858",
    "title": "City_856858",
    "link_img": "https://live.staticflickr.com/65535/50039763967_1bcb7146a6_o.jpg",
    "id_image": "City_856858",
    "count_view": 0
  },
  {
    "link_thumb": "https://live.staticflickr.com/65535/50039995517_52048e9f84_n.jpg",
    "id_album": "-1388385651",
    "description": "MilkyWay_546608",
    "title": "MilkyWay_546608",
    "link_img": "https://live.staticflickr.com/65535/50039995517_f74c160645_o.jpg",
    "id_image": "MilkyWay_546608",
    "count_view": 0
  },
  {
    "link_thumb": "https://live.staticflickr.com/65535/50039727321_ea6a7bd900_n.jpg",
    "id_album": "1402713104",
    "description": "Landscape_955950",
    "title": "Landscape_955950",
    "link_img": "https://live.staticflickr.com/65535/50039727321_8228b0e6ed_o.jpg",
    "id_image": "Landscape_955950",
    "count_view": 0
  },
  {
    "link_thumb": "https://live.staticflickr.com/65535/50041512782_45828daa1b_n.jpg",
    "id_album": "-1863373220",
    "description": "StarWars_980539",
    "title": "StarWars_980539",
    "link_img": "https://live.staticflickr.com/65535/50041512782_2ae75f170f_o.jpg",
    "id_image": "StarWars_980539",
    "count_view": 0
  },
  {
    "link_thumb": "https://live.staticflickr.com/65535/50040744897_fca21fe1c2_n.jpg",
    "id_album": "1613540653",
    "description": "Space_218839",
    "title": "Space_218839",
    "link_img": "https://live.staticflickr.com/65535/50040744897_e0c4173615_o.jpg",
    "id_image": "Space_218839",
    "count_view": 0
  },
  {
    "link_thumb": "https://live.staticflickr.com/65535/50038838643_c142c234f3_n.jpg",
    "id_album": "869545341",
    "description": "Astronaut_967447",
    "title": "Astronaut_967447",
    "link_img": "https://live.staticflickr.com/65535/50038838643_b8b03c9360_o.jpg",
    "id_image": "Astronaut_967447",
    "count_view": 0
  },
  {
    "link_thumb": "https://live.staticflickr.com/65535/50039501037_18980de568_n.jpg",
    "id_album": "-406145265",
    "description": "Aircraft_367511",
    "title": "Aircraft_367511",
    "link_img": "https://live.staticflickr.com/65535/50039501037_0a76b529a2_o.jpg",
    "id_image": "Aircraft_367511",
    "count_view": 0
  },
  {
    "link_thumb": "https://live.staticflickr.com/65535/50038871283_70987feca7_n.jpg",
    "id_album": "-1780971522",
    "description": "Biohazard_633661",
    "title": "Biohazard_633661",
    "link_img": "https://live.staticflickr.com/65535/50038871283_ec1c6c97dd_o.jpg",
    "id_image": "Biohazard_633661",
    "count_view": 0
  },
  {
    "link_thumb": "https://live.staticflickr.com/65535/50039825687_5d934fa603_n.jpg",
    "id_album": "-1372247677",
    "description": "Cyberpunk_872306",
    "title": "Cyberpunk_872306",
    "link_img": "https://live.staticflickr.com/65535/50039825687_ebd26c5127_o.jpg",
    "id_image": "Cyberpunk_872306",
    "count_view": 0
  },
  {
    "link_thumb": "https://live.staticflickr.com/65535/50039624593_9887abaff3_n.jpg",
    "id_album": "376235057",
    "description": "Planetscape_529578",
    "title": "Planetscape_529578",
    "link_img": "https://live.staticflickr.com/65535/50039624593_9df5a7c284_o.jpg",
    "id_image": "Planetscape_529578",
    "count_view": 0
  },
  {
    "link_thumb": "https://live.staticflickr.com/65535/50040128387_e629986e63_n.jpg",
    "id_album": "-1862561193",
    "description": "Other_209413",
    "title": "Other_209413",
    "link_img": "https://live.staticflickr.com/65535/50040128387_e6104a0e3d_o.jpg",
    "id_image": "Other_209413",
    "count_view": 0
  },
  {
    "link_thumb": "https://live.staticflickr.com/65535/50041427246_f3ecd8dfef_n.jpg",
    "id_album": "2020068132",
    "description": "Vehicle_979673",
    "title": "Vehicle_979673",
    "link_img": "https://live.staticflickr.com/65535/50041427246_1eba495f16_o.jpg",
    "id_image": "Vehicle_979673",
    "count_view": 0
  },
  {
    "link_thumb": "https://live.staticflickr.com/65535/50040098817_bcdbb98d8b_n.jpg",
    "id_album": "-1610342324",
    "description": "Nebula_77311",
    "title": "Nebula_77311",
    "link_img": "https://live.staticflickr.com/65535/50040098817_c9a131e319_o.jpg",
    "id_image": "Nebula_77311",
    "count_view": 0
  },
  {
    "link_thumb": "https://live.staticflickr.com/65535/50039541762_92ca06879d_n.jpg",
    "id_album": "-419633230",
    "description": "Apocalyptic_172414",
    "title": "Apocalyptic_172414",
    "link_img": "https://live.staticflickr.com/65535/50039541762_b141b7f030_o.jpg",
    "id_image": "Apocalyptic_172414",
    "count_view": 0
  },
  {
    "link_thumb": "https://live.staticflickr.com/65535/50039188413_44f658698c_n.jpg",
    "id_album": "-1388385651",
    "description": "MilkyWay_670536",
    "title": "MilkyWay_670536",
    "link_img": "https://live.staticflickr.com/65535/50039188413_f6d585c4e9_o.jpg",
    "id_image": "MilkyWay_670536",
    "count_view": 0
  },
  {
    "link_thumb": "https://live.staticflickr.com/65535/50039798427_f136207562_n.jpg",
    "id_album": "894679094",
    "description": "Collision_192887",
    "title": "Collision_192887",
    "link_img": "https://live.staticflickr.com/65535/50039798427_c5ac94d265_o.jpg",
    "id_image": "Collision_192887",
    "count_view": 0
  },
  {
    "link_thumb": "https://live.staticflickr.com/65535/50038821303_09f666c76f_n.jpg",
    "id_album": "869545341",
    "description": "Astronaut_857255",
    "title": "Astronaut_857255",
    "link_img": "https://live.staticflickr.com/65535/50038821303_61a1b34136_o.jpg",
    "id_image": "Astronaut_857255",
    "count_view": 0
  },
  {
    "link_thumb": "https://live.staticflickr.com/65535/50040728587_ee062071db_n.jpg",
    "id_album": "1613540653",
    "description": "Space_112721",
    "title": "Space_112721",
    "link_img": "https://live.staticflickr.com/65535/50040728587_dd0847f4e4_o.jpg",
    "id_image": "Space_112721",
    "count_view": 0
  },
  {
    "link_thumb": "https://live.staticflickr.com/65535/50039763116_fa90be45fc_n.jpg",
    "id_album": "-1610342324",
    "description": "Nebula_133363",
    "title": "Nebula_133363",
    "link_img": "https://live.staticflickr.com/65535/50039763116_4b3926f55d_o.jpg",
    "id_image": "Nebula_133363",
    "count_view": 0
  },
  {
    "link_thumb": "https://live.staticflickr.com/65535/50039467471_6973dd4c9c_n.jpg",
    "id_album": "-1964113117",
    "description": "City_386878",
    "title": "City_386878",
    "link_img": "https://live.staticflickr.com/65535/50039467471_033f7e8876_o.jpg",
    "id_image": "City_386878",
    "count_view": 0
  },
  {
    "link_thumb": "https://live.staticflickr.com/65535/50040099566_a621d5c11f_n.jpg",
    "id_album": "-1102314093",
    "description": "Planets_363112",
    "title": "Planets_363112",
    "link_img": "https://live.staticflickr.com/65535/50040099566_9b880b42b8_o.jpg",
    "id_image": "Planets_363112",
    "count_view": 0
  },
  {
    "link_thumb": "https://live.staticflickr.com/65535/50040638362_31351a3378_n.jpg",
    "id_album": "779690680",
    "description": "Robot_857285",
    "title": "Robot_857285",
    "link_img": "https://live.staticflickr.com/65535/50040638362_3503092af9_o.jpg",
    "id_image": "Robot_857285",
    "count_view": 0
  },
  {
    "link_thumb": "https://live.staticflickr.com/65535/50039986522_15712bc631_n.jpg",
    "id_album": "1402713104",
    "description": "Landscape_917847",
    "title": "Landscape_917847",
    "link_img": "https://live.staticflickr.com/65535/50039986522_a87384a6bd_o.jpg",
    "id_image": "Landscape_917847",
    "count_view": 0
  },
  {
    "link_thumb": "https://live.staticflickr.com/65535/50039486741_f74b53b616_n.jpg",
    "id_album": "-1964113117",
    "description": "City_677173",
    "title": "City_677173",
    "link_img": "https://live.staticflickr.com/65535/50039486741_afd3a73d3e_o.jpg",
    "id_image": "City_677173",
    "count_view": 0
  },
  {
    "link_thumb": "https://live.staticflickr.com/65535/50039435656_e77e9fe41f_n.jpg",
    "id_album": "-1964113117",
    "description": "City_150250",
    "title": "City_150250",
    "link_img": "https://live.staticflickr.com/65535/50039435656_400f207770_o.jpg",
    "id_image": "City_150250",
    "count_view": 0
  },
  {
    "link_thumb": "https://live.staticflickr.com/65535/50039491352_6e4d9823cb_n.jpg",
    "id_album": "280884763",
    "description": "Abstract_286767",
    "title": "Abstract_286767",
    "link_img": "https://live.staticflickr.com/65535/50039491352_751097a9a0_o.jpg",
    "id_image": "Abstract_286767",
    "count_view": 0
  },
  {
    "link_thumb": "https://live.staticflickr.com/65535/50040702207_b039b704bd_n.jpg",
    "id_album": "779690680",
    "description": "Robot_9444",
    "title": "Robot_9444",
    "link_img": "https://live.staticflickr.com/65535/50040702207_9d6facde04_o.jpg",
    "id_image": "Robot_9444",
    "count_view": 0
  },
  {
    "link_thumb": "https://live.staticflickr.com/65535/50041433671_aaab140aa1_n.jpg",
    "id_album": "-1261420436",
    "description": "Warrior_180932",
    "title": "Warrior_180932",
    "link_img": "https://live.staticflickr.com/65535/50041433671_8b6fd78516_o.jpg",
    "id_image": "Warrior_180932",
    "count_view": 0
  },
  {
    "link_thumb": "https://live.staticflickr.com/65535/50040099126_708e2924c3_n.jpg",
    "id_album": "-1102314093",
    "description": "Planets_363080",
    "title": "Planets_363080",
    "link_img": "https://live.staticflickr.com/65535/50040099126_dbe7436f6c_o.jpg",
    "id_image": "Planets_363080",
    "count_view": 0
  },
  {
    "link_thumb": "https://live.staticflickr.com/65535/50038747338_06160ef0c9_n.jpg",
    "id_album": "523598895",
    "description": "Artistic_117138",
    "title": "Artistic_117138",
    "link_img": "https://live.staticflickr.com/65535/50038747338_45748feee7_o.jpg",
    "id_image": "Artistic_117138",
    "count_view": 0
  },
  {
    "link_thumb": "https://live.staticflickr.com/65535/50040812612_7f7d28f8e6_n.jpg",
    "id_album": "1613540653",
    "description": "Space_853894",
    "title": "Space_853894",
    "link_img": "https://live.staticflickr.com/65535/50040812612_0bff8e9e86_o.jpg",
    "id_image": "Space_853894",
    "count_view": 0
  },
  {
    "link_thumb": "https://live.staticflickr.com/65535/50040858078_1e16ea58c6_n.jpg",
    "id_album": "2020068132",
    "description": "Vehicle_712523",
    "title": "Vehicle_712523",
    "link_img": "https://live.staticflickr.com/65535/50040858078_b6ed348ef0_o.jpg",
    "id_image": "Vehicle_712523",
    "count_view": 0
  },
  {
    "link_thumb": "https://live.staticflickr.com/65535/50039719782_0e57fa39b5_n.jpg",
    "id_album": "-1964113117",
    "description": "City_273304",
    "title": "City_273304",
    "link_img": "https://live.staticflickr.com/65535/50039719782_65eddb91e4_o.jpg",
    "id_image": "City_273304",
    "count_view": 0
  },
  {
    "link_thumb": "https://live.staticflickr.com/65535/50041191626_0db83cdd74_n.jpg",
    "id_album": "-1863373220",
    "description": "StarWars_559762",
    "title": "StarWars_559762",
    "link_img": "https://live.staticflickr.com/65535/50041191626_eb40939082_o.jpg",
    "id_image": "StarWars_559762",
    "count_view": 0
  },
  {
    "link_thumb": "https://live.staticflickr.com/65535/50041219796_1c92ae91e6_n.jpg",
    "id_album": "-1863373220",
    "description": "StarWars_720137",
    "title": "StarWars_720137",
    "link_img": "https://live.staticflickr.com/65535/50041219796_136052d98a_o.jpg",
    "id_image": "StarWars_720137",
    "count_view": 0
  },
  {
    "link_thumb": "https://live.staticflickr.com/65535/50039774087_6f2d66117d_n.jpg",
    "id_album": "-1964113117",
    "description": "City_883152",
    "title": "City_883152",
    "link_img": "https://live.staticflickr.com/65535/50039774087_7c905d4156_o.jpg",
    "id_image": "City_883152",
    "count_view": 0
  },
  {
    "link_thumb": "https://live.staticflickr.com/65535/50040568672_0fe9b57ab5_n.jpg",
    "id_album": "779690680",
    "description": "Robot_407249",
    "title": "Robot_407249",
    "link_img": "https://live.staticflickr.com/65535/50040568672_c9b9ac0a36_o.jpg",
    "id_image": "Robot_407249",
    "count_view": 0
  },
  {
    "link_thumb": "https://live.staticflickr.com/65535/50039625061_70010a2952_n.jpg",
    "id_album": "1204249541",
    "description": "Galaxy_163506",
    "title": "Galaxy_163506",
    "link_img": "https://live.staticflickr.com/65535/50039625061_a16c2ba85f_o.jpg",
    "id_image": "Galaxy_163506",
    "count_view": 0
  },
  {
    "link_thumb": "https://live.staticflickr.com/65535/50039517117_d046b0f615_n.jpg",
    "id_album": "849020728",
    "description": "Alien_217350",
    "title": "Alien_217350",
    "link_img": "https://live.staticflickr.com/65535/50039517117_c5f40b4cd4_o.jpg",
    "id_image": "Alien_217350",
    "count_view": 0
  },
  {
    "link_thumb": "https://live.staticflickr.com/65535/50040564067_56d1bd1255_n.jpg",
    "id_album": "779690680",
    "description": "Robot_388640",
    "title": "Robot_388640",
    "link_img": "https://live.staticflickr.com/65535/50040564067_aa7182d2f8_o.jpg",
    "id_image": "Robot_388640",
    "count_view": 0
  },
  {
    "link_thumb": "https://live.staticflickr.com/65535/50040184377_a6050ec649_n.jpg",
    "id_album": "395161030",
    "description": "Planet_221802",
    "title": "Planet_221802",
    "link_img": "https://live.staticflickr.com/65535/50040184377_5d01884436_o.jpg",
    "id_image": "Planet_221802",
    "count_view": 0
  },
  {
    "link_thumb": "https://live.staticflickr.com/65535/50038723368_2c932f44cc_n.jpg",
    "id_album": "849020728",
    "description": "Alien_592249",
    "title": "Alien_592249",
    "link_img": "https://live.staticflickr.com/65535/50038723368_12485c47f3_o.jpg",
    "id_image": "Alien_592249",
    "count_view": 0
  },
  {
    "link_thumb": "https://live.staticflickr.com/65535/50039410101_41660e16cc_n.jpg",
    "id_album": "1187037014",
    "description": "Battle_976886",
    "title": "Battle_976886",
    "link_img": "https://live.staticflickr.com/65535/50039410101_4e2f4890b2_o.jpg",
    "id_image": "Battle_976886",
    "count_view": 0
  },
  {
    "link_thumb": "https://live.staticflickr.com/65535/50039483931_f70686eec8_n.jpg",
    "id_album": "-1964113117",
    "description": "City_649503",
    "title": "City_649503",
    "link_img": "https://live.staticflickr.com/65535/50039483931_60f7952a99_o.jpg",
    "id_image": "City_649503",
    "count_view": 0
  },
  {
    "link_thumb": "https://live.staticflickr.com/65535/50038924853_19ceb0b08a_n.jpg",
    "id_album": "-1964113117",
    "description": "City_498283",
    "title": "City_498283",
    "link_img": "https://live.staticflickr.com/65535/50038924853_b2c7b2e46f_o.jpg",
    "id_image": "City_498283",
    "count_view": 0
  },
  {
    "link_thumb": "https://live.staticflickr.com/65535/50039651632_f012d80a13_n.jpg",
    "id_album": "869545341",
    "description": "Astronaut_977917",
    "title": "Astronaut_977917",
    "link_img": "https://live.staticflickr.com/65535/50039651632_0c0b3727ec_o.jpg",
    "id_image": "Astronaut_977917",
    "count_view": 0
  },
  {
    "link_thumb": "https://live.staticflickr.com/65535/50040416286_c73537a555_n.jpg",
    "id_album": "779690680",
    "description": "Robot_918802",
    "title": "Robot_918802",
    "link_img": "https://live.staticflickr.com/65535/50040416286_8f0bc4aa8a_o.jpg",
    "id_image": "Robot_918802",
    "count_view": 0
  },
  {
    "link_thumb": "https://live.staticflickr.com/65535/50039489946_827f6934fe_n.jpg",
    "id_album": "-1964113117",
    "description": "City_701040",
    "title": "City_701040",
    "link_img": "https://live.staticflickr.com/65535/50039489946_01f16ee265_o.jpg",
    "id_image": "City_701040",
    "count_view": 0
  },
  {
    "link_thumb": "https://live.staticflickr.com/65535/50039535231_3094ede3bb_n.jpg",
    "id_album": "-1964113117",
    "description": "City_999340",
    "title": "City_999340",
    "link_img": "https://live.staticflickr.com/65535/50039535231_98250533d2_o.jpg",
    "id_image": "City_999340",
    "count_view": 0
  },
  {
    "link_thumb": "https://live.staticflickr.com/65535/50039701061_54ac8d779a_n.jpg",
    "id_album": "1402713104",
    "description": "Landscape_706882",
    "title": "Landscape_706882",
    "link_img": "https://live.staticflickr.com/65535/50039701061_a66d9b9ab3_o.jpg",
    "id_image": "Landscape_706882",
    "count_view": 0
  },
  {
    "link_thumb": "https://live.staticflickr.com/65535/50041560802_3bb2dff9f7_n.jpg",
    "id_album": "1267121215",
    "description": "Steampunk_191453",
    "title": "Steampunk_191453",
    "link_img": "https://live.staticflickr.com/65535/50041560802_b24a4d44b4_o.jpg",
    "id_image": "Steampunk_191453",
    "count_view": 0
  },
  {
    "link_thumb": "https://live.staticflickr.com/65535/50040681182_b5361030f0_n.jpg",
    "id_album": "779690680",
    "description": "Robot_920333",
    "title": "Robot_920333",
    "link_img": "https://live.staticflickr.com/65535/50040681182_7a01088e57_o.jpg",
    "id_image": "Robot_920333",
    "count_view": 0
  },
  {
    "link_thumb": "https://live.staticflickr.com/65535/50040655592_2fb945b3cc_n.jpg",
    "id_album": "779690680",
    "description": "Robot_881767",
    "title": "Robot_881767",
    "link_img": "https://live.staticflickr.com/65535/50040655592_f0d63cb5f3_o.jpg",
    "id_image": "Robot_881767",
    "count_view": 0
  }
]