[
  {
    "link_thumb": "https://live.staticflickr.com/65535/50039538408_44ebcb12d8_n.jpg",
    "id_album": "-1102314093",
    "description": "Planets_344840",
    "title": "Planets_344840",
    "link_img": "https://live.staticflickr.com/65535/50039538408_6e6eace4a0_o.jpg",
    "id_image": "Planets_344840",
    "count_view": 0
  },
  {
    "link_thumb": "https://live.staticflickr.com/65535/50040084817_34fb9d09fa_n.jpg",
    "id_album": "-1610342324",
    "description": "Nebula_683513",
    "title": "Nebula_683513",
    "link_img": "https://live.staticflickr.com/65535/50040084817_9fda88779e_o.jpg",
    "id_image": "Nebula_683513",
    "count_view": 0
  },
  {
    "link_thumb": "https://live.staticflickr.com/65535/50038789233_be6b99409b_n.jpg",
    "id_album": "523598895",
    "description": "Artistic_469028",
    "title": "Artistic_469028",
    "link_img": "https://live.staticflickr.com/65535/50038789233_e96d2e232f_o.jpg",
    "id_image": "Artistic_469028",
    "count_view": 0
  },
  {
    "link_thumb": "https://live.staticflickr.com/65535/50039351403_72481bbb3c_n.jpg",
    "id_album": "395161030",
    "description": "Planet_1004885",
    "title": "Planet_1004885",
    "link_img": "https://live.staticflickr.com/65535/50039351403_9f6e816b25_o.jpg",
    "id_image": "Planet_1004885",
    "count_view": 0
  },
  {
    "link_thumb": "https://live.staticflickr.com/65535/50039542152_013b4fbdbf_n.jpg",
    "id_album": "-419633230",
    "description": "Apocalyptic_193947",
    "title": "Apocalyptic_193947",
    "link_img": "https://live.staticflickr.com/65535/50039542152_7ede340e26_o.jpg",
    "id_image": "Apocalyptic_193947",
    "count_view": 0
  },
  {
    "link_thumb": "https://live.staticflickr.com/65535/50041591801_dfec466b6f_n.jpg",
    "id_album": "-1675918237",
    "description": "WomenWarrior_946028",
    "title": "WomenWarrior_946028",
    "link_img": "https://live.staticflickr.com/65535/50041591801_19aa6a3c70_o.jpg",
    "id_image": "WomenWarrior_946028",
    "count_view": 0
  },
  {
    "link_thumb": "https://live.staticflickr.com/65535/50040722702_14f0348a21_n.jpg",
    "id_album": "779690680",
    "description": "Robot_995805",
    "title": "Robot_995805",
    "link_img": "https://live.staticflickr.com/65535/50040722702_70f878643c_o.jpg",
    "id_image": "Robot_995805",
    "count_view": 0
  },
  {
    "link_thumb": "https://live.staticflickr.com/65535/50039413876_1cfa99f95c_n.jpg",
    "id_album": "-1780971522",
    "description": "Biohazard_371301",
    "title": "Biohazard_371301",
    "link_img": "https://live.staticflickr.com/65535/50039413876_976b6d1b34_o.jpg",
    "id_image": "Biohazard_371301",
    "count_view": 0
  },
  {
    "link_thumb": "https://live.staticflickr.com/65535/50039372513_eceb413f27_n.jpg",
    "id_album": "395161030",
    "description": "Planet_280056",
    "title": "Planet_280056",
    "link_img": "https://live.staticflickr.com/65535/50039372513_e24e48fe45_o.jpg",
    "id_image": "Planet_280056",
    "count_view": 0
  },
  {
    "link_thumb": "https://live.staticflickr.com/65535/50040496122_3bdd189e9b_n.jpg",
    "id_album": "-482547208",
    "description": "PostApocalyptic_924331",
    "title": "PostApocalyptic_924331",
    "link_img": "https://live.staticflickr.com/65535/50040496122_f7a3afa551_o.jpg",
    "id_image": "PostApocalyptic_924331",
    "count_view": 0
  },
  {
    "link_thumb": "https://live.staticflickr.com/65535/50039767126_16c740e46c_n.jpg",
    "id_album": "-1610342324",
    "description": "Nebula_195802",
    "title": "Nebula_195802",
    "link_img": "https://live.staticflickr.com/65535/50039767126_2af15ac996_o.jpg",
    "id_image": "Nebula_195802",
    "count_view": 0
  },
  {
    "link_thumb": "https://live.staticflickr.com/65535/50040743793_e6147cb1de_n.jpg",
    "id_album": "1267121215",
    "description": "Steampunk_199576",
    "title": "Steampunk_199576",
    "link_img": "https://live.staticflickr.com/65535/50040743793_223ce8a47c_o.jpg",
    "id_image": "Steampunk_199576",
    "count_view": 0
  },
  {
    "link_thumb": "https://live.staticflickr.com/65535/50039376211_608a9b8550_n.jpg",
    "id_album": "869545341",
    "description": "Astronaut_899028",
    "title": "Astronaut_899028",
    "link_img": "https://live.staticflickr.com/65535/50039376211_f7f565f2e2_o.jpg",
    "id_image": "Astronaut_899028",
    "count_view": 0
  },
  {
    "link_thumb": "https://live.staticflickr.com/65535/50039872113_142d9e857d_n.jpg",
    "id_album": "779690680",
    "description": "Robot_928645",
    "title": "Robot_928645",
    "link_img": "https://live.staticflickr.com/65535/50039872113_3fc60675f3_o.jpg",
    "id_image": "Robot_928645",
    "count_view": 0
  },
  {
    "link_thumb": "https://live.staticflickr.com/65535/50039705278_55e6b83aa3_n.jpg",
    "id_album": "779690680",
    "description": "Robot_173373",
    "title": "Robot_173373",
    "link_img": "https://live.staticflickr.com/65535/50039705278_844f7fea72_o.jpg",
    "id_image": "Robot_173373",
    "count_view": 0
  },
  {
    "link_thumb": "https://live.staticflickr.com/65535/50040158888_72c50e0fe5_n.jpg",
    "id_album": "2130067313",
    "description": "Spaceship_546334",
    "title": "Spaceship_546334",
    "link_img": "https://live.staticflickr.com/65535/50040158888_91798d82ca_o.jpg",
    "id_image": "Spaceship_546334",
    "count_view": 0
  },
  {
    "link_thumb": "https://live.staticflickr.com/65535/50040201902_205a574916_n.jpg",
    "id_album": "395161030",
    "description": "Planet_364701",
    "title": "Planet_364701",
    "link_img": "https://live.staticflickr.com/65535/50040201902_a40f178895_o.jpg",
    "id_image": "Planet_364701",
    "count_view": 0
  },
  {
    "link_thumb": "https://live.staticflickr.com/65535/50039492021_77ece82312_n.jpg",
    "id_album": "-1964113117",
    "description": "City_711429",
    "title": "City_711429",
    "link_img": "https://live.staticflickr.com/65535/50039492021_efd4cbd769_o.jpg",
    "id_image": "City_711429",
    "count_view": 0
  },
  {
    "link_thumb": "https://live.staticflickr.com/65535/50039357811_24ac0eac84_n.jpg",
    "id_album": "869545341",
    "description": "Astronaut_565172",
    "title": "Astronaut_565172",
    "link_img": "https://live.staticflickr.com/65535/50039357811_049dcdd072_o.jpg",
    "id_image": "Astronaut_565172",
    "count_view": 0
  },
  {
    "link_thumb": "https://live.staticflickr.com/65535/50040082661_b536248a55_n.jpg",
    "id_album": "-1102314093",
    "description": "Planets_327612",
    "title": "Planets_327612",
    "link_img": "https://live.staticflickr.com/65535/50040082661_21d2dafaab_o.jpg",
    "id_image": "Planets_327612",
    "count_view": 0
  },
  {
    "link_thumb": "https://live.staticflickr.com/65535/50039738322_bddb3b5f15_n.jpg",
    "id_album": "-1964113117",
    "description": "City_528294",
    "title": "City_528294",
    "link_img": "https://live.staticflickr.com/65535/50039738322_67e536853b_o.jpg",
    "id_image": "City_528294",
    "count_view": 0
  },
  {
    "link_thumb": "https://live.staticflickr.com/65535/50040553092_099596f516_n.jpg",
    "id_album": "779690680",
    "description": "Robot_322092",
    "title": "Robot_322092",
    "link_img": "https://live.staticflickr.com/65535/50040553092_8ecf91d1a7_o.jpg",
    "id_image": "Robot_322092",
    "count_view": 0
  },
  {
    "link_thumb": "https://live.staticflickr.com/65535/50040804372_0e55de244a_n.jpg",
    "id_album": "1613540653",
    "description": "Space_78373",
    "title": "Space_78373",
    "link_img": "https://live.staticflickr.com/65535/50040804372_5c38aa0f49_o.jpg",
    "id_image": "Space_78373",
    "count_view": 0
  },
  {
    "link_thumb": "https://live.staticflickr.com/65535/50039881938_c3300d6fe0_n.jpg",
    "id_album": "779690680",
    "description": "Robot_940962",
    "title": "Robot_940962",
    "link_img": "https://live.staticflickr.com/65535/50039881938_de3db2b8a3_o.jpg",
    "id_image": "Robot_940962",
    "count_view": 0
  },
  {
    "link_thumb": "https://live.staticflickr.com/65535/50039290838_80e52aff68_n.jpg",
    "id_album": "-1610342324",
    "description": "Nebula_813546",
    "title": "Nebula_813546",
    "link_img": "https://live.staticflickr.com/65535/50039290838_2e723cfa47_o.jpg",
    "id_image": "Nebula_813546",
    "count_view": 0
  },
  {
    "link_thumb": "https://live.staticflickr.com/65535/50039262546_62e5101cc0_n.jpg",
    "id_album": "849020728",
    "description": "Alien_394364",
    "title": "Alien_394364",
    "link_img": "https://live.staticflickr.com/65535/50039262546_470a3ffa7d_o.jpg",
    "id_image": "Alien_394364",
    "count_view": 0
  },
  {
    "link_thumb": "https://live.staticflickr.com/65535/50039880307_5eb75febf4_n.jpg",
    "id_album": "2104507156",
    "description": "Fantasy_176577",
    "title": "Fantasy_176577",
    "link_img": "https://live.staticflickr.com/65535/50039880307_884c509da7_o.jpg",
    "id_image": "Fantasy_176577",
    "count_view": 0
  },
  {
    "link_thumb": "https://live.staticflickr.com/65535/50039668482_7722791d2c_n.jpg",
    "id_album": "1187037014",
    "description": "Battle_667619",
    "title": "Battle_667619",
    "link_img": "https://live.staticflickr.com/65535/50039668482_9683557a47_o.jpg",
    "id_image": "Battle_667619",
    "count_view": 0
  },
  {
    "link_thumb": "https://live.staticflickr.com/65535/50039388616_fb3d3d693e_n.jpg",
    "id_album": "869545341",
    "description": "Astronaut_975794",
    "title": "Astronaut_975794",
    "link_img": "https://live.staticflickr.com/65535/50039388616_9b986457d0_o.jpg",
    "id_image": "Astronaut_975794",
    "count_view": 0
  },
  {
    "link_thumb": "https://live.staticflickr.com/65535/50039163473_98bc67cb1f_n.jpg",
    "id_album": "1402713104",
    "description": "Landscape_863903",
    "title": "Landscape_863903",
    "link_img": "https://live.staticflickr.com/65535/50039163473_07f3c27f69_o.jpg",
    "id_image": "Landscape_863903",
    "count_view": 0
  },
  {
    "link_thumb": "https://live.staticflickr.com/65535/50040223023_fe23614ab4_n.jpg",
    "id_album": "2130067313",
    "description": "Spaceship_972165",
    "title": "Spaceship_972165",
    "link_img": "https://live.staticflickr.com/65535/50040223023_50830400fa_o.jpg",
    "id_image": "Spaceship_972165",
    "count_view": 0
  },
  {
    "link_thumb": "https://live.staticflickr.com/65535/50040191016_732a15bdcf_n.jpg",
    "id_album": "-482547208",
    "description": "PostApocalyptic_157308",
    "title": "PostApocalyptic_157308",
    "link_img": "https://live.staticflickr.com/65535/50040191016_a9f085f483_o.jpg",
    "id_image": "PostApocalyptic_157308",
    "count_view": 0
  },
  {
    "link_thumb": "https://live.staticflickr.com/65535/50041486361_0f5c32f121_n.jpg",
    "id_album": "-1261420436",
    "description": "Warrior_778589",
    "title": "Warrior_778589",
    "link_img": "https://live.staticflickr.com/65535/50041486361_04c0a9b187_o.jpg",
    "id_image": "Warrior_778589",
    "count_view": 0
  },
  {
    "link_thumb": "https://live.staticflickr.com/65535/50040227822_f4bef014f4_n.jpg",
    "id_album": "395161030",
    "description": "Planet_559154",
    "title": "Planet_559154",
    "link_img": "https://live.staticflickr.com/65535/50040227822_2e47cdec46_o.jpg",
    "id_image": "Planet_559154",
    "count_view": 0
  },
  {
    "link_thumb": "https://live.staticflickr.com/65535/50039142788_4538a15227_n.jpg",
    "id_album": "1402713104",
    "description": "Landscape_526198",
    "title": "Landscape_526198",
    "link_img": "https://live.staticflickr.com/65535/50039142788_ed9b995c7e_o.jpg",
    "id_image": "Landscape_526198",
    "count_view": 0
  },
  {
    "link_thumb": "https://live.staticflickr.com/65535/50040452672_fd861f117a_n.jpg",
    "id_album": "-482547208",
    "description": "PostApocalyptic_103035",
    "title": "PostApocalyptic_103035",
    "link_img": "https://live.staticflickr.com/65535/50040452672_0ef2490ebb_o.jpg",
    "id_image": "PostApocalyptic_103035",
    "count_view": 0
  },
  {
    "link_thumb": "https://live.staticflickr.com/65535/50040982663_a6336c7c36_n.jpg",
    "id_album": "-1126835654",
    "description": "Women_564421",
    "title": "Women_564421",
    "link_img": "https://live.staticflickr.com/65535/50040982663_c7866b995e_o.jpg",
    "id_image": "Women_564421",
    "count_view": 0
  },
  {
    "link_thumb": "https://live.staticflickr.com/65535/50039245778_1317aaf82f_n.jpg",
    "id_album": "-1610342324",
    "description": "Nebula_422747",
    "title": "Nebula_422747",
    "link_img": "https://live.staticflickr.com/65535/50039245778_700770494c_o.jpg",
    "id_image": "Nebula_422747",
    "count_view": 0
  },
  {
    "link_thumb": "https://live.staticflickr.com/65535/50039745763_b2f1731d69_n.jpg",
    "id_album": "779690680",
    "description": "Robot_381885",
    "title": "Robot_381885",
    "link_img": "https://live.staticflickr.com/65535/50039745763_0d09996b7e_o.jpg",
    "id_image": "Robot_381885",
    "count_view": 0
  },
  {
    "link_thumb": "https://live.staticflickr.com/65535/50040475856_caf7c592f5_n.jpg",
    "id_album": "1613540653",
    "description": "Space_188320",
    "title": "Space_188320",
    "link_img": "https://live.staticflickr.com/65535/50040475856_5d1a333c65_o.jpg",
    "id_image": "Space_188320",
    "count_view": 0
  },
  {
    "link_thumb": "https://live.staticflickr.com/65535/50039883601_5c059b27c4_n.jpg",
    "id_album": "-1862561193",
    "description": "Other_280795",
    "title": "Other_280795",
    "link_img": "https://live.staticflickr.com/65535/50039883601_0c8edf0243_o.jpg",
    "id_image": "Other_280795",
    "count_view": 0
  },
  {
    "link_thumb": "https://live.staticflickr.com/65535/50040473941_c26b56b958_n.jpg",
    "id_album": "1613540653",
    "description": "Space_179731",
    "title": "Space_179731",
    "link_img": "https://live.staticflickr.com/65535/50040473941_6dc8a43059_o.jpg",
    "id_image": "Space_179731",
    "count_view": 0
  },
  {
    "link_thumb": "https://live.staticflickr.com/65535/50039213263_7d5cfe5903_n.jpg",
    "id_album": "-1610342324",
    "description": "Nebula_124789",
    "title": "Nebula_124789",
    "link_img": "https://live.staticflickr.com/65535/50039213263_ddb536c501_o.jpg",
    "id_image": "Nebula_124789",
    "count_view": 0
  },
  {
    "link_thumb": "https://live.staticflickr.com/65535/50039074673_79fa0c2f63_n.jpg",
    "id_album": "1204249541",
    "description": "Galaxy_101692",
    "title": "Galaxy_101692",
    "link_img": "https://live.staticflickr.com/65535/50039074673_fd69118caf_o.jpg",
    "id_image": "Galaxy_101692",
    "count_view": 0
  },
  {
    "link_thumb": "https://live.staticflickr.com/65535/50039683603_f299db939b_n.jpg",
    "id_album": "-482547208",
    "description": "PostApocalyptic_977198",
    "title": "PostApocalyptic_977198",
    "link_img": "https://live.staticflickr.com/65535/50039683603_2699327a2b_o.jpg",
    "id_image": "PostApocalyptic_977198",
    "count_view": 0
  },
  {
    "link_thumb": "https://live.staticflickr.com/65535/50038870678_24eb60bff0_n.jpg",
    "id_album": "-1780971522",
    "description": "Biohazard_592130",
    "title": "Biohazard_592130",
    "link_img": "https://live.staticflickr.com/65535/50038870678_1fb0ec711a_o.jpg",
    "id_image": "Biohazard_592130",
    "count_view": 0
  },
  {
    "link_thumb": "https://live.staticflickr.com/65535/50039497722_9176eda5f2_n.jpg",
    "id_album": "-406145265",
    "description": "Aircraft_268465",
    "title": "Aircraft_268465",
    "link_img": "https://live.staticflickr.com/65535/50039497722_577b3c5bef_o.jpg",
    "id_image": "Aircraft_268465",
    "count_view": 0
  },
  {
    "link_thumb": "https://live.staticflickr.com/65535/50039683503_13776077eb_n.jpg",
    "id_album": "-482547208",
    "description": "PostApocalyptic_977112",
    "title": "PostApocalyptic_977112",
    "link_img": "https://live.staticflickr.com/65535/50039683503_baa35c4ec0_o.jpg",
    "id_image": "PostApocalyptic_977112",
    "count_view": 0
  },
  {
    "link_thumb": "https://live.staticflickr.com/65535/50039951151_78fca4527a_n.jpg",
    "id_album": "395161030",
    "description": "Planet_464558",
    "title": "Planet_464558",
    "link_img": "https://live.staticflickr.com/65535/50039951151_2273781326_o.jpg",
    "id_image": "Planet_464558",
    "count_view": 0
  },
  {
    "link_thumb": "https://live.staticflickr.com/65535/50041750717_2e41c691c6_n.jpg",
    "id_album": "-1261420436",
    "description": "Warrior_799665",
    "title": "Warrior_799665",
    "link_img": "https://live.staticflickr.com/65535/50041750717_f8e2891912_o.jpg",
    "id_image": "Warrior_799665",
    "count_view": 0
  },
  {
    "link_thumb": "https://live.staticflickr.com/65535/50039771411_f06b39492e_n.jpg",
    "id_album": "-1610342324",
    "description": "Nebula_217346",
    "title": "Nebula_217346",
    "link_img": "https://live.staticflickr.com/65535/50039771411_b4248dae8f_o.jpg",
    "id_image": "Nebula_217346",
    "count_view": 0
  },
  {
    "link_thumb": "https://live.staticflickr.com/65535/50039984098_20a6ba78fb_n.jpg",
    "id_album": "1613540653",
    "description": "Space_779128",
    "title": "Space_779128",
    "link_img": "https://live.staticflickr.com/65535/50039984098_cc4b593ac8_o.jpg",
    "id_image": "Space_779128",
    "count_view": 0
  },
  {
    "link_thumb": "https://live.staticflickr.com/65535/50039025743_a40a0c7867_n.jpg",
    "id_album": "829169633",
    "description": "Cyborg_1010375",
    "title": "Cyborg_1010375",
    "link_img": "https://live.staticflickr.com/65535/50039025743_4e62b62ab8_o.jpg",
    "id_image": "Cyborg_1010375",
    "count_view": 0
  },
  {
    "link_thumb": "https://live.staticflickr.com/65535/50039489946_827f6934fe_n.jpg",
    "id_album": "-1964113117",
    "description": "City_701040",
    "title": "City_701040",
    "link_img": "https://live.staticflickr.com/65535/50039489946_01f16ee265_o.jpg",
    "id_image": "City_701040",
    "count_view": 0
  },
  {
    "link_thumb": "https://live.staticflickr.com/65535/50040258466_a1d8e9e913_n.jpg",
    "id_album": "779690680",
    "description": "Robot_179713",
    "title": "Robot_179713",
    "link_img": "https://live.staticflickr.com/65535/50040258466_c6c0f091b7_o.jpg",
    "id_image": "Robot_179713",
    "count_view": 0
  },
  {
    "link_thumb": "https://live.staticflickr.com/65535/50039581522_6ec592067c_n.jpg",
    "id_album": "523598895",
    "description": "Artistic_225561",
    "title": "Artistic_225561",
    "link_img": "https://live.staticflickr.com/65535/50039581522_31b7006eb3_o.jpg",
    "id_image": "Artistic_225561",
    "count_view": 0
  },
  {
    "link_thumb": "https://live.staticflickr.com/65535/50041283401_4a87f0645a_n.jpg",
    "id_album": "-1587696329",
    "description": "Stars_846724",
    "title": "Stars_846724",
    "link_img": "https://live.staticflickr.com/65535/50041283401_4fe8faeca7_o.jpg",
    "id_image": "Stars_846724",
    "count_view": 0
  },
  {
    "link_thumb": "https://live.staticflickr.com/65535/50040254991_d9580e24d5_n.jpg",
    "id_album": "779690680",
    "description": "Robot_149264",
    "title": "Robot_149264",
    "link_img": "https://live.staticflickr.com/65535/50040254991_4848efa091_o.jpg",
    "id_image": "Robot_149264",
    "count_view": 0
  },
  {
    "link_thumb": "https://live.staticflickr.com/65535/50038989788_681a43a62f_n.jpg",
    "id_album": "894679094",
    "description": "Collision_284766",
    "title": "Collision_284766",
    "link_img": "https://live.staticflickr.com/65535/50038989788_ac09f03625_o.jpg",
    "id_image": "Collision_284766",
    "count_view": 0
  },
  {
    "link_thumb": "https://live.staticflickr.com/65535/50040019386_9ebbca4c65_n.jpg",
    "id_album": "814701616",
    "description": "PlanetaryRing_185239",
    "title": "PlanetaryRing_185239",
    "link_img": "https://live.staticflickr.com/65535/50040019386_781311b815_o.jpg",
    "id_image": "PlanetaryRing_185239",
    "count_view": 0
  },
  {
    "link_thumb": "https://live.staticflickr.com/65535/50039582337_ea279e0b64_n.jpg",
    "id_album": "523598895",
    "description": "Artistic_229145",
    "title": "Artistic_229145",
    "link_img": "https://live.staticflickr.com/65535/50039582337_26a273301c_o.jpg",
    "id_image": "Artistic_229145",
    "count_view": 0
  },
  {
    "link_thumb": "https://live.staticflickr.com/65535/50039926022_c52058e1d8_n.jpg",
    "id_album": "1402713104",
    "description": "Landscape_174052",
    "title": "Landscape_174052",
    "link_img": "https://live.staticflickr.com/65535/50039926022_30d1a45bf7_o.jpg",
    "id_image": "Landscape_174052",
    "count_view": 0
  },
  {
    "link_thumb": "https://live.staticflickr.com/65535/50039402503_b3eed3c971_n.jpg",
    "id_album": "395161030",
    "description": "Planet_464552",
    "title": "Planet_464552",
    "link_img": "https://live.staticflickr.com/65535/50039402503_ff9c15b5e1_o.jpg",
    "id_image": "Planet_464552",
    "count_view": 0
  },
  {
    "link_thumb": "https://live.staticflickr.com/65535/50039659991_b0f5625a5b_n.jpg",
    "id_album": "1402713104",
    "description": "Landscape_121806",
    "title": "Landscape_121806",
    "link_img": "https://live.staticflickr.com/65535/50039659991_2905d2aab4_o.jpg",
    "id_image": "Landscape_121806",
    "count_view": 0
  },
  {
    "link_thumb": "https://live.staticflickr.com/65535/50039689006_55e327e523_n.jpg",
    "id_album": "1402713104",
    "description": "Landscape_441279",
    "title": "Landscape_441279",
    "link_img": "https://live.staticflickr.com/65535/50039689006_d1e2e6dd22_o.jpg",
    "id_image": "Landscape_441279",
    "count_view": 0
  },
  {
    "link_thumb": "https://live.staticflickr.com/65535/50040815368_7e63465fac_n.jpg",
    "id_album": "-1177476763",
    "description": "Sunrise_857570",
    "title": "Sunrise_857570",
    "link_img": "https://live.staticflickr.com/65535/50040815368_5225a5f360_o.jpg",
    "id_image": "Sunrise_857570",
    "count_view": 0
  },
  {
    "link_thumb": "https://live.staticflickr.com/65535/50041535416_a57c74ca5e_n.jpg",
    "id_album": "-1126835654",
    "description": "Women_551687",
    "title": "Women_551687",
    "link_img": "https://live.staticflickr.com/65535/50041535416_74b7463c84_o.jpg",
    "id_image": "Women_551687",
    "count_view": 0
  },
  {
    "link_thumb": "https://live.staticflickr.com/65535/50039958782_f20dbffaba_n.jpg",
    "id_album": "1402713104",
    "description": "Landscape_588480",
    "title": "Landscape_588480",
    "link_img": "https://live.staticflickr.com/65535/50039958782_69e05a8109_o.jpg",
    "id_image": "Landscape_588480",
    "count_view": 0
  },
  {
    "link_thumb": "https://live.staticflickr.com/65535/50039727248_c355600403_n.jpg",
    "id_album": "779690680",
    "description": "Robot_275360",
    "title": "Robot_275360",
    "link_img": "https://live.staticflickr.com/65535/50039727248_07d07569bd_o.jpg",
    "id_image": "Robot_275360",
    "count_view": 0
  },
  {
    "link_thumb": "https://live.staticflickr.com/65535/50040654621_8b8d2111e9_n.jpg",
    "id_album": "2130067313",
    "description": "Spaceship_329512",
    "title": "Spaceship_329512",
    "link_img": "https://live.staticflickr.com/65535/50040654621_c85a61aaac_o.jpg",
    "id_image": "Spaceship_329512",
    "count_view": 0
  },
  {
    "link_thumb": "https://live.staticflickr.com/65535/50039281336_85b973835b_n.jpg",
    "id_album": "-419633230",
    "description": "Apocalyptic_285801",
    "title": "Apocalyptic_285801",
    "link_img": "https://live.staticflickr.com/65535/50039281336_5e396acd33_o.jpg",
    "id_image": "Apocalyptic_285801",
    "count_view": 0
  },
  {
    "link_thumb": "https://live.staticflickr.com/65535/50039134218_976f6fe9cc_n.jpg",
    "id_album": "1402713104",
    "description": "Landscape_371300",
    "title": "Landscape_371300",
    "link_img": "https://live.staticflickr.com/65535/50039134218_5a4a2af4d4_o.jpg",
    "id_image": "Landscape_371300",
    "count_view": 0
  },
  {
    "link_thumb": "https://live.staticflickr.com/65535/50040806793_3f6ffc8704_n.jpg",
    "id_album": "-1177476763",
    "description": "Sunrise_350440",
    "title": "Sunrise_350440",
    "link_img": "https://live.staticflickr.com/65535/50040806793_39368c7dbd_o.jpg",
    "id_image": "Sunrise_350440",
    "count_view": 0
  },
  {
    "link_thumb": "https://live.staticflickr.com/65535/50040542826_5480a42669_n.jpg",
    "id_album": "1613540653",
    "description": "Space_822458",
    "title": "Space_822458",
    "link_img": "https://live.staticflickr.com/65535/50040542826_3e83e3b84d_o.jpg",
    "id_image": "Space_822458",
    "count_view": 0
  },
  {
    "link_thumb": "https://live.staticflickr.com/65535/50041026433_d3fee9b958_n.jpg",
    "id_album": "-1675918237",
    "description": "WomenWarrior_551721",
    "title": "WomenWarrior_551721",
    "link_img": "https://live.staticflickr.com/65535/50041026433_95ce8fb518_o.jpg",
    "id_image": "WomenWarrior_551721",
    "count_view": 0
  },
  {
    "link_thumb": "https://live.staticflickr.com/65535/50040530022_137929244a_n.jpg",
    "id_album": "779690680",
    "description": "Robot_215032",
    "title": "Robot_215032",
    "link_img": "https://live.staticflickr.com/65535/50040530022_4df1cac402_o.jpg",
    "id_image": "Robot_215032",
    "count_view": 0
  },
  {
    "link_thumb": "https://live.staticflickr.com/65535/50039891497_14f08219f5_n.jpg",
    "id_album": "1204249541",
    "description": "Galaxy_264728",
    "title": "Galaxy_264728",
    "link_img": "https://live.staticflickr.com/65535/50039891497_c2e6c83dc7_o.jpg",
    "id_image": "Galaxy_264728",
    "count_view": 0
  },
  {
    "link_thumb": "https://live.staticflickr.com/65535/50039210383_6a98fb4159_n.jpg",
    "id_album": "-1610342324",
    "description": "Nebula_1007640",
    "title": "Nebula_1007640",
    "link_img": "https://live.staticflickr.com/65535/50039210383_7f9ab4942d_o.jpg",
    "id_image": "Nebula_1007640",
    "count_view": 0
  },
  {
    "link_thumb": "https://live.staticflickr.com/65535/50038859993_0174e75caf_n.jpg",
    "id_album": "1187037014",
    "description": "Battle_917199",
    "title": "Battle_917199",
    "link_img": "https://live.staticflickr.com/65535/50038859993_9fb3e25c33_o.jpg",
    "id_image": "Battle_917199",
    "count_view": 0
  },
  {
    "link_thumb": "https://live.staticflickr.com/65535/50039120493_7d2b38d142_n.jpg",
    "id_album": "1402713104",
    "description": "Landscape_280014",
    "title": "Landscape_280014",
    "link_img": "https://live.staticflickr.com/65535/50039120493_5d13e9c038_o.jpg",
    "id_image": "Landscape_280014",
    "count_view": 0
  },
  {
    "link_thumb": "https://live.staticflickr.com/65535/50039986522_15712bc631_n.jpg",
    "id_album": "1402713104",
    "description": "Landscape_917847",
    "title": "Landscape_917847",
    "link_img": "https://live.staticflickr.com/65535/50039986522_a87384a6bd_o.jpg",
    "id_image": "Landscape_917847",
    "count_view": 0
  },
  {
    "link_thumb": "https://live.staticflickr.com/65535/50040921043_1e8c7a7bb5_n.jpg",
    "id_album": "-1261420436",
    "description": "Warrior_592181",
    "title": "Warrior_592181",
    "link_img": "https://live.staticflickr.com/65535/50040921043_b8af30f262_o.jpg",
    "id_image": "Warrior_592181",
    "count_view": 0
  },
  {
    "link_thumb": "https://live.staticflickr.com/65535/50040167367_7a61cd4f5e_n.jpg",
    "id_album": "395161030",
    "description": "Planet_105256",
    "title": "Planet_105256",
    "link_img": "https://live.staticflickr.com/65535/50040167367_4581d3d8d4_o.jpg",
    "id_image": "Planet_105256",
    "count_view": 0
  },
  {
    "link_thumb": "https://live.staticflickr.com/65535/50041649147_3bef187dfa_n.jpg",
    "id_album": "2020068132",
    "description": "Vehicle_313375",
    "title": "Vehicle_313375",
    "link_img": "https://live.staticflickr.com/65535/50041649147_dfda84b47a_o.jpg",
    "id_image": "Vehicle_313375",
    "count_view": 0
  },
  {
    "link_thumb": "https://live.staticflickr.com/65535/50039669573_9a1bd8a7ec_n.jpg",
    "id_album": "-482547208",
    "description": "PostApocalyptic_725326",
    "title": "PostApocalyptic_725326",
    "link_img": "https://live.staticflickr.com/65535/50039669573_b18ec55185_o.jpg",
    "id_image": "PostApocalyptic_725326",
    "count_view": 0
  },
  {
    "link_thumb": "https://live.staticflickr.com/65535/50040502667_54366d62a0_n.jpg",
    "id_album": "-839602625",
    "description": "Predator_196975",
    "title": "Predator_196975",
    "link_img": "https://live.staticflickr.com/65535/50040502667_64bcf76d87_o.jpg",
    "id_image": "Predator_196975",
    "count_view": 0
  },
  {
    "link_thumb": "https://live.staticflickr.com/65535/50039924767_8931af4167_n.jpg",
    "id_album": "1402713104",
    "description": "Landscape_159470",
    "title": "Landscape_159470",
    "link_img": "https://live.staticflickr.com/65535/50039924767_8a9d95535a_o.jpg",
    "id_image": "Landscape_159470",
    "count_view": 0
  },
  {
    "link_thumb": "https://live.staticflickr.com/65535/50040846273_4d3319749f_n.jpg",
    "id_album": "2020068132",
    "description": "Vehicle_427318",
    "title": "Vehicle_427318",
    "link_img": "https://live.staticflickr.com/65535/50040846273_4ddc264315_o.jpg",
    "id_image": "Vehicle_427318",
    "count_view": 0
  },
  {
    "link_thumb": "https://live.staticflickr.com/65535/50040170521_8aca6ee29b_n.jpg",
    "id_album": "376235057",
    "description": "Planetscape_382469",
    "title": "Planetscape_382469",
    "link_img": "https://live.staticflickr.com/65535/50040170521_fd09351301_o.jpg",
    "id_image": "Planetscape_382469",
    "count_view": 0
  },
  {
    "link_thumb": "https://live.staticflickr.com/65535/50040596603_56a3cbc31b_n.jpg",
    "id_album": "-1863373220",
    "description": "StarWars_236266",
    "title": "StarWars_236266",
    "link_img": "https://live.staticflickr.com/65535/50040596603_a970aa8498_o.jpg",
    "id_image": "StarWars_236266",
    "count_view": 0
  },
  {
    "link_thumb": "https://live.staticflickr.com/65535/50039652166_3a416defcf_n.jpg",
    "id_album": "1204249541",
    "description": "Galaxy_738626",
    "title": "Galaxy_738626",
    "link_img": "https://live.staticflickr.com/65535/50039652166_59cdcb0607_o.jpg",
    "id_image": "Galaxy_738626",
    "count_view": 0
  },
  {
    "link_thumb": "https://live.staticflickr.com/65535/50040796742_6bec4fe617_n.jpg",
    "id_album": "1613540653",
    "description": "Space_706223",
    "title": "Space_706223",
    "link_img": "https://live.staticflickr.com/65535/50040796742_58f50bffc8_o.jpg",
    "id_image": "Space_706223",
    "count_view": 0
  },
  {
    "link_thumb": "https://live.staticflickr.com/65535/50039930436_1095bb353f_n.jpg",
    "id_album": "395161030",
    "description": "Planet_343603",
    "title": "Planet_343603",
    "link_img": "https://live.staticflickr.com/65535/50039930436_d6e112b571_o.jpg",
    "id_image": "Planet_343603",
    "count_view": 0
  },
  {
    "link_thumb": "https://live.staticflickr.com/65535/50039940481_773f889fb2_n.jpg",
    "id_album": "395161030",
    "description": "Planet_375800",
    "title": "Planet_375800",
    "link_img": "https://live.staticflickr.com/65535/50039940481_4deb144a83_o.jpg",
    "id_image": "Planet_375800",
    "count_view": 0
  },
  {
    "link_thumb": "https://live.staticflickr.com/65535/50039717938_9416c6cba5_n.jpg",
    "id_album": "779690680",
    "description": "Robot_249483",
    "title": "Robot_249483",
    "link_img": "https://live.staticflickr.com/65535/50039717938_d7b480b2d4_o.jpg",
    "id_image": "Robot_249483",
    "count_view": 0
  },
  {
    "link_thumb": "https://live.staticflickr.com/65535/50039989128_57442d4d20_n.jpg",
    "id_album": "1613540653",
    "description": "Space_822471",
    "title": "Space_822471",
    "link_img": "https://live.staticflickr.com/65535/50039989128_5b33a5b0be_o.jpg",
    "id_image": "Space_822471",
    "count_view": 0
  },
  {
    "link_thumb": "https://live.staticflickr.com/65535/50039305461_62da245ab9_n.jpg",
    "id_album": "523598895",
    "description": "Artistic_179637",
    "title": "Artistic_179637",
    "link_img": "https://live.staticflickr.com/65535/50039305461_269aa6c6cd_o.jpg",
    "id_image": "Artistic_179637",
    "count_view": 0
  },
  {
    "link_thumb": "https://live.staticflickr.com/65535/50039351748_e229d0d649_n.jpg",
    "id_album": "395161030",
    "description": "Planet_1005774",
    "title": "Planet_1005774",
    "link_img": "https://live.staticflickr.com/65535/50039351748_322371f792_o.jpg",
    "id_image": "Planet_1005774",
    "count_view": 0
  },
  {
    "link_thumb": "https://live.staticflickr.com/65535/50039212798_9c3e7f4245_n.jpg",
    "id_album": "-1610342324",
    "description": "Nebula_113267",
    "title": "Nebula_113267",
    "link_img": "https://live.staticflickr.com/65535/50039212798_7dc049dc04_o.jpg",
    "id_image": "Nebula_113267",
    "count_view": 0
  },
  {
    "link_thumb": "https://live.staticflickr.com/65535/50040051167_90d3afcffd_n.jpg",
    "id_album": "-1610342324",
    "description": "Nebula_352108",
    "title": "Nebula_352108",
    "link_img": "https://live.staticflickr.com/65535/50040051167_eb871663e8_o.jpg",
    "id_image": "Nebula_352108",
    "count_view": 0
  },
  {
    "link_thumb": "https://live.staticflickr.com/65535/50039733351_70c32044d6_n.jpg",
    "id_album": "-1388385651",
    "description": "MilkyWay_555679",
    "title": "MilkyWay_555679",
    "link_img": "https://live.staticflickr.com/65535/50039733351_c7deceebc4_o.jpg",
    "id_image": "MilkyWay_555679",
    "count_view": 0
  },
  {
    "link_thumb": "https://live.staticflickr.com/65535/50039333721_edc65baf9e_n.jpg",
    "id_album": "523598895",
    "description": "Artistic_397573",
    "title": "Artistic_397573",
    "link_img": "https://live.staticflickr.com/65535/50039333721_98972a8b1e_o.jpg",
    "id_image": "Artistic_397573",
    "count_view": 0
  },
  {
    "link_thumb": "https://live.staticflickr.com/65535/50040434281_7300398eda_n.jpg",
    "id_album": "779690680",
    "description": "Robot_937814",
    "title": "Robot_937814",
    "link_img": "https://live.staticflickr.com/65535/50040434281_1994ef38d8_o.jpg",
    "id_image": "Robot_937814",
    "count_view": 0
  },
  {
    "link_thumb": "https://live.staticflickr.com/65535/50039261461_a17a0fb36b_n.jpg",
    "id_album": "849020728",
    "description": "Alien_354791",
    "title": "Alien_354791",
    "link_img": "https://live.staticflickr.com/65535/50039261461_e00f5fa779_o.jpg",
    "id_image": "Alien_354791",
    "count_view": 0
  },
  {
    "link_thumb": "https://live.staticflickr.com/65535/50040300303_987bc0fdbc_n.jpg",
    "id_album": "-1449720967",
    "description": "StarTrek_339027",
    "title": "StarTrek_339027",
    "link_img": "https://live.staticflickr.com/65535/50040300303_0cd6d92d04_o.jpg",
    "id_image": "StarTrek_339027",
    "count_view": 0
  },
  {
    "link_thumb": "https://live.staticflickr.com/65535/50040401451_60a1a6ff57_n.jpg",
    "id_album": "779690680",
    "description": "Robot_903928",
    "title": "Robot_903928",
    "link_img": "https://live.staticflickr.com/65535/50040401451_074e15775d_o.jpg",
    "id_image": "Robot_903928",
    "count_view": 0
  },
  {
    "link_thumb": "https://live.staticflickr.com/65535/50040074442_be73a7d952_n.jpg",
    "id_album": "-1610342324",
    "description": "Nebula_560770",
    "title": "Nebula_560770",
    "link_img": "https://live.staticflickr.com/65535/50040074442_cafa578ff8_o.jpg",
    "id_image": "Nebula_560770",
    "count_view": 0
  },
  {
    "link_thumb": "https://live.staticflickr.com/65535/50039752418_9ba5f06753_n.jpg",
    "id_album": "779690680",
    "description": "Robot_412738",
    "title": "Robot_412738",
    "link_img": "https://live.staticflickr.com/65535/50039752418_21ebf8738c_o.jpg",
    "id_image": "Robot_412738",
    "count_view": 0
  },
  {
    "link_thumb": "https://live.staticflickr.com/65535/50038964798_38de2c19f3_n.jpg",
    "id_album": "-1964113117",
    "description": "City_88912",
    "title": "City_88912",
    "link_img": "https://live.staticflickr.com/65535/50038964798_9c78289ef4_o.jpg",
    "id_image": "City_88912",
    "count_view": 0
  },
  {
    "link_thumb": "https://live.staticflickr.com/65535/50039930952_692d89ccc8_n.jpg",
    "id_album": "1402713104",
    "description": "Landscape_257685",
    "title": "Landscape_257685",
    "link_img": "https://live.staticflickr.com/65535/50039930952_ac2cce2be4_o.jpg",
    "id_image": "Landscape_257685",
    "count_view": 0
  },
  {
    "link_thumb": "https://live.staticflickr.com/65535/50041011077_a35a159901_n.jpg",
    "id_album": "2130067313",
    "description": "Spaceship_745689",
    "title": "Spaceship_745689",
    "link_img": "https://live.staticflickr.com/65535/50041011077_888bc9c8a2_o.jpg",
    "id_image": "Spaceship_745689",
    "count_view": 0
  },
  {
    "link_thumb": "https://live.staticflickr.com/65535/50040672268_07bae52741_n.jpg",
    "id_album": "-1863373220",
    "description": "StarWars_811462",
    "title": "StarWars_811462",
    "link_img": "https://live.staticflickr.com/65535/50040672268_946d6588b7_o.jpg",
    "id_image": "StarWars_811462",
    "count_view": 0
  },
  {
    "link_thumb": "https://live.staticflickr.com/65535/50039644811_fce9ecfe0f_n.jpg",
    "id_album": "1204249541",
    "description": "Galaxy_585163",
    "title": "Galaxy_585163",
    "link_img": "https://live.staticflickr.com/65535/50039644811_3b740e6923_o.jpg",
    "id_image": "Galaxy_585163",
    "count_view": 0
  },
  {
    "link_thumb": "https://live.staticflickr.com/65535/50039883861_c67c218c7f_n.jpg",
    "id_album": "-1862561193",
    "description": "Other_280887",
    "title": "Other_280887",
    "link_img": "https://live.staticflickr.com/65535/50039883861_8f408f04c9_o.jpg",
    "id_image": "Other_280887",
    "count_view": 0
  },
  {
    "link_thumb": "https://live.staticflickr.com/65535/50040250261_09cb07f4e4_n.jpg",
    "id_album": "779690680",
    "description": "Robot_105332",
    "title": "Robot_105332",
    "link_img": "https://live.staticflickr.com/65535/50040250261_a35cca4f75_o.jpg",
    "id_image": "Robot_105332",
    "count_view": 0
  },
  {
    "link_thumb": "https://live.staticflickr.com/65535/50038810163_4fed36046e_n.jpg",
    "id_album": "869545341",
    "description": "Astronaut_565707",
    "title": "Astronaut_565707",
    "link_img": "https://live.staticflickr.com/65535/50038810163_446a8e2ddd_o.jpg",
    "id_image": "Astronaut_565707",
    "count_view": 0
  },
  {
    "link_thumb": "https://live.staticflickr.com/65535/50039289163_593ebacb59_n.jpg",
    "id_album": "-1610342324",
    "description": "Nebula_795960",
    "title": "Nebula_795960",
    "link_img": "https://live.staticflickr.com/65535/50039289163_0a7637de8b_o.jpg",
    "id_image": "Nebula_795960",
    "count_view": 0
  },
  {
    "link_thumb": "https://live.staticflickr.com/65535/50039357901_10896687e9_n.jpg",
    "id_album": "869545341",
    "description": "Astronaut_565690",
    "title": "Astronaut_565690",
    "link_img": "https://live.staticflickr.com/65535/50039357901_1d4d8bf517_o.jpg",
    "id_image": "Astronaut_565690",
    "count_view": 0
  },
  {
    "link_thumb": "https://live.staticflickr.com/65535/50039445756_bb6d3a724d_n.jpg",
    "id_album": "-1964113117",
    "description": "City_211072",
    "title": "City_211072",
    "link_img": "https://live.staticflickr.com/65535/50039445756_023e907ce7_o.jpg",
    "id_image": "City_211072",
    "count_view": 0
  },
  {
    "link_thumb": "https://live.staticflickr.com/65535/50039252061_36a97466e6_n.jpg",
    "id_album": "849020728",
    "description": "Alien_194013",
    "title": "Alien_194013",
    "link_img": "https://live.staticflickr.com/65535/50039252061_243d682a21_o.jpg",
    "id_image": "Alien_194013",
    "count_view": 0
  },
  {
    "link_thumb": "https://live.staticflickr.com/65535/50039778256_b8635cace2_n.jpg",
    "id_album": "-1610342324",
    "description": "Nebula_261298",
    "title": "Nebula_261298",
    "link_img": "https://live.staticflickr.com/65535/50039778256_e09c3666d1_o.jpg",
    "id_image": "Nebula_261298",
    "count_view": 0
  },
  {
    "link_thumb": "https://live.staticflickr.com/65535/50038879668_e28835008c_n.jpg",
    "id_album": "406431601",
    "description": "Building_958188",
    "title": "Building_958188",
    "link_img": "https://live.staticflickr.com/65535/50038879668_c00dc455fb_o.jpg",
    "id_image": "Building_958188",
    "count_view": 0
  },
  {
    "link_thumb": "https://live.staticflickr.com/65535/50039295466_7bdfb4c4c4_n.jpg",
    "id_album": "523598895",
    "description": "Artistic_123759",
    "title": "Artistic_123759",
    "link_img": "https://live.staticflickr.com/65535/50039295466_54c4df2a56_o.jpg",
    "id_image": "Artistic_123759",
    "count_view": 0
  },
  {
    "link_thumb": "https://live.staticflickr.com/65535/50039664387_8a5b6fb96d_n.jpg",
    "id_album": "1187037014",
    "description": "Battle_374437",
    "title": "Battle_374437",
    "link_img": "https://live.staticflickr.com/65535/50039664387_9b647ba555_o.jpg",
    "id_image": "Battle_374437",
    "count_view": 0
  },
  {
    "link_thumb": "https://live.staticflickr.com/65535/50041485151_ac84a4dd49_n.jpg",
    "id_album": "-1261420436",
    "description": "Warrior_712806",
    "title": "Warrior_712806",
    "link_img": "https://live.staticflickr.com/65535/50041485151_6bda33f0c0_o.jpg",
    "id_image": "Warrior_712806",
    "count_view": 0
  },
  {
    "link_thumb": "https://live.staticflickr.com/65535/50038839928_3331fe48cf_n.jpg",
    "id_album": "869545341",
    "description": "Astronaut_971385",
    "title": "Astronaut_971385",
    "link_img": "https://live.staticflickr.com/65535/50038839928_d46362994b_o.jpg",
    "id_image": "Astronaut_971385",
    "count_view": 0
  },
  {
    "link_thumb": "https://live.staticflickr.com/65535/50039508382_f3767a51f1_n.jpg",
    "id_album": "849020728",
    "description": "Alien_152001",
    "title": "Alien_152001",
    "link_img": "https://live.staticflickr.com/65535/50039508382_88ca33fe31_o.jpg",
    "id_image": "Alien_152001",
    "count_view": 0
  },
  {
    "link_thumb": "https://live.staticflickr.com/65535/50039601817_035d5485fa_n.jpg",
    "id_album": "523598895",
    "description": "Artistic_606866",
    "title": "Artistic_606866",
    "link_img": "https://live.staticflickr.com/65535/50039601817_1051a13ecc_o.jpg",
    "id_image": "Artistic_606866",
    "count_view": 0
  },
  {
    "link_thumb": "https://live.staticflickr.com/65535/50039752996_0fbee80138_n.jpg",
    "id_album": "416351698",
    "description": "Moon_113990",
    "title": "Moon_113990",
    "link_img": "https://live.staticflickr.com/65535/50039752996_424e0dfc11_o.jpg",
    "id_image": "Moon_113990",
    "count_view": 0
  },
  {
    "link_thumb": "https://live.staticflickr.com/65535/50039822786_a2d41b30d8_n.jpg",
    "id_album": "-1610342324",
    "description": "Nebula_687242",
    "title": "Nebula_687242",
    "link_img": "https://live.staticflickr.com/65535/50039822786_f5cf946704_o.jpg",
    "id_image": "Nebula_687242",
    "count_view": 0
  },
  {
    "link_thumb": "https://live.staticflickr.com/65535/50039994567_e4cf7ebd09_n.jpg",
    "id_album": "-1388385651",
    "description": "MilkyWay_153319",
    "title": "MilkyWay_153319",
    "link_img": "https://live.staticflickr.com/65535/50039994567_015966671f_o.jpg",
    "id_image": "MilkyWay_153319",
    "count_view": 0
  },
  {
    "link_thumb": "https://live.staticflickr.com/65535/50039398448_9dfb79c23e_n.jpg",
    "id_album": "395161030",
    "description": "Planet_397572",
    "title": "Planet_397572",
    "link_img": "https://live.staticflickr.com/65535/50039398448_83c49d40c1_o.jpg",
    "id_image": "Planet_397572",
    "count_view": 0
  },
  {
    "link_thumb": "https://live.staticflickr.com/65535/50039536351_306e8efd4b_n.jpg",
    "id_album": "894679094",
    "description": "Collision_148874",
    "title": "Collision_148874",
    "link_img": "https://live.staticflickr.com/65535/50039536351_b2e99b111a_o.jpg",
    "id_image": "Collision_148874",
    "count_view": 0
  },
  {
    "link_thumb": "https://live.staticflickr.com/65535/50040290611_16bcd724d2_n.jpg",
    "id_album": "779690680",
    "description": "Robot_328255",
    "title": "Robot_328255",
    "link_img": "https://live.staticflickr.com/65535/50040290611_45e3fc58a2_o.jpg",
    "id_image": "Robot_328255",
    "count_view": 0
  },
  {
    "link_thumb": "https://live.staticflickr.com/65535/50039491837_89371c0d2f_n.jpg",
    "id_album": "280884763",
    "description": "Abstract_286952",
    "title": "Abstract_286952",
    "link_img": "https://live.staticflickr.com/65535/50039491837_a201e18886_o.jpg",
    "id_image": "Abstract_286952",
    "count_view": 0
  },
  {
    "link_thumb": "https://live.staticflickr.com/65535/50038726178_cf5b828280_n.jpg",
    "id_album": "849020728",
    "description": "Alien_725219",
    "title": "Alien_725219",
    "link_img": "https://live.staticflickr.com/65535/50038726178_de8be8a59c_o.jpg",
    "id_image": "Alien_725219",
    "count_view": 0
  },
  {
    "link_thumb": "https://live.staticflickr.com/65535/50039808526_05da88f98d_n.jpg",
    "id_album": "-1610342324",
    "description": "Nebula_552350",
    "title": "Nebula_552350",
    "link_img": "https://live.staticflickr.com/65535/50039808526_6fb9f14188_o.jpg",
    "id_image": "Nebula_552350",
    "count_view": 0
  },
  {
    "link_thumb": "https://live.staticflickr.com/65535/50039892393_1d6b366433_n.jpg",
    "id_album": "779690680",
    "description": "Robot_959169",
    "title": "Robot_959169",
    "link_img": "https://live.staticflickr.com/65535/50039892393_69cd244856_o.jpg",
    "id_image": "Robot_959169",
    "count_view": 0
  },
  {
    "link_thumb": "https://live.staticflickr.com/65535/50039896548_4714021e95_n.jpg",
    "id_album": "779690680",
    "description": "Robot_972182",
    "title": "Robot_972182",
    "link_img": "https://live.staticflickr.com/65535/50039896548_3395e89afc_o.jpg",
    "id_image": "Robot_972182",
    "count_view": 0
  },
  {
    "link_thumb": "https://live.staticflickr.com/65535/50040033681_76bc6008dc_n.jpg",
    "id_album": "814701616",
    "description": "PlanetaryRing_419630",
    "title": "PlanetaryRing_419630",
    "link_img": "https://live.staticflickr.com/65535/50040033681_097eb6d3dd_o.jpg",
    "id_image": "PlanetaryRing_419630",
    "count_view": 0
  },
  {
    "link_thumb": "https://live.staticflickr.com/65535/50040688062_7d3993c58a_n.jpg",
    "id_album": "779690680",
    "description": "Robot_928584",
    "title": "Robot_928584",
    "link_img": "https://live.staticflickr.com/65535/50040688062_75ae354d5e_o.jpg",
    "id_image": "Robot_928584",
    "count_view": 0
  },
  {
    "link_thumb": "https://live.staticflickr.com/65535/50040552071_8dff6dc611_n.jpg",
    "id_album": "1613540653",
    "description": "Space_936378",
    "title": "Space_936378",
    "link_img": "https://live.staticflickr.com/65535/50040552071_bbc3356b43_o.jpg",
    "id_image": "Space_936378",
    "count_view": 0
  },
  {
    "link_thumb": "https://live.staticflickr.com/65535/50038744878_2bd7fe8e1b_n.jpg",
    "id_album": "523598895",
    "description": "Artistic_106343",
    "title": "Artistic_106343",
    "link_img": "https://live.staticflickr.com/65535/50038744878_1fffff8fd7_o.jpg",
    "id_image": "Artistic_106343",
    "count_view": 0
  },
  {
    "link_thumb": "https://live.staticflickr.com/65535/50039368496_d5b3d48fc7_n.jpg",
    "id_album": "869545341",
    "description": "Astronaut_833507",
    "title": "Astronaut_833507",
    "link_img": "https://live.staticflickr.com/65535/50039368496_dd097b3db4_o.jpg",
    "id_image": "Astronaut_833507",
    "count_view": 0
  },
  {
    "link_thumb": "https://live.staticflickr.com/65535/50038934653_544287118a_n.jpg",
    "id_album": "-1964113117",
    "description": "City_649176",
    "title": "City_649176",
    "link_img": "https://live.staticflickr.com/65535/50038934653_d003c25b98_o.jpg",
    "id_image": "City_649176",
    "count_view": 0
  },
  {
    "link_thumb": "https://live.staticflickr.com/65535/50040728587_ee062071db_n.jpg",
    "id_album": "1613540653",
    "description": "Space_112721",
    "title": "Space_112721",
    "link_img": "https://live.staticflickr.com/65535/50040728587_dd0847f4e4_o.jpg",
    "id_image": "Space_112721",
    "count_view": 0
  },
  {
    "link_thumb": "https://live.staticflickr.com/65535/50039238906_9d98d00270_n.jpg",
    "id_album": "-406145265",
    "description": "Aircraft_341283",
    "title": "Aircraft_341283",
    "link_img": "https://live.staticflickr.com/65535/50039238906_1f3d59a034_o.jpg",
    "id_image": "Aircraft_341283",
    "count_view": 0
  },
  {
    "link_thumb": "https://live.staticflickr.com/65535/50039753127_19b1b2ac99_n.jpg",
    "id_album": "-1964113117",
    "description": "City_709119",
    "title": "City_709119",
    "link_img": "https://live.staticflickr.com/65535/50039753127_f9daa96369_o.jpg",
    "id_image": "City_709119",
    "count_view": 0
  },
  {
    "link_thumb": "https://live.staticflickr.com/65535/50040934578_03ea8aa7f6_n.jpg",
    "id_album": "-1261420436",
    "description": "Warrior_81859",
    "title": "Warrior_81859",
    "link_img": "https://live.staticflickr.com/65535/50040934578_90ccc88a79_o.jpg",
    "id_image": "Warrior_81859",
    "count_view": 0
  },
  {
    "link_thumb": "https://live.staticflickr.com/65535/50039926978_c0fd6d5530_n.jpg",
    "id_album": "1613540653",
    "description": "Space_227839",
    "title": "Space_227839",
    "link_img": "https://live.staticflickr.com/65535/50039926978_6d01590ccd_o.jpg",
    "id_image": "Space_227839",
    "count_view": 0
  },
  {
    "link_thumb": "https://live.staticflickr.com/65535/50040729782_8146617089_n.jpg",
    "id_album": "1613540653",
    "description": "Space_114228",
    "title": "Space_114228",
    "link_img": "https://live.staticflickr.com/65535/50040729782_55eb0d59dd_o.jpg",
    "id_image": "Space_114228",
    "count_view": 0
  },
  {
    "link_thumb": "https://live.staticflickr.com/65535/50039721711_d47b2d461c_n.jpg",
    "id_album": "1402713104",
    "description": "Landscape_912378",
    "title": "Landscape_912378",
    "link_img": "https://live.staticflickr.com/65535/50039721711_7a33306519_o.jpg",
    "id_image": "Landscape_912378",
    "count_view": 0
  },
  {
    "link_thumb": "https://live.staticflickr.com/65535/50041221691_b92bb05451_n.jpg",
    "id_album": "-1863373220",
    "description": "StarWars_76383",
    "title": "StarWars_76383",
    "link_img": "https://live.staticflickr.com/65535/50041221691_6d0be3ec2d_o.jpg",
    "id_image": "StarWars_76383",
    "count_view": 0
  },
  {
    "link_thumb": "https://live.staticflickr.com/65535/50041621452_7ef21fcee8_n.jpg",
    "id_album": "-1177476763",
    "description": "Sunrise_229465",
    "title": "Sunrise_229465",
    "link_img": "https://live.staticflickr.com/65535/50041621452_9d1090bcb6_o.jpg",
    "id_image": "Sunrise_229465",
    "count_view": 0
  },
  {
    "link_thumb": "https://live.staticflickr.com/65535/50039138783_ae7bc6b10a_n.jpg",
    "id_album": "1402713104",
    "description": "Landscape_421187",
    "title": "Landscape_421187",
    "link_img": "https://live.staticflickr.com/65535/50039138783_dd1a4cf43c_o.jpg",
    "id_image": "Landscape_421187",
    "count_view": 0
  },
  {
    "link_thumb": "https://live.staticflickr.com/65535/50039788157_d43efe2408_n.jpg",
    "id_album": "-1964113117",
    "description": "City_955656",
    "title": "City_955656",
    "link_img": "https://live.staticflickr.com/65535/50039788157_30891660f7_o.jpg",
    "id_image": "City_955656",
    "count_view": 0
  },
  {
    "link_thumb": "https://live.staticflickr.com/65535/50040617028_0056f4f820_n.jpg",
    "id_album": "-1863373220",
    "description": "StarWars_376841",
    "title": "StarWars_376841",
    "link_img": "https://live.staticflickr.com/65535/50040617028_7359cf14de_o.jpg",
    "id_image": "StarWars_376841",
    "count_view": 0
  },
  {
    "link_thumb": "https://live.staticflickr.com/65535/50039377681_a847bdf211_n.jpg",
    "id_album": "869545341",
    "description": "Astronaut_914142",
    "title": "Astronaut_914142",
    "link_img": "https://live.staticflickr.com/65535/50039377681_977b4b17cc_o.jpg",
    "id_image": "Astronaut_914142",
    "count_view": 0
  },
  {
    "link_thumb": "https://live.staticflickr.com/65535/50040406481_1245bc9897_n.jpg",
    "id_album": "779690680",
    "description": "Robot_910938",
    "title": "Robot_910938",
    "link_img": "https://live.staticflickr.com/65535/50040406481_0e7163d791_o.jpg",
    "id_image": "Robot_910938",
    "count_view": 0
  },
  {
    "link_thumb": "https://live.staticflickr.com/65535/50040028212_f47078a9b6_n.jpg",
    "id_album": "-1610342324",
    "description": "Nebula_1773",
    "title": "Nebula_1773",
    "link_img": "https://live.staticflickr.com/65535/50040028212_ab7ab6955c_o.jpg",
    "id_image": "Nebula_1773",
    "count_view": 0
  },
  {
    "link_thumb": "https://live.staticflickr.com/65535/50040396191_7289506732_n.jpg",
    "id_album": "779690680",
    "description": "Robot_889657",
    "title": "Robot_889657",
    "link_img": "https://live.staticflickr.com/65535/50040396191_aa0860cd5c_o.jpg",
    "id_image": "Robot_889657",
    "count_view": 0
  },
  {
    "link_thumb": "https://live.staticflickr.com/65535/50039182418_6784a2a8e4_n.jpg",
    "id_album": "-1388385651",
    "description": "MilkyWay_482715",
    "title": "MilkyWay_482715",
    "link_img": "https://live.staticflickr.com/65535/50039182418_43b6a3103f_o.jpg",
    "id_image": "MilkyWay_482715",
    "count_view": 0
  },
  {
    "link_thumb": "https://live.staticflickr.com/65535/50040662547_b8028a9da8_n.jpg",
    "id_album": "779690680",
    "description": "Robot_898625",
    "title": "Robot_898625",
    "link_img": "https://live.staticflickr.com/65535/50040662547_7af1ffa7c2_o.jpg",
    "id_image": "Robot_898625",
    "count_view": 0
  },
  {
    "link_thumb": "https://live.staticflickr.com/65535/50040526212_e43c8d8195_n.jpg",
    "id_album": "779690680",
    "description": "Robot_188943",
    "title": "Robot_188943",
    "link_img": "https://live.staticflickr.com/65535/50040526212_1d43b3ddfe_o.jpg",
    "id_image": "Robot_188943",
    "count_view": 0
  },
  {
    "link_thumb": "https://live.staticflickr.com/65535/50039115513_525922db2b_n.jpg",
    "id_album": "1402713104",
    "description": "Landscape_203936",
    "title": "Landscape_203936",
    "link_img": "https://live.staticflickr.com/65535/50039115513_b93b5e785f_o.jpg",
    "id_image": "Landscape_203936",
    "count_view": 0
  },
  {
    "link_thumb": "https://live.staticflickr.com/65535/50039676743_b0caa5fd0f_n.jpg",
    "id_album": "-482547208",
    "description": "PostApocalyptic_877859",
    "title": "PostApocalyptic_877859",
    "link_img": "https://live.staticflickr.com/65535/50039676743_9ebcc09b98_o.jpg",
    "id_image": "PostApocalyptic_877859",
    "count_view": 0
  },
  {
    "link_thumb": "https://live.staticflickr.com/65535/50039913482_2936b9cc17_n.jpg",
    "id_album": "1204249541",
    "description": "Galaxy_683046",
    "title": "Galaxy_683046",
    "link_img": "https://live.staticflickr.com/65535/50039913482_7e28308e66_o.jpg",
    "id_image": "Galaxy_683046",
    "count_view": 0
  },
  {
    "link_thumb": "https://live.staticflickr.com/65535/50039965658_8385b85254_n.jpg",
    "id_album": "1613540653",
    "description": "Space_659468",
    "title": "Space_659468",
    "link_img": "https://live.staticflickr.com/65535/50039965658_f71722f6e0_o.jpg",
    "id_image": "Space_659468",
    "count_view": 0
  },
  {
    "link_thumb": "https://live.staticflickr.com/65535/50039833623_e38a696774_n.jpg",
    "id_album": "779690680",
    "description": "Robot_876300",
    "title": "Robot_876300",
    "link_img": "https://live.staticflickr.com/65535/50039833623_424333139f_o.jpg",
    "id_image": "Robot_876300",
    "count_view": 0
  },
  {
    "link_thumb": "https://live.staticflickr.com/65535/50039512691_d05eafa97d_n.jpg",
    "id_album": "-1964113117",
    "description": "City_884373",
    "title": "City_884373",
    "link_img": "https://live.staticflickr.com/65535/50039512691_d35fd2bf82_o.jpg",
    "id_image": "City_884373",
    "count_view": 0
  },
  {
    "link_thumb": "https://live.staticflickr.com/65535/50039655361_8228c654c8_n.jpg",
    "id_album": "1204249541",
    "description": "Galaxy_901328",
    "title": "Galaxy_901328",
    "link_img": "https://live.staticflickr.com/65535/50039655361_8791b22808_o.jpg",
    "id_image": "Galaxy_901328",
    "count_view": 0
  },
  {
    "link_thumb": "https://live.staticflickr.com/65535/50040607452_5e70fe2392_n.jpg",
    "id_album": "779690680",
    "description": "Robot_602295",
    "title": "Robot_602295",
    "link_img": "https://live.staticflickr.com/65535/50040607452_813059482e_o.jpg",
    "id_image": "Robot_602295",
    "count_view": 0
  },
  {
    "link_thumb": "https://live.staticflickr.com/65535/50039276221_869b666fe1_n.jpg",
    "id_album": "849020728",
    "description": "Alien_907089",
    "title": "Alien_907089",
    "link_img": "https://live.staticflickr.com/65535/50039276221_d85b50a5f7_o.jpg",
    "id_image": "Alien_907089",
    "count_view": 0
  },
  {
    "link_thumb": "https://live.staticflickr.com/65535/50040544336_6e298b19e4_n.jpg",
    "id_album": "1613540653",
    "description": "Space_822482",
    "title": "Space_822482",
    "link_img": "https://live.staticflickr.com/65535/50040544336_0a2c07a8ca_o.jpg",
    "id_image": "Space_822482",
    "count_view": 0
  },
  {
    "link_thumb": "https://live.staticflickr.com/65535/50039646867_fd5082eae5_n.jpg",
    "id_album": "869545341",
    "description": "Astronaut_957347",
    "title": "Astronaut_957347",
    "link_img": "https://live.staticflickr.com/65535/50039646867_27999c2455_o.jpg",
    "id_image": "Astronaut_957347",
    "count_view": 0
  },
  {
    "link_thumb": "https://live.staticflickr.com/65535/50038898548_8bda79f26a_n.jpg",
    "id_album": "-1964113117",
    "description": "City_214317",
    "title": "City_214317",
    "link_img": "https://live.staticflickr.com/65535/50038898548_b078064e7f_o.jpg",
    "id_image": "City_214317",
    "count_view": 0
  },
  {
    "link_thumb": "https://live.staticflickr.com/65535/50038948558_5b85134c00_n.jpg",
    "id_album": "-1964113117",
    "description": "City_782596",
    "title": "City_782596",
    "link_img": "https://live.staticflickr.com/65535/50038948558_481178fece_o.jpg",
    "id_image": "City_782596",
    "count_view": 0
  },
  {
    "link_thumb": "https://live.staticflickr.com/65535/50039114988_e17c782d9b_n.jpg",
    "id_album": "1402713104",
    "description": "Landscape_189233",
    "title": "Landscape_189233",
    "link_img": "https://live.staticflickr.com/65535/50039114988_61bf52bf4e_o.jpg",
    "id_image": "Landscape_189233",
    "count_view": 0
  },
  {
    "link_thumb": "https://live.staticflickr.com/65535/50040030201_d3508b8cc9_n.jpg",
    "id_album": "814701616",
    "description": "PlanetaryRing_361107",
    "title": "PlanetaryRing_361107",
    "link_img": "https://live.staticflickr.com/65535/50040030201_55729dd5b0_o.jpg",
    "id_image": "PlanetaryRing_361107",
    "count_view": 0
  },
  {
    "link_thumb": "https://live.staticflickr.com/65535/50038699178_11ec2631bc_n.jpg",
    "id_album": "849020728",
    "description": "Alien_152631",
    "title": "Alien_152631",
    "link_img": "https://live.staticflickr.com/65535/50038699178_a8eedc5aa9_o.jpg",
    "id_image": "Alien_152631",
    "count_view": 0
  },
  {
    "link_thumb": "https://live.staticflickr.com/65535/50040044377_2eef36a06b_n.jpg",
    "id_album": "-1610342324",
    "description": "Nebula_280749",
    "title": "Nebula_280749",
    "link_img": "https://live.staticflickr.com/65535/50040044377_d5afaaaf11_o.jpg",
    "id_image": "Nebula_280749",
    "count_view": 0
  },
  {
    "link_thumb": "https://live.staticflickr.com/65535/50039607787_72c077473d_n.jpg",
    "id_album": "523598895",
    "description": "Artistic_881461",
    "title": "Artistic_881461",
    "link_img": "https://live.staticflickr.com/65535/50039607787_206e2d2c4d_o.jpg",
    "id_image": "Artistic_881461",
    "count_view": 0
  },
  {
    "link_thumb": "https://live.staticflickr.com/65535/50040729763_a8e6135f0a_n.jpg",
    "id_album": "-1587696329",
    "description": "Stars_957400",
    "title": "Stars_957400",
    "link_img": "https://live.staticflickr.com/65535/50040729763_6305470c18_o.jpg",
    "id_image": "Stars_957400",
    "count_view": 0
  },
  {
    "link_thumb": "https://live.staticflickr.com/65535/50040649557_92b362b9a3_n.jpg",
    "id_album": "779690680",
    "description": "Robot_874039",
    "title": "Robot_874039",
    "link_img": "https://live.staticflickr.com/65535/50040649557_69e86bc9a4_o.jpg",
    "id_image": "Robot_874039",
    "count_view": 0
  },
  {
    "link_thumb": "https://live.staticflickr.com/65535/50039857658_93a43e64a8_n.jpg",
    "id_album": "779690680",
    "description": "Robot_914418",
    "title": "Robot_914418",
    "link_img": "https://live.staticflickr.com/65535/50039857658_33a1bef088_o.jpg",
    "id_image": "Robot_914418",
    "count_view": 0
  },
  {
    "link_thumb": "https://live.staticflickr.com/65535/50040432426_738d331010_n.jpg",
    "id_album": "779690680",
    "description": "Robot_936221",
    "title": "Robot_936221",
    "link_img": "https://live.staticflickr.com/65535/50040432426_79b9c0838f_o.jpg",
    "id_image": "Robot_936221",
    "count_view": 0
  },
  {
    "link_thumb": "https://live.staticflickr.com/65535/50039742542_870655067e_n.jpg",
    "id_album": "-1964113117",
    "description": "City_587717",
    "title": "City_587717",
    "link_img": "https://live.staticflickr.com/65535/50039742542_e942f5ee32_o.jpg",
    "id_image": "City_587717",
    "count_view": 0
  },
  {
    "link_thumb": "https://live.staticflickr.com/65535/50039643566_7d2b1d59f3_n.jpg",
    "id_album": "1204249541",
    "description": "Galaxy_560772",
    "title": "Galaxy_560772",
    "link_img": "https://live.staticflickr.com/65535/50039643566_b04fbb066b_o.jpg",
    "id_image": "Galaxy_560772",
    "count_view": 0
  },
  {
    "link_thumb": "https://live.staticflickr.com/65535/50040247571_d5a6a49a25_n.jpg",
    "id_album": "779690680",
    "description": "Robot_1002798",
    "title": "Robot_1002798",
    "link_img": "https://live.staticflickr.com/65535/50040247571_baf5c2df49_o.jpg",
    "id_image": "Robot_1002798",
    "count_view": 0
  },
  {
    "link_thumb": "https://live.staticflickr.com/65535/50040511217_c79ab432c7_n.jpg",
    "id_album": "-839602625",
    "description": "Predator_980525",
    "title": "Predator_980525",
    "link_img": "https://live.staticflickr.com/65535/50040511217_769e1b9fac_o.jpg",
    "id_image": "Predator_980525",
    "count_view": 0
  },
  {
    "link_thumb": "https://live.staticflickr.com/65535/50041607907_2fcbc32cc3_n.jpg",
    "id_album": "-221671103",
    "description": "Sun_286806",
    "title": "Sun_286806",
    "link_img": "https://live.staticflickr.com/65535/50041607907_451be4c970_o.jpg",
    "id_image": "Sun_286806",
    "count_view": 0
  },
  {
    "link_thumb": "https://live.staticflickr.com/65535/50041700552_815a0f6826_n.jpg",
    "id_album": "-1261420436",
    "description": "Warrior_238424",
    "title": "Warrior_238424",
    "link_img": "https://live.staticflickr.com/65535/50041700552_cf751f55bb_o.jpg",
    "id_image": "Warrior_238424",
    "count_view": 0
  },
  {
    "link_thumb": "https://live.staticflickr.com/65535/50039542846_e0226a4ac6_n.jpg",
    "id_album": "894679094",
    "description": "Collision_681631",
    "title": "Collision_681631",
    "link_img": "https://live.staticflickr.com/65535/50039542846_58d7a93684_o.jpg",
    "id_image": "Collision_681631",
    "count_view": 0
  },
  {
    "link_thumb": "https://live.staticflickr.com/65535/50040680277_d6a7581ab1_n.jpg",
    "id_album": "779690680",
    "description": "Robot_918800",
    "title": "Robot_918800",
    "link_img": "https://live.staticflickr.com/65535/50040680277_5e9144c39d_o.jpg",
    "id_image": "Robot_918800",
    "count_view": 0
  },
  {
    "link_thumb": "https://live.staticflickr.com/65535/50041649862_527b2df2ce_n.jpg",
    "id_album": "2020068132",
    "description": "Vehicle_318705",
    "title": "Vehicle_318705",
    "link_img": "https://live.staticflickr.com/65535/50041649862_20534cd3fd_o.jpg",
    "id_image": "Vehicle_318705",
    "count_view": 0
  },
  {
    "link_thumb": "https://live.staticflickr.com/65535/50041841827_b36a4050fa_n.jpg",
    "id_album": "-1675918237",
    "description": "WomenWarrior_554347",
    "title": "WomenWarrior_554347",
    "link_img": "https://live.staticflickr.com/65535/50041841827_44cd6870a1_o.jpg",
    "id_image": "WomenWarrior_554347",
    "count_view": 0
  },
  {
    "link_thumb": "https://live.staticflickr.com/65535/50039719782_0e57fa39b5_n.jpg",
    "id_album": "-1964113117",
    "description": "City_273304",
    "title": "City_273304",
    "link_img": "https://live.staticflickr.com/65535/50039719782_65eddb91e4_o.jpg",
    "id_image": "City_273304",
    "count_view": 0
  },
  {
    "link_thumb": "https://live.staticflickr.com/65535/50039869392_11dafa62f8_n.jpg",
    "id_album": "651930207",
    "description": "Explosion_108113",
    "title": "Explosion_108113",
    "link_img": "https://live.staticflickr.com/65535/50039869392_32bb8a8c4a_o.jpg",
    "id_image": "Explosion_108113",
    "count_view": 0
  },
  {
    "link_thumb": "https://live.staticflickr.com/65535/50040695962_f522f31bae_n.jpg",
    "id_album": "779690680",
    "description": "Robot_934615",
    "title": "Robot_934615",
    "link_img": "https://live.staticflickr.com/65535/50040695962_7d5a785f39_o.jpg",
    "id_image": "Robot_934615",
    "count_view": 0
  },
  {
    "link_thumb": "https://live.staticflickr.com/65535/50040146337_df9a7a2c97_n.jpg",
    "id_album": "-1862561193",
    "description": "Other_269524",
    "title": "Other_269524",
    "link_img": "https://live.staticflickr.com/65535/50040146337_c0d8d588f8_o.jpg",
    "id_image": "Other_269524",
    "count_view": 0
  },
  {
    "link_thumb": "https://live.staticflickr.com/65535/50039077973_ea23f8e747_n.jpg",
    "id_album": "1204249541",
    "description": "Galaxy_223111",
    "title": "Galaxy_223111",
    "link_img": "https://live.staticflickr.com/65535/50039077973_9f2642f458_o.jpg",
    "id_image": "Galaxy_223111",
    "count_view": 0
  },
  {
    "link_thumb": "https://live.staticflickr.com/65535/50038917188_1870a05359_n.jpg",
    "id_album": "-1964113117",
    "description": "City_356713",
    "title": "City_356713",
    "link_img": "https://live.staticflickr.com/65535/50038917188_a9dba55148_o.jpg",
    "id_image": "City_356713",
    "count_view": 0
  },
  {
    "link_thumb": "https://live.staticflickr.com/65535/50039744892_5d5b2226cb_n.jpg",
    "id_album": "-1964113117",
    "description": "City_64029",
    "title": "City_64029",
    "link_img": "https://live.staticflickr.com/65535/50039744892_853a84e044_o.jpg",
    "id_image": "City_64029",
    "count_view": 0
  },
  {
    "link_thumb": "https://live.staticflickr.com/65535/50039843246_9ece353449_n.jpg",
    "id_album": "-1610342324",
    "description": "Nebula_842164",
    "title": "Nebula_842164",
    "link_img": "https://live.staticflickr.com/65535/50039843246_cac8c9c0c9_o.jpg",
    "id_image": "Nebula_842164",
    "count_view": 0
  },
  {
    "link_thumb": "https://live.staticflickr.com/65535/50039947592_2ce8e61052_n.jpg",
    "id_album": "1402713104",
    "description": "Landscape_375742",
    "title": "Landscape_375742",
    "link_img": "https://live.staticflickr.com/65535/50039947592_911a3a5f20_o.jpg",
    "id_image": "Landscape_375742",
    "count_view": 0
  },
  {
    "link_thumb": "https://live.staticflickr.com/65535/50039536421_ff467119af_n.jpg",
    "id_album": "894679094",
    "description": "Collision_152137",
    "title": "Collision_152137",
    "link_img": "https://live.staticflickr.com/65535/50039536421_16f4842c2e_o.jpg",
    "id_image": "Collision_152137",
    "count_view": 0
  },
  {
    "link_thumb": "https://live.staticflickr.com/65535/50039290251_e2fecbde54_n.jpg",
    "id_album": "-419633230",
    "description": "Apocalyptic_959087",
    "title": "Apocalyptic_959087",
    "link_img": "https://live.staticflickr.com/65535/50039290251_71fffb9a87_o.jpg",
    "id_image": "Apocalyptic_959087",
    "count_view": 0
  },
  {
    "link_thumb": "https://live.staticflickr.com/65535/50039578642_8ffe44b1af_n.jpg",
    "id_album": "523598895",
    "description": "Artistic_221032",
    "title": "Artistic_221032",
    "link_img": "https://live.staticflickr.com/65535/50039578642_3f4fe0a470_o.jpg",
    "id_image": "Artistic_221032",
    "count_view": 0
  },
  {
    "link_thumb": "https://live.staticflickr.com/65535/50040205481_132e3d57e1_n.jpg",
    "id_album": "-482547208",
    "description": "PostApocalyptic_314445",
    "title": "PostApocalyptic_314445",
    "link_img": "https://live.staticflickr.com/65535/50040205481_99cd6ecaef_o.jpg",
    "id_image": "PostApocalyptic_314445",
    "count_view": 0
  },
  {
    "link_thumb": "https://live.staticflickr.com/65535/50039387471_f69b3bf492_n.jpg",
    "id_album": "869545341",
    "description": "Astronaut_969795",
    "title": "Astronaut_969795",
    "link_img": "https://live.staticflickr.com/65535/50039387471_f1234048e0_o.jpg",
    "id_image": "Astronaut_969795",
    "count_view": 0
  },
  {
    "link_thumb": "https://live.staticflickr.com/65535/50039081448_72d0fbc1e0_n.jpg",
    "id_album": "1204249541",
    "description": "Galaxy_315004",
    "title": "Galaxy_315004",
    "link_img": "https://live.staticflickr.com/65535/50039081448_66ff88313b_o.jpg",
    "id_image": "Galaxy_315004",
    "count_view": 0
  },
  {
    "link_thumb": "https://live.staticflickr.com/65535/50038865963_515c8bd23c_n.jpg",
    "id_album": "-1780971522",
    "description": "Biohazard_458261",
    "title": "Biohazard_458261",
    "link_img": "https://live.staticflickr.com/65535/50038865963_d6d01657e7_o.jpg",
    "id_image": "Biohazard_458261",
    "count_view": 0
  },
  {
    "link_thumb": "https://live.staticflickr.com/65535/50040282527_58881545f6_n.jpg",
    "id_album": "814701616",
    "description": "PlanetaryRing_153719",
    "title": "PlanetaryRing_153719",
    "link_img": "https://live.staticflickr.com/65535/50040282527_a42ebaff2b_o.jpg",
    "id_image": "PlanetaryRing_153719",
    "count_view": 0
  },
  {
    "link_thumb": "https://live.staticflickr.com/65535/50039495962_3ed909d434_n.jpg",
    "id_album": "-406145265",
    "description": "Aircraft_112473",
    "title": "Aircraft_112473",
    "link_img": "https://live.staticflickr.com/65535/50039495962_f531135e71_o.jpg",
    "id_image": "Aircraft_112473",
    "count_view": 0
  },
  {
    "link_thumb": "https://live.staticflickr.com/65535/50039790642_dedacd3f9c_n.jpg",
    "id_album": "-1964113117",
    "description": "City_969714",
    "title": "City_969714",
    "link_img": "https://live.staticflickr.com/65535/50039790642_7ee4ce656c_o.jpg",
    "id_image": "City_969714",
    "count_view": 0
  },
  {
    "link_thumb": "https://live.staticflickr.com/65535/50039578337_1af17a9b88_n.jpg",
    "id_album": "523598895",
    "description": "Artistic_220815",
    "title": "Artistic_220815",
    "link_img": "https://live.staticflickr.com/65535/50039578337_a9f34f449d_o.jpg",
    "id_image": "Artistic_220815",
    "count_view": 0
  },
  {
    "link_thumb": "https://live.staticflickr.com/65535/50040285936_9058bfd93c_n.jpg",
    "id_album": "779690680",
    "description": "Robot_309505",
    "title": "Robot_309505",
    "link_img": "https://live.staticflickr.com/65535/50040285936_dc07e6dcd2_o.jpg",
    "id_image": "Robot_309505",
    "count_view": 0
  },
  {
    "link_thumb": "https://live.staticflickr.com/65535/50038738103_2cf552aa28_n.jpg",
    "id_album": "-419633230",
    "description": "Apocalyptic_678101",
    "title": "Apocalyptic_678101",
    "link_img": "https://live.staticflickr.com/65535/50038738103_94aa5ba697_o.jpg",
    "id_image": "Apocalyptic_678101",
    "count_view": 0
  },
  {
    "link_thumb": "https://live.staticflickr.com/65535/50040480341_2e0da3644e_n.jpg",
    "id_album": "1613540653",
    "description": "Space_217630",
    "title": "Space_217630",
    "link_img": "https://live.staticflickr.com/65535/50040480341_81dcf91143_o.jpg",
    "id_image": "Space_217630",
    "count_view": 0
  },
  {
    "link_thumb": "https://live.staticflickr.com/65535/50040532661_f77d812c8f_n.jpg",
    "id_album": "1613540653",
    "description": "Space_70937",
    "title": "Space_70937",
    "link_img": "https://live.staticflickr.com/65535/50040532661_1a1a217ba1_o.jpg",
    "id_image": "Space_70937",
    "count_view": 0
  },
  {
    "link_thumb": "https://live.staticflickr.com/65535/50039376218_db17358580_n.jpg",
    "id_album": "395161030",
    "description": "Planet_287061",
    "title": "Planet_287061",
    "link_img": "https://live.staticflickr.com/65535/50039376218_1ba7b6eb58_o.jpg",
    "id_image": "Planet_287061",
    "count_view": 0
  },
  {
    "link_thumb": "https://live.staticflickr.com/65535/50041002208_5e98d4a6e6_n.jpg",
    "id_album": "-1675918237",
    "description": "WomenWarrior_152278",
    "title": "WomenWarrior_152278",
    "link_img": "https://live.staticflickr.com/65535/50041002208_4f0d182df0_o.jpg",
    "id_image": "WomenWarrior_152278",
    "count_view": 0
  },
  {
    "link_thumb": "https://live.staticflickr.com/65535/50038771398_0c962028b9_n.jpg",
    "id_album": "523598895",
    "description": "Artistic_225506",
    "title": "Artistic_225506",
    "link_img": "https://live.staticflickr.com/65535/50038771398_f9025aa702_o.jpg",
    "id_image": "Artistic_225506",
    "count_view": 0
  },
  {
    "link_thumb": "https://live.staticflickr.com/65535/50039628292_5a142d5267_n.jpg",
    "id_album": "869545341",
    "description": "Astronaut_747736",
    "title": "Astronaut_747736",
    "link_img": "https://live.staticflickr.com/65535/50039628292_95ceeb1750_o.jpg",
    "id_image": "Astronaut_747736",
    "count_view": 0
  },
  {
    "link_thumb": "https://live.staticflickr.com/65535/50039516732_b85e06fdee_n.jpg",
    "id_album": "849020728",
    "description": "Alien_213653",
    "title": "Alien_213653",
    "link_img": "https://live.staticflickr.com/65535/50039516732_07513ccacb_o.jpg",
    "id_image": "Alien_213653",
    "count_view": 0
  },
  {
    "link_thumb": "https://live.staticflickr.com/65535/50039641278_38554aeb1c_n.jpg",
    "id_album": "-482547208",
    "description": "PostApocalyptic_17680",
    "title": "PostApocalyptic_17680",
    "link_img": "https://live.staticflickr.com/65535/50039641278_944245bc1e_o.jpg",
    "id_image": "PostApocalyptic_17680",
    "count_view": 0
  },
  {
    "link_thumb": "https://live.staticflickr.com/65535/50040689237_95d38d605a_n.jpg",
    "id_album": "779690680",
    "description": "Robot_928637",
    "title": "Robot_928637",
    "link_img": "https://live.staticflickr.com/65535/50040689237_5548c8ea02_o.jpg",
    "id_image": "Robot_928637",
    "count_view": 0
  },
  {
    "link_thumb": "https://live.staticflickr.com/65535/50039253493_ee4134c08c_n.jpg",
    "id_album": "-1610342324",
    "description": "Nebula_507384",
    "title": "Nebula_507384",
    "link_img": "https://live.staticflickr.com/65535/50039253493_aa6fc09bc0_o.jpg",
    "id_image": "Nebula_507384",
    "count_view": 0
  },
  {
    "link_thumb": "https://live.staticflickr.com/65535/50039097423_df5049442b_n.jpg",
    "id_album": "1204249541",
    "description": "Galaxy_596221",
    "title": "Galaxy_596221",
    "link_img": "https://live.staticflickr.com/65535/50039097423_45874695fb_o.jpg",
    "id_image": "Galaxy_596221",
    "count_view": 0
  },
  {
    "link_thumb": "https://live.staticflickr.com/65535/50041422771_1b607aaf7a_n.jpg",
    "id_album": "2020068132",
    "description": "Vehicle_955936",
    "title": "Vehicle_955936",
    "link_img": "https://live.staticflickr.com/65535/50041422771_389dd09114_o.jpg",
    "id_image": "Vehicle_955936",
    "count_view": 0
  },
  {
    "link_thumb": "https://live.staticflickr.com/65535/50040524608_2074ca5324_n.jpg",
    "id_album": "-1863373220",
    "description": "StarWars_1006252",
    "title": "StarWars_1006252",
    "link_img": "https://live.staticflickr.com/65535/50040524608_7a21ce260d_o.jpg",
    "id_image": "StarWars_1006252",
    "count_view": 0
  },
  {
    "link_thumb": "https://live.staticflickr.com/65535/50038812548_0bc4ea5655_n.jpg",
    "id_album": "869545341",
    "description": "Astronaut_602157",
    "title": "Astronaut_602157",
    "link_img": "https://live.staticflickr.com/65535/50038812548_e353cb0c45_o.jpg",
    "id_image": "Astronaut_602157",
    "count_view": 0
  },
  {
    "link_thumb": "https://live.staticflickr.com/65535/50039645323_c4bd850fb6_n.jpg",
    "id_album": "-482547208",
    "description": "PostApocalyptic_231171",
    "title": "PostApocalyptic_231171",
    "link_img": "https://live.staticflickr.com/65535/50039645323_49c25946ec_o.jpg",
    "id_image": "PostApocalyptic_231171",
    "count_view": 0
  },
  {
    "link_thumb": "https://live.staticflickr.com/65535/50041507847_77741b97ed_n.jpg",
    "id_album": "-1863373220",
    "description": "StarWars_949512",
    "title": "StarWars_949512",
    "link_img": "https://live.staticflickr.com/65535/50041507847_468e066bdc_o.jpg",
    "id_image": "StarWars_949512",
    "count_view": 0
  },
  {
    "link_thumb": "https://live.staticflickr.com/65535/50039861923_c3a23c9fd2_n.jpg",
    "id_album": "779690680",
    "description": "Robot_918799",
    "title": "Robot_918799",
    "link_img": "https://live.staticflickr.com/65535/50039861923_d5f7404fc9_o.jpg",
    "id_image": "Robot_918799",
    "count_view": 0
  },
  {
    "link_thumb": "https://live.staticflickr.com/65535/50040377761_75cdcb2268_n.jpg",
    "id_album": "779690680",
    "description": "Robot_867419",
    "title": "Robot_867419",
    "link_img": "https://live.staticflickr.com/65535/50040377761_9f8a7a6e10_o.jpg",
    "id_image": "Robot_867419",
    "count_view": 0
  },
  {
    "link_thumb": "https://live.staticflickr.com/65535/50039850246_b8404210aa_n.jpg",
    "id_album": "-1610342324",
    "description": "Nebula_891193",
    "title": "Nebula_891193",
    "link_img": "https://live.staticflickr.com/65535/50039850246_b42f41ebeb_o.jpg",
    "id_image": "Nebula_891193",
    "count_view": 0
  },
  {
    "link_thumb": "https://live.staticflickr.com/65535/50038727493_5af9d06ca1_n.jpg",
    "id_album": "849020728",
    "description": "Alien_864723",
    "title": "Alien_864723",
    "link_img": "https://live.staticflickr.com/65535/50038727493_f0976ddcbc_o.jpg",
    "id_image": "Alien_864723",
    "count_view": 0
  },
  {
    "link_thumb": "https://live.staticflickr.com/65535/50039485676_549583b5c4_n.jpg",
    "id_album": "-1964113117",
    "description": "City_673591",
    "title": "City_673591",
    "link_img": "https://live.staticflickr.com/65535/50039485676_750a4ef4af_o.jpg",
    "id_image": "City_673591",
    "count_view": 0
  },
  {
    "link_thumb": "https://live.staticflickr.com/65535/50039790502_50548e0477_n.jpg",
    "id_album": "-1964113117",
    "description": "City_968741",
    "title": "City_968741",
    "link_img": "https://live.staticflickr.com/65535/50039790502_57b95a9c9a_o.jpg",
    "id_image": "City_968741",
    "count_view": 0
  },
  {
    "link_thumb": "https://live.staticflickr.com/65535/50039843838_f5613b123a_n.jpg",
    "id_album": "779690680",
    "description": "Robot_894431",
    "title": "Robot_894431",
    "link_img": "https://live.staticflickr.com/65535/50039843838_4eb9872abf_o.jpg",
    "id_image": "Robot_894431",
    "count_view": 0
  },
  {
    "link_thumb": "https://live.staticflickr.com/65535/50040118951_86e19350a0_n.jpg",
    "id_album": "-1102314093",
    "description": "Planets_482225",
    "title": "Planets_482225",
    "link_img": "https://live.staticflickr.com/65535/50040118951_4dfdc549da_o.jpg",
    "id_image": "Planets_482225",
    "count_view": 0
  },
  {
    "link_thumb": "https://live.staticflickr.com/65535/50039772013_14b6343bbd_n.jpg",
    "id_album": "779690680",
    "description": "Robot_489387",
    "title": "Robot_489387",
    "link_img": "https://live.staticflickr.com/65535/50039772013_84b9ca787c_o.jpg",
    "id_image": "Robot_489387",
    "count_view": 0
  },
  {
    "link_thumb": "https://live.staticflickr.com/65535/50039287128_d5e4f3bb44_n.jpg",
    "id_album": "-1610342324",
    "description": "Nebula_785842",
    "title": "Nebula_785842",
    "link_img": "https://live.staticflickr.com/65535/50039287128_83cb6bf809_o.jpg",
    "id_image": "Nebula_785842",
    "count_view": 0
  },
  {
    "link_thumb": "https://live.staticflickr.com/65535/50039642291_0042308154_n.jpg",
    "id_album": "1204249541",
    "description": "Galaxy_550128",
    "title": "Galaxy_550128",
    "link_img": "https://live.staticflickr.com/65535/50039642291_05a56058a5_o.jpg",
    "id_image": "Galaxy_550128",
    "count_view": 0
  },
  {
    "link_thumb": "https://live.staticflickr.com/65535/50041513202_bd3ba83950_n.jpg",
    "id_album": "-1863373220",
    "description": "StarWars_980562",
    "title": "StarWars_980562",
    "link_img": "https://live.staticflickr.com/65535/50041513202_48cc296dcf_o.jpg",
    "id_image": "StarWars_980562",
    "count_view": 0
  },
  {
    "link_thumb": "https://live.staticflickr.com/65535/50039639318_5636dbb9ec_n.jpg",
    "id_album": "-482547208",
    "description": "PostApocalyptic_153506",
    "title": "PostApocalyptic_153506",
    "link_img": "https://live.staticflickr.com/65535/50039639318_13f751e74e_o.jpg",
    "id_image": "PostApocalyptic_153506",
    "count_view": 0
  },
  {
    "link_thumb": "https://live.staticflickr.com/65535/50039006903_d12e58519c_n.jpg",
    "id_album": "-437872736",
    "description": "Creature_387851",
    "title": "Creature_387851",
    "link_img": "https://live.staticflickr.com/65535/50039006903_1e00b5046a_o.jpg",
    "id_image": "Creature_387851",
    "count_view": 0
  },
  {
    "link_thumb": "https://live.staticflickr.com/65535/50039829477_25f147e123_n.jpg",
    "id_album": "-1372247677",
    "description": "Cyberpunk_931367",
    "title": "Cyberpunk_931367",
    "link_img": "https://live.staticflickr.com/65535/50039829477_02aa12d727_o.jpg",
    "id_image": "Cyberpunk_931367",
    "count_view": 0
  },
  {
    "link_thumb": "https://live.staticflickr.com/65535/50039102288_f3dd5ae90d_n.jpg",
    "id_album": "1204249541",
    "description": "Galaxy_719905",
    "title": "Galaxy_719905",
    "link_img": "https://live.staticflickr.com/65535/50039102288_84954f2fb1_o.jpg",
    "id_image": "Galaxy_719905",
    "count_view": 0
  },
  {
    "link_thumb": "https://live.staticflickr.com/65535/50041013032_4e88baa5d5_n.jpg",
    "id_album": "2130067313",
    "description": "Spaceship_79162",
    "title": "Spaceship_79162",
    "link_img": "https://live.staticflickr.com/65535/50041013032_88dbcf7208_o.jpg",
    "id_image": "Spaceship_79162",
    "count_view": 0
  },
  {
    "link_thumb": "https://live.staticflickr.com/65535/50039548253_2d175c5921_n.jpg",
    "id_album": "-1102314093",
    "description": "Planets_361692",
    "title": "Planets_361692",
    "link_img": "https://live.staticflickr.com/65535/50039548253_a3c4f19015_o.jpg",
    "id_image": "Planets_361692",
    "count_view": 0
  },
  {
    "link_thumb": "https://live.staticflickr.com/65535/50039934703_281e3199a1_n.jpg",
    "id_album": "1613540653",
    "description": "Space_294956",
    "title": "Space_294956",
    "link_img": "https://live.staticflickr.com/65535/50039934703_69f0662ac3_o.jpg",
    "id_image": "Space_294956",
    "count_view": 0
  },
  {
    "link_thumb": "https://live.staticflickr.com/65535/50040000243_202e6c2300_n.jpg",
    "id_album": "1613540653",
    "description": "Space_957482",
    "title": "Space_957482",
    "link_img": "https://live.staticflickr.com/65535/50040000243_7051954d03_o.jpg",
    "id_image": "Space_957482",
    "count_view": 0
  },
  {
    "link_thumb": "https://live.staticflickr.com/65535/50039524162_2d979546ec_n.jpg",
    "id_album": "849020728",
    "description": "Alien_393630",
    "title": "Alien_393630",
    "link_img": "https://live.staticflickr.com/65535/50039524162_087d8bb5b0_o.jpg",
    "id_image": "Alien_393630",
    "count_view": 0
  },
  {
    "link_thumb": "https://live.staticflickr.com/65535/50039267331_48d6a2da4c_n.jpg",
    "id_album": "849020728",
    "description": "Alien_484817",
    "title": "Alien_484817",
    "link_img": "https://live.staticflickr.com/65535/50039267331_88c8da3768_o.jpg",
    "id_image": "Alien_484817",
    "count_view": 0
  },
  {
    "link_thumb": "https://live.staticflickr.com/65535/50039543273_82d2ecb379_n.jpg",
    "id_album": "-1102314093",
    "description": "Planets_352185",
    "title": "Planets_352185",
    "link_img": "https://live.staticflickr.com/65535/50039543273_d75604292c_o.jpg",
    "id_image": "Planets_352185",
    "count_view": 0
  },
  {
    "link_thumb": "https://live.staticflickr.com/65535/50039476911_d21ca10a08_n.jpg",
    "id_album": "-1964113117",
    "description": "City_542529",
    "title": "City_542529",
    "link_img": "https://live.staticflickr.com/65535/50039476911_928efa3534_o.jpg",
    "id_image": "City_542529",
    "count_view": 0
  },
  {
    "link_thumb": "https://live.staticflickr.com/65535/50039250181_66e483f09a_n.jpg",
    "id_album": "849020728",
    "description": "Alien_181504",
    "title": "Alien_181504",
    "link_img": "https://live.staticflickr.com/65535/50039250181_d1c59bd2bd_o.jpg",
    "id_image": "Alien_181504",
    "count_view": 0
  },
  {
    "link_thumb": "https://live.staticflickr.com/65535/50039806627_06c8cc8050_n.jpg",
    "id_album": "894679094",
    "description": "Collision_934138",
    "title": "Collision_934138",
    "link_img": "https://live.staticflickr.com/65535/50039806627_61213fd6f1_o.jpg",
    "id_image": "Collision_934138",
    "count_view": 0
  },
  {
    "link_thumb": "https://live.staticflickr.com/65535/50039341476_86862e174e_n.jpg",
    "id_album": "523598895",
    "description": "Artistic_662938",
    "title": "Artistic_662938",
    "link_img": "https://live.staticflickr.com/65535/50039341476_64a8d1528c_o.jpg",
    "id_image": "Artistic_662938",
    "count_view": 0
  },
  {
    "link_thumb": "https://live.staticflickr.com/65535/50038935613_51595f7e88_n.jpg",
    "id_album": "-1964113117",
    "description": "City_649520",
    "title": "City_649520",
    "link_img": "https://live.staticflickr.com/65535/50038935613_9e3586dc85_o.jpg",
    "id_image": "City_649520",
    "count_view": 0
  },
  {
    "link_thumb": "https://live.staticflickr.com/65535/50038844953_3bfaa50f0b_n.jpg",
    "id_album": "1187037014",
    "description": "Battle_112762",
    "title": "Battle_112762",
    "link_img": "https://live.staticflickr.com/65535/50038844953_6a5df60949_o.jpg",
    "id_image": "Battle_112762",
    "count_view": 0
  },
  {
    "link_thumb": "https://live.staticflickr.com/65535/50039660833_e4d8852f7f_n.jpg",
    "id_album": "-482547208",
    "description": "PostApocalyptic_529247",
    "title": "PostApocalyptic_529247",
    "link_img": "https://live.staticflickr.com/65535/50039660833_8317080e52_o.jpg",
    "id_image": "PostApocalyptic_529247",
    "count_view": 0
  },
  {
    "link_thumb": "https://live.staticflickr.com/65535/50039939271_fb5865aeb2_n.jpg",
    "id_album": "395161030",
    "description": "Planet_374843",
    "title": "Planet_374843",
    "link_img": "https://live.staticflickr.com/65535/50039939271_cabbc2f850_o.jpg",
    "id_image": "Planet_374843",
    "count_view": 0
  },
  {
    "link_thumb": "https://live.staticflickr.com/65535/50041639322_82093aeb78_n.jpg",
    "id_album": "2020068132",
    "description": "Vehicle_211341",
    "title": "Vehicle_211341",
    "link_img": "https://live.staticflickr.com/65535/50041639322_c860e2374e_o.jpg",
    "id_image": "Vehicle_211341",
    "count_view": 0
  },
  {
    "link_thumb": "https://live.staticflickr.com/65535/50040391301_01bf14ca18_n.jpg",
    "id_album": "779690680",
    "description": "Robot_883158",
    "title": "Robot_883158",
    "link_img": "https://live.staticflickr.com/65535/50040391301_cfa42aed30_o.jpg",
    "id_image": "Robot_883158",
    "count_view": 0
  },
  {
    "link_thumb": "https://live.staticflickr.com/65535/50040221111_0d1e0d96e1_n.jpg",
    "id_album": "-482547208",
    "description": "PostApocalyptic_712786",
    "title": "PostApocalyptic_712786",
    "link_img": "https://live.staticflickr.com/65535/50040221111_01fa49c2b3_o.jpg",
    "id_image": "PostApocalyptic_712786",
    "count_view": 0
  },
  {
    "link_thumb": "https://live.staticflickr.com/65535/50039394441_19abfa3e28_n.jpg",
    "id_album": "1187037014",
    "description": "Battle_162705",
    "title": "Battle_162705",
    "link_img": "https://live.staticflickr.com/65535/50039394441_8c39b6c5e2_o.jpg",
    "id_image": "Battle_162705",
    "count_view": 0
  },
  {
    "link_thumb": "https://live.staticflickr.com/65535/50038735448_2bd9f94662_n.jpg",
    "id_album": "-419633230",
    "description": "Apocalyptic_321186",
    "title": "Apocalyptic_321186",
    "link_img": "https://live.staticflickr.com/65535/50038735448_711c95ba53_o.jpg",
    "id_image": "Apocalyptic_321186",
    "count_view": 0
  },
  {
    "link_thumb": "https://live.staticflickr.com/65535/50040062922_13859f8575_n.jpg",
    "id_album": "-1610342324",
    "description": "Nebula_45819",
    "title": "Nebula_45819",
    "link_img": "https://live.staticflickr.com/65535/50040062922_351788faca_o.jpg",
    "id_image": "Nebula_45819",
    "count_view": 0
  },
  {
    "link_thumb": "https://live.staticflickr.com/65535/50039691817_1af984796d_n.jpg",
    "id_album": "406431601",
    "description": "Building_980250",
    "title": "Building_980250",
    "link_img": "https://live.staticflickr.com/65535/50039691817_dbec10657d_o.jpg",
    "id_image": "Building_980250",
    "count_view": 0
  },
  {
    "link_thumb": "https://live.staticflickr.com/65535/50040446742_4e7b59a017_n.jpg",
    "id_album": "376235057",
    "description": "Planetscape_805173",
    "title": "Planetscape_805173",
    "link_img": "https://live.staticflickr.com/65535/50040446742_4df8e14153_o.jpg",
    "id_image": "Planetscape_805173",
    "count_view": 0
  },
  {
    "link_thumb": "https://live.staticflickr.com/65535/50039857148_4efa0a06bc_n.jpg",
    "id_album": "779690680",
    "description": "Robot_914051",
    "title": "Robot_914051",
    "link_img": "https://live.staticflickr.com/65535/50039857148_987995cc48_o.jpg",
    "id_image": "Robot_914051",
    "count_view": 0
  },
  {
    "link_thumb": "https://live.staticflickr.com/65535/50039677001_e3988b5c11_n.jpg",
    "id_album": "1402713104",
    "description": "Landscape_325811",
    "title": "Landscape_325811",
    "link_img": "https://live.staticflickr.com/65535/50039677001_e18dc63e8d_o.jpg",
    "id_image": "Landscape_325811",
    "count_view": 0
  },
  {
    "link_thumb": "https://live.staticflickr.com/65535/50039886803_83b21d8b19_n.jpg",
    "id_album": "779690680",
    "description": "Robot_949792",
    "title": "Robot_949792",
    "link_img": "https://live.staticflickr.com/65535/50039886803_cab731ff6c_o.jpg",
    "id_image": "Robot_949792",
    "count_view": 0
  },
  {
    "link_thumb": "https://live.staticflickr.com/65535/50041613927_2a0b8a04d3_n.jpg",
    "id_album": "-221671103",
    "description": "Sun_551154",
    "title": "Sun_551154",
    "link_img": "https://live.staticflickr.com/65535/50041613927_075bd4829e_o.jpg",
    "id_image": "Sun_551154",
    "count_view": 0
  },
  {
    "link_thumb": "https://live.staticflickr.com/65535/50039933246_f3468e2f68_n.jpg",
    "id_album": "395161030",
    "description": "Planet_351708",
    "title": "Planet_351708",
    "link_img": "https://live.staticflickr.com/65535/50039933246_f1c73b0c1e_o.jpg",
    "id_image": "Planet_351708",
    "count_view": 0
  },
  {
    "link_thumb": "https://live.staticflickr.com/65535/50039488698_1e4ce2943e_n.jpg",
    "id_album": "814701616",
    "description": "PlanetaryRing_56259",
    "title": "PlanetaryRing_56259",
    "link_img": "https://live.staticflickr.com/65535/50039488698_307bcb86fb_o.jpg",
    "id_image": "PlanetaryRing_56259",
    "count_view": 0
  },
  {
    "link_thumb": "https://live.staticflickr.com/65535/50039252768_56d3efe159_n.jpg",
    "id_album": "-1610342324",
    "description": "Nebula_502936",
    "title": "Nebula_502936",
    "link_img": "https://live.staticflickr.com/65535/50039252768_1e7a02e676_o.jpg",
    "id_image": "Nebula_502936",
    "count_view": 0
  },
  {
    "link_thumb": "https://live.staticflickr.com/65535/50039634148_a287af4c50_n.jpg",
    "id_album": "376235057",
    "description": "Planetscape_957486",
    "title": "Planetscape_957486",
    "link_img": "https://live.staticflickr.com/65535/50039634148_1426fe4568_o.jpg",
    "id_image": "Planetscape_957486",
    "count_view": 0
  },
  {
    "link_thumb": "https://live.staticflickr.com/65535/50039881033_ee3342a71f_n.jpg",
    "id_album": "779690680",
    "description": "Robot_940957",
    "title": "Robot_940957",
    "link_img": "https://live.staticflickr.com/65535/50039881033_214759a998_o.jpg",
    "id_image": "Robot_940957",
    "count_view": 0
  },
  {
    "link_thumb": "https://live.staticflickr.com/65535/50040667042_6a94aebe1c_n.jpg",
    "id_album": "779690680",
    "description": "Robot_906344",
    "title": "Robot_906344",
    "link_img": "https://live.staticflickr.com/65535/50040667042_ca3c596371_o.jpg",
    "id_image": "Robot_906344",
    "count_view": 0
  },
  {
    "link_thumb": "https://live.staticflickr.com/65535/50039563683_227420d3b4_n.jpg",
    "id_album": "-1102314093",
    "description": "Planets_426318",
    "title": "Planets_426318",
    "link_img": "https://live.staticflickr.com/65535/50039563683_a671e38d82_o.jpg",
    "id_image": "Planets_426318",
    "count_view": 0
  },
  {
    "link_thumb": "https://live.staticflickr.com/65535/50039701061_54ac8d779a_n.jpg",
    "id_album": "1402713104",
    "description": "Landscape_706882",
    "title": "Landscape_706882",
    "link_img": "https://live.staticflickr.com/65535/50039701061_a66d9b9ab3_o.jpg",
    "id_image": "Landscape_706882",
    "count_view": 0
  },
  {
    "link_thumb": "https://live.staticflickr.com/65535/50040387732_369de17996_n.jpg",
    "id_album": "-1102314093",
    "description": "Planets_533843",
    "title": "Planets_533843",
    "link_img": "https://live.staticflickr.com/65535/50040387732_08e6f3454e_o.jpg",
    "id_image": "Planets_533843",
    "count_view": 0
  },
  {
    "link_thumb": "https://live.staticflickr.com/65535/50039780046_ce81319363_n.jpg",
    "id_album": "-1610342324",
    "description": "Nebula_269799",
    "title": "Nebula_269799",
    "link_img": "https://live.staticflickr.com/65535/50039780046_0ba0bc53f2_o.jpg",
    "id_image": "Nebula_269799",
    "count_view": 0
  },
  {
    "link_thumb": "https://live.staticflickr.com/65535/50040436317_e46d210779_n.jpg",
    "id_album": "376235057",
    "description": "Planetscape_393915",
    "title": "Planetscape_393915",
    "link_img": "https://live.staticflickr.com/65535/50040436317_e3d8e8ea5c_o.jpg",
    "id_image": "Planetscape_393915",
    "count_view": 0
  },
  {
    "link_thumb": "https://live.staticflickr.com/65535/50040157967_e89f00ac2d_n.jpg",
    "id_album": "1896531081",
    "description": "People_285695",
    "title": "People_285695",
    "link_img": "https://live.staticflickr.com/65535/50040157967_d598eab3da_o.jpg",
    "id_image": "People_285695",
    "count_view": 0
  },
  {
    "link_thumb": "https://live.staticflickr.com/65535/50040662906_c0c261aa88_n.jpg",
    "id_album": "2130067313",
    "description": "Spaceship_354523",
    "title": "Spaceship_354523",
    "link_img": "https://live.staticflickr.com/65535/50040662906_a30b01f27d_o.jpg",
    "id_image": "Spaceship_354523",
    "count_view": 0
  },
  {
    "link_thumb": "https://live.staticflickr.com/65535/50040620508_c3df962082_n.jpg",
    "id_album": "-1863373220",
    "description": "StarWars_384054",
    "title": "StarWars_384054",
    "link_img": "https://live.staticflickr.com/65535/50040620508_1b2e922892_o.jpg",
    "id_image": "StarWars_384054",
    "count_view": 0
  },
  {
    "link_thumb": "https://live.staticflickr.com/65535/50041761407_980e0aa441_n.jpg",
    "id_album": "-1261420436",
    "description": "Warrior_991672",
    "title": "Warrior_991672",
    "link_img": "https://live.staticflickr.com/65535/50041761407_af9f4e356b_o.jpg",
    "id_image": "Warrior_991672",
    "count_view": 0
  },
  {
    "link_thumb": "https://live.staticflickr.com/65535/50039764786_20d3a20b89_n.jpg",
    "id_album": "-1610342324",
    "description": "Nebula_175986",
    "title": "Nebula_175986",
    "link_img": "https://live.staticflickr.com/65535/50039764786_be662b4df9_o.jpg",
    "id_image": "Nebula_175986",
    "count_view": 0
  },
  {
    "link_thumb": "https://live.staticflickr.com/65535/50039392701_5b7e472cfe_n.jpg",
    "id_album": "1187037014",
    "description": "Battle_112508",
    "title": "Battle_112508",
    "link_img": "https://live.staticflickr.com/65535/50039392701_c77d5a8a11_o.jpg",
    "id_image": "Battle_112508",
    "count_view": 0
  },
  {
    "link_thumb": "https://live.staticflickr.com/65535/50041377532_5218f020ed_n.jpg",
    "id_album": "-1863373220",
    "description": "StarWars_107677",
    "title": "StarWars_107677",
    "link_img": "https://live.staticflickr.com/65535/50041377532_dfccf9900b_o.jpg",
    "id_image": "StarWars_107677",
    "count_view": 0
  },
  {
    "link_thumb": "https://live.staticflickr.com/65535/50038993503_eeef56a677_n.jpg",
    "id_album": "894679094",
    "description": "Collision_517482",
    "title": "Collision_517482",
    "link_img": "https://live.staticflickr.com/65535/50038993503_cca1719472_o.jpg",
    "id_image": "Collision_517482",
    "count_view": 0
  },
  {
    "link_thumb": "https://live.staticflickr.com/65535/50040395386_fe6b66f96c_n.jpg",
    "id_album": "779690680",
    "description": "Robot_887982",
    "title": "Robot_887982",
    "link_img": "https://live.staticflickr.com/65535/50040395386_09b0f5988c_o.jpg",
    "id_image": "Robot_887982",
    "count_view": 0
  },
  {
    "link_thumb": "https://live.staticflickr.com/65535/50038885183_f71bb4ecb2_n.jpg",
    "id_album": "-1964113117",
    "description": "City_142040",
    "title": "City_142040",
    "link_img": "https://live.staticflickr.com/65535/50038885183_edf75eecc9_o.jpg",
    "id_image": "City_142040",
    "count_view": 0
  },
  {
    "link_thumb": "https://live.staticflickr.com/65535/50039848073_13a4dcfc96_n.jpg",
    "id_album": "779690680",
    "description": "Robot_902941",
    "title": "Robot_902941",
    "link_img": "https://live.staticflickr.com/65535/50039848073_74d9233dd1_o.jpg",
    "id_image": "Robot_902941",
    "count_view": 0
  },
  {
    "link_thumb": "https://live.staticflickr.com/65535/50038958353_982575732e_n.jpg",
    "id_album": "-1964113117",
    "description": "City_864521",
    "title": "City_864521",
    "link_img": "https://live.staticflickr.com/65535/50038958353_d48e1e4bc3_o.jpg",
    "id_image": "City_864521",
    "count_view": 0
  }
]