[
  {
    "link_thumb": "https://live.staticflickr.com/65535/50039499892_e042354aec_n.jpg",
    "id_album": "-406145265",
    "description": "Aircraft_341261",
    "title": "Aircraft_341261",
    "link_img": "https://live.staticflickr.com/65535/50039499892_deb2b34c4c_o.jpg",
    "id_image": "Aircraft_341261",
    "count_view": 0
  },
  {
    "link_thumb": "https://live.staticflickr.com/65535/50040297296_fcee85bda0_n.jpg",
    "id_album": "779690680",
    "description": "Robot_372399",
    "title": "Robot_372399",
    "link_img": "https://live.staticflickr.com/65535/50040297296_7b642ddd1e_o.jpg",
    "id_image": "Robot_372399",
    "count_view": 0
  },
  {
    "link_thumb": "https://live.staticflickr.com/65535/50041358566_e38a94b52e_n.jpg",
    "id_album": "-1177476763",
    "description": "Sunrise_210300",
    "title": "Sunrise_210300",
    "link_img": "https://live.staticflickr.com/65535/50041358566_834dbc4325_o.jpg",
    "id_image": "Sunrise_210300",
    "count_view": 0
  },
  {
    "link_thumb": "https://live.staticflickr.com/65535/50040035577_219d78b278_n.jpg",
    "id_album": "-1610342324",
    "description": "Nebula_220585",
    "title": "Nebula_220585",
    "link_img": "https://live.staticflickr.com/65535/50040035577_a4f9a328cc_o.jpg",
    "id_image": "Nebula_220585",
    "count_view": 0
  },
  {
    "link_thumb": "https://live.staticflickr.com/65535/50039643306_aaa0eccb64_n.jpg",
    "id_album": "1204249541",
    "description": "Galaxy_559143",
    "title": "Galaxy_559143",
    "link_img": "https://live.staticflickr.com/65535/50039643306_54fc035ac9_o.jpg",
    "id_image": "Galaxy_559143",
    "count_view": 0
  },
  {
    "link_thumb": "https://live.staticflickr.com/65535/50040803258_dc4de72c7d_n.jpg",
    "id_album": "-1177476763",
    "description": "Sunrise_209952",
    "title": "Sunrise_209952",
    "link_img": "https://live.staticflickr.com/65535/50040803258_032742de87_o.jpg",
    "id_image": "Sunrise_209952",
    "count_view": 0
  },
  {
    "link_thumb": "https://live.staticflickr.com/65535/50039195418_c3bab08eec_n.jpg",
    "id_album": "-1388385651",
    "description": "MilkyWay_717707",
    "title": "MilkyWay_717707",
    "link_img": "https://live.staticflickr.com/65535/50039195418_f12dc3d3cf_o.jpg",
    "id_image": "MilkyWay_717707",
    "count_view": 0
  },
  {
    "link_thumb": "https://live.staticflickr.com/65535/50039631376_96a6491327_n.jpg",
    "id_album": "1204249541",
    "description": "Galaxy_331048",
    "title": "Galaxy_331048",
    "link_img": "https://live.staticflickr.com/65535/50039631376_f4a1449fbd_o.jpg",
    "id_image": "Galaxy_331048",
    "count_view": 0
  },
  {
    "link_thumb": "https://live.staticflickr.com/65535/50039547106_bb98946138_n.jpg",
    "id_album": "-437872736",
    "description": "Creature_218508",
    "title": "Creature_218508",
    "link_img": "https://live.staticflickr.com/65535/50039547106_111fe677cf_o.jpg",
    "id_image": "Creature_218508",
    "count_view": 0
  },
  {
    "link_thumb": "https://live.staticflickr.com/65535/50039352256_cfb8ff0a04_n.jpg",
    "id_album": "869545341",
    "description": "Astronaut_247116",
    "title": "Astronaut_247116",
    "link_img": "https://live.staticflickr.com/65535/50039352256_261f21f70f_o.jpg",
    "id_image": "Astronaut_247116",
    "count_view": 0
  },
  {
    "link_thumb": "https://live.staticflickr.com/65535/50040084017_f5fce9eae9_n.jpg",
    "id_album": "-1610342324",
    "description": "Nebula_678913",
    "title": "Nebula_678913",
    "link_img": "https://live.staticflickr.com/65535/50040084017_4c25a83956_o.jpg",
    "id_image": "Nebula_678913",
    "count_view": 0
  },
  {
    "link_thumb": "https://live.staticflickr.com/65535/50040756872_a3ddda2857_n.jpg",
    "id_album": "1613540653",
    "description": "Space_324437",
    "title": "Space_324437",
    "link_img": "https://live.staticflickr.com/65535/50040756872_626022ae5e_o.jpg",
    "id_image": "Space_324437",
    "count_view": 0
  },
  {
    "link_thumb": "https://live.staticflickr.com/65535/50039286723_f99b3a9bbc_n.jpg",
    "id_album": "-1610342324",
    "description": "Nebula_783901",
    "title": "Nebula_783901",
    "link_img": "https://live.staticflickr.com/65535/50039286723_7846b9c3d1_o.jpg",
    "id_image": "Nebula_783901",
    "count_view": 0
  },
  {
    "link_thumb": "https://live.staticflickr.com/65535/50039078458_f1508e0074_n.jpg",
    "id_album": "1204249541",
    "description": "Galaxy_240106",
    "title": "Galaxy_240106",
    "link_img": "https://live.staticflickr.com/65535/50039078458_122fd01f7f_o.jpg",
    "id_image": "Galaxy_240106",
    "count_view": 0
  },
  {
    "link_thumb": "https://live.staticflickr.com/65535/50040068273_c813fec39b_n.jpg",
    "id_album": "2130067313",
    "description": "Spaceship_278841",
    "title": "Spaceship_278841",
    "link_img": "https://live.staticflickr.com/65535/50040068273_371abe0cd2_o.jpg",
    "id_image": "Spaceship_278841",
    "count_view": 0
  },
  {
    "link_thumb": "https://live.staticflickr.com/65535/50039703168_05333d16ba_n.jpg",
    "id_album": "779690680",
    "description": "Robot_153445",
    "title": "Robot_153445",
    "link_img": "https://live.staticflickr.com/65535/50039703168_1a309fcf98_o.jpg",
    "id_image": "Robot_153445",
    "count_view": 0
  },
  {
    "link_thumb": "https://live.staticflickr.com/65535/50039926388_8691cddc82_n.jpg",
    "id_album": "1613540653",
    "description": "Space_223704",
    "title": "Space_223704",
    "link_img": "https://live.staticflickr.com/65535/50039926388_f88e5ef8a5_o.jpg",
    "id_image": "Space_223704",
    "count_view": 0
  },
  {
    "link_thumb": "https://live.staticflickr.com/65535/50041419706_e036f0fdd1_n.jpg",
    "id_album": "2020068132",
    "description": "Vehicle_910953",
    "title": "Vehicle_910953",
    "link_img": "https://live.staticflickr.com/65535/50041419706_d4fe7156ab_o.jpg",
    "id_image": "Vehicle_910953",
    "count_view": 0
  },
  {
    "link_thumb": "https://live.staticflickr.com/65535/50041507847_77741b97ed_n.jpg",
    "id_album": "-1863373220",
    "description": "StarWars_949512",
    "title": "StarWars_949512",
    "link_img": "https://live.staticflickr.com/65535/50041507847_468e066bdc_o.jpg",
    "id_image": "StarWars_949512",
    "count_view": 0
  },
  {
    "link_thumb": "https://live.staticflickr.com/65535/50040216337_53a0289db9_n.jpg",
    "id_album": "395161030",
    "description": "Planet_464560",
    "title": "Planet_464560",
    "link_img": "https://live.staticflickr.com/65535/50040216337_b9b5f80338_o.jpg",
    "id_image": "Planet_464560",
    "count_view": 0
  },
  {
    "link_thumb": "https://live.staticflickr.com/65535/50039855372_e5313ccdd1_n.jpg",
    "id_album": "829169633",
    "description": "Cyborg_545494",
    "title": "Cyborg_545494",
    "link_img": "https://live.staticflickr.com/65535/50039855372_5fb5714aa9_o.jpg",
    "id_image": "Cyborg_545494",
    "count_view": 0
  },
  {
    "link_thumb": "https://live.staticflickr.com/65535/50039669573_9a1bd8a7ec_n.jpg",
    "id_album": "-482547208",
    "description": "PostApocalyptic_725326",
    "title": "PostApocalyptic_725326",
    "link_img": "https://live.staticflickr.com/65535/50039669573_b18ec55185_o.jpg",
    "id_image": "PostApocalyptic_725326",
    "count_view": 0
  },
  {
    "link_thumb": "https://live.staticflickr.com/65535/50039992783_2f29591279_n.jpg",
    "id_album": "1613540653",
    "description": "Space_849370",
    "title": "Space_849370",
    "link_img": "https://live.staticflickr.com/65535/50039992783_e4e5d9018e_o.jpg",
    "id_image": "Space_849370",
    "count_view": 0
  },
  {
    "link_thumb": "https://live.staticflickr.com/65535/50040082661_b536248a55_n.jpg",
    "id_album": "-1102314093",
    "description": "Planets_327612",
    "title": "Planets_327612",
    "link_img": "https://live.staticflickr.com/65535/50040082661_21d2dafaab_o.jpg",
    "id_image": "Planets_327612",
    "count_view": 0
  },
  {
    "link_thumb": "https://live.staticflickr.com/65535/50041011077_a35a159901_n.jpg",
    "id_album": "2130067313",
    "description": "Spaceship_745689",
    "title": "Spaceship_745689",
    "link_img": "https://live.staticflickr.com/65535/50041011077_888bc9c8a2_o.jpg",
    "id_image": "Spaceship_745689",
    "count_view": 0
  },
  {
    "link_thumb": "https://live.staticflickr.com/65535/50039216478_4932b8b923_n.jpg",
    "id_album": "-1610342324",
    "description": "Nebula_180955",
    "title": "Nebula_180955",
    "link_img": "https://live.staticflickr.com/65535/50039216478_7740d5b36e_o.jpg",
    "id_image": "Nebula_180955",
    "count_view": 0
  },
  {
    "link_thumb": "https://live.staticflickr.com/65535/50039840053_e204d5d839_n.jpg",
    "id_album": "779690680",
    "description": "Robot_884816",
    "title": "Robot_884816",
    "link_img": "https://live.staticflickr.com/65535/50039840053_2719b3d4b0_o.jpg",
    "id_image": "Robot_884816",
    "count_view": 0
  },
  {
    "link_thumb": "https://live.staticflickr.com/65535/50040843238_bd078f3e9e_n.jpg",
    "id_album": "2020068132",
    "description": "Vehicle_410768",
    "title": "Vehicle_410768",
    "link_img": "https://live.staticflickr.com/65535/50040843238_5100bd0946_o.jpg",
    "id_image": "Vehicle_410768",
    "count_view": 0
  },
  {
    "link_thumb": "https://live.staticflickr.com/65535/50039083443_4e9b7eb726_n.jpg",
    "id_album": "1204249541",
    "description": "Galaxy_413533",
    "title": "Galaxy_413533",
    "link_img": "https://live.staticflickr.com/65535/50039083443_362b799d68_o.jpg",
    "id_image": "Galaxy_413533",
    "count_view": 0
  },
  {
    "link_thumb": "https://live.staticflickr.com/65535/50040048727_17c67e404c_n.jpg",
    "id_album": "-1610342324",
    "description": "Nebula_304916",
    "title": "Nebula_304916",
    "link_img": "https://live.staticflickr.com/65535/50040048727_64423cc30a_o.jpg",
    "id_image": "Nebula_304916",
    "count_view": 0
  },
  {
    "link_thumb": "https://live.staticflickr.com/65535/50039655241_c17cab32a1_n.jpg",
    "id_album": "1204249541",
    "description": "Galaxy_89391",
    "title": "Galaxy_89391",
    "link_img": "https://live.staticflickr.com/65535/50039655241_61b06a657b_o.jpg",
    "id_image": "Galaxy_89391",
    "count_view": 0
  },
  {
    "link_thumb": "https://live.staticflickr.com/65535/50039572507_c814893366_n.jpg",
    "id_album": "523598895",
    "description": "Artistic_197729",
    "title": "Artistic_197729",
    "link_img": "https://live.staticflickr.com/65535/50039572507_a159ed3fb7_o.jpg",
    "id_image": "Artistic_197729",
    "count_view": 0
  },
  {
    "link_thumb": "https://live.staticflickr.com/65535/50040292421_2cfc663d38_n.jpg",
    "id_album": "779690680",
    "description": "Robot_336756",
    "title": "Robot_336756",
    "link_img": "https://live.staticflickr.com/65535/50040292421_f1ab7f6f0c_o.jpg",
    "id_image": "Robot_336756",
    "count_view": 0
  },
  {
    "link_thumb": "https://live.staticflickr.com/65535/50039905922_0e2698a0c4_n.jpg",
    "id_album": "1204249541",
    "description": "Galaxy_555689",
    "title": "Galaxy_555689",
    "link_img": "https://live.staticflickr.com/65535/50039905922_e0ba21bb8d_o.jpg",
    "id_image": "Galaxy_555689",
    "count_view": 0
  },
  {
    "link_thumb": "https://live.staticflickr.com/65535/50039318521_7a127f93c4_n.jpg",
    "id_album": "523598895",
    "description": "Artistic_222544",
    "title": "Artistic_222544",
    "link_img": "https://live.staticflickr.com/65535/50039318521_61cf585c72_o.jpg",
    "id_image": "Artistic_222544",
    "count_view": 0
  },
  {
    "link_thumb": "https://live.staticflickr.com/65535/50039777501_8c1ec506f1_n.jpg",
    "id_album": "-1610342324",
    "description": "Nebula_2541",
    "title": "Nebula_2541",
    "link_img": "https://live.staticflickr.com/65535/50039777501_e1218d1ef7_o.jpg",
    "id_image": "Nebula_2541",
    "count_view": 0
  },
  {
    "link_thumb": "https://live.staticflickr.com/65535/50040876447_a161627095_n.jpg",
    "id_album": "2130067313",
    "description": "Spaceship_268620",
    "title": "Spaceship_268620",
    "link_img": "https://live.staticflickr.com/65535/50040876447_8256128a40_o.jpg",
    "id_image": "Spaceship_268620",
    "count_view": 0
  },
  {
    "link_thumb": "https://live.staticflickr.com/65535/50039082188_d220915e2d_n.jpg",
    "id_album": "1204249541",
    "description": "Galaxy_344863",
    "title": "Galaxy_344863",
    "link_img": "https://live.staticflickr.com/65535/50039082188_a6de9510de_o.jpg",
    "id_image": "Galaxy_344863",
    "count_view": 0
  },
  {
    "link_thumb": "https://live.staticflickr.com/65535/50039000188_972e1e10eb_n.jpg",
    "id_album": "-437872736",
    "description": "Creature_275926",
    "title": "Creature_275926",
    "link_img": "https://live.staticflickr.com/65535/50039000188_d3bb3c52ee_o.jpg",
    "id_image": "Creature_275926",
    "count_view": 0
  },
  {
    "link_thumb": "https://live.staticflickr.com/65535/50039188203_3d85381ab7_n.jpg",
    "id_album": "-1388385651",
    "description": "MilkyWay_663080",
    "title": "MilkyWay_663080",
    "link_img": "https://live.staticflickr.com/65535/50039188203_8f0bebb336_o.jpg",
    "id_image": "MilkyWay_663080",
    "count_view": 0
  },
  {
    "link_thumb": "https://live.staticflickr.com/65535/50038889218_54d7b3c3cd_n.jpg",
    "id_album": "-1964113117",
    "description": "City_165862",
    "title": "City_165862",
    "link_img": "https://live.staticflickr.com/65535/50038889218_17d3c34e6d_o.jpg",
    "id_image": "City_165862",
    "count_view": 0
  },
  {
    "link_thumb": "https://live.staticflickr.com/65535/50039359331_e461c03691_n.jpg",
    "id_album": "869545341",
    "description": "Astronaut_588608",
    "title": "Astronaut_588608",
    "link_img": "https://live.staticflickr.com/65535/50039359331_d54715e632_o.jpg",
    "id_image": "Astronaut_588608",
    "count_view": 0
  },
  {
    "link_thumb": "https://live.staticflickr.com/65535/50040651762_224a9fd542_n.jpg",
    "id_album": "779690680",
    "description": "Robot_877233",
    "title": "Robot_877233",
    "link_img": "https://live.staticflickr.com/65535/50040651762_deeaf78401_o.jpg",
    "id_image": "Robot_877233",
    "count_view": 0
  },
  {
    "link_thumb": "https://live.staticflickr.com/65535/50039666647_85342c02c5_n.jpg",
    "id_album": "1187037014",
    "description": "Battle_602051",
    "title": "Battle_602051",
    "link_img": "https://live.staticflickr.com/65535/50039666647_2c44e76a52_o.jpg",
    "id_image": "Battle_602051",
    "count_view": 0
  },
  {
    "link_thumb": "https://live.staticflickr.com/65535/50039872418_0d8ba9acfc_n.jpg",
    "id_album": "779690680",
    "description": "Robot_928646",
    "title": "Robot_928646",
    "link_img": "https://live.staticflickr.com/65535/50039872418_9ce78ff09e_o.jpg",
    "id_image": "Robot_928646",
    "count_view": 0
  },
  {
    "link_thumb": "https://live.staticflickr.com/65535/50039773482_1843a2f65b_n.jpg",
    "id_album": "-1964113117",
    "description": "City_879540",
    "title": "City_879540",
    "link_img": "https://live.staticflickr.com/65535/50039773482_8276db99f8_o.jpg",
    "id_image": "City_879540",
    "count_view": 0
  },
  {
    "link_thumb": "https://live.staticflickr.com/65535/50040418037_b9406fae54_n.jpg",
    "id_album": "376235057",
    "description": "Planetscape_216511",
    "title": "Planetscape_216511",
    "link_img": "https://live.staticflickr.com/65535/50040418037_3993a95d08_o.jpg",
    "id_image": "Planetscape_216511",
    "count_view": 0
  },
  {
    "link_thumb": "https://live.staticflickr.com/65535/50040545156_7a666c73b0_n.jpg",
    "id_album": "1613540653",
    "description": "Space_83512",
    "title": "Space_83512",
    "link_img": "https://live.staticflickr.com/65535/50040545156_1c8a888b3c_o.jpg",
    "id_image": "Space_83512",
    "count_view": 0
  },
  {
    "link_thumb": "https://live.staticflickr.com/65535/50039870392_f09f20aaf3_n.jpg",
    "id_album": "651930207",
    "description": "Explosion_225990",
    "title": "Explosion_225990",
    "link_img": "https://live.staticflickr.com/65535/50039870392_02ac62cb82_o.jpg",
    "id_image": "Explosion_225990",
    "count_view": 0
  },
  {
    "link_thumb": "https://live.staticflickr.com/65535/50039601642_21da17e7b6_n.jpg",
    "id_album": "523598895",
    "description": "Artistic_593706",
    "title": "Artistic_593706",
    "link_img": "https://live.staticflickr.com/65535/50039601642_263c81dc07_o.jpg",
    "id_image": "Artistic_593706",
    "count_view": 0
  },
  {
    "link_thumb": "https://live.staticflickr.com/65535/50040378522_80f4ab4e2a_n.jpg",
    "id_album": "-1102314093",
    "description": "Planets_428363",
    "title": "Planets_428363",
    "link_img": "https://live.staticflickr.com/65535/50040378522_cfc25e30fe_o.jpg",
    "id_image": "Planets_428363",
    "count_view": 0
  },
  {
    "link_thumb": "https://live.staticflickr.com/65535/50040454017_51cfca1589_n.jpg",
    "id_album": "-482547208",
    "description": "PostApocalyptic_115275",
    "title": "PostApocalyptic_115275",
    "link_img": "https://live.staticflickr.com/65535/50040454017_060a67d484_o.jpg",
    "id_image": "PostApocalyptic_115275",
    "count_view": 0
  },
  {
    "link_thumb": "https://live.staticflickr.com/65535/50040155641_90ba0f5258_n.jpg",
    "id_album": "376235057",
    "description": "Planetscape_286319",
    "title": "Planetscape_286319",
    "link_img": "https://live.staticflickr.com/65535/50040155641_ba1af5ff13_o.jpg",
    "id_image": "Planetscape_286319",
    "count_view": 0
  },
  {
    "link_thumb": "https://live.staticflickr.com/65535/50039850001_9fdd134494_n.jpg",
    "id_album": "-1610342324",
    "description": "Nebula_886578",
    "title": "Nebula_886578",
    "link_img": "https://live.staticflickr.com/65535/50039850001_6955943dec_o.jpg",
    "id_image": "Nebula_886578",
    "count_view": 0
  },
  {
    "link_thumb": "https://live.staticflickr.com/65535/50039871793_9383403fc2_n.jpg",
    "id_album": "779690680",
    "description": "Robot_928643",
    "title": "Robot_928643",
    "link_img": "https://live.staticflickr.com/65535/50039871793_5c1c994fb0_o.jpg",
    "id_image": "Robot_928643",
    "count_view": 0
  },
  {
    "link_thumb": "https://live.staticflickr.com/65535/50040166242_8a9d70ae7c_n.jpg",
    "id_album": "395161030",
    "description": "Planet_1008933",
    "title": "Planet_1008933",
    "link_img": "https://live.staticflickr.com/65535/50040166242_239142df80_o.jpg",
    "id_image": "Planet_1008933",
    "count_view": 0
  },
  {
    "link_thumb": "https://live.staticflickr.com/65535/50040806793_3f6ffc8704_n.jpg",
    "id_album": "-1177476763",
    "description": "Sunrise_350440",
    "title": "Sunrise_350440",
    "link_img": "https://live.staticflickr.com/65535/50040806793_39368c7dbd_o.jpg",
    "id_image": "Sunrise_350440",
    "count_view": 0
  },
  {
    "link_thumb": "https://live.staticflickr.com/65535/50040741263_d8646df342_n.jpg",
    "id_album": "1267121215",
    "description": "Steampunk_190409",
    "title": "Steampunk_190409",
    "link_img": "https://live.staticflickr.com/65535/50040741263_28ae8581ff_o.jpg",
    "id_image": "Steampunk_190409",
    "count_view": 0
  },
  {
    "link_thumb": "https://live.staticflickr.com/65535/50041410742_94bdd69f48_n.jpg",
    "id_album": "-1863373220",
    "description": "StarWars_234667",
    "title": "StarWars_234667",
    "link_img": "https://live.staticflickr.com/65535/50041410742_01a90b1679_o.jpg",
    "id_image": "StarWars_234667",
    "count_view": 0
  },
  {
    "link_thumb": "https://live.staticflickr.com/65535/50038960558_ac6f01c465_n.jpg",
    "id_album": "-1964113117",
    "description": "City_869611",
    "title": "City_869611",
    "link_img": "https://live.staticflickr.com/65535/50038960558_d10f2a43c9_o.jpg",
    "id_image": "City_869611",
    "count_view": 0
  },
  {
    "link_thumb": "https://live.staticflickr.com/65535/50040409786_1014698c6f_n.jpg",
    "id_album": "779690680",
    "description": "Robot_913016",
    "title": "Robot_913016",
    "link_img": "https://live.staticflickr.com/65535/50040409786_052a050818_o.jpg",
    "id_image": "Robot_913016",
    "count_view": 0
  },
  {
    "link_thumb": "https://live.staticflickr.com/65535/50039519947_19028df962_n.jpg",
    "id_album": "849020728",
    "description": "Alien_278137",
    "title": "Alien_278137",
    "link_img": "https://live.staticflickr.com/65535/50039519947_0d50fc9b73_o.jpg",
    "id_image": "Alien_278137",
    "count_view": 0
  },
  {
    "link_thumb": "https://live.staticflickr.com/65535/50041759407_d33b919e7d_n.jpg",
    "id_album": "-1261420436",
    "description": "Warrior_957239",
    "title": "Warrior_957239",
    "link_img": "https://live.staticflickr.com/65535/50041759407_340cdeebe0_o.jpg",
    "id_image": "Warrior_957239",
    "count_view": 0
  },
  {
    "link_thumb": "https://live.staticflickr.com/65535/50040657458_d12b8a934b_n.jpg",
    "id_album": "-1863373220",
    "description": "StarWars_669728",
    "title": "StarWars_669728",
    "link_img": "https://live.staticflickr.com/65535/50040657458_e789e181bc_o.jpg",
    "id_image": "StarWars_669728",
    "count_view": 0
  },
  {
    "link_thumb": "https://live.staticflickr.com/65535/50039582511_523098457b_n.jpg",
    "id_album": "829169633",
    "description": "Cyborg_239897",
    "title": "Cyborg_239897",
    "link_img": "https://live.staticflickr.com/65535/50039582511_6b7fdc7fb4_o.jpg",
    "id_image": "Cyborg_239897",
    "count_view": 0
  },
  {
    "link_thumb": "https://live.staticflickr.com/65535/50040119336_4dfb371931_n.jpg",
    "id_album": "-1102314093",
    "description": "Planets_502963",
    "title": "Planets_502963",
    "link_img": "https://live.staticflickr.com/65535/50040119336_806373b1ea_o.jpg",
    "id_image": "Planets_502963",
    "count_view": 0
  },
  {
    "link_thumb": "https://live.staticflickr.com/65535/50039853527_ae9a1f888f_n.jpg",
    "id_album": "829169633",
    "description": "Cyborg_488054",
    "title": "Cyborg_488054",
    "link_img": "https://live.staticflickr.com/65535/50039853527_b2c571966e_o.jpg",
    "id_image": "Cyborg_488054",
    "count_view": 0
  },
  {
    "link_thumb": "https://live.staticflickr.com/65535/50039777302_a6efaf5222_n.jpg",
    "id_album": "-1964113117",
    "description": "City_898604",
    "title": "City_898604",
    "link_img": "https://live.staticflickr.com/65535/50039777302_6f1dfa2b3a_o.jpg",
    "id_image": "City_898604",
    "count_view": 0
  },
  {
    "link_thumb": "https://live.staticflickr.com/65535/50040784703_626a6fa13a_n.jpg",
    "id_album": "-221671103",
    "description": "Sun_180015",
    "title": "Sun_180015",
    "link_img": "https://live.staticflickr.com/65535/50040784703_8e9cbf30ec_o.jpg",
    "id_image": "Sun_180015",
    "count_view": 0
  },
  {
    "link_thumb": "https://live.staticflickr.com/65535/50039717691_1584aea667_n.jpg",
    "id_album": "1402713104",
    "description": "Landscape_881834",
    "title": "Landscape_881834",
    "link_img": "https://live.staticflickr.com/65535/50039717691_0110ed1f92_o.jpg",
    "id_image": "Landscape_881834",
    "count_view": 0
  },
  {
    "link_thumb": "https://live.staticflickr.com/65535/50041824037_2e0dfe0301_n.jpg",
    "id_album": "-1675918237",
    "description": "WomenWarrior_245613",
    "title": "WomenWarrior_245613",
    "link_img": "https://live.staticflickr.com/65535/50041824037_935bf2c674_o.jpg",
    "id_image": "WomenWarrior_245613",
    "count_view": 0
  },
  {
    "link_thumb": "https://live.staticflickr.com/65535/50039244861_31265efe67_n.jpg",
    "id_album": "849020728",
    "description": "Alien_116320",
    "title": "Alien_116320",
    "link_img": "https://live.staticflickr.com/65535/50039244861_f588ed1233_o.jpg",
    "id_image": "Alien_116320",
    "count_view": 0
  },
  {
    "link_thumb": "https://live.staticflickr.com/65535/50040119946_253784c744_n.jpg",
    "id_album": "-1102314093",
    "description": "Planets_516889",
    "title": "Planets_516889",
    "link_img": "https://live.staticflickr.com/65535/50040119946_8685ff4e1c_o.jpg",
    "id_image": "Planets_516889",
    "count_view": 0
  },
  {
    "link_thumb": "https://live.staticflickr.com/65535/50038898223_aced839c06_n.jpg",
    "id_album": "-1964113117",
    "description": "City_214293",
    "title": "City_214293",
    "link_img": "https://live.staticflickr.com/65535/50038898223_5699db0fa4_o.jpg",
    "id_image": "City_214293",
    "count_view": 0
  },
  {
    "link_thumb": "https://live.staticflickr.com/65535/50039504838_ce43fedb6a_n.jpg",
    "id_album": "-1102314093",
    "description": "Planets_197717",
    "title": "Planets_197717",
    "link_img": "https://live.staticflickr.com/65535/50039504838_e9d7a5bfc3_o.jpg",
    "id_image": "Planets_197717",
    "count_view": 0
  },
  {
    "link_thumb": "https://live.staticflickr.com/65535/50039149598_f139013642_n.jpg",
    "id_album": "1402713104",
    "description": "Landscape_674916",
    "title": "Landscape_674916",
    "link_img": "https://live.staticflickr.com/65535/50039149598_118d728efa_o.jpg",
    "id_image": "Landscape_674916",
    "count_view": 0
  },
  {
    "link_thumb": "https://live.staticflickr.com/65535/50039342901_59f3d55cfd_n.jpg",
    "id_album": "523598895",
    "description": "Artistic_712822",
    "title": "Artistic_712822",
    "link_img": "https://live.staticflickr.com/65535/50039342901_1b87507f30_o.jpg",
    "id_image": "Artistic_712822",
    "count_view": 0
  },
  {
    "link_thumb": "https://live.staticflickr.com/65535/50039667357_1b291c16c8_n.jpg",
    "id_album": "1187037014",
    "description": "Battle_615954",
    "title": "Battle_615954",
    "link_img": "https://live.staticflickr.com/65535/50039667357_d77a41ae63_o.jpg",
    "id_image": "Battle_615954",
    "count_view": 0
  },
  {
    "link_thumb": "https://live.staticflickr.com/65535/50039629951_0f5e3e9cbd_n.jpg",
    "id_album": "1204249541",
    "description": "Galaxy_286765",
    "title": "Galaxy_286765",
    "link_img": "https://live.staticflickr.com/65535/50039629951_07369883f5_o.jpg",
    "id_image": "Galaxy_286765",
    "count_view": 0
  },
  {
    "link_thumb": "https://live.staticflickr.com/65535/50039704647_7284850ac3_n.jpg",
    "id_album": "-1964113117",
    "description": "City_201194",
    "title": "City_201194",
    "link_img": "https://live.staticflickr.com/65535/50039704647_30f82b793c_o.jpg",
    "id_image": "City_201194",
    "count_view": 0
  },
  {
    "link_thumb": "https://live.staticflickr.com/65535/50039289276_d89e85ff48_n.jpg",
    "id_album": "-419633230",
    "description": "Apocalyptic_957447",
    "title": "Apocalyptic_957447",
    "link_img": "https://live.staticflickr.com/65535/50039289276_cbb2c91cf5_o.jpg",
    "id_image": "Apocalyptic_957447",
    "count_view": 0
  },
  {
    "link_thumb": "https://live.staticflickr.com/65535/50041026328_e85a67549a_n.jpg",
    "id_album": "-1675918237",
    "description": "WomenWarrior_551719",
    "title": "WomenWarrior_551719",
    "link_img": "https://live.staticflickr.com/65535/50041026328_438f57d5fb_o.jpg",
    "id_image": "WomenWarrior_551719",
    "count_view": 0
  },
  {
    "link_thumb": "https://live.staticflickr.com/65535/50041581741_a332186751_n.jpg",
    "id_album": "-1675918237",
    "description": "WomenWarrior_585247",
    "title": "WomenWarrior_585247",
    "link_img": "https://live.staticflickr.com/65535/50041581741_ab8af969cd_o.jpg",
    "id_image": "WomenWarrior_585247",
    "count_view": 0
  },
  {
    "link_thumb": "https://live.staticflickr.com/65535/50038843673_1deb7d6c35_n.jpg",
    "id_album": "869545341",
    "description": "Astronaut_992537",
    "title": "Astronaut_992537",
    "link_img": "https://live.staticflickr.com/65535/50038843673_bd7a1fa430_o.jpg",
    "id_image": "Astronaut_992537",
    "count_view": 0
  },
  {
    "link_thumb": "https://live.staticflickr.com/65535/50041513847_edb57925aa_n.jpg",
    "id_album": "-1863373220",
    "description": "StarWars_981656",
    "title": "StarWars_981656",
    "link_img": "https://live.staticflickr.com/65535/50041513847_09324522e6_o.jpg",
    "id_image": "StarWars_981656",
    "count_view": 0
  },
  {
    "link_thumb": "https://live.staticflickr.com/65535/50039512691_d05eafa97d_n.jpg",
    "id_album": "-1964113117",
    "description": "City_884373",
    "title": "City_884373",
    "link_img": "https://live.staticflickr.com/65535/50039512691_d35fd2bf82_o.jpg",
    "id_image": "City_884373",
    "count_view": 0
  },
  {
    "link_thumb": "https://live.staticflickr.com/65535/50039275803_32483a594f_n.jpg",
    "id_album": "-1610342324",
    "description": "Nebula_705340",
    "title": "Nebula_705340",
    "link_img": "https://live.staticflickr.com/65535/50039275803_7f866733cc_o.jpg",
    "id_image": "Nebula_705340",
    "count_view": 0
  },
  {
    "link_thumb": "https://live.staticflickr.com/65535/50039894427_6be3b42800_n.jpg",
    "id_album": "1204249541",
    "description": "Galaxy_355062",
    "title": "Galaxy_355062",
    "link_img": "https://live.staticflickr.com/65535/50039894427_6f7a217fb5_o.jpg",
    "id_image": "Galaxy_355062",
    "count_view": 0
  },
  {
    "link_thumb": "https://live.staticflickr.com/65535/50039515686_b9261d340d_n.jpg",
    "id_album": "-1964113117",
    "description": "City_898623",
    "title": "City_898623",
    "link_img": "https://live.staticflickr.com/65535/50039515686_dbfaaef92b_o.jpg",
    "id_image": "City_898623",
    "count_view": 0
  },
  {
    "link_thumb": "https://live.staticflickr.com/65535/50039840071_3e1b57f89a_n.jpg",
    "id_album": "-1610342324",
    "description": "Nebula_814609",
    "title": "Nebula_814609",
    "link_img": "https://live.staticflickr.com/65535/50039840071_85fcc32ddf_o.jpg",
    "id_image": "Nebula_814609",
    "count_view": 0
  },
  {
    "link_thumb": "https://live.staticflickr.com/65535/50039333591_4b7b2afc78_n.jpg",
    "id_album": "523598895",
    "description": "Artistic_397382",
    "title": "Artistic_397382",
    "link_img": "https://live.staticflickr.com/65535/50039333591_2979c7fe58_o.jpg",
    "id_image": "Artistic_397382",
    "count_view": 0
  },
  {
    "link_thumb": "https://live.staticflickr.com/65535/50039118238_7ffba91d1c_n.jpg",
    "id_album": "1402713104",
    "description": "Landscape_252924",
    "title": "Landscape_252924",
    "link_img": "https://live.staticflickr.com/65535/50039118238_d5c269d636_o.jpg",
    "id_image": "Landscape_252924",
    "count_view": 0
  },
  {
    "link_thumb": "https://live.staticflickr.com/65535/50040680277_d6a7581ab1_n.jpg",
    "id_album": "779690680",
    "description": "Robot_918800",
    "title": "Robot_918800",
    "link_img": "https://live.staticflickr.com/65535/50040680277_5e9144c39d_o.jpg",
    "id_image": "Robot_918800",
    "count_view": 0
  },
  {
    "link_thumb": "https://live.staticflickr.com/65535/50039869168_5d0da19ae9_n.jpg",
    "id_album": "779690680",
    "description": "Robot_928578",
    "title": "Robot_928578",
    "link_img": "https://live.staticflickr.com/65535/50039869168_ef1c941e7a_o.jpg",
    "id_image": "Robot_928578",
    "count_view": 0
  },
  {
    "link_thumb": "https://live.staticflickr.com/65535/50039789761_ddd60e5922_n.jpg",
    "id_album": "-1610342324",
    "description": "Nebula_393884",
    "title": "Nebula_393884",
    "link_img": "https://live.staticflickr.com/65535/50039789761_0612ab7952_o.jpg",
    "id_image": "Nebula_393884",
    "count_view": 0
  },
  {
    "link_thumb": "https://live.staticflickr.com/65535/50039533601_a4ebab99d3_n.jpg",
    "id_album": "-1964113117",
    "description": "City_996269",
    "title": "City_996269",
    "link_img": "https://live.staticflickr.com/65535/50039533601_00c2598760_o.jpg",
    "id_image": "City_996269",
    "count_view": 0
  },
  {
    "link_thumb": "https://live.staticflickr.com/65535/50038726178_cf5b828280_n.jpg",
    "id_album": "849020728",
    "description": "Alien_725219",
    "title": "Alien_725219",
    "link_img": "https://live.staticflickr.com/65535/50038726178_de8be8a59c_o.jpg",
    "id_image": "Alien_725219",
    "count_view": 0
  },
  {
    "link_thumb": "https://live.staticflickr.com/65535/50039414153_4ed3569a1e_n.jpg",
    "id_album": "395161030",
    "description": "Planet_559151",
    "title": "Planet_559151",
    "link_img": "https://live.staticflickr.com/65535/50039414153_94141061ff_o.jpg",
    "id_image": "Planet_559151",
    "count_view": 0
  },
  {
    "link_thumb": "https://live.staticflickr.com/65535/50039761227_6d64370923_n.jpg",
    "id_album": "-1964113117",
    "description": "City_819046",
    "title": "City_819046",
    "link_img": "https://live.staticflickr.com/65535/50039761227_61727c0eb7_o.jpg",
    "id_image": "City_819046",
    "count_view": 0
  },
  {
    "link_thumb": "https://live.staticflickr.com/65535/50039603287_5fc069ae44_n.jpg",
    "id_album": "523598895",
    "description": "Artistic_665847",
    "title": "Artistic_665847",
    "link_img": "https://live.staticflickr.com/65535/50039603287_cb667343e3_o.jpg",
    "id_image": "Artistic_665847",
    "count_view": 0
  },
  {
    "link_thumb": "https://live.staticflickr.com/65535/50040015856_1ba6a8b3bf_n.jpg",
    "id_album": "1443611160",
    "description": "PlanetRise_83101",
    "title": "PlanetRise_83101",
    "link_img": "https://live.staticflickr.com/65535/50040015856_9fc8be33d8_o.jpg",
    "id_image": "PlanetRise_83101",
    "count_view": 0
  },
  {
    "link_thumb": "https://live.staticflickr.com/65535/50039148758_841122936a_n.jpg",
    "id_album": "1402713104",
    "description": "Landscape_650217",
    "title": "Landscape_650217",
    "link_img": "https://live.staticflickr.com/65535/50039148758_bd45c469a1_o.jpg",
    "id_image": "Landscape_650217",
    "count_view": 0
  },
  {
    "link_thumb": "https://live.staticflickr.com/65535/50040049893_97c0b8f962_n.jpg",
    "id_album": "2130067313",
    "description": "Spaceship_238299",
    "title": "Spaceship_238299",
    "link_img": "https://live.staticflickr.com/65535/50040049893_6f4c9e8e72_o.jpg",
    "id_image": "Spaceship_238299",
    "count_view": 0
  },
  {
    "link_thumb": "https://live.staticflickr.com/65535/50039387471_f69b3bf492_n.jpg",
    "id_album": "869545341",
    "description": "Astronaut_969795",
    "title": "Astronaut_969795",
    "link_img": "https://live.staticflickr.com/65535/50039387471_f1234048e0_o.jpg",
    "id_image": "Astronaut_969795",
    "count_view": 0
  },
  {
    "link_thumb": "https://live.staticflickr.com/65535/50039417503_1ded3a6869_n.jpg",
    "id_album": "395161030",
    "description": "Planet_585117",
    "title": "Planet_585117",
    "link_img": "https://live.staticflickr.com/65535/50039417503_e035886e79_o.jpg",
    "id_image": "Planet_585117",
    "count_view": 0
  },
  {
    "link_thumb": "https://live.staticflickr.com/65535/50039413286_dca54f1d05_n.jpg",
    "id_album": "-1780971522",
    "description": "Biohazard_333211",
    "title": "Biohazard_333211",
    "link_img": "https://live.staticflickr.com/65535/50039413286_0f4d694e63_o.jpg",
    "id_image": "Biohazard_333211",
    "count_view": 0
  },
  {
    "link_thumb": "https://live.staticflickr.com/65535/50039543896_6d0e2144d0_n.jpg",
    "id_album": "894679094",
    "description": "Collision_864727",
    "title": "Collision_864727",
    "link_img": "https://live.staticflickr.com/65535/50039543896_f3063d1953_o.jpg",
    "id_image": "Collision_864727",
    "count_view": 0
  },
  {
    "link_thumb": "https://live.staticflickr.com/65535/50039665897_6885fbc034_n.jpg",
    "id_album": "1187037014",
    "description": "Battle_559693",
    "title": "Battle_559693",
    "link_img": "https://live.staticflickr.com/65535/50039665897_8b0263f727_o.jpg",
    "id_image": "Battle_559693",
    "count_view": 0
  },
  {
    "link_thumb": "https://live.staticflickr.com/65535/50041386516_184b52f8c3_n.jpg",
    "id_album": "2020068132",
    "description": "Vehicle_311985",
    "title": "Vehicle_311985",
    "link_img": "https://live.staticflickr.com/65535/50041386516_45c9812985_o.jpg",
    "id_image": "Vehicle_311985",
    "count_view": 0
  },
  {
    "link_thumb": "https://live.staticflickr.com/65535/50039433338_f97d1d2b2f_n.jpg",
    "id_album": "395161030",
    "description": "Planet_920764",
    "title": "Planet_920764",
    "link_img": "https://live.staticflickr.com/65535/50039433338_357a90b9e7_o.jpg",
    "id_image": "Planet_920764",
    "count_view": 0
  },
  {
    "link_thumb": "https://live.staticflickr.com/65535/50039684662_5f78efb6d1_n.jpg",
    "id_album": "406431601",
    "description": "Building_529582",
    "title": "Building_529582",
    "link_img": "https://live.staticflickr.com/65535/50039684662_ed290be856_o.jpg",
    "id_image": "Building_529582",
    "count_view": 0
  },
  {
    "link_thumb": "https://live.staticflickr.com/65535/50039360351_208a78cdb7_n.jpg",
    "id_album": "869545341",
    "description": "Astronaut_597456",
    "title": "Astronaut_597456",
    "link_img": "https://live.staticflickr.com/65535/50039360351_83842217d3_o.jpg",
    "id_image": "Astronaut_597456",
    "count_view": 0
  },
  {
    "link_thumb": "https://live.staticflickr.com/65535/50040567862_788db4a0a3_n.jpg",
    "id_album": "779690680",
    "description": "Robot_404833",
    "title": "Robot_404833",
    "link_img": "https://live.staticflickr.com/65535/50040567862_cd0de7e33b_o.jpg",
    "id_image": "Robot_404833",
    "count_view": 0
  },
  {
    "link_thumb": "https://live.staticflickr.com/65535/50039729417_cc7c36b25d_n.jpg",
    "id_album": "-1964113117",
    "description": "City_384781",
    "title": "City_384781",
    "link_img": "https://live.staticflickr.com/65535/50039729417_0c21b550d9_o.jpg",
    "id_image": "City_384781",
    "count_view": 0
  },
  {
    "link_thumb": "https://live.staticflickr.com/65535/50040861303_f43e52962e_n.jpg",
    "id_album": "2020068132",
    "description": "Vehicle_854208",
    "title": "Vehicle_854208",
    "link_img": "https://live.staticflickr.com/65535/50040861303_f5c44fdd3f_o.jpg",
    "id_image": "Vehicle_854208",
    "count_view": 0
  },
  {
    "link_thumb": "https://live.staticflickr.com/65535/50040702207_b039b704bd_n.jpg",
    "id_album": "779690680",
    "description": "Robot_9444",
    "title": "Robot_9444",
    "link_img": "https://live.staticflickr.com/65535/50040702207_9d6facde04_o.jpg",
    "id_image": "Robot_9444",
    "count_view": 0
  },
  {
    "link_thumb": "https://live.staticflickr.com/65535/50040562547_51d3432fef_n.jpg",
    "id_album": "779690680",
    "description": "Robot_376314",
    "title": "Robot_376314",
    "link_img": "https://live.staticflickr.com/65535/50040562547_409a137410_o.jpg",
    "id_image": "Robot_376314",
    "count_view": 0
  },
  {
    "link_thumb": "https://live.staticflickr.com/65535/50040205481_132e3d57e1_n.jpg",
    "id_album": "-482547208",
    "description": "PostApocalyptic_314445",
    "title": "PostApocalyptic_314445",
    "link_img": "https://live.staticflickr.com/65535/50040205481_99cd6ecaef_o.jpg",
    "id_image": "PostApocalyptic_314445",
    "count_view": 0
  },
  {
    "link_thumb": "https://live.staticflickr.com/65535/50040240766_c45f7f363e_n.jpg",
    "id_album": "-839602625",
    "description": "Predator_333755",
    "title": "Predator_333755",
    "link_img": "https://live.staticflickr.com/65535/50040240766_50eec543dc_o.jpg",
    "id_image": "Predator_333755",
    "count_view": 0
  },
  {
    "link_thumb": "https://live.staticflickr.com/65535/50040093803_10c88dd68e_n.jpg",
    "id_album": "2130067313",
    "description": "Spaceship_317008",
    "title": "Spaceship_317008",
    "link_img": "https://live.staticflickr.com/65535/50040093803_3aea09940a_o.jpg",
    "id_image": "Spaceship_317008",
    "count_view": 0
  },
  {
    "link_thumb": "https://live.staticflickr.com/65535/50041563377_7cee198df0_n.jpg",
    "id_album": "1267121215",
    "description": "Steampunk_21623",
    "title": "Steampunk_21623",
    "link_img": "https://live.staticflickr.com/65535/50041563377_5e8fd5d829_o.jpg",
    "id_image": "Steampunk_21623",
    "count_view": 0
  },
  {
    "link_thumb": "https://live.staticflickr.com/65535/50039108303_89f33f385a_n.jpg",
    "id_album": "1204249541",
    "description": "Galaxy_984395",
    "title": "Galaxy_984395",
    "link_img": "https://live.staticflickr.com/65535/50039108303_e338379a11_o.jpg",
    "id_image": "Galaxy_984395",
    "count_view": 0
  },
  {
    "link_thumb": "https://live.staticflickr.com/65535/50039720256_449d043649_n.jpg",
    "id_album": "1402713104",
    "description": "Landscape_902745",
    "title": "Landscape_902745",
    "link_img": "https://live.staticflickr.com/65535/50039720256_47a3b684ff_o.jpg",
    "id_image": "Landscape_902745",
    "count_view": 0
  },
  {
    "link_thumb": "https://live.staticflickr.com/65535/50039088798_b22976553c_n.jpg",
    "id_album": "1204249541",
    "description": "Galaxy_502935",
    "title": "Galaxy_502935",
    "link_img": "https://live.staticflickr.com/65535/50039088798_a0eb0fa0cb_o.jpg",
    "id_image": "Galaxy_502935",
    "count_view": 0
  },
  {
    "link_thumb": "https://live.staticflickr.com/65535/50039061098_31b8e5929b_n.jpg",
    "id_album": "651930207",
    "description": "Explosion_370831",
    "title": "Explosion_370831",
    "link_img": "https://live.staticflickr.com/65535/50039061098_aeda350901_o.jpg",
    "id_image": "Explosion_370831",
    "count_view": 0
  },
  {
    "link_thumb": "https://live.staticflickr.com/65535/50041846522_1ec5cff7ac_n.jpg",
    "id_album": "-1675918237",
    "description": "WomenWarrior_609330",
    "title": "WomenWarrior_609330",
    "link_img": "https://live.staticflickr.com/65535/50041846522_5295e470d2_o.jpg",
    "id_image": "WomenWarrior_609330",
    "count_view": 0
  },
  {
    "link_thumb": "https://live.staticflickr.com/65535/50039957092_567d333c60_n.jpg",
    "id_album": "1402713104",
    "description": "Landscape_553026",
    "title": "Landscape_553026",
    "link_img": "https://live.staticflickr.com/65535/50039957092_0f700ff7bf_o.jpg",
    "id_image": "Landscape_553026",
    "count_view": 0
  },
  {
    "link_thumb": "https://live.staticflickr.com/65535/50039502088_96f33e98e4_n.jpg",
    "id_album": "-1102314093",
    "description": "Planets_148096",
    "title": "Planets_148096",
    "link_img": "https://live.staticflickr.com/65535/50039502088_229c2cf0f1_o.jpg",
    "id_image": "Planets_148096",
    "count_view": 0
  },
  {
    "link_thumb": "https://live.staticflickr.com/65535/50038757958_b194714199_n.jpg",
    "id_album": "523598895",
    "description": "Artistic_179712",
    "title": "Artistic_179712",
    "link_img": "https://live.staticflickr.com/65535/50038757958_f73358b1e4_o.jpg",
    "id_image": "Artistic_179712",
    "count_view": 0
  },
  {
    "link_thumb": "https://live.staticflickr.com/65535/50040611483_7b5761554a_n.jpg",
    "id_album": "-1863373220",
    "description": "StarWars_320291",
    "title": "StarWars_320291",
    "link_img": "https://live.staticflickr.com/65535/50040611483_1ed0a76c7c_o.jpg",
    "id_image": "StarWars_320291",
    "count_view": 0
  },
  {
    "link_thumb": "https://live.staticflickr.com/65535/50039668867_278a3233e3_n.jpg",
    "id_album": "1187037014",
    "description": "Battle_687274",
    "title": "Battle_687274",
    "link_img": "https://live.staticflickr.com/65535/50039668867_ef7a2d62f5_o.jpg",
    "id_image": "Battle_687274",
    "count_view": 0
  },
  {
    "link_thumb": "https://live.staticflickr.com/65535/50039089738_3321476d94_n.jpg",
    "id_album": "1204249541",
    "description": "Galaxy_518495",
    "title": "Galaxy_518495",
    "link_img": "https://live.staticflickr.com/65535/50039089738_4a4fec64b4_o.jpg",
    "id_image": "Galaxy_518495",
    "count_view": 0
  },
  {
    "link_thumb": "https://live.staticflickr.com/65535/50039690756_f035c2ac55_n.jpg",
    "id_album": "1402713104",
    "description": "Landscape_505517",
    "title": "Landscape_505517",
    "link_img": "https://live.staticflickr.com/65535/50039690756_988595c684_o.jpg",
    "id_image": "Landscape_505517",
    "count_view": 0
  },
  {
    "link_thumb": "https://live.staticflickr.com/65535/50039656707_41b1fd95e4_n.jpg",
    "id_album": "1187037014",
    "description": "Battle_150262",
    "title": "Battle_150262",
    "link_img": "https://live.staticflickr.com/65535/50039656707_eb3627472d_o.jpg",
    "id_image": "Battle_150262",
    "count_view": 0
  },
  {
    "link_thumb": "https://live.staticflickr.com/65535/50040542526_3f2f565e2c_n.jpg",
    "id_album": "1613540653",
    "description": "Space_822450",
    "title": "Space_822450",
    "link_img": "https://live.staticflickr.com/65535/50040542526_fb7acf4825_o.jpg",
    "id_image": "Space_822450",
    "count_view": 0
  },
  {
    "link_thumb": "https://live.staticflickr.com/65535/50039402503_b3eed3c971_n.jpg",
    "id_album": "395161030",
    "description": "Planet_464552",
    "title": "Planet_464552",
    "link_img": "https://live.staticflickr.com/65535/50039402503_ff9c15b5e1_o.jpg",
    "id_image": "Planet_464552",
    "count_view": 0
  },
  {
    "link_thumb": "https://live.staticflickr.com/65535/50038871283_70987feca7_n.jpg",
    "id_album": "-1780971522",
    "description": "Biohazard_633661",
    "title": "Biohazard_633661",
    "link_img": "https://live.staticflickr.com/65535/50038871283_ec1c6c97dd_o.jpg",
    "id_image": "Biohazard_633661",
    "count_view": 0
  },
  {
    "link_thumb": "https://live.staticflickr.com/65535/50039436516_cd57fe9945_n.jpg",
    "id_album": "-1964113117",
    "description": "City_155240",
    "title": "City_155240",
    "link_img": "https://live.staticflickr.com/65535/50039436516_af0dff472b_o.jpg",
    "id_image": "City_155240",
    "count_view": 0
  },
  {
    "link_thumb": "https://live.staticflickr.com/65535/50039415863_4d8a822821_n.jpg",
    "id_album": "395161030",
    "description": "Planet_567134",
    "title": "Planet_567134",
    "link_img": "https://live.staticflickr.com/65535/50039415863_3c388a3965_o.jpg",
    "id_image": "Planet_567134",
    "count_view": 0
  },
  {
    "link_thumb": "https://live.staticflickr.com/65535/50039770788_4559a8f61d_n.jpg",
    "id_album": "779690680",
    "description": "Robot_471101",
    "title": "Robot_471101",
    "link_img": "https://live.staticflickr.com/65535/50039770788_bb0616b453_o.jpg",
    "id_image": "Robot_471101",
    "count_view": 0
  },
  {
    "link_thumb": "https://live.staticflickr.com/65535/50039927502_f56867f9f5_n.jpg",
    "id_album": "1402713104",
    "description": "Landscape_188210",
    "title": "Landscape_188210",
    "link_img": "https://live.staticflickr.com/65535/50039927502_577f31fddd_o.jpg",
    "id_image": "Landscape_188210",
    "count_view": 0
  },
  {
    "link_thumb": "https://live.staticflickr.com/65535/50039304711_09da404022_n.jpg",
    "id_album": "523598895",
    "description": "Artistic_176743",
    "title": "Artistic_176743",
    "link_img": "https://live.staticflickr.com/65535/50039304711_b18678149d_o.jpg",
    "id_image": "Artistic_176743",
    "count_view": 0
  },
  {
    "link_thumb": "https://live.staticflickr.com/65535/50039352843_52494b4a59_n.jpg",
    "id_album": "395161030",
    "description": "Planet_1010650",
    "title": "Planet_1010650",
    "link_img": "https://live.staticflickr.com/65535/50039352843_fa78a6de02_o.jpg",
    "id_image": "Planet_1010650",
    "count_view": 0
  },
  {
    "link_thumb": "https://live.staticflickr.com/65535/50040203112_157c5421f5_n.jpg",
    "id_album": "395161030",
    "description": "Planet_371297",
    "title": "Planet_371297",
    "link_img": "https://live.staticflickr.com/65535/50040203112_f18033737c_o.jpg",
    "id_image": "Planet_371297",
    "count_view": 0
  },
  {
    "link_thumb": "https://live.staticflickr.com/65535/50039875563_d1d7d73a2d_n.jpg",
    "id_album": "779690680",
    "description": "Robot_933176",
    "title": "Robot_933176",
    "link_img": "https://live.staticflickr.com/65535/50039875563_3fabc64571_o.jpg",
    "id_image": "Robot_933176",
    "count_view": 0
  },
  {
    "link_thumb": "https://live.staticflickr.com/65535/50039855068_0f2ee4cc11_n.jpg",
    "id_album": "779690680",
    "description": "Robot_911876",
    "title": "Robot_911876",
    "link_img": "https://live.staticflickr.com/65535/50039855068_eef4585773_o.jpg",
    "id_image": "Robot_911876",
    "count_view": 0
  },
  {
    "link_thumb": "https://live.staticflickr.com/65535/50041351426_00ee3a4f1d_n.jpg",
    "id_album": "-221671103",
    "description": "Sun_549919",
    "title": "Sun_549919",
    "link_img": "https://live.staticflickr.com/65535/50041351426_6177a6fa10_o.jpg",
    "id_image": "Sun_549919",
    "count_view": 0
  },
  {
    "link_thumb": "https://live.staticflickr.com/65535/50039451773_92f5d9ef5b_n.jpg",
    "id_album": "1443611160",
    "description": "PlanetRise_352904",
    "title": "PlanetRise_352904",
    "link_img": "https://live.staticflickr.com/65535/50039451773_f18de5d5db_o.jpg",
    "id_image": "PlanetRise_352904",
    "count_view": 0
  },
  {
    "link_thumb": "https://live.staticflickr.com/65535/50040068822_21f2fbeefb_n.jpg",
    "id_album": "-1610342324",
    "description": "Nebula_533835",
    "title": "Nebula_533835",
    "link_img": "https://live.staticflickr.com/65535/50040068822_87d6d935be_o.jpg",
    "id_image": "Nebula_533835",
    "count_view": 0
  },
  {
    "link_thumb": "https://live.staticflickr.com/65535/50039104443_27cf8a928a_n.jpg",
    "id_album": "1204249541",
    "description": "Galaxy_835682",
    "title": "Galaxy_835682",
    "link_img": "https://live.staticflickr.com/65535/50039104443_30a1e493e5_o.jpg",
    "id_image": "Galaxy_835682",
    "count_view": 0
  },
  {
    "link_thumb": "https://live.staticflickr.com/65535/50041845232_308b21955b_n.jpg",
    "id_album": "-1675918237",
    "description": "WomenWarrior_602057",
    "title": "WomenWarrior_602057",
    "link_img": "https://live.staticflickr.com/65535/50041845232_e6c4b3c81d_o.jpg",
    "id_image": "WomenWarrior_602057",
    "count_view": 0
  },
  {
    "link_thumb": "https://live.staticflickr.com/65535/50040063556_29187afa55_n.jpg",
    "id_album": "-1102314093",
    "description": "Planets_235241",
    "title": "Planets_235241",
    "link_img": "https://live.staticflickr.com/65535/50040063556_80863c2a0e_o.jpg",
    "id_image": "Planets_235241",
    "count_view": 0
  },
  {
    "link_thumb": "https://live.staticflickr.com/65535/50040474326_143fc64e99_n.jpg",
    "id_album": "1613540653",
    "description": "Space_180938",
    "title": "Space_180938",
    "link_img": "https://live.staticflickr.com/65535/50040474326_d0abfd4255_o.jpg",
    "id_image": "Space_180938",
    "count_view": 0
  },
  {
    "link_thumb": "https://live.staticflickr.com/65535/50038895113_490604467c_n.jpg",
    "id_album": "-1964113117",
    "description": "City_205979",
    "title": "City_205979",
    "link_img": "https://live.staticflickr.com/65535/50038895113_7d433d8c6a_o.jpg",
    "id_image": "City_205979",
    "count_view": 0
  },
  {
    "link_thumb": "https://live.staticflickr.com/65535/50039734511_d7821ff78d_n.jpg",
    "id_album": "-1388385651",
    "description": "MilkyWay_590421",
    "title": "MilkyWay_590421",
    "link_img": "https://live.staticflickr.com/65535/50039734511_ebf0b91b82_o.jpg",
    "id_image": "MilkyWay_590421",
    "count_view": 0
  },
  {
    "link_thumb": "https://live.staticflickr.com/65535/50040599676_7ed842bcf8_n.jpg",
    "id_album": "2130067313",
    "description": "Spaceship_215129",
    "title": "Spaceship_215129",
    "link_img": "https://live.staticflickr.com/65535/50040599676_789dd29d26_o.jpg",
    "id_image": "Spaceship_215129",
    "count_view": 0
  },
  {
    "link_thumb": "https://live.staticflickr.com/65535/50040042503_6e2433f607_n.jpg",
    "id_album": "2130067313",
    "description": "Spaceship_195156",
    "title": "Spaceship_195156",
    "link_img": "https://live.staticflickr.com/65535/50040042503_dc4f3bf7d9_o.jpg",
    "id_image": "Spaceship_195156",
    "count_view": 0
  },
  {
    "link_thumb": "https://live.staticflickr.com/65535/50040141242_b78363f3c9_n.jpg",
    "id_album": "1402713104",
    "description": "Landscape_319082",
    "title": "Landscape_319082",
    "link_img": "https://live.staticflickr.com/65535/50040141242_54783b3160_o.jpg",
    "id_image": "Landscape_319082",
    "count_view": 0
  },
  {
    "link_thumb": "https://live.staticflickr.com/65535/50039873708_e9ded4b9c6_n.jpg",
    "id_album": "779690680",
    "description": "Robot_930303",
    "title": "Robot_930303",
    "link_img": "https://live.staticflickr.com/65535/50039873708_f1d4ba1866_o.jpg",
    "id_image": "Robot_930303",
    "count_view": 0
  },
  {
    "link_thumb": "https://live.staticflickr.com/65535/50039780367_7e1b84899f_n.jpg",
    "id_album": "-1964113117",
    "description": "City_906337",
    "title": "City_906337",
    "link_img": "https://live.staticflickr.com/65535/50039780367_6ec599353f_o.jpg",
    "id_image": "City_906337",
    "count_view": 0
  },
  {
    "link_thumb": "https://live.staticflickr.com/65535/50039110378_923ae92fba_n.jpg",
    "id_album": "1402713104",
    "description": "Landscape_113753",
    "title": "Landscape_113753",
    "link_img": "https://live.staticflickr.com/65535/50039110378_f189991509_o.jpg",
    "id_image": "Landscape_113753",
    "count_view": 0
  },
  {
    "link_thumb": "https://live.staticflickr.com/65535/50039626691_9e9d8da910_n.jpg",
    "id_album": "1204249541",
    "description": "Galaxy_206132",
    "title": "Galaxy_206132",
    "link_img": "https://live.staticflickr.com/65535/50039626691_3425d2584f_o.jpg",
    "id_image": "Galaxy_206132",
    "count_view": 0
  },
  {
    "link_thumb": "https://live.staticflickr.com/65535/50040500452_c47017c786_n.jpg",
    "id_album": "-482547208",
    "description": "PostApocalyptic_977052",
    "title": "PostApocalyptic_977052",
    "link_img": "https://live.staticflickr.com/65535/50040500452_caaf79a6f7_o.jpg",
    "id_image": "PostApocalyptic_977052",
    "count_view": 0
  },
  {
    "link_thumb": "https://live.staticflickr.com/65535/50039616693_ba804308e4_n.jpg",
    "id_album": "376235057",
    "description": "Planetscape_372285",
    "title": "Planetscape_372285",
    "link_img": "https://live.staticflickr.com/65535/50039616693_d8b865fa47_o.jpg",
    "id_image": "Planetscape_372285",
    "count_view": 0
  },
  {
    "link_thumb": "https://live.staticflickr.com/65535/50040878168_45bbf5ee61_n.jpg",
    "id_album": "-1261420436",
    "description": "Warrior_162261",
    "title": "Warrior_162261",
    "link_img": "https://live.staticflickr.com/65535/50040878168_ffe1d1f576_o.jpg",
    "id_image": "Warrior_162261",
    "count_view": 0
  },
  {
    "link_thumb": "https://live.staticflickr.com/65535/50041560802_3bb2dff9f7_n.jpg",
    "id_album": "1267121215",
    "description": "Steampunk_191453",
    "title": "Steampunk_191453",
    "link_img": "https://live.staticflickr.com/65535/50041560802_b24a4d44b4_o.jpg",
    "id_image": "Steampunk_191453",
    "count_view": 0
  },
  {
    "link_thumb": "https://live.staticflickr.com/65535/50038756353_65d0221b50_n.jpg",
    "id_album": "523598895",
    "description": "Artistic_175402",
    "title": "Artistic_175402",
    "link_img": "https://live.staticflickr.com/65535/50038756353_d373bc7fcd_o.jpg",
    "id_image": "Artistic_175402",
    "count_view": 0
  },
  {
    "link_thumb": "https://live.staticflickr.com/65535/50040773673_d32ac410b8_n.jpg",
    "id_album": "1267121215",
    "description": "Steampunk_713739",
    "title": "Steampunk_713739",
    "link_img": "https://live.staticflickr.com/65535/50040773673_da0cb6a34a_o.jpg",
    "id_image": "Steampunk_713739",
    "count_view": 0
  },
  {
    "link_thumb": "https://live.staticflickr.com/65535/50040532016_461b40f0b8_n.jpg",
    "id_album": "1613540653",
    "description": "Space_70800",
    "title": "Space_70800",
    "link_img": "https://live.staticflickr.com/65535/50040532016_8983d8bc17_o.jpg",
    "id_image": "Space_70800",
    "count_view": 0
  },
  {
    "link_thumb": "https://live.staticflickr.com/65535/50039221328_d8237f3741_n.jpg",
    "id_album": "-1610342324",
    "description": "Nebula_215880",
    "title": "Nebula_215880",
    "link_img": "https://live.staticflickr.com/65535/50039221328_4dbfb4da69_o.jpg",
    "id_image": "Nebula_215880",
    "count_view": 0
  },
  {
    "link_thumb": "https://live.staticflickr.com/65535/50039565752_1e7cbabd47_n.jpg",
    "id_album": "523598895",
    "description": "Artistic_174836",
    "title": "Artistic_174836",
    "link_img": "https://live.staticflickr.com/65535/50039565752_228023ebce_o.jpg",
    "id_image": "Artistic_174836",
    "count_view": 0
  },
  {
    "link_thumb": "https://live.staticflickr.com/65535/50039675871_6c68d89b52_n.jpg",
    "id_album": "1402713104",
    "description": "Landscape_323795",
    "title": "Landscape_323795",
    "link_img": "https://live.staticflickr.com/65535/50039675871_96e5113680_o.jpg",
    "id_image": "Landscape_323795",
    "count_view": 0
  },
  {
    "link_thumb": "https://live.staticflickr.com/65535/50038920473_8f8f0715cc_n.jpg",
    "id_album": "-1964113117",
    "description": "City_403207",
    "title": "City_403207",
    "link_img": "https://live.staticflickr.com/65535/50038920473_f73d9c1f9c_o.jpg",
    "id_image": "City_403207",
    "count_view": 0
  },
  {
    "link_thumb": "https://live.staticflickr.com/65535/50040178883_0693de2f47_n.jpg",
    "id_album": "2130067313",
    "description": "Spaceship_676807",
    "title": "Spaceship_676807",
    "link_img": "https://live.staticflickr.com/65535/50040178883_eb6c9a9001_o.jpg",
    "id_image": "Spaceship_676807",
    "count_view": 0
  },
  {
    "link_thumb": "https://live.staticflickr.com/65535/50040783788_5291b56dfe_n.jpg",
    "id_album": "-221671103",
    "description": "Sun_1270",
    "title": "Sun_1270",
    "link_img": "https://live.staticflickr.com/65535/50040783788_0d481f6fbd_o.jpg",
    "id_image": "Sun_1270",
    "count_view": 0
  },
  {
    "link_thumb": "https://live.staticflickr.com/65535/50039295718_035cfb1ac7_n.jpg",
    "id_album": "-1610342324",
    "description": "Nebula_864570",
    "title": "Nebula_864570",
    "link_img": "https://live.staticflickr.com/65535/50039295718_18b1f45c9a_o.jpg",
    "id_image": "Nebula_864570",
    "count_view": 0
  },
  {
    "link_thumb": "https://live.staticflickr.com/65535/50039654571_53c5c625a7_n.jpg",
    "id_album": "1204249541",
    "description": "Galaxy_86678",
    "title": "Galaxy_86678",
    "link_img": "https://live.staticflickr.com/65535/50039654571_325b45ba47_o.jpg",
    "id_image": "Galaxy_86678",
    "count_view": 0
  },
  {
    "link_thumb": "https://live.staticflickr.com/65535/50040749992_b3b1d09777_n.jpg",
    "id_album": "1613540653",
    "description": "Space_286641",
    "title": "Space_286641",
    "link_img": "https://live.staticflickr.com/65535/50040749992_d732e3e0c9_o.jpg",
    "id_image": "Space_286641",
    "count_view": 0
  },
  {
    "link_thumb": "https://live.staticflickr.com/65535/50039599297_3dcd2f160a_n.jpg",
    "id_album": "523598895",
    "description": "Artistic_474379",
    "title": "Artistic_474379",
    "link_img": "https://live.staticflickr.com/65535/50039599297_cfbc932599_o.jpg",
    "id_image": "Artistic_474379",
    "count_view": 0
  },
  {
    "link_thumb": "https://live.staticflickr.com/65535/50039392701_5b7e472cfe_n.jpg",
    "id_album": "1187037014",
    "description": "Battle_112508",
    "title": "Battle_112508",
    "link_img": "https://live.staticflickr.com/65535/50039392701_c77d5a8a11_o.jpg",
    "id_image": "Battle_112508",
    "count_view": 0
  },
  {
    "link_thumb": "https://live.staticflickr.com/65535/50038714273_5dd9901730_n.jpg",
    "id_album": "849020728",
    "description": "Alien_393508",
    "title": "Alien_393508",
    "link_img": "https://live.staticflickr.com/65535/50038714273_d698b3ea54_o.jpg",
    "id_image": "Alien_393508",
    "count_view": 0
  },
  {
    "link_thumb": "https://live.staticflickr.com/65535/50039089038_d34e041463_n.jpg",
    "id_album": "1204249541",
    "description": "Galaxy_503796",
    "title": "Galaxy_503796",
    "link_img": "https://live.staticflickr.com/65535/50039089038_268c691e7f_o.jpg",
    "id_image": "Galaxy_503796",
    "count_view": 0
  },
  {
    "link_thumb": "https://live.staticflickr.com/65535/50038860613_de03b53aa4_n.jpg",
    "id_album": "1187037014",
    "description": "Battle_941456",
    "title": "Battle_941456",
    "link_img": "https://live.staticflickr.com/65535/50038860613_16b0b70de0_o.jpg",
    "id_image": "Battle_941456",
    "count_view": 0
  },
  {
    "link_thumb": "https://live.staticflickr.com/65535/50038810163_4fed36046e_n.jpg",
    "id_album": "869545341",
    "description": "Astronaut_565707",
    "title": "Astronaut_565707",
    "link_img": "https://live.staticflickr.com/65535/50038810163_446a8e2ddd_o.jpg",
    "id_image": "Astronaut_565707",
    "count_view": 0
  },
  {
    "link_thumb": "https://live.staticflickr.com/65535/50039621563_d407dfbe9e_n.jpg",
    "id_album": "376235057",
    "description": "Planetscape_423586",
    "title": "Planetscape_423586",
    "link_img": "https://live.staticflickr.com/65535/50039621563_0650b52511_o.jpg",
    "id_image": "Planetscape_423586",
    "count_view": 0
  },
  {
    "link_thumb": "https://live.staticflickr.com/65535/50040050433_16871e3977_n.jpg",
    "id_album": "2130067313",
    "description": "Spaceship_239613",
    "title": "Spaceship_239613",
    "link_img": "https://live.staticflickr.com/65535/50040050433_34ed5e54ab_o.jpg",
    "id_image": "Spaceship_239613",
    "count_view": 0
  },
  {
    "link_thumb": "https://live.staticflickr.com/65535/50039777261_57d6f83b9c_n.jpg",
    "id_album": "-1610342324",
    "description": "Nebula_2533",
    "title": "Nebula_2533",
    "link_img": "https://live.staticflickr.com/65535/50039777261_1496f6f89a_o.jpg",
    "id_image": "Nebula_2533",
    "count_view": 0
  },
  {
    "link_thumb": "https://live.staticflickr.com/65535/50039659017_143e3feec8_n.jpg",
    "id_album": "1187037014",
    "description": "Battle_221914",
    "title": "Battle_221914",
    "link_img": "https://live.staticflickr.com/65535/50039659017_98ab5f27d2_o.jpg",
    "id_image": "Battle_221914",
    "count_view": 0
  },
  {
    "link_thumb": "https://live.staticflickr.com/65535/50040687773_ab5a280dee_n.jpg",
    "id_album": "-1863373220",
    "description": "StarWars_919884",
    "title": "StarWars_919884",
    "link_img": "https://live.staticflickr.com/65535/50040687773_12b86310b6_o.jpg",
    "id_image": "StarWars_919884",
    "count_view": 0
  },
  {
    "link_thumb": "https://live.staticflickr.com/65535/50039744212_299cfd8944_n.jpg",
    "id_album": "-1964113117",
    "description": "City_616579",
    "title": "City_616579",
    "link_img": "https://live.staticflickr.com/65535/50039744212_8caae0a7a8_o.jpg",
    "id_image": "City_616579",
    "count_view": 0
  },
  {
    "link_thumb": "https://live.staticflickr.com/65535/50039878998_7ae50c9485_n.jpg",
    "id_album": "779690680",
    "description": "Robot_937791",
    "title": "Robot_937791",
    "link_img": "https://live.staticflickr.com/65535/50039878998_e320fbf64d_o.jpg",
    "id_image": "Robot_937791",
    "count_view": 0
  },
  {
    "link_thumb": "https://live.staticflickr.com/65535/50039782556_aa05965b37_n.jpg",
    "id_album": "-1610342324",
    "description": "Nebula_286807",
    "title": "Nebula_286807",
    "link_img": "https://live.staticflickr.com/65535/50039782556_1e4c596b0c_o.jpg",
    "id_image": "Nebula_286807",
    "count_view": 0
  },
  {
    "link_thumb": "https://live.staticflickr.com/65535/50040004086_b838615ef9_n.jpg",
    "id_album": "1443611160",
    "description": "PlanetRise_369752",
    "title": "PlanetRise_369752",
    "link_img": "https://live.staticflickr.com/65535/50040004086_f1bccdbf3b_o.jpg",
    "id_image": "PlanetRise_369752",
    "count_view": 0
  },
  {
    "link_thumb": "https://live.staticflickr.com/65535/50040846273_4d3319749f_n.jpg",
    "id_album": "2020068132",
    "description": "Vehicle_427318",
    "title": "Vehicle_427318",
    "link_img": "https://live.staticflickr.com/65535/50040846273_4ddc264315_o.jpg",
    "id_image": "Vehicle_427318",
    "count_view": 0
  },
  {
    "link_thumb": "https://live.staticflickr.com/65535/50039630057_56c9fd7224_n.jpg",
    "id_album": "869545341",
    "description": "Astronaut_807131",
    "title": "Astronaut_807131",
    "link_img": "https://live.staticflickr.com/65535/50039630057_c51821f476_o.jpg",
    "id_image": "Astronaut_807131",
    "count_view": 0
  },
  {
    "link_thumb": "https://live.staticflickr.com/65535/50039846823_b0ff9bd13a_n.jpg",
    "id_album": "779690680",
    "description": "Robot_901627",
    "title": "Robot_901627",
    "link_img": "https://live.staticflickr.com/65535/50039846823_563937f894_o.jpg",
    "id_image": "Robot_901627",
    "count_view": 0
  },
  {
    "link_thumb": "https://live.staticflickr.com/65535/50039788157_d43efe2408_n.jpg",
    "id_album": "-1964113117",
    "description": "City_955656",
    "title": "City_955656",
    "link_img": "https://live.staticflickr.com/65535/50039788157_30891660f7_o.jpg",
    "id_image": "City_955656",
    "count_view": 0
  },
  {
    "link_thumb": "https://live.staticflickr.com/65535/50039263683_c4254d0cd9_n.jpg",
    "id_album": "-1610342324",
    "description": "Nebula_585161",
    "title": "Nebula_585161",
    "link_img": "https://live.staticflickr.com/65535/50039263683_eed89b839b_o.jpg",
    "id_image": "Nebula_585161",
    "count_view": 0
  },
  {
    "link_thumb": "https://live.staticflickr.com/65535/50040107802_9420c59c77_n.jpg",
    "id_album": "-1610342324",
    "description": "Nebula_843862",
    "title": "Nebula_843862",
    "link_img": "https://live.staticflickr.com/65535/50040107802_f75a34e81f_o.jpg",
    "id_image": "Nebula_843862",
    "count_view": 0
  },
  {
    "link_thumb": "https://live.staticflickr.com/65535/50040437822_82b623feb8_n.jpg",
    "id_album": "376235057",
    "description": "Planetscape_427580",
    "title": "Planetscape_427580",
    "link_img": "https://live.staticflickr.com/65535/50040437822_3e6bf9c9de_o.jpg",
    "id_image": "Planetscape_427580",
    "count_view": 0
  },
  {
    "link_thumb": "https://live.staticflickr.com/65535/50039340623_d136006509_n.jpg",
    "id_album": "-1862561193",
    "description": "Other_318732",
    "title": "Other_318732",
    "link_img": "https://live.staticflickr.com/65535/50039340623_238ae849f7_o.jpg",
    "id_image": "Other_318732",
    "count_view": 0
  },
  {
    "link_thumb": "https://live.staticflickr.com/65535/50039378196_444bedd78d_n.jpg",
    "id_album": "869545341",
    "description": "Astronaut_923959",
    "title": "Astronaut_923959",
    "link_img": "https://live.staticflickr.com/65535/50039378196_27247c1baa_o.jpg",
    "id_image": "Astronaut_923959",
    "count_view": 0
  },
  {
    "link_thumb": "https://live.staticflickr.com/65535/50039270908_c5035f0767_n.jpg",
    "id_album": "-1610342324",
    "description": "Nebula_66953",
    "title": "Nebula_66953",
    "link_img": "https://live.staticflickr.com/65535/50039270908_c7a58d43a8_o.jpg",
    "id_image": "Nebula_66953",
    "count_view": 0
  },
  {
    "link_thumb": "https://live.staticflickr.com/65535/50039224283_a049baf06b_n.jpg",
    "id_album": "-1610342324",
    "description": "Nebula_230466",
    "title": "Nebula_230466",
    "link_img": "https://live.staticflickr.com/65535/50039224283_320b095183_o.jpg",
    "id_image": "Nebula_230466",
    "count_view": 0
  },
  {
    "link_thumb": "https://live.staticflickr.com/65535/50041590426_1cc438f0f6_n.jpg",
    "id_album": "-1675918237",
    "description": "WomenWarrior_920517",
    "title": "WomenWarrior_920517",
    "link_img": "https://live.staticflickr.com/65535/50041590426_5ebf193420_o.jpg",
    "id_image": "WomenWarrior_920517",
    "count_view": 0
  },
  {
    "link_thumb": "https://live.staticflickr.com/65535/50039654676_8927c9f1e6_n.jpg",
    "id_album": "1204249541",
    "description": "Galaxy_868969",
    "title": "Galaxy_868969",
    "link_img": "https://live.staticflickr.com/65535/50039654676_bb99960356_o.jpg",
    "id_image": "Galaxy_868969",
    "count_view": 0
  },
  {
    "link_thumb": "https://live.staticflickr.com/65535/50039447036_f2c0c2c122_n.jpg",
    "id_album": "-1964113117",
    "description": "City_213563",
    "title": "City_213563",
    "link_img": "https://live.staticflickr.com/65535/50039447036_61a03a201e_o.jpg",
    "id_image": "City_213563",
    "count_view": 0
  },
  {
    "link_thumb": "https://live.staticflickr.com/65535/50039214743_9d2837a101_n.jpg",
    "id_album": "-1610342324",
    "description": "Nebula_175133",
    "title": "Nebula_175133",
    "link_img": "https://live.staticflickr.com/65535/50039214743_dbc857af42_o.jpg",
    "id_image": "Nebula_175133",
    "count_view": 0
  },
  {
    "link_thumb": "https://live.staticflickr.com/65535/50039234223_ba04df02fc_n.jpg",
    "id_album": "-1610342324",
    "description": "Nebula_291109",
    "title": "Nebula_291109",
    "link_img": "https://live.staticflickr.com/65535/50039234223_af54406c6c_o.jpg",
    "id_image": "Nebula_291109",
    "count_view": 0
  },
  {
    "link_thumb": "https://live.staticflickr.com/65535/50039255243_f208754cf2_n.jpg",
    "id_album": "-1610342324",
    "description": "Nebula_533653",
    "title": "Nebula_533653",
    "link_img": "https://live.staticflickr.com/65535/50039255243_319c0d9a3f_o.jpg",
    "id_image": "Nebula_533653",
    "count_view": 0
  },
  {
    "link_thumb": "https://live.staticflickr.com/65535/50039677727_dd477e0c53_n.jpg",
    "id_album": "-1780971522",
    "description": "Biohazard_494279",
    "title": "Biohazard_494279",
    "link_img": "https://live.staticflickr.com/65535/50039677727_5213f9f4f4_o.jpg",
    "id_image": "Biohazard_494279",
    "count_view": 0
  },
  {
    "link_thumb": "https://live.staticflickr.com/65535/50041014063_ff5c987743_n.jpg",
    "id_album": "-1675918237",
    "description": "WomenWarrior_320615",
    "title": "WomenWarrior_320615",
    "link_img": "https://live.staticflickr.com/65535/50041014063_fd3ac0acd8_o.jpg",
    "id_image": "WomenWarrior_320615",
    "count_view": 0
  },
  {
    "link_thumb": "https://live.staticflickr.com/65535/50040284501_aa4fdc51b4_n.jpg",
    "id_album": "779690680",
    "description": "Robot_304597",
    "title": "Robot_304597",
    "link_img": "https://live.staticflickr.com/65535/50040284501_0918ca54ef_o.jpg",
    "id_image": "Robot_304597",
    "count_view": 0
  },
  {
    "link_thumb": "https://live.staticflickr.com/65535/50039745552_01e899bbd5_n.jpg",
    "id_album": "-1964113117",
    "description": "City_649147",
    "title": "City_649147",
    "link_img": "https://live.staticflickr.com/65535/50039745552_a5b8801e3e_o.jpg",
    "id_image": "City_649147",
    "count_view": 0
  },
  {
    "link_thumb": "https://live.staticflickr.com/65535/50039778161_bfc97faafd_n.jpg",
    "id_album": "-1610342324",
    "description": "Nebula_259385",
    "title": "Nebula_259385",
    "link_img": "https://live.staticflickr.com/65535/50039778161_44676341f0_o.jpg",
    "id_image": "Nebula_259385",
    "count_view": 0
  },
  {
    "link_thumb": "https://live.staticflickr.com/65535/50040022622_6f16b6a094_n.jpg",
    "id_album": "416351698",
    "description": "Moon_873971",
    "title": "Moon_873971",
    "link_img": "https://live.staticflickr.com/65535/50040022622_7c229f6f4f_o.jpg",
    "id_image": "Moon_873971",
    "count_view": 0
  },
  {
    "link_thumb": "https://live.staticflickr.com/65535/50038865963_515c8bd23c_n.jpg",
    "id_album": "-1780971522",
    "description": "Biohazard_458261",
    "title": "Biohazard_458261",
    "link_img": "https://live.staticflickr.com/65535/50038865963_d6d01657e7_o.jpg",
    "id_image": "Biohazard_458261",
    "count_view": 0
  },
  {
    "link_thumb": "https://live.staticflickr.com/65535/50041245706_12f7858be4_n.jpg",
    "id_album": "-1863373220",
    "description": "StarWars_965772",
    "title": "StarWars_965772",
    "link_img": "https://live.staticflickr.com/65535/50041245706_c6d299dc19_o.jpg",
    "id_image": "StarWars_965772",
    "count_view": 0
  },
  {
    "link_thumb": "https://live.staticflickr.com/65535/50040887198_94cb7abe86_n.jpg",
    "id_album": "-1261420436",
    "description": "Warrior_278843",
    "title": "Warrior_278843",
    "link_img": "https://live.staticflickr.com/65535/50040887198_1a28445d71_o.jpg",
    "id_image": "Warrior_278843",
    "count_view": 0
  },
  {
    "link_thumb": "https://live.staticflickr.com/65535/50040067441_2929c7e767_n.jpg",
    "id_album": "-1102314093",
    "description": "Planets_25111",
    "title": "Planets_25111",
    "link_img": "https://live.staticflickr.com/65535/50040067441_6c39951352_o.jpg",
    "id_image": "Planets_25111",
    "count_view": 0
  },
  {
    "link_thumb": "https://live.staticflickr.com/65535/50039107673_47b5c11a14_n.jpg",
    "id_album": "1204249541",
    "description": "Galaxy_948044",
    "title": "Galaxy_948044",
    "link_img": "https://live.staticflickr.com/65535/50039107673_89a0a3fcaa_o.jpg",
    "id_image": "Galaxy_948044",
    "count_view": 0
  },
  {
    "link_thumb": "https://live.staticflickr.com/65535/50041586351_af1511a18c_n.jpg",
    "id_album": "-1675918237",
    "description": "WomenWarrior_688403",
    "title": "WomenWarrior_688403",
    "link_img": "https://live.staticflickr.com/65535/50041586351_d8c1208163_o.jpg",
    "id_image": "WomenWarrior_688403",
    "count_view": 0
  },
  {
    "link_thumb": "https://live.staticflickr.com/65535/50040024472_9b06c7544c_n.jpg",
    "id_album": "-1610342324",
    "description": "Nebula_104078",
    "title": "Nebula_104078",
    "link_img": "https://live.staticflickr.com/65535/50040024472_89cc183962_o.jpg",
    "id_image": "Nebula_104078",
    "count_view": 0
  },
  {
    "link_thumb": "https://live.staticflickr.com/65535/50039779547_3e004bce36_n.jpg",
    "id_album": "-1964113117",
    "description": "City_906131",
    "title": "City_906131",
    "link_img": "https://live.staticflickr.com/65535/50039779547_c2e3bbaf2b_o.jpg",
    "id_image": "City_906131",
    "count_view": 0
  },
  {
    "link_thumb": "https://live.staticflickr.com/65535/50040678432_791f67d003_n.jpg",
    "id_album": "779690680",
    "description": "Robot_915582",
    "title": "Robot_915582",
    "link_img": "https://live.staticflickr.com/65535/50040678432_77d99501fd_o.jpg",
    "id_image": "Robot_915582",
    "count_view": 0
  },
  {
    "link_thumb": "https://live.staticflickr.com/65535/50040446742_4e7b59a017_n.jpg",
    "id_album": "376235057",
    "description": "Planetscape_805173",
    "title": "Planetscape_805173",
    "link_img": "https://live.staticflickr.com/65535/50040446742_4df8e14153_o.jpg",
    "id_image": "Planetscape_805173",
    "count_view": 0
  },
  {
    "link_thumb": "https://live.staticflickr.com/65535/50039572763_d3351081b7_n.jpg",
    "id_album": "-1102314093",
    "description": "Planets_533836",
    "title": "Planets_533836",
    "link_img": "https://live.staticflickr.com/65535/50039572763_5cf8e1e06b_o.jpg",
    "id_image": "Planets_533836",
    "count_view": 0
  },
  {
    "link_thumb": "https://live.staticflickr.com/65535/50040695962_f522f31bae_n.jpg",
    "id_album": "779690680",
    "description": "Robot_934615",
    "title": "Robot_934615",
    "link_img": "https://live.staticflickr.com/65535/50040695962_7d5a785f39_o.jpg",
    "id_image": "Robot_934615",
    "count_view": 0
  },
  {
    "link_thumb": "https://live.staticflickr.com/65535/50040246336_5b475a8f53_n.jpg",
    "id_album": "-839602625",
    "description": "Predator_665921",
    "title": "Predator_665921",
    "link_img": "https://live.staticflickr.com/65535/50040246336_5d9e83f850_o.jpg",
    "id_image": "Predator_665921",
    "count_view": 0
  },
  {
    "link_thumb": "https://live.staticflickr.com/65535/50039640126_124536ea39_n.jpg",
    "id_album": "1204249541",
    "description": "Galaxy_540814",
    "title": "Galaxy_540814",
    "link_img": "https://live.staticflickr.com/65535/50039640126_67d6b7f344_o.jpg",
    "id_image": "Galaxy_540814",
    "count_view": 0
  },
  {
    "link_thumb": "https://live.staticflickr.com/65535/50041365271_3833e5cd0b_n.jpg",
    "id_album": "-1177476763",
    "description": "Sunrise_397351",
    "title": "Sunrise_397351",
    "link_img": "https://live.staticflickr.com/65535/50041365271_7beab4ac9b_o.jpg",
    "id_image": "Sunrise_397351",
    "count_view": 0
  },
  {
    "link_thumb": "https://live.staticflickr.com/65535/50039689782_974d113fb8_n.jpg",
    "id_album": "406431601",
    "description": "Building_925921",
    "title": "Building_925921",
    "link_img": "https://live.staticflickr.com/65535/50039689782_5beb4a41eb_o.jpg",
    "id_image": "Building_925921",
    "count_view": 0
  },
  {
    "link_thumb": "https://live.staticflickr.com/65535/50041687137_4ca9be2055_n.jpg",
    "id_album": "2020068132",
    "description": "Vehicle_959156",
    "title": "Vehicle_959156",
    "link_img": "https://live.staticflickr.com/65535/50041687137_662ab85afd_o.jpg",
    "id_image": "Vehicle_959156",
    "count_view": 0
  },
  {
    "link_thumb": "https://live.staticflickr.com/65535/50039931432_944165b709_n.jpg",
    "id_album": "1402713104",
    "description": "Landscape_262822",
    "title": "Landscape_262822",
    "link_img": "https://live.staticflickr.com/65535/50039931432_e8764087ab_o.jpg",
    "id_image": "Landscape_262822",
    "count_view": 0
  },
  {
    "link_thumb": "https://live.staticflickr.com/65535/50040286921_7dbb532160_n.jpg",
    "id_album": "779690680",
    "description": "Robot_312983",
    "title": "Robot_312983",
    "link_img": "https://live.staticflickr.com/65535/50040286921_feef7c5138_o.jpg",
    "id_image": "Robot_312983",
    "count_view": 0
  },
  {
    "link_thumb": "https://live.staticflickr.com/65535/50039258863_0802de9d7c_n.jpg",
    "id_album": "-1610342324",
    "description": "Nebula_550553",
    "title": "Nebula_550553",
    "link_img": "https://live.staticflickr.com/65535/50039258863_606d3809ff_o.jpg",
    "id_image": "Nebula_550553",
    "count_view": 0
  },
  {
    "link_thumb": "https://live.staticflickr.com/65535/50039380213_5d8f26085a_n.jpg",
    "id_album": "395161030",
    "description": "Planet_328265",
    "title": "Planet_328265",
    "link_img": "https://live.staticflickr.com/65535/50039380213_dc16cf043d_o.jpg",
    "id_image": "Planet_328265",
    "count_view": 0
  },
  {
    "link_thumb": "https://live.staticflickr.com/65535/50039098633_5606f04523_n.jpg",
    "id_album": "1204249541",
    "description": "Galaxy_606741",
    "title": "Galaxy_606741",
    "link_img": "https://live.staticflickr.com/65535/50039098633_3266e95d70_o.jpg",
    "id_image": "Galaxy_606741",
    "count_view": 0
  },
  {
    "link_thumb": "https://live.staticflickr.com/65535/50039003743_660da69a7f_n.jpg",
    "id_album": "-437872736",
    "description": "Creature_323930",
    "title": "Creature_323930",
    "link_img": "https://live.staticflickr.com/65535/50039003743_0cb2b207d3_o.jpg",
    "id_image": "Creature_323930",
    "count_view": 0
  },
  {
    "link_thumb": "https://live.staticflickr.com/65535/50039905497_0be5a02bb2_n.jpg",
    "id_album": "1204249541",
    "description": "Galaxy_551473",
    "title": "Galaxy_551473",
    "link_img": "https://live.staticflickr.com/65535/50039905497_469cac4763_o.jpg",
    "id_image": "Galaxy_551473",
    "count_view": 0
  },
  {
    "link_thumb": "https://live.staticflickr.com/65535/50039586312_0bb72b2888_n.jpg",
    "id_album": "523598895",
    "description": "Artistic_255969",
    "title": "Artistic_255969",
    "link_img": "https://live.staticflickr.com/65535/50039586312_f8071a1661_o.jpg",
    "id_image": "Artistic_255969",
    "count_view": 0
  },
  {
    "link_thumb": "https://live.staticflickr.com/65535/50040113941_de221f7dac_n.jpg",
    "id_album": "-1102314093",
    "description": "Planets_426463",
    "title": "Planets_426463",
    "link_img": "https://live.staticflickr.com/65535/50040113941_b4b40559b3_o.jpg",
    "id_image": "Planets_426463",
    "count_view": 0
  },
  {
    "link_thumb": "https://live.staticflickr.com/65535/50040992073_36376b5f22_n.jpg",
    "id_album": "-1126835654",
    "description": "Women_725428",
    "title": "Women_725428",
    "link_img": "https://live.staticflickr.com/65535/50040992073_b70a0841e4_o.jpg",
    "id_image": "Women_725428",
    "count_view": 0
  },
  {
    "link_thumb": "https://live.staticflickr.com/65535/50041262911_7eda8271d9_n.jpg",
    "id_album": "-1587696329",
    "description": "Stars_332353",
    "title": "Stars_332353",
    "link_img": "https://live.staticflickr.com/65535/50041262911_01159e7ed0_o.jpg",
    "id_image": "Stars_332353",
    "count_view": 0
  },
  {
    "link_thumb": "https://live.staticflickr.com/65535/50040802088_db00d8f7a3_n.jpg",
    "id_album": "-1177476763",
    "description": "Sunrise_104848",
    "title": "Sunrise_104848",
    "link_img": "https://live.staticflickr.com/65535/50040802088_d140b337f7_o.jpg",
    "id_image": "Sunrise_104848",
    "count_view": 0
  },
  {
    "link_thumb": "https://live.staticflickr.com/65535/50039250763_73b55a0511_n.jpg",
    "id_album": "-1610342324",
    "description": "Nebula_485838",
    "title": "Nebula_485838",
    "link_img": "https://live.staticflickr.com/65535/50039250763_2ed3a14e5a_o.jpg",
    "id_image": "Nebula_485838",
    "count_view": 0
  },
  {
    "link_thumb": "https://live.staticflickr.com/65535/50039519708_29d46ae302_n.jpg",
    "id_album": "-1102314093",
    "description": "Planets_271246",
    "title": "Planets_271246",
    "link_img": "https://live.staticflickr.com/65535/50039519708_8050758c2e_o.jpg",
    "id_image": "Planets_271246",
    "count_view": 0
  },
  {
    "link_thumb": "https://live.staticflickr.com/65535/50038779088_a6ce33fc2f_n.jpg",
    "id_album": "523598895",
    "description": "Artistic_281513",
    "title": "Artistic_281513",
    "link_img": "https://live.staticflickr.com/65535/50038779088_dedec4b0a2_o.jpg",
    "id_image": "Artistic_281513",
    "count_view": 0
  },
  {
    "link_thumb": "https://live.staticflickr.com/65535/50038737858_83b840eaa3_n.jpg",
    "id_album": "-419633230",
    "description": "Apocalyptic_678079",
    "title": "Apocalyptic_678079",
    "link_img": "https://live.staticflickr.com/65535/50038737858_bb8cf87595_o.jpg",
    "id_image": "Apocalyptic_678079",
    "count_view": 0
  },
  {
    "link_thumb": "https://live.staticflickr.com/65535/50040410512_b30352b761_n.jpg",
    "id_album": "-1102314093",
    "description": "Planets_94971",
    "title": "Planets_94971",
    "link_img": "https://live.staticflickr.com/65535/50040410512_556191236d_o.jpg",
    "id_image": "Planets_94971",
    "count_view": 0
  },
  {
    "link_thumb": "https://live.staticflickr.com/65535/50041568766_c4d5b47603_n.jpg",
    "id_album": "-1675918237",
    "description": "WomenWarrior_327448",
    "title": "WomenWarrior_327448",
    "link_img": "https://live.staticflickr.com/65535/50041568766_8172810821_o.jpg",
    "id_image": "WomenWarrior_327448",
    "count_view": 0
  },
  {
    "link_thumb": "https://live.staticflickr.com/65535/50041388652_952c09fc2c_n.jpg",
    "id_album": "-1863373220",
    "description": "StarWars_195358",
    "title": "StarWars_195358",
    "link_img": "https://live.staticflickr.com/65535/50041388652_9efbf2a39d_o.jpg",
    "id_image": "StarWars_195358",
    "count_view": 0
  },
  {
    "link_thumb": "https://live.staticflickr.com/65535/50040043727_8535dd6ed4_n.jpg",
    "id_album": "-1610342324",
    "description": "Nebula_268280",
    "title": "Nebula_268280",
    "link_img": "https://live.staticflickr.com/65535/50040043727_729e31699c_o.jpg",
    "id_image": "Nebula_268280",
    "count_view": 0
  },
  {
    "link_thumb": "https://live.staticflickr.com/65535/50039022278_254730c207_n.jpg",
    "id_album": "-1372247677",
    "description": "Cyberpunk_970426",
    "title": "Cyberpunk_970426",
    "link_img": "https://live.staticflickr.com/65535/50039022278_ef4cde0c3e_o.jpg",
    "id_image": "Cyberpunk_970426",
    "count_view": 0
  },
  {
    "link_thumb": "https://live.staticflickr.com/65535/50039787391_b2d8cb877a_n.jpg",
    "id_album": "-1610342324",
    "description": "Nebula_357577",
    "title": "Nebula_357577",
    "link_img": "https://live.staticflickr.com/65535/50039787391_9e2be356b7_o.jpg",
    "id_image": "Nebula_357577",
    "count_view": 0
  },
  {
    "link_thumb": "https://live.staticflickr.com/65535/50040975572_c3133cb669_n.jpg",
    "id_album": "2130067313",
    "description": "Spaceship_533750",
    "title": "Spaceship_533750",
    "link_img": "https://live.staticflickr.com/65535/50040975572_49432cf740_o.jpg",
    "id_image": "Spaceship_533750",
    "count_view": 0
  },
  {
    "link_thumb": "https://live.staticflickr.com/65535/50040804782_eb63c005d1_n.jpg",
    "id_album": "1613540653",
    "description": "Space_786790",
    "title": "Space_786790",
    "link_img": "https://live.staticflickr.com/65535/50040804782_d44aff73db_o.jpg",
    "id_image": "Space_786790",
    "count_view": 0
  },
  {
    "link_thumb": "https://live.staticflickr.com/65535/50039079073_a86ba633c4_n.jpg",
    "id_album": "1204249541",
    "description": "Galaxy_2543",
    "title": "Galaxy_2543",
    "link_img": "https://live.staticflickr.com/65535/50039079073_edf786bf99_o.jpg",
    "id_image": "Galaxy_2543",
    "count_view": 0
  },
  {
    "link_thumb": "https://live.staticflickr.com/65535/50040416641_74d025139b_n.jpg",
    "id_album": "779690680",
    "description": "Robot_920332",
    "title": "Robot_920332",
    "link_img": "https://live.staticflickr.com/65535/50040416641_a41be9a945_o.jpg",
    "id_image": "Robot_920332",
    "count_view": 0
  },
  {
    "link_thumb": "https://live.staticflickr.com/65535/50040062001_6c4ff719c1_n.jpg",
    "id_album": "-1102314093",
    "description": "Planets_221816",
    "title": "Planets_221816",
    "link_img": "https://live.staticflickr.com/65535/50040062001_71715bdf6d_o.jpg",
    "id_image": "Planets_221816",
    "count_view": 0
  },
  {
    "link_thumb": "https://live.staticflickr.com/65535/50040258466_a1d8e9e913_n.jpg",
    "id_album": "779690680",
    "description": "Robot_179713",
    "title": "Robot_179713",
    "link_img": "https://live.staticflickr.com/65535/50040258466_c6c0f091b7_o.jpg",
    "id_image": "Robot_179713",
    "count_view": 0
  },
  {
    "link_thumb": "https://live.staticflickr.com/65535/50039950992_1464f5eee6_n.jpg",
    "id_album": "1402713104",
    "description": "Landscape_413241",
    "title": "Landscape_413241",
    "link_img": "https://live.staticflickr.com/65535/50039950992_69e39dcc4e_o.jpg",
    "id_image": "Landscape_413241",
    "count_view": 0
  },
  {
    "link_thumb": "https://live.staticflickr.com/65535/50038861993_e160d49852_n.jpg",
    "id_album": "1187037014",
    "description": "Battle_975635",
    "title": "Battle_975635",
    "link_img": "https://live.staticflickr.com/65535/50038861993_342ef24dc1_o.jpg",
    "id_image": "Battle_975635",
    "count_view": 0
  },
  {
    "link_thumb": "https://live.staticflickr.com/65535/50039339953_e7225b2511_n.jpg",
    "id_album": "-1862561193",
    "description": "Other_312192",
    "title": "Other_312192",
    "link_img": "https://live.staticflickr.com/65535/50039339953_50c2e2ee58_o.jpg",
    "id_image": "Other_312192",
    "count_view": 0
  },
  {
    "link_thumb": "https://live.staticflickr.com/65535/50039003053_99b1076cd4_n.jpg",
    "id_album": "-437872736",
    "description": "Creature_321344",
    "title": "Creature_321344",
    "link_img": "https://live.staticflickr.com/65535/50039003053_f18664a921_o.jpg",
    "id_image": "Creature_321344",
    "count_view": 0
  },
  {
    "link_thumb": "https://live.staticflickr.com/65535/50038766553_64c40596e8_n.jpg",
    "id_album": "523598895",
    "description": "Artistic_211262",
    "title": "Artistic_211262",
    "link_img": "https://live.staticflickr.com/65535/50038766553_3aeb323b78_o.jpg",
    "id_image": "Artistic_211262",
    "count_view": 0
  },
  {
    "link_thumb": "https://live.staticflickr.com/65535/50038699343_8f5d29efda_n.jpg",
    "id_album": "849020728",
    "description": "Alien_152671",
    "title": "Alien_152671",
    "link_img": "https://live.staticflickr.com/65535/50038699343_9e55614554_o.jpg",
    "id_image": "Alien_152671",
    "count_view": 0
  },
  {
    "link_thumb": "https://live.staticflickr.com/65535/50040325762_3801f352c0_n.jpg",
    "id_album": "-1102314093",
    "description": "Planets_232246",
    "title": "Planets_232246",
    "link_img": "https://live.staticflickr.com/65535/50040325762_0549766cf6_o.jpg",
    "id_image": "Planets_232246",
    "count_view": 0
  },
  {
    "link_thumb": "https://live.staticflickr.com/65535/50040669847_6eb96290a9_n.jpg",
    "id_album": "779690680",
    "description": "Robot_907943",
    "title": "Robot_907943",
    "link_img": "https://live.staticflickr.com/65535/50040669847_de7b7392fc_o.jpg",
    "id_image": "Robot_907943",
    "count_view": 0
  },
  {
    "link_thumb": "https://live.staticflickr.com/65535/50039131428_2c034d92f0_n.jpg",
    "id_album": "1402713104",
    "description": "Landscape_341730",
    "title": "Landscape_341730",
    "link_img": "https://live.staticflickr.com/65535/50039131428_73d977111c_o.jpg",
    "id_image": "Landscape_341730",
    "count_view": 0
  },
  {
    "link_thumb": "https://live.staticflickr.com/65535/50040462237_eab648c418_n.jpg",
    "id_album": "-482547208",
    "description": "PostApocalyptic_231176",
    "title": "PostApocalyptic_231176",
    "link_img": "https://live.staticflickr.com/65535/50040462237_78e22231ac_o.jpg",
    "id_image": "PostApocalyptic_231176",
    "count_view": 0
  },
  {
    "link_thumb": "https://live.staticflickr.com/65535/50038996243_43568351de_n.jpg",
    "id_album": "894679094",
    "description": "Collision_925940",
    "title": "Collision_925940",
    "link_img": "https://live.staticflickr.com/65535/50038996243_b4e1f71b4e_o.jpg",
    "id_image": "Collision_925940",
    "count_view": 0
  },
  {
    "link_thumb": "https://live.staticflickr.com/65535/50040864628_84d8ec7429_n.jpg",
    "id_album": "2020068132",
    "description": "Vehicle_896230",
    "title": "Vehicle_896230",
    "link_img": "https://live.staticflickr.com/65535/50040864628_c39788b060_o.jpg",
    "id_image": "Vehicle_896230",
    "count_view": 0
  },
  {
    "link_thumb": "https://live.staticflickr.com/65535/50039840523_f3dd3a6586_n.jpg",
    "id_album": "779690680",
    "description": "Robot_884819",
    "title": "Robot_884819",
    "link_img": "https://live.staticflickr.com/65535/50039840523_269305a324_o.jpg",
    "id_image": "Robot_884819",
    "count_view": 0
  },
  {
    "link_thumb": "https://live.staticflickr.com/65535/50039054003_378c1e89e4_n.jpg",
    "id_album": "829169633",
    "description": "Cyborg_854687",
    "title": "Cyborg_854687",
    "link_img": "https://live.staticflickr.com/65535/50039054003_ab9e6081f7_o.jpg",
    "id_image": "Cyborg_854687",
    "count_view": 0
  },
  {
    "link_thumb": "https://live.staticflickr.com/65535/50040867048_2e9290dc4e_n.jpg",
    "id_album": "2020068132",
    "description": "Vehicle_937790",
    "title": "Vehicle_937790",
    "link_img": "https://live.staticflickr.com/65535/50040867048_df299a208b_o.jpg",
    "id_image": "Vehicle_937790",
    "count_view": 0
  },
  {
    "link_thumb": "https://live.staticflickr.com/65535/50041535416_a57c74ca5e_n.jpg",
    "id_album": "-1126835654",
    "description": "Women_551687",
    "title": "Women_551687",
    "link_img": "https://live.staticflickr.com/65535/50041535416_74b7463c84_o.jpg",
    "id_image": "Women_551687",
    "count_view": 0
  },
  {
    "link_thumb": "https://live.staticflickr.com/65535/50039534017_60df2db1a2_n.jpg",
    "id_album": "849020728",
    "description": "Alien_608897",
    "title": "Alien_608897",
    "link_img": "https://live.staticflickr.com/65535/50039534017_90e6c43eea_o.jpg",
    "id_image": "Alien_608897",
    "count_view": 0
  },
  {
    "link_thumb": "https://live.staticflickr.com/65535/50040143207_f42365c300_n.jpg",
    "id_album": "-1862561193",
    "description": "Other_233383",
    "title": "Other_233383",
    "link_img": "https://live.staticflickr.com/65535/50040143207_c0108d6a07_o.jpg",
    "id_image": "Other_233383",
    "count_view": 0
  },
  {
    "link_thumb": "https://live.staticflickr.com/65535/50040782427_f030ec117f_n.jpg",
    "id_album": "1613540653",
    "description": "Space_62009",
    "title": "Space_62009",
    "link_img": "https://live.staticflickr.com/65535/50040782427_4dac6eeeda_o.jpg",
    "id_image": "Space_62009",
    "count_view": 0
  },
  {
    "link_thumb": "https://live.staticflickr.com/65535/50039545642_f679f8fd0c_n.jpg",
    "id_album": "-419633230",
    "description": "Apocalyptic_395490",
    "title": "Apocalyptic_395490",
    "link_img": "https://live.staticflickr.com/65535/50039545642_bfac258277_o.jpg",
    "id_image": "Apocalyptic_395490",
    "count_view": 0
  },
  {
    "link_thumb": "https://live.staticflickr.com/65535/50040442831_57368eaf1f_n.jpg",
    "id_album": "779690680",
    "description": "Robot_949798",
    "title": "Robot_949798",
    "link_img": "https://live.staticflickr.com/65535/50040442831_1ce6a73244_o.jpg",
    "id_image": "Robot_949798",
    "count_view": 0
  },
  {
    "link_thumb": "https://live.staticflickr.com/65535/50040170521_8aca6ee29b_n.jpg",
    "id_album": "376235057",
    "description": "Planetscape_382469",
    "title": "Planetscape_382469",
    "link_img": "https://live.staticflickr.com/65535/50040170521_fd09351301_o.jpg",
    "id_image": "Planetscape_382469",
    "count_view": 0
  },
  {
    "link_thumb": "https://live.staticflickr.com/65535/50039710733_af4a260603_n.jpg",
    "id_album": "779690680",
    "description": "Robot_198947",
    "title": "Robot_198947",
    "link_img": "https://live.staticflickr.com/65535/50039710733_20ecfd4356_o.jpg",
    "id_image": "Robot_198947",
    "count_view": 0
  },
  {
    "link_thumb": "https://live.staticflickr.com/65535/50041592861_41046debf3_n.jpg",
    "id_album": "-1675918237",
    "description": "WomenWarrior_981207",
    "title": "WomenWarrior_981207",
    "link_img": "https://live.staticflickr.com/65535/50041592861_d8449773b1_o.jpg",
    "id_image": "WomenWarrior_981207",
    "count_view": 0
  },
  {
    "link_thumb": "https://live.staticflickr.com/65535/50040843372_db3ec1c7c0_n.jpg",
    "id_album": "2130067313",
    "description": "Spaceship_146638",
    "title": "Spaceship_146638",
    "link_img": "https://live.staticflickr.com/65535/50040843372_4031d515de_o.jpg",
    "id_image": "Spaceship_146638",
    "count_view": 0
  },
  {
    "link_thumb": "https://live.staticflickr.com/65535/50040290748_830d5627fb_n.jpg",
    "id_album": "-1449720967",
    "description": "StarTrek_334105",
    "title": "StarTrek_334105",
    "link_img": "https://live.staticflickr.com/65535/50040290748_147f3e9e8a_o.jpg",
    "id_image": "StarTrek_334105",
    "count_view": 0
  },
  {
    "link_thumb": "https://live.staticflickr.com/65535/50040476091_070d951d74_n.jpg",
    "id_album": "1613540653",
    "description": "Space_188882",
    "title": "Space_188882",
    "link_img": "https://live.staticflickr.com/65535/50040476091_d41fd1c8cd_o.jpg",
    "id_image": "Space_188882",
    "count_view": 0
  },
  {
    "link_thumb": "https://live.staticflickr.com/65535/50040417371_26aa15bd51_n.jpg",
    "id_album": "779690680",
    "description": "Robot_921708",
    "title": "Robot_921708",
    "link_img": "https://live.staticflickr.com/65535/50040417371_dfa7a8b4d4_o.jpg",
    "id_image": "Robot_921708",
    "count_view": 0
  },
  {
    "link_thumb": "https://live.staticflickr.com/65535/50040027247_2c2ee81a35_n.jpg",
    "id_album": "-1610342324",
    "description": "Nebula_168433",
    "title": "Nebula_168433",
    "link_img": "https://live.staticflickr.com/65535/50040027247_aa831f97c6_o.jpg",
    "id_image": "Nebula_168433",
    "count_view": 0
  },
  {
    "link_thumb": "https://live.staticflickr.com/65535/50040544336_6e298b19e4_n.jpg",
    "id_album": "1613540653",
    "description": "Space_822482",
    "title": "Space_822482",
    "link_img": "https://live.staticflickr.com/65535/50040544336_0a2c07a8ca_o.jpg",
    "id_image": "Space_822482",
    "count_view": 0
  },
  {
    "link_thumb": "https://live.staticflickr.com/65535/50040165217_2486d86da8_n.jpg",
    "id_album": "395161030",
    "description": "Planet_1005765",
    "title": "Planet_1005765",
    "link_img": "https://live.staticflickr.com/65535/50040165217_7ab2c35da6_o.jpg",
    "id_image": "Planet_1005765",
    "count_view": 0
  },
  {
    "link_thumb": "https://live.staticflickr.com/65535/50039799116_4be67d2167_n.jpg",
    "id_album": "-1610342324",
    "description": "Nebula_459202",
    "title": "Nebula_459202",
    "link_img": "https://live.staticflickr.com/65535/50039799116_e2d71a15eb_o.jpg",
    "id_image": "Nebula_459202",
    "count_view": 0
  },
  {
    "link_thumb": "https://live.staticflickr.com/65535/50039642291_0042308154_n.jpg",
    "id_album": "1204249541",
    "description": "Galaxy_550128",
    "title": "Galaxy_550128",
    "link_img": "https://live.staticflickr.com/65535/50039642291_05a56058a5_o.jpg",
    "id_image": "Galaxy_550128",
    "count_view": 0
  },
  {
    "link_thumb": "https://live.staticflickr.com/65535/50039850153_f573116baf_n.jpg",
    "id_album": "779690680",
    "description": "Robot_906349",
    "title": "Robot_906349",
    "link_img": "https://live.staticflickr.com/65535/50039850153_c8e11b61da_o.jpg",
    "id_image": "Robot_906349",
    "count_view": 0
  },
  {
    "link_thumb": "https://live.staticflickr.com/65535/50038755098_f258e06eea_n.jpg",
    "id_album": "523598895",
    "description": "Artistic_172002",
    "title": "Artistic_172002",
    "link_img": "https://live.staticflickr.com/65535/50038755098_36d69634e6_o.jpg",
    "id_image": "Artistic_172002",
    "count_view": 0
  },
  {
    "link_thumb": "https://live.staticflickr.com/65535/50040922128_d58a7a5223_n.jpg",
    "id_album": "-1261420436",
    "description": "Warrior_598401",
    "title": "Warrior_598401",
    "link_img": "https://live.staticflickr.com/65535/50040922128_e74f95fb30_o.jpg",
    "id_image": "Warrior_598401",
    "count_view": 0
  },
  {
    "link_thumb": "https://live.staticflickr.com/65535/50039727321_ea6a7bd900_n.jpg",
    "id_album": "1402713104",
    "description": "Landscape_955950",
    "title": "Landscape_955950",
    "link_img": "https://live.staticflickr.com/65535/50039727321_8228b0e6ed_o.jpg",
    "id_image": "Landscape_955950",
    "count_view": 0
  },
  {
    "link_thumb": "https://live.staticflickr.com/65535/50039921052_2acecd1b82_n.jpg",
    "id_album": "1204249541",
    "description": "Galaxy_996255",
    "title": "Galaxy_996255",
    "link_img": "https://live.staticflickr.com/65535/50039921052_a0b3f83fca_o.jpg",
    "id_image": "Galaxy_996255",
    "count_view": 0
  },
  {
    "link_thumb": "https://live.staticflickr.com/65535/50041257241_4247cfe1ca_n.jpg",
    "id_album": "-1587696329",
    "description": "Stars_173368",
    "title": "Stars_173368",
    "link_img": "https://live.staticflickr.com/65535/50041257241_fe13e4bef0_o.jpg",
    "id_image": "Stars_173368",
    "count_view": 0
  }
]