[
  {
    "link_thumb": "https://live.staticflickr.com/65535/50038808458_81bb64571e_n.jpg",
    "id_album": "869545341",
    "description": "Astronaut_534555",
    "title": "Astronaut_534555",
    "link_img": "https://live.staticflickr.com/65535/50038808458_01433161c0_o.jpg",
    "id_image": "Astronaut_534555",
    "count_view": 0
  },
  {
    "link_thumb": "https://live.staticflickr.com/65535/50039736798_e3a95b619d_n.jpg",
    "id_album": "779690680",
    "description": "Robot_324537",
    "title": "Robot_324537",
    "link_img": "https://live.staticflickr.com/65535/50039736798_ee3577180c_o.jpg",
    "id_image": "Robot_324537",
    "count_view": 0
  },
  {
    "link_thumb": "https://live.staticflickr.com/65535/50039252746_ccaf01f953_n.jpg",
    "id_album": "849020728",
    "description": "Alien_201874",
    "title": "Alien_201874",
    "link_img": "https://live.staticflickr.com/65535/50039252746_1461ef6695_o.jpg",
    "id_image": "Alien_201874",
    "count_view": 0
  },
  {
    "link_thumb": "https://live.staticflickr.com/65535/50039985672_d4cfcf9e48_n.jpg",
    "id_album": "1402713104",
    "description": "Landscape_912943",
    "title": "Landscape_912943",
    "link_img": "https://live.staticflickr.com/65535/50039985672_5ed42d225e_o.jpg",
    "id_image": "Landscape_912943",
    "count_view": 0
  },
  {
    "link_thumb": "https://live.staticflickr.com/65535/50040068752_b699793469_n.jpg",
    "id_album": "-1610342324",
    "description": "Nebula_533828",
    "title": "Nebula_533828",
    "link_img": "https://live.staticflickr.com/65535/50040068752_711f3c64e3_o.jpg",
    "id_image": "Nebula_533828",
    "count_view": 0
  },
  {
    "link_thumb": "https://live.staticflickr.com/65535/50039293628_526d4095b3_n.jpg",
    "id_album": "-1610342324",
    "description": "Nebula_839502",
    "title": "Nebula_839502",
    "link_img": "https://live.staticflickr.com/65535/50039293628_ff24600156_o.jpg",
    "id_image": "Nebula_839502",
    "count_view": 0
  },
  {
    "link_thumb": "https://live.staticflickr.com/65535/50039294316_0ffaaeee83_n.jpg",
    "id_album": "523598895",
    "description": "Artistic_116011",
    "title": "Artistic_116011",
    "link_img": "https://live.staticflickr.com/65535/50039294316_c491bf2d23_o.jpg",
    "id_image": "Artistic_116011",
    "count_view": 0
  },
  {
    "link_thumb": "https://live.staticflickr.com/65535/50039301308_da25d9e76e_n.jpg",
    "id_album": "-1610342324",
    "description": "Nebula_903069",
    "title": "Nebula_903069",
    "link_img": "https://live.staticflickr.com/65535/50039301308_21e8945742_o.jpg",
    "id_image": "Nebula_903069",
    "count_view": 0
  },
  {
    "link_thumb": "https://live.staticflickr.com/65535/50039234101_47916c6b9e_n.jpg",
    "id_album": "-406145265",
    "description": "Aircraft_145916",
    "title": "Aircraft_145916",
    "link_img": "https://live.staticflickr.com/65535/50039234101_52b1bf0684_o.jpg",
    "id_image": "Aircraft_145916",
    "count_view": 0
  },
  {
    "link_thumb": "https://live.staticflickr.com/65535/50039745277_c8c748f23e_n.jpg",
    "id_album": "-1964113117",
    "description": "City_649090",
    "title": "City_649090",
    "link_img": "https://live.staticflickr.com/65535/50039745277_9e5c27ce63_o.jpg",
    "id_image": "City_649090",
    "count_view": 0
  },
  {
    "link_thumb": "https://live.staticflickr.com/65535/50041754197_3969bb6de9_n.jpg",
    "id_album": "-1261420436",
    "description": "Warrior_877706",
    "title": "Warrior_877706",
    "link_img": "https://live.staticflickr.com/65535/50041754197_6d231afc99_o.jpg",
    "id_image": "Warrior_877706",
    "count_view": 0
  },
  {
    "link_thumb": "https://live.staticflickr.com/65535/50039331911_14a80797da_n.jpg",
    "id_album": "523598895",
    "description": "Artistic_370813",
    "title": "Artistic_370813",
    "link_img": "https://live.staticflickr.com/65535/50039331911_0fe14b2ecd_o.jpg",
    "id_image": "Artistic_370813",
    "count_view": 0
  },
  {
    "link_thumb": "https://live.staticflickr.com/65535/50041377031_9191de9bea_n.jpg",
    "id_album": "2020068132",
    "description": "Vehicle_198980",
    "title": "Vehicle_198980",
    "link_img": "https://live.staticflickr.com/65535/50041377031_2269e598ce_o.jpg",
    "id_image": "Vehicle_198980",
    "count_view": 0
  },
  {
    "link_thumb": "https://live.staticflickr.com/65535/50041703522_decf9a1324_n.jpg",
    "id_album": "-1261420436",
    "description": "Warrior_269387",
    "title": "Warrior_269387",
    "link_img": "https://live.staticflickr.com/65535/50041703522_aa2296e982_o.jpg",
    "id_image": "Warrior_269387",
    "count_view": 0
  },
  {
    "link_thumb": "https://live.staticflickr.com/65535/50040044377_2eef36a06b_n.jpg",
    "id_album": "-1610342324",
    "description": "Nebula_280749",
    "title": "Nebula_280749",
    "link_img": "https://live.staticflickr.com/65535/50040044377_d5afaaaf11_o.jpg",
    "id_image": "Nebula_280749",
    "count_view": 0
  },
  {
    "link_thumb": "https://live.staticflickr.com/65535/50039393443_5dfebb16e3_n.jpg",
    "id_album": "395161030",
    "description": "Planet_377335",
    "title": "Planet_377335",
    "link_img": "https://live.staticflickr.com/65535/50039393443_dd8a247fd7_o.jpg",
    "id_image": "Planet_377335",
    "count_view": 0
  },
  {
    "link_thumb": "https://live.staticflickr.com/65535/50040100302_23c1a5f3d4_n.jpg",
    "id_album": "-1610342324",
    "description": "Nebula_786599",
    "title": "Nebula_786599",
    "link_img": "https://live.staticflickr.com/65535/50040100302_1fa8f0a5cb_o.jpg",
    "id_image": "Nebula_786599",
    "count_view": 0
  },
  {
    "link_thumb": "https://live.staticflickr.com/65535/50040012796_baa5d909a7_n.jpg",
    "id_album": "1443611160",
    "description": "PlanetRise_76944",
    "title": "PlanetRise_76944",
    "link_img": "https://live.staticflickr.com/65535/50040012796_83f0305a18_o.jpg",
    "id_image": "PlanetRise_76944",
    "count_view": 0
  },
  {
    "link_thumb": "https://live.staticflickr.com/65535/50040445577_41a17e16db_n.jpg",
    "id_album": "376235057",
    "description": "Planetscape_778700",
    "title": "Planetscape_778700",
    "link_img": "https://live.staticflickr.com/65535/50040445577_a8f9ac3462_o.jpg",
    "id_image": "Planetscape_778700",
    "count_view": 0
  },
  {
    "link_thumb": "https://live.staticflickr.com/65535/50041032898_2c636975da_n.jpg",
    "id_album": "-1675918237",
    "description": "WomenWarrior_688639",
    "title": "WomenWarrior_688639",
    "link_img": "https://live.staticflickr.com/65535/50041032898_cd030bd629_o.jpg",
    "id_image": "WomenWarrior_688639",
    "count_view": 0
  },
  {
    "link_thumb": "https://live.staticflickr.com/65535/50039564977_a0a8dafdec_n.jpg",
    "id_album": "523598895",
    "description": "Artistic_173232",
    "title": "Artistic_173232",
    "link_img": "https://live.staticflickr.com/65535/50039564977_5173348c25_o.jpg",
    "id_image": "Artistic_173232",
    "count_view": 0
  },
  {
    "link_thumb": "https://live.staticflickr.com/65535/50039895547_c89cdc4339_n.jpg",
    "id_album": "1204249541",
    "description": "Galaxy_413607",
    "title": "Galaxy_413607",
    "link_img": "https://live.staticflickr.com/65535/50039895547_2a37c2d209_o.jpg",
    "id_image": "Galaxy_413607",
    "count_view": 0
  },
  {
    "link_thumb": "https://live.staticflickr.com/65535/50041585921_c9bc3acef7_n.jpg",
    "id_album": "-1675918237",
    "description": "WomenWarrior_631691",
    "title": "WomenWarrior_631691",
    "link_img": "https://live.staticflickr.com/65535/50041585921_ffb6a81ecc_o.jpg",
    "id_image": "WomenWarrior_631691",
    "count_view": 0
  },
  {
    "link_thumb": "https://live.staticflickr.com/65535/50039516467_974f565fce_n.jpg",
    "id_album": "849020728",
    "description": "Alien_211498",
    "title": "Alien_211498",
    "link_img": "https://live.staticflickr.com/65535/50039516467_884389e4c0_o.jpg",
    "id_image": "Alien_211498",
    "count_view": 0
  },
  {
    "link_thumb": "https://live.staticflickr.com/65535/50040452672_fd861f117a_n.jpg",
    "id_album": "-482547208",
    "description": "PostApocalyptic_103035",
    "title": "PostApocalyptic_103035",
    "link_img": "https://live.staticflickr.com/65535/50040452672_0ef2490ebb_o.jpg",
    "id_image": "PostApocalyptic_103035",
    "count_view": 0
  },
  {
    "link_thumb": "https://live.staticflickr.com/65535/50039818227_a672b8016f_n.jpg",
    "id_album": "-437872736",
    "description": "Creature_410085",
    "title": "Creature_410085",
    "link_img": "https://live.staticflickr.com/65535/50039818227_6867bf3aaa_o.jpg",
    "id_image": "Creature_410085",
    "count_view": 0
  },
  {
    "link_thumb": "https://live.staticflickr.com/65535/50041130866_8224ffcb05_n.jpg",
    "id_album": "-1863373220",
    "description": "StarWars_215697",
    "title": "StarWars_215697",
    "link_img": "https://live.staticflickr.com/65535/50041130866_86d872da88_o.jpg",
    "id_image": "StarWars_215697",
    "count_view": 0
  },
  {
    "link_thumb": "https://live.staticflickr.com/65535/50039683917_bd3a02ee5d_n.jpg",
    "id_album": "406431601",
    "description": "Building_344266",
    "title": "Building_344266",
    "link_img": "https://live.staticflickr.com/65535/50039683917_9bb148289b_o.jpg",
    "id_image": "Building_344266",
    "count_view": 0
  },
  {
    "link_thumb": "https://live.staticflickr.com/65535/50040198482_c4c67b6f6f_n.jpg",
    "id_album": "395161030",
    "description": "Planet_350098",
    "title": "Planet_350098",
    "link_img": "https://live.staticflickr.com/65535/50040198482_32dc173a6f_o.jpg",
    "id_image": "Planet_350098",
    "count_view": 0
  },
  {
    "link_thumb": "https://live.staticflickr.com/65535/50038858448_d37aab7c2c_n.jpg",
    "id_album": "1187037014",
    "description": "Battle_697549",
    "title": "Battle_697549",
    "link_img": "https://live.staticflickr.com/65535/50038858448_abd3b6c281_o.jpg",
    "id_image": "Battle_697549",
    "count_view": 0
  },
  {
    "link_thumb": "https://live.staticflickr.com/65535/50039881938_c3300d6fe0_n.jpg",
    "id_album": "779690680",
    "description": "Robot_940962",
    "title": "Robot_940962",
    "link_img": "https://live.staticflickr.com/65535/50039881938_de3db2b8a3_o.jpg",
    "id_image": "Robot_940962",
    "count_view": 0
  },
  {
    "link_thumb": "https://live.staticflickr.com/65535/50039898673_e43a73f358_n.jpg",
    "id_album": "779690680",
    "description": "Robot_989272",
    "title": "Robot_989272",
    "link_img": "https://live.staticflickr.com/65535/50039898673_e862e3fd45_o.jpg",
    "id_image": "Robot_989272",
    "count_view": 0
  },
  {
    "link_thumb": "https://live.staticflickr.com/65535/50040235916_06d389a247_n.jpg",
    "id_album": "-482547208",
    "description": "PostApocalyptic_972164",
    "title": "PostApocalyptic_972164",
    "link_img": "https://live.staticflickr.com/65535/50040235916_632e06bc57_o.jpg",
    "id_image": "PostApocalyptic_972164",
    "count_view": 0
  },
  {
    "link_thumb": "https://live.staticflickr.com/65535/50039327208_18ea57c239_n.jpg",
    "id_album": "-1964113117",
    "description": "City_213577",
    "title": "City_213577",
    "link_img": "https://live.staticflickr.com/65535/50039327208_9f4eee71a3_o.jpg",
    "id_image": "City_213577",
    "count_view": 0
  },
  {
    "link_thumb": "https://live.staticflickr.com/65535/50039837752_3a5db4e5d0_n.jpg",
    "id_album": "829169633",
    "description": "Cyborg_125325",
    "title": "Cyborg_125325",
    "link_img": "https://live.staticflickr.com/65535/50039837752_5395a9b434_o.jpg",
    "id_image": "Cyborg_125325",
    "count_view": 0
  },
  {
    "link_thumb": "https://live.staticflickr.com/65535/50040725792_13c1fcff0a_n.jpg",
    "id_album": "1613540653",
    "description": "Space_1008435",
    "title": "Space_1008435",
    "link_img": "https://live.staticflickr.com/65535/50040725792_a499983ce5_o.jpg",
    "id_image": "Space_1008435",
    "count_view": 0
  },
  {
    "link_thumb": "https://live.staticflickr.com/65535/50039375368_77e90053a8_n.jpg",
    "id_album": "395161030",
    "description": "Planet_287007",
    "title": "Planet_287007",
    "link_img": "https://live.staticflickr.com/65535/50039375368_1f0d52b35b_o.jpg",
    "id_image": "Planet_287007",
    "count_view": 0
  },
  {
    "link_thumb": "https://live.staticflickr.com/65535/50039613546_b5881d1dac_n.jpg",
    "id_album": "651930207",
    "description": "Explosion_927648",
    "title": "Explosion_927648",
    "link_img": "https://live.staticflickr.com/65535/50039613546_3b3b9b4665_o.jpg",
    "id_image": "Explosion_927648",
    "count_view": 0
  },
  {
    "link_thumb": "https://live.staticflickr.com/65535/50040454017_51cfca1589_n.jpg",
    "id_album": "-482547208",
    "description": "PostApocalyptic_115275",
    "title": "PostApocalyptic_115275",
    "link_img": "https://live.staticflickr.com/65535/50040454017_060a67d484_o.jpg",
    "id_image": "PostApocalyptic_115275",
    "count_view": 0
  },
  {
    "link_thumb": "https://live.staticflickr.com/65535/50038788533_f233b38995_n.jpg",
    "id_album": "523598895",
    "description": "Artistic_455665",
    "title": "Artistic_455665",
    "link_img": "https://live.staticflickr.com/65535/50038788533_d5563121e4_o.jpg",
    "id_image": "Artistic_455665",
    "count_view": 0
  },
  {
    "link_thumb": "https://live.staticflickr.com/65535/50039934901_aabe100fff_n.jpg",
    "id_album": "395161030",
    "description": "Planet_359430",
    "title": "Planet_359430",
    "link_img": "https://live.staticflickr.com/65535/50039934901_5c8b89e73e_o.jpg",
    "id_image": "Planet_359430",
    "count_view": 0
  },
  {
    "link_thumb": "https://live.staticflickr.com/65535/50039259683_b807926190_n.jpg",
    "id_album": "-1610342324",
    "description": "Nebula_555597",
    "title": "Nebula_555597",
    "link_img": "https://live.staticflickr.com/65535/50039259683_55e06fd956_o.jpg",
    "id_image": "Nebula_555597",
    "count_view": 0
  },
  {
    "link_thumb": "https://live.staticflickr.com/65535/50039359603_20cacee3fa_n.jpg",
    "id_album": "395161030",
    "description": "Planet_173023",
    "title": "Planet_173023",
    "link_img": "https://live.staticflickr.com/65535/50039359603_ae53f89bd4_o.jpg",
    "id_image": "Planet_173023",
    "count_view": 0
  },
  {
    "link_thumb": "https://live.staticflickr.com/65535/50039791052_31ec193fa3_n.jpg",
    "id_album": "-1964113117",
    "description": "City_971391",
    "title": "City_971391",
    "link_img": "https://live.staticflickr.com/65535/50039791052_e096ba6e8e_o.jpg",
    "id_image": "City_971391",
    "count_view": 0
  },
  {
    "link_thumb": "https://live.staticflickr.com/65535/50039255148_8511669564_n.jpg",
    "id_album": "-1610342324",
    "description": "Nebula_531446",
    "title": "Nebula_531446",
    "link_img": "https://live.staticflickr.com/65535/50039255148_a69c39827e_o.jpg",
    "id_image": "Nebula_531446",
    "count_view": 0
  },
  {
    "link_thumb": "https://live.staticflickr.com/65535/50039524761_1144662c94_n.jpg",
    "id_album": "-1964113117",
    "description": "City_942082",
    "title": "City_942082",
    "link_img": "https://live.staticflickr.com/65535/50039524761_5660ed6f56_o.jpg",
    "id_image": "City_942082",
    "count_view": 0
  },
  {
    "link_thumb": "https://live.staticflickr.com/65535/50039729417_cc7c36b25d_n.jpg",
    "id_album": "-1964113117",
    "description": "City_384781",
    "title": "City_384781",
    "link_img": "https://live.staticflickr.com/65535/50039729417_0c21b550d9_o.jpg",
    "id_image": "City_384781",
    "count_view": 0
  },
  {
    "link_thumb": "https://live.staticflickr.com/65535/50041171991_4f4e89cb3f_n.jpg",
    "id_album": "-1863373220",
    "description": "StarWars_379647",
    "title": "StarWars_379647",
    "link_img": "https://live.staticflickr.com/65535/50041171991_290820dcc6_o.jpg",
    "id_image": "StarWars_379647",
    "count_view": 0
  },
  {
    "link_thumb": "https://live.staticflickr.com/65535/50039501756_c8d72d593d_n.jpg",
    "id_album": "-1964113117",
    "description": "City_845866",
    "title": "City_845866",
    "link_img": "https://live.staticflickr.com/65535/50039501756_929229266e_o.jpg",
    "id_image": "City_845866",
    "count_view": 0
  },
  {
    "link_thumb": "https://live.staticflickr.com/65535/50040194251_bc3bac2981_n.jpg",
    "id_album": "-482547208",
    "description": "PostApocalyptic_201817",
    "title": "PostApocalyptic_201817",
    "link_img": "https://live.staticflickr.com/65535/50040194251_dfb4110be5_o.jpg",
    "id_image": "PostApocalyptic_201817",
    "count_view": 0
  },
  {
    "link_thumb": "https://live.staticflickr.com/65535/50040113941_de221f7dac_n.jpg",
    "id_album": "-1102314093",
    "description": "Planets_426463",
    "title": "Planets_426463",
    "link_img": "https://live.staticflickr.com/65535/50040113941_b4b40559b3_o.jpg",
    "id_image": "Planets_426463",
    "count_view": 0
  },
  {
    "link_thumb": "https://live.staticflickr.com/65535/50039505287_bd61cca65b_n.jpg",
    "id_album": "849020728",
    "description": "Alien_1011232",
    "title": "Alien_1011232",
    "link_img": "https://live.staticflickr.com/65535/50039505287_d42de51647_o.jpg",
    "id_image": "Alien_1011232",
    "count_view": 0
  },
  {
    "link_thumb": "https://live.staticflickr.com/65535/50039424466_99f845e182_n.jpg",
    "id_album": "406431601",
    "description": "Building_867735",
    "title": "Building_867735",
    "link_img": "https://live.staticflickr.com/65535/50039424466_902f774290_o.jpg",
    "id_image": "Building_867735",
    "count_view": 0
  },
  {
    "link_thumb": "https://live.staticflickr.com/65535/50039262271_12f17ee40f_n.jpg",
    "id_album": "849020728",
    "description": "Alien_393637",
    "title": "Alien_393637",
    "link_img": "https://live.staticflickr.com/65535/50039262271_698be4ef09_o.jpg",
    "id_image": "Alien_393637",
    "count_view": 0
  },
  {
    "link_thumb": "https://live.staticflickr.com/65535/50040033287_6d460f75b3_n.jpg",
    "id_album": "-1610342324",
    "description": "Nebula_207909",
    "title": "Nebula_207909",
    "link_img": "https://live.staticflickr.com/65535/50040033287_946599128f_o.jpg",
    "id_image": "Nebula_207909",
    "count_view": 0
  },
  {
    "link_thumb": "https://live.staticflickr.com/65535/50039495872_204e1043d7_n.jpg",
    "id_album": "-406145265",
    "description": "Aircraft_1007528",
    "title": "Aircraft_1007528",
    "link_img": "https://live.staticflickr.com/65535/50039495872_fb3563affb_o.jpg",
    "id_image": "Aircraft_1007528",
    "count_view": 0
  },
  {
    "link_thumb": "https://live.staticflickr.com/65535/50041468557_71131fda71_n.jpg",
    "id_album": "-1863373220",
    "description": "StarWars_662526",
    "title": "StarWars_662526",
    "link_img": "https://live.staticflickr.com/65535/50041468557_d118ddb2ae_o.jpg",
    "id_image": "StarWars_662526",
    "count_view": 0
  },
  {
    "link_thumb": "https://live.staticflickr.com/65535/50039701727_c50efd0d04_n.jpg",
    "id_album": "-1964113117",
    "description": "City_169626",
    "title": "City_169626",
    "link_img": "https://live.staticflickr.com/65535/50039701727_ba6a70fd8b_o.jpg",
    "id_image": "City_169626",
    "count_view": 0
  },
  {
    "link_thumb": "https://live.staticflickr.com/65535/50040551891_34f478f43c_n.jpg",
    "id_album": "1613540653",
    "description": "Space_934840",
    "title": "Space_934840",
    "link_img": "https://live.staticflickr.com/65535/50040551891_670cf42ecf_o.jpg",
    "id_image": "Space_934840",
    "count_view": 0
  },
  {
    "link_thumb": "https://live.staticflickr.com/65535/50040177022_e3a26f05cf_n.jpg",
    "id_album": "395161030",
    "description": "Planet_184291",
    "title": "Planet_184291",
    "link_img": "https://live.staticflickr.com/65535/50040177022_ab47a21fae_o.jpg",
    "id_image": "Planet_184291",
    "count_view": 0
  },
  {
    "link_thumb": "https://live.staticflickr.com/65535/50039947711_d942419482_n.jpg",
    "id_album": "395161030",
    "description": "Planet_416909",
    "title": "Planet_416909",
    "link_img": "https://live.staticflickr.com/65535/50039947711_b701dc54e5_o.jpg",
    "id_image": "Planet_416909",
    "count_view": 0
  },
  {
    "link_thumb": "https://live.staticflickr.com/65535/50040677787_e4c2c7b5d5_n.jpg",
    "id_album": "779690680",
    "description": "Robot_915578",
    "title": "Robot_915578",
    "link_img": "https://live.staticflickr.com/65535/50040677787_4ae7a6eb2e_o.jpg",
    "id_image": "Robot_915578",
    "count_view": 0
  },
  {
    "link_thumb": "https://live.staticflickr.com/65535/50040453317_c91a88cb6c_n.jpg",
    "id_album": "-482547208",
    "description": "PostApocalyptic_112258",
    "title": "PostApocalyptic_112258",
    "link_img": "https://live.staticflickr.com/65535/50040453317_587d1fc75b_o.jpg",
    "id_image": "PostApocalyptic_112258",
    "count_view": 0
  },
  {
    "link_thumb": "https://live.staticflickr.com/65535/50039433691_498591e3fe_n.jpg",
    "id_album": "-1964113117",
    "description": "City_123330",
    "title": "City_123330",
    "link_img": "https://live.staticflickr.com/65535/50039433691_48637e3d08_o.jpg",
    "id_image": "City_123330",
    "count_view": 0
  },
  {
    "link_thumb": "https://live.staticflickr.com/65535/50040655592_2fb945b3cc_n.jpg",
    "id_album": "779690680",
    "description": "Robot_881767",
    "title": "Robot_881767",
    "link_img": "https://live.staticflickr.com/65535/50040655592_f0d63cb5f3_o.jpg",
    "id_image": "Robot_881767",
    "count_view": 0
  },
  {
    "link_thumb": "https://live.staticflickr.com/65535/50038714273_5dd9901730_n.jpg",
    "id_album": "849020728",
    "description": "Alien_393508",
    "title": "Alien_393508",
    "link_img": "https://live.staticflickr.com/65535/50038714273_d698b3ea54_o.jpg",
    "id_image": "Alien_393508",
    "count_view": 0
  },
  {
    "link_thumb": "https://live.staticflickr.com/65535/50039495186_6c612f2636_n.jpg",
    "id_album": "-1964113117",
    "description": "City_750010",
    "title": "City_750010",
    "link_img": "https://live.staticflickr.com/65535/50039495186_d25d19e942_o.jpg",
    "id_image": "City_750010",
    "count_view": 0
  },
  {
    "link_thumb": "https://live.staticflickr.com/65535/50039687548_e4ddc203c8_n.jpg",
    "id_album": "-839602625",
    "description": "Predator_323988",
    "title": "Predator_323988",
    "link_img": "https://live.staticflickr.com/65535/50039687548_fb588cb08e_o.jpg",
    "id_image": "Predator_323988",
    "count_view": 0
  },
  {
    "link_thumb": "https://live.staticflickr.com/65535/50040496691_50a05c2df6_n.jpg",
    "id_album": "1613540653",
    "description": "Space_335963",
    "title": "Space_335963",
    "link_img": "https://live.staticflickr.com/65535/50040496691_6b67e2a6b9_o.jpg",
    "id_image": "Space_335963",
    "count_view": 0
  },
  {
    "link_thumb": "https://live.staticflickr.com/65535/50038691448_9a163fd5fd_n.jpg",
    "id_album": "-406145265",
    "description": "Aircraft_341297",
    "title": "Aircraft_341297",
    "link_img": "https://live.staticflickr.com/65535/50038691448_5a33ac87e3_o.jpg",
    "id_image": "Aircraft_341297",
    "count_view": 0
  },
  {
    "link_thumb": "https://live.staticflickr.com/65535/50039922501_1521de8191_n.jpg",
    "id_album": "395161030",
    "description": "Planet_286824",
    "title": "Planet_286824",
    "link_img": "https://live.staticflickr.com/65535/50039922501_72f4dcbb3c_o.jpg",
    "id_image": "Planet_286824",
    "count_view": 0
  },
  {
    "link_thumb": "https://live.staticflickr.com/65535/50039287306_4f13052824_n.jpg",
    "id_album": "-419633230",
    "description": "Apocalyptic_728474",
    "title": "Apocalyptic_728474",
    "link_img": "https://live.staticflickr.com/65535/50039287306_62bcae0d77_o.jpg",
    "id_image": "Apocalyptic_728474",
    "count_view": 0
  },
  {
    "link_thumb": "https://live.staticflickr.com/65535/50038806403_74d4b4bdea_n.jpg",
    "id_album": "869545341",
    "description": "Astronaut_388069",
    "title": "Astronaut_388069",
    "link_img": "https://live.staticflickr.com/65535/50038806403_bbcbc258f4_o.jpg",
    "id_image": "Astronaut_388069",
    "count_view": 0
  },
  {
    "link_thumb": "https://live.staticflickr.com/65535/50039634148_a287af4c50_n.jpg",
    "id_album": "376235057",
    "description": "Planetscape_957486",
    "title": "Planetscape_957486",
    "link_img": "https://live.staticflickr.com/65535/50039634148_1426fe4568_o.jpg",
    "id_image": "Planetscape_957486",
    "count_view": 0
  },
  {
    "link_thumb": "https://live.staticflickr.com/65535/50038823588_547b890969_n.jpg",
    "id_album": "869545341",
    "description": "Astronaut_857741",
    "title": "Astronaut_857741",
    "link_img": "https://live.staticflickr.com/65535/50038823588_42592b09b1_o.jpg",
    "id_image": "Astronaut_857741",
    "count_view": 0
  },
  {
    "link_thumb": "https://live.staticflickr.com/65535/50040277226_8f1b681232_n.jpg",
    "id_album": "779690680",
    "description": "Robot_267586",
    "title": "Robot_267586",
    "link_img": "https://live.staticflickr.com/65535/50040277226_af3e5fa2cc_o.jpg",
    "id_image": "Robot_267586",
    "count_view": 0
  },
  {
    "link_thumb": "https://live.staticflickr.com/65535/50038690088_c41372dba0_n.jpg",
    "id_album": "-406145265",
    "description": "Aircraft_331760",
    "title": "Aircraft_331760",
    "link_img": "https://live.staticflickr.com/65535/50038690088_4fc091eb58_o.jpg",
    "id_image": "Aircraft_331760",
    "count_view": 0
  },
  {
    "link_thumb": "https://live.staticflickr.com/65535/50040452482_6a893c361b_n.jpg",
    "id_album": "-482547208",
    "description": "PostApocalyptic_102600",
    "title": "PostApocalyptic_102600",
    "link_img": "https://live.staticflickr.com/65535/50040452482_5795d062d8_o.jpg",
    "id_image": "PostApocalyptic_102600",
    "count_view": 0
  },
  {
    "link_thumb": "https://live.staticflickr.com/65535/50039476483_4b9a265c0a_n.jpg",
    "id_album": "814701616",
    "description": "PlanetaryRing_329817",
    "title": "PlanetaryRing_329817",
    "link_img": "https://live.staticflickr.com/65535/50039476483_04d3d27e3c_o.jpg",
    "id_image": "PlanetaryRing_329817",
    "count_view": 0
  },
  {
    "link_thumb": "https://live.staticflickr.com/65535/50038869373_2da71c0765_n.jpg",
    "id_album": "-1780971522",
    "description": "Biohazard_569437",
    "title": "Biohazard_569437",
    "link_img": "https://live.staticflickr.com/65535/50038869373_5c100c6fdd_o.jpg",
    "id_image": "Biohazard_569437",
    "count_view": 0
  },
  {
    "link_thumb": "https://live.staticflickr.com/65535/50039628292_5a142d5267_n.jpg",
    "id_album": "869545341",
    "description": "Astronaut_747736",
    "title": "Astronaut_747736",
    "link_img": "https://live.staticflickr.com/65535/50039628292_95ceeb1750_o.jpg",
    "id_image": "Astronaut_747736",
    "count_view": 0
  },
  {
    "link_thumb": "https://live.staticflickr.com/65535/50039724921_71c48ed24f_n.jpg",
    "id_album": "1402713104",
    "description": "Landscape_930907",
    "title": "Landscape_930907",
    "link_img": "https://live.staticflickr.com/65535/50039724921_9babfbfb7c_o.jpg",
    "id_image": "Landscape_930907",
    "count_view": 0
  },
  {
    "link_thumb": "https://live.staticflickr.com/65535/50040600778_f628860589_n.jpg",
    "id_album": "-1863373220",
    "description": "StarWars_247596",
    "title": "StarWars_247596",
    "link_img": "https://live.staticflickr.com/65535/50040600778_48c8183ed9_o.jpg",
    "id_image": "StarWars_247596",
    "count_view": 0
  },
  {
    "link_thumb": "https://live.staticflickr.com/65535/50038803568_44afcee964_n.jpg",
    "id_album": "869545341",
    "description": "Astronaut_237217",
    "title": "Astronaut_237217",
    "link_img": "https://live.staticflickr.com/65535/50038803568_6108c7fabb_o.jpg",
    "id_image": "Astronaut_237217",
    "count_view": 0
  },
  {
    "link_thumb": "https://live.staticflickr.com/65535/50038994998_1390e41f90_n.jpg",
    "id_album": "894679094",
    "description": "Collision_719901",
    "title": "Collision_719901",
    "link_img": "https://live.staticflickr.com/65535/50038994998_7048f29474_o.jpg",
    "id_image": "Collision_719901",
    "count_view": 0
  },
  {
    "link_thumb": "https://live.staticflickr.com/65535/50040681182_b5361030f0_n.jpg",
    "id_album": "779690680",
    "description": "Robot_920333",
    "title": "Robot_920333",
    "link_img": "https://live.staticflickr.com/65535/50040681182_7a01088e57_o.jpg",
    "id_image": "Robot_920333",
    "count_view": 0
  },
  {
    "link_thumb": "https://live.staticflickr.com/65535/50041591096_089ec76658_n.jpg",
    "id_album": "-1675918237",
    "description": "WomenWarrior_928517",
    "title": "WomenWarrior_928517",
    "link_img": "https://live.staticflickr.com/65535/50041591096_8507b5c78f_o.jpg",
    "id_image": "WomenWarrior_928517",
    "count_view": 0
  },
  {
    "link_thumb": "https://live.staticflickr.com/65535/50039840406_727d68ef95_n.jpg",
    "id_album": "-1610342324",
    "description": "Nebula_821463",
    "title": "Nebula_821463",
    "link_img": "https://live.staticflickr.com/65535/50039840406_975d7700bb_o.jpg",
    "id_image": "Nebula_821463",
    "count_view": 0
  },
  {
    "link_thumb": "https://live.staticflickr.com/65535/50040517567_93b0356ae2_n.jpg",
    "id_album": "779690680",
    "description": "Robot_116309",
    "title": "Robot_116309",
    "link_img": "https://live.staticflickr.com/65535/50040517567_0816b977a4_o.jpg",
    "id_image": "Robot_116309",
    "count_view": 0
  },
  {
    "link_thumb": "https://live.staticflickr.com/65535/50039641261_687ed7df93_n.jpg",
    "id_album": "1204249541",
    "description": "Galaxy_543989",
    "title": "Galaxy_543989",
    "link_img": "https://live.staticflickr.com/65535/50039641261_704fae0705_o.jpg",
    "id_image": "Galaxy_543989",
    "count_view": 0
  },
  {
    "link_thumb": "https://live.staticflickr.com/65535/50039915807_3440870b0f_n.jpg",
    "id_album": "1204249541",
    "description": "Galaxy_746412",
    "title": "Galaxy_746412",
    "link_img": "https://live.staticflickr.com/65535/50039915807_055d3eec38_o.jpg",
    "id_image": "Galaxy_746412",
    "count_view": 0
  },
  {
    "link_thumb": "https://live.staticflickr.com/65535/50039733826_81fbcd1bdd_n.jpg",
    "id_album": "-1388385651",
    "description": "MilkyWay_555695",
    "title": "MilkyWay_555695",
    "link_img": "https://live.staticflickr.com/65535/50039733826_baec4d78ac_o.jpg",
    "id_image": "MilkyWay_555695",
    "count_view": 0
  },
  {
    "link_thumb": "https://live.staticflickr.com/65535/50039238673_2bb5ac4f9d_n.jpg",
    "id_album": "-1610342324",
    "description": "Nebula_370230",
    "title": "Nebula_370230",
    "link_img": "https://live.staticflickr.com/65535/50039238673_d59e064618_o.jpg",
    "id_image": "Nebula_370230",
    "count_view": 0
  },
  {
    "link_thumb": "https://live.staticflickr.com/65535/50038932323_395c873226_n.jpg",
    "id_album": "-1964113117",
    "description": "City_616564",
    "title": "City_616564",
    "link_img": "https://live.staticflickr.com/65535/50038932323_a47a04c04b_o.jpg",
    "id_image": "City_616564",
    "count_view": 0
  },
  {
    "link_thumb": "https://live.staticflickr.com/65535/50041574982_dc5f51af90_n.jpg",
    "id_album": "1267121215",
    "description": "Steampunk_303880",
    "title": "Steampunk_303880",
    "link_img": "https://live.staticflickr.com/65535/50041574982_bf59e4b132_o.jpg",
    "id_image": "Steampunk_303880",
    "count_view": 0
  },
  {
    "link_thumb": "https://live.staticflickr.com/65535/50039839253_7740ed4ae6_n.jpg",
    "id_album": "779690680",
    "description": "Robot_883173",
    "title": "Robot_883173",
    "link_img": "https://live.staticflickr.com/65535/50039839253_6a061fdf51_o.jpg",
    "id_image": "Robot_883173",
    "count_view": 0
  },
  {
    "link_thumb": "https://live.staticflickr.com/65535/50038847928_7d385237e4_n.jpg",
    "id_album": "1187037014",
    "description": "Battle_189558",
    "title": "Battle_189558",
    "link_img": "https://live.staticflickr.com/65535/50038847928_43e3d95a89_o.jpg",
    "id_image": "Battle_189558",
    "count_view": 0
  },
  {
    "link_thumb": "https://live.staticflickr.com/65535/50039504597_020a21d5f3_n.jpg",
    "id_album": "-406145265",
    "description": "Aircraft_955661",
    "title": "Aircraft_955661",
    "link_img": "https://live.staticflickr.com/65535/50039504597_7de6acf814_o.jpg",
    "id_image": "Aircraft_955661",
    "count_view": 0
  },
  {
    "link_thumb": "https://live.staticflickr.com/65535/50041826152_07fc3e5b03_n.jpg",
    "id_album": "-1675918237",
    "description": "WomenWarrior_288656",
    "title": "WomenWarrior_288656",
    "link_img": "https://live.staticflickr.com/65535/50041826152_4f22fa40b3_o.jpg",
    "id_image": "WomenWarrior_288656",
    "count_view": 0
  },
  {
    "link_thumb": "https://live.staticflickr.com/65535/50039670126_cef0d1bf80_n.jpg",
    "id_album": "1402713104",
    "description": "Landscape_283646",
    "title": "Landscape_283646",
    "link_img": "https://live.staticflickr.com/65535/50039670126_c1c1803d0a_o.jpg",
    "id_image": "Landscape_283646",
    "count_view": 0
  },
  {
    "link_thumb": "https://live.staticflickr.com/65535/50040444722_15f74df4e5_n.jpg",
    "id_album": "376235057",
    "description": "Planetscape_700366",
    "title": "Planetscape_700366",
    "link_img": "https://live.staticflickr.com/65535/50040444722_a831bf0837_o.jpg",
    "id_image": "Planetscape_700366",
    "count_view": 0
  },
  {
    "link_thumb": "https://live.staticflickr.com/65535/50039710022_307dd1e764_n.jpg",
    "id_album": "-1964113117",
    "description": "City_214928",
    "title": "City_214928",
    "link_img": "https://live.staticflickr.com/65535/50039710022_9c0c24e22c_o.jpg",
    "id_image": "City_214928",
    "count_view": 0
  },
  {
    "link_thumb": "https://live.staticflickr.com/65535/50040490321_8f8bd0a5e4_n.jpg",
    "id_album": "1613540653",
    "description": "Space_303050",
    "title": "Space_303050",
    "link_img": "https://live.staticflickr.com/65535/50040490321_14ec460601_o.jpg",
    "id_image": "Space_303050",
    "count_view": 0
  },
  {
    "link_thumb": "https://live.staticflickr.com/65535/50038730103_caa66ab71a_n.jpg",
    "id_album": "849020728",
    "description": "Alien_967936",
    "title": "Alien_967936",
    "link_img": "https://live.staticflickr.com/65535/50038730103_f29ba7cd68_o.jpg",
    "id_image": "Alien_967936",
    "count_view": 0
  },
  {
    "link_thumb": "https://live.staticflickr.com/65535/50040454421_08ac1e3313_n.jpg",
    "id_album": "779690680",
    "description": "Robot_990521",
    "title": "Robot_990521",
    "link_img": "https://live.staticflickr.com/65535/50040454421_6b137aa41e_o.jpg",
    "id_image": "Robot_990521",
    "count_view": 0
  },
  {
    "link_thumb": "https://live.staticflickr.com/65535/50039216113_f3c52dfa02_n.jpg",
    "id_album": "-1610342324",
    "description": "Nebula_179735",
    "title": "Nebula_179735",
    "link_img": "https://live.staticflickr.com/65535/50039216113_e07000b150_o.jpg",
    "id_image": "Nebula_179735",
    "count_view": 0
  },
  {
    "link_thumb": "https://live.staticflickr.com/65535/50039872113_142d9e857d_n.jpg",
    "id_album": "779690680",
    "description": "Robot_928645",
    "title": "Robot_928645",
    "link_img": "https://live.staticflickr.com/65535/50039872113_3fc60675f3_o.jpg",
    "id_image": "Robot_928645",
    "count_view": 0
  },
  {
    "link_thumb": "https://live.staticflickr.com/65535/50039339306_8d45e436de_n.jpg",
    "id_album": "523598895",
    "description": "Artistic_563761",
    "title": "Artistic_563761",
    "link_img": "https://live.staticflickr.com/65535/50039339306_2666b2eab2_o.jpg",
    "id_image": "Artistic_563761",
    "count_view": 0
  },
  {
    "link_thumb": "https://live.staticflickr.com/65535/50039678251_a959043a0c_n.jpg",
    "id_album": "1402713104",
    "description": "Landscape_330989",
    "title": "Landscape_330989",
    "link_img": "https://live.staticflickr.com/65535/50039678251_cdaa1671f5_o.jpg",
    "id_image": "Landscape_330989",
    "count_view": 0
  },
  {
    "link_thumb": "https://live.staticflickr.com/65535/50040442962_4ca930429e_n.jpg",
    "id_album": "376235057",
    "description": "Planetscape_614568",
    "title": "Planetscape_614568",
    "link_img": "https://live.staticflickr.com/65535/50040442962_27d9521b03_o.jpg",
    "id_image": "Planetscape_614568",
    "count_view": 0
  },
  {
    "link_thumb": "https://live.staticflickr.com/65535/50040811703_5b70b510c3_n.jpg",
    "id_album": "-1177476763",
    "description": "Sunrise_429129",
    "title": "Sunrise_429129",
    "link_img": "https://live.staticflickr.com/65535/50040811703_79b6768797_o.jpg",
    "id_image": "Sunrise_429129",
    "count_view": 0
  },
  {
    "link_thumb": "https://live.staticflickr.com/65535/50040378522_80f4ab4e2a_n.jpg",
    "id_album": "-1102314093",
    "description": "Planets_428363",
    "title": "Planets_428363",
    "link_img": "https://live.staticflickr.com/65535/50040378522_cfc25e30fe_o.jpg",
    "id_image": "Planets_428363",
    "count_view": 0
  },
  {
    "link_thumb": "https://live.staticflickr.com/65535/50039879332_677638388d_n.jpg",
    "id_album": "2104507156",
    "description": "Fantasy_162713",
    "title": "Fantasy_162713",
    "link_img": "https://live.staticflickr.com/65535/50039879332_9441f0ff7b_o.jpg",
    "id_image": "Fantasy_162713",
    "count_view": 0
  },
  {
    "link_thumb": "https://live.staticflickr.com/65535/50039790502_50548e0477_n.jpg",
    "id_album": "-1964113117",
    "description": "City_968741",
    "title": "City_968741",
    "link_img": "https://live.staticflickr.com/65535/50039790502_57b95a9c9a_o.jpg",
    "id_image": "City_968741",
    "count_view": 0
  },
  {
    "link_thumb": "https://live.staticflickr.com/65535/50040929603_07e9fe271f_n.jpg",
    "id_album": "-1261420436",
    "description": "Warrior_690930",
    "title": "Warrior_690930",
    "link_img": "https://live.staticflickr.com/65535/50040929603_682b732da5_o.jpg",
    "id_image": "Warrior_690930",
    "count_view": 0
  },
  {
    "link_thumb": "https://live.staticflickr.com/65535/50041593541_37027a1073_n.jpg",
    "id_album": "-1675918237",
    "description": "WomenWarrior_985659",
    "title": "WomenWarrior_985659",
    "link_img": "https://live.staticflickr.com/65535/50041593541_37efdfa449_o.jpg",
    "id_image": "WomenWarrior_985659",
    "count_view": 0
  },
  {
    "link_thumb": "https://live.staticflickr.com/65535/50039765096_cc700b1bde_n.jpg",
    "id_album": "-1610342324",
    "description": "Nebula_178027",
    "title": "Nebula_178027",
    "link_img": "https://live.staticflickr.com/65535/50039765096_3e82a1754d_o.jpg",
    "id_image": "Nebula_178027",
    "count_view": 0
  },
  {
    "link_thumb": "https://live.staticflickr.com/65535/50040390101_8cf1922a4d_n.jpg",
    "id_album": "779690680",
    "description": "Robot_880056",
    "title": "Robot_880056",
    "link_img": "https://live.staticflickr.com/65535/50040390101_2a5b78967c_o.jpg",
    "id_image": "Robot_880056",
    "count_view": 0
  },
  {
    "link_thumb": "https://live.staticflickr.com/65535/50039619103_7a955c31b4_n.jpg",
    "id_album": "376235057",
    "description": "Planetscape_382443",
    "title": "Planetscape_382443",
    "link_img": "https://live.staticflickr.com/65535/50039619103_038a6b3a31_o.jpg",
    "id_image": "Planetscape_382443",
    "count_view": 0
  },
  {
    "link_thumb": "https://live.staticflickr.com/65535/50039530286_df2a07dac6_n.jpg",
    "id_album": "-1964113117",
    "description": "City_974925",
    "title": "City_974925",
    "link_img": "https://live.staticflickr.com/65535/50039530286_c3e6aeaf8c_o.jpg",
    "id_image": "City_974925",
    "count_view": 0
  },
  {
    "link_thumb": "https://live.staticflickr.com/65535/50039812943_0880dca44b_n.jpg",
    "id_album": "779690680",
    "description": "Robot_777005",
    "title": "Robot_777005",
    "link_img": "https://live.staticflickr.com/65535/50039812943_0b627374b7_o.jpg",
    "id_image": "Robot_777005",
    "count_view": 0
  },
  {
    "link_thumb": "https://live.staticflickr.com/65535/50038779088_a6ce33fc2f_n.jpg",
    "id_album": "523598895",
    "description": "Artistic_281513",
    "title": "Artistic_281513",
    "link_img": "https://live.staticflickr.com/65535/50038779088_dedec4b0a2_o.jpg",
    "id_image": "Artistic_281513",
    "count_view": 0
  },
  {
    "link_thumb": "https://live.staticflickr.com/65535/50039629087_ec10ca2cb7_n.jpg",
    "id_album": "869545341",
    "description": "Astronaut_774482",
    "title": "Astronaut_774482",
    "link_img": "https://live.staticflickr.com/65535/50039629087_60df2303a2_o.jpg",
    "id_image": "Astronaut_774482",
    "count_view": 0
  },
  {
    "link_thumb": "https://live.staticflickr.com/65535/50039511743_77b5864dcc_n.jpg",
    "id_album": "-1102314093",
    "description": "Planets_223113",
    "title": "Planets_223113",
    "link_img": "https://live.staticflickr.com/65535/50039511743_448516692c_o.jpg",
    "id_image": "Planets_223113",
    "count_view": 0
  },
  {
    "link_thumb": "https://live.staticflickr.com/65535/50039641467_6a3c893dcf_n.jpg",
    "id_album": "869545341",
    "description": "Astronaut_923961",
    "title": "Astronaut_923961",
    "link_img": "https://live.staticflickr.com/65535/50039641467_e0e9079ba7_o.jpg",
    "id_image": "Astronaut_923961",
    "count_view": 0
  },
  {
    "link_thumb": "https://live.staticflickr.com/65535/50039463353_168faa7bf1_n.jpg",
    "id_album": "1443611160",
    "description": "PlanetRise_77627",
    "title": "PlanetRise_77627",
    "link_img": "https://live.staticflickr.com/65535/50039463353_0a768379b6_o.jpg",
    "id_image": "PlanetRise_77627",
    "count_view": 0
  },
  {
    "link_thumb": "https://live.staticflickr.com/65535/50040695273_693dd03db2_n.jpg",
    "id_album": "-1863373220",
    "description": "StarWars_980528",
    "title": "StarWars_980528",
    "link_img": "https://live.staticflickr.com/65535/50040695273_c0e6749399_o.jpg",
    "id_image": "StarWars_980528",
    "count_view": 0
  },
  {
    "link_thumb": "https://live.staticflickr.com/65535/50040102357_132f212e5f_n.jpg",
    "id_album": "-1610342324",
    "description": "Nebula_805138",
    "title": "Nebula_805138",
    "link_img": "https://live.staticflickr.com/65535/50040102357_36bc21ac02_o.jpg",
    "id_image": "Nebula_805138",
    "count_view": 0
  },
  {
    "link_thumb": "https://live.staticflickr.com/65535/50040387371_48340ddf27_n.jpg",
    "id_album": "779690680",
    "description": "Robot_877230",
    "title": "Robot_877230",
    "link_img": "https://live.staticflickr.com/65535/50040387371_fe0b16b2c6_o.jpg",
    "id_image": "Robot_877230",
    "count_view": 0
  },
  {
    "link_thumb": "https://live.staticflickr.com/65535/50039120158_2d8c61157d_n.jpg",
    "id_album": "1402713104",
    "description": "Landscape_273938",
    "title": "Landscape_273938",
    "link_img": "https://live.staticflickr.com/65535/50039120158_1e1a068bde_o.jpg",
    "id_image": "Landscape_273938",
    "count_view": 0
  },
  {
    "link_thumb": "https://live.staticflickr.com/65535/50039904402_81438eb12f_n.jpg",
    "id_album": "1204249541",
    "description": "Galaxy_546246",
    "title": "Galaxy_546246",
    "link_img": "https://live.staticflickr.com/65535/50039904402_c72a50a48b_o.jpg",
    "id_image": "Galaxy_546246",
    "count_view": 0
  },
  {
    "link_thumb": "https://live.staticflickr.com/65535/50038968553_e1c8a79818_n.jpg",
    "id_album": "-1964113117",
    "description": "City_905110",
    "title": "City_905110",
    "link_img": "https://live.staticflickr.com/65535/50038968553_46c5239432_o.jpg",
    "id_image": "City_905110",
    "count_view": 0
  },
  {
    "link_thumb": "https://live.staticflickr.com/65535/50039952832_d7701cf05b_n.jpg",
    "id_album": "1402713104",
    "description": "Landscape_446153",
    "title": "Landscape_446153",
    "link_img": "https://live.staticflickr.com/65535/50039952832_131d6cf9ce_o.jpg",
    "id_image": "Landscape_446153",
    "count_view": 0
  },
  {
    "link_thumb": "https://live.staticflickr.com/65535/50040545467_9f3fe0a46e_n.jpg",
    "id_album": "779690680",
    "description": "Robot_283424",
    "title": "Robot_283424",
    "link_img": "https://live.staticflickr.com/65535/50040545467_6d66a0518f_o.jpg",
    "id_image": "Robot_283424",
    "count_view": 0
  },
  {
    "link_thumb": "https://live.staticflickr.com/65535/50040598656_64edffbc6a_n.jpg",
    "id_album": "2130067313",
    "description": "Spaceship_209958",
    "title": "Spaceship_209958",
    "link_img": "https://live.staticflickr.com/65535/50040598656_80826f7c3c_o.jpg",
    "id_image": "Spaceship_209958",
    "count_view": 0
  },
  {
    "link_thumb": "https://live.staticflickr.com/65535/50038903323_f024fc7659_n.jpg",
    "id_album": "-1964113117",
    "description": "City_236462",
    "title": "City_236462",
    "link_img": "https://live.staticflickr.com/65535/50038903323_ba61a6cda5_o.jpg",
    "id_image": "City_236462",
    "count_view": 0
  },
  {
    "link_thumb": "https://live.staticflickr.com/65535/50040553092_099596f516_n.jpg",
    "id_album": "779690680",
    "description": "Robot_322092",
    "title": "Robot_322092",
    "link_img": "https://live.staticflickr.com/65535/50040553092_8ecf91d1a7_o.jpg",
    "id_image": "Robot_322092",
    "count_view": 0
  },
  {
    "link_thumb": "https://live.staticflickr.com/65535/50039683603_f299db939b_n.jpg",
    "id_album": "-482547208",
    "description": "PostApocalyptic_977198",
    "title": "PostApocalyptic_977198",
    "link_img": "https://live.staticflickr.com/65535/50039683603_2699327a2b_o.jpg",
    "id_image": "PostApocalyptic_977198",
    "count_view": 0
  },
  {
    "link_thumb": "https://live.staticflickr.com/65535/50039676836_4b8161656d_n.jpg",
    "id_album": "1402713104",
    "description": "Landscape_325448",
    "title": "Landscape_325448",
    "link_img": "https://live.staticflickr.com/65535/50039676836_0caa866741_o.jpg",
    "id_image": "Landscape_325448",
    "count_view": 0
  },
  {
    "link_thumb": "https://live.staticflickr.com/65535/50040864517_a6d151a54a_n.jpg",
    "id_album": "2130067313",
    "description": "Spaceship_224978",
    "title": "Spaceship_224978",
    "link_img": "https://live.staticflickr.com/65535/50040864517_ca8fa122ca_o.jpg",
    "id_image": "Spaceship_224978",
    "count_view": 0
  },
  {
    "link_thumb": "https://live.staticflickr.com/65535/50040446742_4e7b59a017_n.jpg",
    "id_album": "376235057",
    "description": "Planetscape_805173",
    "title": "Planetscape_805173",
    "link_img": "https://live.staticflickr.com/65535/50040446742_4df8e14153_o.jpg",
    "id_image": "Planetscape_805173",
    "count_view": 0
  },
  {
    "link_thumb": "https://live.staticflickr.com/65535/50039684662_5f78efb6d1_n.jpg",
    "id_album": "406431601",
    "description": "Building_529582",
    "title": "Building_529582",
    "link_img": "https://live.staticflickr.com/65535/50039684662_ed290be856_o.jpg",
    "id_image": "Building_529582",
    "count_view": 0
  },
  {
    "link_thumb": "https://live.staticflickr.com/65535/50039614442_85b471c8aa_n.jpg",
    "id_album": "869545341",
    "description": "Astronaut_249171",
    "title": "Astronaut_249171",
    "link_img": "https://live.staticflickr.com/65535/50039614442_64c4de3ffd_o.jpg",
    "id_image": "Astronaut_249171",
    "count_view": 0
  },
  {
    "link_thumb": "https://live.staticflickr.com/65535/50039255341_5ae11220d5_n.jpg",
    "id_album": "849020728",
    "description": "Alien_234560",
    "title": "Alien_234560",
    "link_img": "https://live.staticflickr.com/65535/50039255341_a236aa9039_o.jpg",
    "id_image": "Alien_234560",
    "count_view": 0
  },
  {
    "link_thumb": "https://live.staticflickr.com/65535/50040638362_31351a3378_n.jpg",
    "id_album": "779690680",
    "description": "Robot_857285",
    "title": "Robot_857285",
    "link_img": "https://live.staticflickr.com/65535/50040638362_3503092af9_o.jpg",
    "id_image": "Robot_857285",
    "count_view": 0
  },
  {
    "link_thumb": "https://live.staticflickr.com/65535/50039436516_cd57fe9945_n.jpg",
    "id_album": "-1964113117",
    "description": "City_155240",
    "title": "City_155240",
    "link_img": "https://live.staticflickr.com/65535/50039436516_af0dff472b_o.jpg",
    "id_image": "City_155240",
    "count_view": 0
  },
  {
    "link_thumb": "https://live.staticflickr.com/65535/50040725177_89db9a61a3_n.jpg",
    "id_album": "779690680",
    "description": "Robot_997950",
    "title": "Robot_997950",
    "link_img": "https://live.staticflickr.com/65535/50040725177_dc25b04fb0_o.jpg",
    "id_image": "Robot_997950",
    "count_view": 0
  },
  {
    "link_thumb": "https://live.staticflickr.com/65535/50040428352_a82f28aaf7_n.jpg",
    "id_album": "376235057",
    "description": "Planetscape_353659",
    "title": "Planetscape_353659",
    "link_img": "https://live.staticflickr.com/65535/50040428352_1117f7a025_o.jpg",
    "id_image": "Planetscape_353659",
    "count_view": 0
  },
  {
    "link_thumb": "https://live.staticflickr.com/65535/50039271391_17aa0ba07b_n.jpg",
    "id_album": "849020728",
    "description": "Alien_599877",
    "title": "Alien_599877",
    "link_img": "https://live.staticflickr.com/65535/50039271391_2e6a81543e_o.jpg",
    "id_image": "Alien_599877",
    "count_view": 0
  },
  {
    "link_thumb": "https://live.staticflickr.com/65535/50039511931_f535633b22_n.jpg",
    "id_album": "-1964113117",
    "description": "City_881451",
    "title": "City_881451",
    "link_img": "https://live.staticflickr.com/65535/50039511931_1ecfa77a4e_o.jpg",
    "id_image": "City_881451",
    "count_view": 0
  },
  {
    "link_thumb": "https://live.staticflickr.com/65535/50041297751_95e5ffc1fd_n.jpg",
    "id_album": "1267121215",
    "description": "Steampunk_190593",
    "title": "Steampunk_190593",
    "link_img": "https://live.staticflickr.com/65535/50041297751_a700c86c2a_o.jpg",
    "id_image": "Steampunk_190593",
    "count_view": 0
  },
  {
    "link_thumb": "https://live.staticflickr.com/65535/50039260428_852d8ce02a_n.jpg",
    "id_album": "-1610342324",
    "description": "Nebula_556941",
    "title": "Nebula_556941",
    "link_img": "https://live.staticflickr.com/65535/50039260428_f4863864bb_o.jpg",
    "id_image": "Nebula_556941",
    "count_view": 0
  },
  {
    "link_thumb": "https://live.staticflickr.com/65535/50038930838_5c29acabab_n.jpg",
    "id_album": "-1964113117",
    "description": "City_567085",
    "title": "City_567085",
    "link_img": "https://live.staticflickr.com/65535/50038930838_6d497b0e8e_o.jpg",
    "id_image": "City_567085",
    "count_view": 0
  },
  {
    "link_thumb": "https://live.staticflickr.com/65535/50038699178_11ec2631bc_n.jpg",
    "id_album": "849020728",
    "description": "Alien_152631",
    "title": "Alien_152631",
    "link_img": "https://live.staticflickr.com/65535/50038699178_a8eedc5aa9_o.jpg",
    "id_image": "Alien_152631",
    "count_view": 0
  },
  {
    "link_thumb": "https://live.staticflickr.com/65535/50040656482_b88b06ec3b_n.jpg",
    "id_album": "779690680",
    "description": "Robot_883165",
    "title": "Robot_883165",
    "link_img": "https://live.staticflickr.com/65535/50040656482_161b5b015b_o.jpg",
    "id_image": "Robot_883165",
    "count_view": 0
  },
  {
    "link_thumb": "https://live.staticflickr.com/65535/50041849552_82db95e433_n.jpg",
    "id_album": "-1675918237",
    "description": "WomenWarrior_806651",
    "title": "WomenWarrior_806651",
    "link_img": "https://live.staticflickr.com/65535/50041849552_5d6230c925_o.jpg",
    "id_image": "WomenWarrior_806651",
    "count_view": 0
  },
  {
    "link_thumb": "https://live.staticflickr.com/65535/50040968782_f413c1ddf5_n.jpg",
    "id_album": "2130067313",
    "description": "Spaceship_514676",
    "title": "Spaceship_514676",
    "link_img": "https://live.staticflickr.com/65535/50040968782_c65ba232da_o.jpg",
    "id_image": "Spaceship_514676",
    "count_view": 0
  },
  {
    "link_thumb": "https://live.staticflickr.com/65535/50039733941_47c389e95c_n.jpg",
    "id_album": "-1388385651",
    "description": "MilkyWay_555696",
    "title": "MilkyWay_555696",
    "link_img": "https://live.staticflickr.com/65535/50039733941_eb09d7329b_o.jpg",
    "id_image": "MilkyWay_555696",
    "count_view": 0
  },
  {
    "link_thumb": "https://live.staticflickr.com/65535/50041497191_b0d2e5f43c_n.jpg",
    "id_album": "-1261420436",
    "description": "Warrior_976314",
    "title": "Warrior_976314",
    "link_img": "https://live.staticflickr.com/65535/50041497191_487a82ede5_o.jpg",
    "id_image": "Warrior_976314",
    "count_view": 0
  },
  {
    "link_thumb": "https://live.staticflickr.com/65535/50039537006_56f26a0e9a_n.jpg",
    "id_album": "894679094",
    "description": "Collision_20430",
    "title": "Collision_20430",
    "link_img": "https://live.staticflickr.com/65535/50039537006_ed9e780085_o.jpg",
    "id_image": "Collision_20430",
    "count_view": 0
  },
  {
    "link_thumb": "https://live.staticflickr.com/65535/50039720256_449d043649_n.jpg",
    "id_album": "1402713104",
    "description": "Landscape_902745",
    "title": "Landscape_902745",
    "link_img": "https://live.staticflickr.com/65535/50039720256_47a3b684ff_o.jpg",
    "id_image": "Landscape_902745",
    "count_view": 0
  },
  {
    "link_thumb": "https://live.staticflickr.com/65535/50041724567_4b5f1ec52b_n.jpg",
    "id_album": "-1261420436",
    "description": "Warrior_439154",
    "title": "Warrior_439154",
    "link_img": "https://live.staticflickr.com/65535/50041724567_d4186eaeb7_o.jpg",
    "id_image": "Warrior_439154",
    "count_view": 0
  },
  {
    "link_thumb": "https://live.staticflickr.com/65535/50039098633_5606f04523_n.jpg",
    "id_album": "1204249541",
    "description": "Galaxy_606741",
    "title": "Galaxy_606741",
    "link_img": "https://live.staticflickr.com/65535/50039098633_3266e95d70_o.jpg",
    "id_image": "Galaxy_606741",
    "count_view": 0
  },
  {
    "link_thumb": "https://live.staticflickr.com/65535/50039094653_63ec40f413_n.jpg",
    "id_album": "1204249541",
    "description": "Galaxy_567288",
    "title": "Galaxy_567288",
    "link_img": "https://live.staticflickr.com/65535/50039094653_bc00c3208f_o.jpg",
    "id_image": "Galaxy_567288",
    "count_view": 0
  },
  {
    "link_thumb": "https://live.staticflickr.com/65535/50038870678_24eb60bff0_n.jpg",
    "id_album": "-1780971522",
    "description": "Biohazard_592130",
    "title": "Biohazard_592130",
    "link_img": "https://live.staticflickr.com/65535/50038870678_1fb0ec711a_o.jpg",
    "id_image": "Biohazard_592130",
    "count_view": 0
  },
  {
    "link_thumb": "https://live.staticflickr.com/65535/50039205048_42075e325c_n.jpg",
    "id_album": "416351698",
    "description": "Moon_226142",
    "title": "Moon_226142",
    "link_img": "https://live.staticflickr.com/65535/50039205048_dc0266d03c_o.jpg",
    "id_image": "Moon_226142",
    "count_view": 0
  },
  {
    "link_thumb": "https://live.staticflickr.com/65535/50040669847_6eb96290a9_n.jpg",
    "id_album": "779690680",
    "description": "Robot_907943",
    "title": "Robot_907943",
    "link_img": "https://live.staticflickr.com/65535/50040669847_de7b7392fc_o.jpg",
    "id_image": "Robot_907943",
    "count_view": 0
  },
  {
    "link_thumb": "https://live.staticflickr.com/65535/50039807081_1fb4da4527_n.jpg",
    "id_album": "-1610342324",
    "description": "Nebula_548311",
    "title": "Nebula_548311",
    "link_img": "https://live.staticflickr.com/65535/50039807081_d28e460ffd_o.jpg",
    "id_image": "Nebula_548311",
    "count_view": 0
  },
  {
    "link_thumb": "https://live.staticflickr.com/65535/50039000558_56c14c35eb_n.jpg",
    "id_album": "-437872736",
    "description": "Creature_289945",
    "title": "Creature_289945",
    "link_img": "https://live.staticflickr.com/65535/50039000558_13521c72ba_o.jpg",
    "id_image": "Creature_289945",
    "count_view": 0
  },
  {
    "link_thumb": "https://live.staticflickr.com/65535/50039788098_de2d12a5fa_n.jpg",
    "id_album": "779690680",
    "description": "Robot_599641",
    "title": "Robot_599641",
    "link_img": "https://live.staticflickr.com/65535/50039788098_d71abd6084_o.jpg",
    "id_image": "Robot_599641",
    "count_view": 0
  },
  {
    "link_thumb": "https://live.staticflickr.com/65535/50039145573_da6f6d7c46_n.jpg",
    "id_album": "1402713104",
    "description": "Landscape_559164",
    "title": "Landscape_559164",
    "link_img": "https://live.staticflickr.com/65535/50039145573_a4e8912a56_o.jpg",
    "id_image": "Landscape_559164",
    "count_view": 0
  },
  {
    "link_thumb": "https://live.staticflickr.com/65535/50039654822_c7c20a6833_n.jpg",
    "id_album": "869545341",
    "description": "Astronaut_995511",
    "title": "Astronaut_995511",
    "link_img": "https://live.staticflickr.com/65535/50039654822_8fea0b8a7c_o.jpg",
    "id_image": "Astronaut_995511",
    "count_view": 0
  },
  {
    "link_thumb": "https://live.staticflickr.com/65535/50039788888_a6990485d1_n.jpg",
    "id_album": "779690680",
    "description": "Robot_599649",
    "title": "Robot_599649",
    "link_img": "https://live.staticflickr.com/65535/50039788888_4bb2b71bf9_o.jpg",
    "id_image": "Robot_599649",
    "count_view": 0
  },
  {
    "link_thumb": "https://live.staticflickr.com/65535/50040074442_be73a7d952_n.jpg",
    "id_album": "-1610342324",
    "description": "Nebula_560770",
    "title": "Nebula_560770",
    "link_img": "https://live.staticflickr.com/65535/50040074442_cafa578ff8_o.jpg",
    "id_image": "Nebula_560770",
    "count_view": 0
  },
  {
    "link_thumb": "https://live.staticflickr.com/65535/50039281336_85b973835b_n.jpg",
    "id_album": "-419633230",
    "description": "Apocalyptic_285801",
    "title": "Apocalyptic_285801",
    "link_img": "https://live.staticflickr.com/65535/50039281336_5e396acd33_o.jpg",
    "id_image": "Apocalyptic_285801",
    "count_view": 0
  },
  {
    "link_thumb": "https://live.staticflickr.com/65535/50040933818_f4eaf23484_n.jpg",
    "id_album": "-1261420436",
    "description": "Warrior_788776",
    "title": "Warrior_788776",
    "link_img": "https://live.staticflickr.com/65535/50040933818_e98073c311_o.jpg",
    "id_image": "Warrior_788776",
    "count_view": 0
  },
  {
    "link_thumb": "https://live.staticflickr.com/65535/50039696391_a9a75d223f_n.jpg",
    "id_album": "1402713104",
    "description": "Landscape_640392",
    "title": "Landscape_640392",
    "link_img": "https://live.staticflickr.com/65535/50039696391_090394a94e_o.jpg",
    "id_image": "Landscape_640392",
    "count_view": 0
  },
  {
    "link_thumb": "https://live.staticflickr.com/65535/50039660976_09abfcef3a_n.jpg",
    "id_album": "1402713104",
    "description": "Landscape_151181",
    "title": "Landscape_151181",
    "link_img": "https://live.staticflickr.com/65535/50039660976_fe25dbff0c_o.jpg",
    "id_image": "Landscape_151181",
    "count_view": 0
  },
  {
    "link_thumb": "https://live.staticflickr.com/65535/50040305591_682a47debc_n.jpg",
    "id_album": "779690680",
    "description": "Robot_413349",
    "title": "Robot_413349",
    "link_img": "https://live.staticflickr.com/65535/50040305591_63b44394c4_o.jpg",
    "id_image": "Robot_413349",
    "count_view": 0
  },
  {
    "link_thumb": "https://live.staticflickr.com/65535/50039798761_95b4197085_n.jpg",
    "id_album": "-1610342324",
    "description": "Nebula_453086",
    "title": "Nebula_453086",
    "link_img": "https://live.staticflickr.com/65535/50039798761_5eec1daee7_o.jpg",
    "id_image": "Nebula_453086",
    "count_view": 0
  },
  {
    "link_thumb": "https://live.staticflickr.com/65535/50039037173_450d73660f_n.jpg",
    "id_album": "829169633",
    "description": "Cyborg_319696",
    "title": "Cyborg_319696",
    "link_img": "https://live.staticflickr.com/65535/50039037173_a9c5d4bf8d_o.jpg",
    "id_image": "Cyborg_319696",
    "count_view": 0
  },
  {
    "link_thumb": "https://live.staticflickr.com/65535/50041422771_1b607aaf7a_n.jpg",
    "id_album": "2020068132",
    "description": "Vehicle_955936",
    "title": "Vehicle_955936",
    "link_img": "https://live.staticflickr.com/65535/50041422771_389dd09114_o.jpg",
    "id_image": "Vehicle_955936",
    "count_view": 0
  },
  {
    "link_thumb": "https://live.staticflickr.com/65535/50039823257_de18b22c2f_n.jpg",
    "id_album": "-1372247677",
    "description": "Cyberpunk_712781",
    "title": "Cyberpunk_712781",
    "link_img": "https://live.staticflickr.com/65535/50039823257_7505ee927a_o.jpg",
    "id_image": "Cyberpunk_712781",
    "count_view": 0
  },
  {
    "link_thumb": "https://live.staticflickr.com/65535/50039934323_6914eaf08d_n.jpg",
    "id_album": "1613540653",
    "description": "Space_287073",
    "title": "Space_287073",
    "link_img": "https://live.staticflickr.com/65535/50039934323_71806d9eba_o.jpg",
    "id_image": "Space_287073",
    "count_view": 0
  },
  {
    "link_thumb": "https://live.staticflickr.com/65535/50039519708_29d46ae302_n.jpg",
    "id_album": "-1102314093",
    "description": "Planets_271246",
    "title": "Planets_271246",
    "link_img": "https://live.staticflickr.com/65535/50039519708_8050758c2e_o.jpg",
    "id_image": "Planets_271246",
    "count_view": 0
  },
  {
    "link_thumb": "https://live.staticflickr.com/65535/50039402326_e2090342e5_n.jpg",
    "id_album": "1187037014",
    "description": "Battle_509019",
    "title": "Battle_509019",
    "link_img": "https://live.staticflickr.com/65535/50039402326_081ee78a69_o.jpg",
    "id_image": "Battle_509019",
    "count_view": 0
  },
  {
    "link_thumb": "https://live.staticflickr.com/65535/50040639597_52e30bf3f9_n.jpg",
    "id_album": "779690680",
    "description": "Robot_857294",
    "title": "Robot_857294",
    "link_img": "https://live.staticflickr.com/65535/50040639597_8907b59dfd_o.jpg",
    "id_image": "Robot_857294",
    "count_view": 0
  },
  {
    "link_thumb": "https://live.staticflickr.com/65535/50041542851_41a031f902_n.jpg",
    "id_album": "-1126835654",
    "description": "Women_615461",
    "title": "Women_615461",
    "link_img": "https://live.staticflickr.com/65535/50041542851_12ab918f9c_o.jpg",
    "id_image": "Women_615461",
    "count_view": 0
  },
  {
    "link_thumb": "https://live.staticflickr.com/65535/50040388996_7a0d9651f1_n.jpg",
    "id_album": "779690680",
    "description": "Robot_878432",
    "title": "Robot_878432",
    "link_img": "https://live.staticflickr.com/65535/50040388996_39f9a30c14_o.jpg",
    "id_image": "Robot_878432",
    "count_view": 0
  },
  {
    "link_thumb": "https://live.staticflickr.com/65535/50039841023_344c5db0c6_n.jpg",
    "id_album": "779690680",
    "description": "Robot_886631",
    "title": "Robot_886631",
    "link_img": "https://live.staticflickr.com/65535/50039841023_2141924e95_o.jpg",
    "id_image": "Robot_886631",
    "count_view": 0
  },
  {
    "link_thumb": "https://live.staticflickr.com/65535/50038809133_4a12181fd9_n.jpg",
    "id_album": "869545341",
    "description": "Astronaut_556060",
    "title": "Astronaut_556060",
    "link_img": "https://live.staticflickr.com/65535/50038809133_d49d9a4e81_o.jpg",
    "id_image": "Astronaut_556060",
    "count_view": 0
  },
  {
    "link_thumb": "https://live.staticflickr.com/65535/50039907793_8a3de94951_n.jpg",
    "id_album": "1613540653",
    "description": "Space_107620",
    "title": "Space_107620",
    "link_img": "https://live.staticflickr.com/65535/50039907793_ce6240e9ed_o.jpg",
    "id_image": "Space_107620",
    "count_view": 0
  },
  {
    "link_thumb": "https://live.staticflickr.com/65535/50039747357_9ba74d2a9f_n.jpg",
    "id_album": "-1964113117",
    "description": "City_665165",
    "title": "City_665165",
    "link_img": "https://live.staticflickr.com/65535/50039747357_9a73856c67_o.jpg",
    "id_image": "City_665165",
    "count_view": 0
  },
  {
    "link_thumb": "https://live.staticflickr.com/65535/50039699773_9350666857_n.jpg",
    "id_album": "779690680",
    "description": "Robot_114063",
    "title": "Robot_114063",
    "link_img": "https://live.staticflickr.com/65535/50039699773_7b3cff72f9_o.jpg",
    "id_image": "Robot_114063",
    "count_view": 0
  },
  {
    "link_thumb": "https://live.staticflickr.com/65535/50039656886_d533d36226_n.jpg",
    "id_album": "1204249541",
    "description": "Galaxy_953633",
    "title": "Galaxy_953633",
    "link_img": "https://live.staticflickr.com/65535/50039656886_24b43f432a_o.jpg",
    "id_image": "Galaxy_953633",
    "count_view": 0
  },
  {
    "link_thumb": "https://live.staticflickr.com/65535/50039435656_e77e9fe41f_n.jpg",
    "id_album": "-1964113117",
    "description": "City_150250",
    "title": "City_150250",
    "link_img": "https://live.staticflickr.com/65535/50039435656_400f207770_o.jpg",
    "id_image": "City_150250",
    "count_view": 0
  },
  {
    "link_thumb": "https://live.staticflickr.com/65535/50039592921_eec65bdcc7_n.jpg",
    "id_album": "829169633",
    "description": "Cyborg_542952",
    "title": "Cyborg_542952",
    "link_img": "https://live.staticflickr.com/65535/50039592921_5dcde16153_o.jpg",
    "id_image": "Cyborg_542952",
    "count_view": 0
  },
  {
    "link_thumb": "https://live.staticflickr.com/65535/50039836176_8fd5da9265_n.jpg",
    "id_album": "-1610342324",
    "description": "Nebula_785314",
    "title": "Nebula_785314",
    "link_img": "https://live.staticflickr.com/65535/50039836176_0e2076b7b1_o.jpg",
    "id_image": "Nebula_785314",
    "count_view": 0
  },
  {
    "link_thumb": "https://live.staticflickr.com/65535/50040640217_d428c0a825_n.jpg",
    "id_album": "779690680",
    "description": "Robot_857298",
    "title": "Robot_857298",
    "link_img": "https://live.staticflickr.com/65535/50040640217_95ef776b8e_o.jpg",
    "id_image": "Robot_857298",
    "count_view": 0
  },
  {
    "link_thumb": "https://live.staticflickr.com/65535/50039781262_ab243fa03b_n.jpg",
    "id_album": "-1964113117",
    "description": "City_910936",
    "title": "City_910936",
    "link_img": "https://live.staticflickr.com/65535/50039781262_2d62bda94d_o.jpg",
    "id_image": "City_910936",
    "count_view": 0
  },
  {
    "link_thumb": "https://live.staticflickr.com/65535/50038930488_0b0e904bdd_n.jpg",
    "id_album": "-1964113117",
    "description": "City_565078",
    "title": "City_565078",
    "link_img": "https://live.staticflickr.com/65535/50038930488_6dfc6f320a_o.jpg",
    "id_image": "City_565078",
    "count_view": 0
  },
  {
    "link_thumb": "https://live.staticflickr.com/65535/50040435282_d7ddb374cf_n.jpg",
    "id_album": "376235057",
    "description": "Planetscape_383294",
    "title": "Planetscape_383294",
    "link_img": "https://live.staticflickr.com/65535/50040435282_617a5e9243_o.jpg",
    "id_image": "Planetscape_383294",
    "count_view": 0
  },
  {
    "link_thumb": "https://live.staticflickr.com/65535/50038731898_98db688388_n.jpg",
    "id_album": "-419633230",
    "description": "Apocalyptic_175390",
    "title": "Apocalyptic_175390",
    "link_img": "https://live.staticflickr.com/65535/50038731898_8bd51d7488_o.jpg",
    "id_image": "Apocalyptic_175390",
    "count_view": 0
  },
  {
    "link_thumb": "https://live.staticflickr.com/65535/50040144788_94c738a3e7_n.jpg",
    "id_album": "2130067313",
    "description": "Spaceship_446852",
    "title": "Spaceship_446852",
    "link_img": "https://live.staticflickr.com/65535/50040144788_b2d4564bbd_o.jpg",
    "id_image": "Spaceship_446852",
    "count_view": 0
  },
  {
    "link_thumb": "https://live.staticflickr.com/65535/50039678816_0500f846a2_n.jpg",
    "id_album": "1402713104",
    "description": "Landscape_334805",
    "title": "Landscape_334805",
    "link_img": "https://live.staticflickr.com/65535/50039678816_478e9fcfde_o.jpg",
    "id_image": "Landscape_334805",
    "count_view": 0
  },
  {
    "link_thumb": "https://live.staticflickr.com/65535/50040061942_7a99618352_n.jpg",
    "id_album": "-1610342324",
    "description": "Nebula_441070",
    "title": "Nebula_441070",
    "link_img": "https://live.staticflickr.com/65535/50040061942_da0e8b8cfa_o.jpg",
    "id_image": "Nebula_441070",
    "count_view": 0
  },
  {
    "link_thumb": "https://live.staticflickr.com/65535/50039319846_3aa334d004_n.jpg",
    "id_album": "523598895",
    "description": "Artistic_225568",
    "title": "Artistic_225568",
    "link_img": "https://live.staticflickr.com/65535/50039319846_4ee7d1dcfe_o.jpg",
    "id_image": "Artistic_225568",
    "count_view": 0
  },
  {
    "link_thumb": "https://live.staticflickr.com/65535/50039410471_c97a3fb773_n.jpg",
    "id_album": "-1780971522",
    "description": "Biohazard_10386",
    "title": "Biohazard_10386",
    "link_img": "https://live.staticflickr.com/65535/50039410471_99b60198a8_o.jpg",
    "id_image": "Biohazard_10386",
    "count_view": 0
  },
  {
    "link_thumb": "https://live.staticflickr.com/65535/50041262911_7eda8271d9_n.jpg",
    "id_album": "-1587696329",
    "description": "Stars_332353",
    "title": "Stars_332353",
    "link_img": "https://live.staticflickr.com/65535/50041262911_01159e7ed0_o.jpg",
    "id_image": "Stars_332353",
    "count_view": 0
  },
  {
    "link_thumb": "https://live.staticflickr.com/65535/50039266463_e1bd6e2755_n.jpg",
    "id_album": "-1610342324",
    "description": "Nebula_594626",
    "title": "Nebula_594626",
    "link_img": "https://live.staticflickr.com/65535/50039266463_8cc435596e_o.jpg",
    "id_image": "Nebula_594626",
    "count_view": 0
  },
  {
    "link_thumb": "https://live.staticflickr.com/65535/50041266541_1af5338fc8_n.jpg",
    "id_album": "-1587696329",
    "description": "Stars_421878",
    "title": "Stars_421878",
    "link_img": "https://live.staticflickr.com/65535/50041266541_b2250ce8bb_o.jpg",
    "id_image": "Stars_421878",
    "count_view": 0
  },
  {
    "link_thumb": "https://live.staticflickr.com/65535/50041853312_8f36709b7e_n.jpg",
    "id_album": "-1675918237",
    "description": "WomenWarrior_969373",
    "title": "WomenWarrior_969373",
    "link_img": "https://live.staticflickr.com/65535/50041853312_869ecc828f_o.jpg",
    "id_image": "WomenWarrior_969373",
    "count_view": 0
  },
  {
    "link_thumb": "https://live.staticflickr.com/65535/50039444106_7398c3329d_n.jpg",
    "id_album": "-1964113117",
    "description": "City_205216",
    "title": "City_205216",
    "link_img": "https://live.staticflickr.com/65535/50039444106_c96fcbc4f3_o.jpg",
    "id_image": "City_205216",
    "count_view": 0
  },
  {
    "link_thumb": "https://live.staticflickr.com/65535/50039061098_31b8e5929b_n.jpg",
    "id_album": "651930207",
    "description": "Explosion_370831",
    "title": "Explosion_370831",
    "link_img": "https://live.staticflickr.com/65535/50039061098_aeda350901_o.jpg",
    "id_image": "Explosion_370831",
    "count_view": 0
  },
  {
    "link_thumb": "https://live.staticflickr.com/65535/50040814188_07b1399204_n.jpg",
    "id_album": "-1177476763",
    "description": "Sunrise_674912",
    "title": "Sunrise_674912",
    "link_img": "https://live.staticflickr.com/65535/50040814188_552d0a2dbb_o.jpg",
    "id_image": "Sunrise_674912",
    "count_view": 0
  },
  {
    "link_thumb": "https://live.staticflickr.com/65535/50040853703_2c1c906ace_n.jpg",
    "id_album": "2020068132",
    "description": "Vehicle_616889",
    "title": "Vehicle_616889",
    "link_img": "https://live.staticflickr.com/65535/50040853703_3e3b17d993_o.jpg",
    "id_image": "Vehicle_616889",
    "count_view": 0
  },
  {
    "link_thumb": "https://live.staticflickr.com/65535/50039633796_af539bcf27_n.jpg",
    "id_album": "1204249541",
    "description": "Galaxy_427241",
    "title": "Galaxy_427241",
    "link_img": "https://live.staticflickr.com/65535/50039633796_8ace2040d6_o.jpg",
    "id_image": "Galaxy_427241",
    "count_view": 0
  },
  {
    "link_thumb": "https://live.staticflickr.com/65535/50039620536_47d9b0fb85_n.jpg",
    "id_album": "2104507156",
    "description": "Fantasy_311805",
    "title": "Fantasy_311805",
    "link_img": "https://live.staticflickr.com/65535/50039620536_453e529a73_o.jpg",
    "id_image": "Fantasy_311805",
    "count_view": 0
  },
  {
    "link_thumb": "https://live.staticflickr.com/65535/50040714743_91ba634c67_n.jpg",
    "id_album": "-1587696329",
    "description": "Stars_441891",
    "title": "Stars_441891",
    "link_img": "https://live.staticflickr.com/65535/50040714743_bc8fa1d1d1_o.jpg",
    "id_image": "Stars_441891",
    "count_view": 0
  },
  {
    "link_thumb": "https://live.staticflickr.com/65535/50040177897_61398b4343_n.jpg",
    "id_album": "395161030",
    "description": "Planet_187130",
    "title": "Planet_187130",
    "link_img": "https://live.staticflickr.com/65535/50040177897_014946eefe_o.jpg",
    "id_image": "Planet_187130",
    "count_view": 0
  },
  {
    "link_thumb": "https://live.staticflickr.com/65535/50039874088_8a561c3cf9_n.jpg",
    "id_album": "779690680",
    "description": "Robot_930931",
    "title": "Robot_930931",
    "link_img": "https://live.staticflickr.com/65535/50039874088_66167b744d_o.jpg",
    "id_image": "Robot_930931",
    "count_view": 0
  },
  {
    "link_thumb": "https://live.staticflickr.com/65535/50039044468_982865903f_n.jpg",
    "id_album": "829169633",
    "description": "Cyborg_564482",
    "title": "Cyborg_564482",
    "link_img": "https://live.staticflickr.com/65535/50039044468_bc97f28758_o.jpg",
    "id_image": "Cyborg_564482",
    "count_view": 0
  },
  {
    "link_thumb": "https://live.staticflickr.com/65535/50040241347_45d2abb4c8_n.jpg",
    "id_album": "395161030",
    "description": "Planet_80642",
    "title": "Planet_80642",
    "link_img": "https://live.staticflickr.com/65535/50040241347_54eb22809a_o.jpg",
    "id_image": "Planet_80642",
    "count_view": 0
  },
  {
    "link_thumb": "https://live.staticflickr.com/65535/50039216778_35378fba6f_n.jpg",
    "id_album": "-1610342324",
    "description": "Nebula_1855",
    "title": "Nebula_1855",
    "link_img": "https://live.staticflickr.com/65535/50039216778_80cc127954_o.jpg",
    "id_image": "Nebula_1855",
    "count_view": 0
  },
  {
    "link_thumb": "https://live.staticflickr.com/65535/50041014063_ff5c987743_n.jpg",
    "id_album": "-1675918237",
    "description": "WomenWarrior_320615",
    "title": "WomenWarrior_320615",
    "link_img": "https://live.staticflickr.com/65535/50041014063_fd3ac0acd8_o.jpg",
    "id_image": "WomenWarrior_320615",
    "count_view": 0
  },
  {
    "link_thumb": "https://live.staticflickr.com/65535/50039539687_ddc55c7817_n.jpg",
    "id_album": "849020728",
    "description": "Alien_941433",
    "title": "Alien_941433",
    "link_img": "https://live.staticflickr.com/65535/50039539687_86cacf4b57_o.jpg",
    "id_image": "Alien_941433",
    "count_view": 0
  },
  {
    "link_thumb": "https://live.staticflickr.com/65535/50039252061_36a97466e6_n.jpg",
    "id_album": "849020728",
    "description": "Alien_194013",
    "title": "Alien_194013",
    "link_img": "https://live.staticflickr.com/65535/50039252061_243d682a21_o.jpg",
    "id_image": "Alien_194013",
    "count_view": 0
  },
  {
    "link_thumb": "https://live.staticflickr.com/65535/50039782861_e874991a2d_n.jpg",
    "id_album": "-1610342324",
    "description": "Nebula_286825",
    "title": "Nebula_286825",
    "link_img": "https://live.staticflickr.com/65535/50039782861_22931596a8_o.jpg",
    "id_image": "Nebula_286825",
    "count_view": 0
  },
  {
    "link_thumb": "https://live.staticflickr.com/65535/50038727493_5af9d06ca1_n.jpg",
    "id_album": "849020728",
    "description": "Alien_864723",
    "title": "Alien_864723",
    "link_img": "https://live.staticflickr.com/65535/50038727493_f0976ddcbc_o.jpg",
    "id_image": "Alien_864723",
    "count_view": 0
  },
  {
    "link_thumb": "https://live.staticflickr.com/65535/50040251666_341d31e986_n.jpg",
    "id_album": "779690680",
    "description": "Robot_112407",
    "title": "Robot_112407",
    "link_img": "https://live.staticflickr.com/65535/50040251666_23ccaf6ceb_o.jpg",
    "id_image": "Robot_112407",
    "count_view": 0
  },
  {
    "link_thumb": "https://live.staticflickr.com/65535/50040075756_1150f098d3_n.jpg",
    "id_album": "-1102314093",
    "description": "Planets_286826",
    "title": "Planets_286826",
    "link_img": "https://live.staticflickr.com/65535/50040075756_a575035bff_o.jpg",
    "id_image": "Planets_286826",
    "count_view": 0
  },
  {
    "link_thumb": "https://live.staticflickr.com/65535/50039083763_86e4851efa_n.jpg",
    "id_album": "1204249541",
    "description": "Galaxy_421600",
    "title": "Galaxy_421600",
    "link_img": "https://live.staticflickr.com/65535/50039083763_3d38f06d0a_o.jpg",
    "id_image": "Galaxy_421600",
    "count_view": 0
  },
  {
    "link_thumb": "https://live.staticflickr.com/65535/50039926388_8691cddc82_n.jpg",
    "id_album": "1613540653",
    "description": "Space_223704",
    "title": "Space_223704",
    "link_img": "https://live.staticflickr.com/65535/50039926388_f88e5ef8a5_o.jpg",
    "id_image": "Space_223704",
    "count_view": 0
  },
  {
    "link_thumb": "https://live.staticflickr.com/65535/50040865147_9f5dc8f6bc_n.jpg",
    "id_album": "2130067313",
    "description": "Spaceship_235124",
    "title": "Spaceship_235124",
    "link_img": "https://live.staticflickr.com/65535/50040865147_9fa98a3e00_o.jpg",
    "id_image": "Spaceship_235124",
    "count_view": 0
  },
  {
    "link_thumb": "https://live.staticflickr.com/65535/50040067441_2929c7e767_n.jpg",
    "id_album": "-1102314093",
    "description": "Planets_25111",
    "title": "Planets_25111",
    "link_img": "https://live.staticflickr.com/65535/50040067441_6c39951352_o.jpg",
    "id_image": "Planets_25111",
    "count_view": 0
  },
  {
    "link_thumb": "https://live.staticflickr.com/65535/50040070033_571778b3c9_n.jpg",
    "id_album": "2130067313",
    "description": "Spaceship_280806",
    "title": "Spaceship_280806",
    "link_img": "https://live.staticflickr.com/65535/50040070033_0d74908764_o.jpg",
    "id_image": "Spaceship_280806",
    "count_view": 0
  },
  {
    "link_thumb": "https://live.staticflickr.com/65535/50038848608_794d42000a_n.jpg",
    "id_album": "1187037014",
    "description": "Battle_223994",
    "title": "Battle_223994",
    "link_img": "https://live.staticflickr.com/65535/50038848608_46343f75cd_o.jpg",
    "id_image": "Battle_223994",
    "count_view": 0
  },
  {
    "link_thumb": "https://live.staticflickr.com/65535/50038934443_0fa63bfcde_n.jpg",
    "id_album": "-1964113117",
    "description": "City_649146",
    "title": "City_649146",
    "link_img": "https://live.staticflickr.com/65535/50038934443_494983d6c7_o.jpg",
    "id_image": "City_649146",
    "count_view": 0
  },
  {
    "link_thumb": "https://live.staticflickr.com/65535/50039138368_9f240c1398_n.jpg",
    "id_album": "1402713104",
    "description": "Landscape_410267",
    "title": "Landscape_410267",
    "link_img": "https://live.staticflickr.com/65535/50039138368_a8e5bfeb6d_o.jpg",
    "id_image": "Landscape_410267",
    "count_view": 0
  },
  {
    "link_thumb": "https://live.staticflickr.com/65535/50039714218_5f198dc0b9_n.jpg",
    "id_album": "779690680",
    "description": "Robot_225343",
    "title": "Robot_225343",
    "link_img": "https://live.staticflickr.com/65535/50039714218_e387d4e94c_o.jpg",
    "id_image": "Robot_225343",
    "count_view": 0
  },
  {
    "link_thumb": "https://live.staticflickr.com/65535/50039683667_5bcb8a66e0_n.jpg",
    "id_album": "406431601",
    "description": "Building_286800",
    "title": "Building_286800",
    "link_img": "https://live.staticflickr.com/65535/50039683667_df1b365e9d_o.jpg",
    "id_image": "Building_286800",
    "count_view": 0
  },
  {
    "link_thumb": "https://live.staticflickr.com/65535/50039821478_b481c3dca2_n.jpg",
    "id_album": "779690680",
    "description": "Robot_857290",
    "title": "Robot_857290",
    "link_img": "https://live.staticflickr.com/65535/50039821478_fe42e78540_o.jpg",
    "id_image": "Robot_857290",
    "count_view": 0
  },
  {
    "link_thumb": "https://live.staticflickr.com/65535/50039879183_83ebfbed65_n.jpg",
    "id_album": "779690680",
    "description": "Robot_937809",
    "title": "Robot_937809",
    "link_img": "https://live.staticflickr.com/65535/50039879183_374dd64cf0_o.jpg",
    "id_image": "Robot_937809",
    "count_view": 0
  },
  {
    "link_thumb": "https://live.staticflickr.com/65535/50039780046_ce81319363_n.jpg",
    "id_album": "-1610342324",
    "description": "Nebula_269799",
    "title": "Nebula_269799",
    "link_img": "https://live.staticflickr.com/65535/50039780046_0ba0bc53f2_o.jpg",
    "id_image": "Nebula_269799",
    "count_view": 0
  },
  {
    "link_thumb": "https://live.staticflickr.com/65535/50041206966_9d06676b2e_n.jpg",
    "id_album": "-1863373220",
    "description": "StarWars_662920",
    "title": "StarWars_662920",
    "link_img": "https://live.staticflickr.com/65535/50041206966_162206a8d3_o.jpg",
    "id_image": "StarWars_662920",
    "count_view": 0
  },
  {
    "link_thumb": "https://live.staticflickr.com/65535/50039405271_93bfbba597_n.jpg",
    "id_album": "1187037014",
    "description": "Battle_635655",
    "title": "Battle_635655",
    "link_img": "https://live.staticflickr.com/65535/50039405271_90ec578759_o.jpg",
    "id_image": "Battle_635655",
    "count_view": 0
  },
  {
    "link_thumb": "https://live.staticflickr.com/65535/50039335656_bc9e10e64a_n.jpg",
    "id_album": "523598895",
    "description": "Artistic_429148",
    "title": "Artistic_429148",
    "link_img": "https://live.staticflickr.com/65535/50039335656_4b173eeeb2_o.jpg",
    "id_image": "Artistic_429148",
    "count_view": 0
  },
  {
    "link_thumb": "https://live.staticflickr.com/65535/50041450807_85d70ee999_n.jpg",
    "id_album": "-1863373220",
    "description": "StarWars_497639",
    "title": "StarWars_497639",
    "link_img": "https://live.staticflickr.com/65535/50041450807_53b0d23841_o.jpg",
    "id_image": "StarWars_497639",
    "count_view": 0
  },
  {
    "link_thumb": "https://live.staticflickr.com/65535/50040258008_93b945e5e8_n.jpg",
    "id_album": "-1449720967",
    "description": "StarTrek_248610",
    "title": "StarTrek_248610",
    "link_img": "https://live.staticflickr.com/65535/50040258008_d11813dcee_o.jpg",
    "id_image": "StarTrek_248610",
    "count_view": 0
  },
  {
    "link_thumb": "https://live.staticflickr.com/65535/50038736588_35acb8b253_n.jpg",
    "id_album": "-419633230",
    "description": "Apocalyptic_528587",
    "title": "Apocalyptic_528587",
    "link_img": "https://live.staticflickr.com/65535/50038736588_52cef39f35_o.jpg",
    "id_image": "Apocalyptic_528587",
    "count_view": 0
  }
]