[
  {
    "link_thumb": "https://live.staticflickr.com/65535/50040607452_5e70fe2392_n.jpg",
    "id_album": "779690680",
    "description": "Robot_602295",
    "title": "Robot_602295",
    "link_img": "https://live.staticflickr.com/65535/50040607452_813059482e_o.jpg",
    "id_image": "Robot_602295",
    "count_view": 0
  },
  {
    "link_thumb": "https://live.staticflickr.com/65535/50039430931_35061c9088_n.jpg",
    "id_album": "-1964113117",
    "description": "City_103363",
    "title": "City_103363",
    "link_img": "https://live.staticflickr.com/65535/50039430931_1fa9557b44_o.jpg",
    "id_image": "City_103363",
    "count_view": 0
  },
  {
    "link_thumb": "https://live.staticflickr.com/65535/50040737727_f5106613db_n.jpg",
    "id_album": "1613540653",
    "description": "Space_177928",
    "title": "Space_177928",
    "link_img": "https://live.staticflickr.com/65535/50040737727_a97ebdaeb1_o.jpg",
    "id_image": "Space_177928",
    "count_view": 0
  },
  {
    "link_thumb": "https://live.staticflickr.com/65535/50040473846_9edaa166c7_n.jpg",
    "id_album": "1613540653",
    "description": "Space_179703",
    "title": "Space_179703",
    "link_img": "https://live.staticflickr.com/65535/50040473846_d62777f88c_o.jpg",
    "id_image": "Space_179703",
    "count_view": 0
  },
  {
    "link_thumb": "https://live.staticflickr.com/65535/50040105851_112b620dd5_n.jpg",
    "id_album": "-1102314093",
    "description": "Planets_393960",
    "title": "Planets_393960",
    "link_img": "https://live.staticflickr.com/65535/50040105851_ba4bf4dd32_o.jpg",
    "id_image": "Planets_393960",
    "count_view": 0
  },
  {
    "link_thumb": "https://live.staticflickr.com/65535/50041613927_2a0b8a04d3_n.jpg",
    "id_album": "-221671103",
    "description": "Sun_551154",
    "title": "Sun_551154",
    "link_img": "https://live.staticflickr.com/65535/50041613927_075bd4829e_o.jpg",
    "id_image": "Sun_551154",
    "count_view": 0
  },
  {
    "link_thumb": "https://live.staticflickr.com/65535/50040017913_35a9e5e9d8_n.jpg",
    "id_album": "2130067313",
    "description": "Spaceship_111950",
    "title": "Spaceship_111950",
    "link_img": "https://live.staticflickr.com/65535/50040017913_3cb71d422f_o.jpg",
    "id_image": "Spaceship_111950",
    "count_view": 0
  },
  {
    "link_thumb": "https://live.staticflickr.com/65535/50039817462_8970c3e228_n.jpg",
    "id_album": "-437872736",
    "description": "Creature_401751",
    "title": "Creature_401751",
    "link_img": "https://live.staticflickr.com/65535/50039817462_e7a02c5453_o.jpg",
    "id_image": "Creature_401751",
    "count_view": 0
  },
  {
    "link_thumb": "https://live.staticflickr.com/65535/50040502342_faeb0d4da3_n.jpg",
    "id_album": "-839602625",
    "description": "Predator_180678",
    "title": "Predator_180678",
    "link_img": "https://live.staticflickr.com/65535/50040502342_d7d478f487_o.jpg",
    "id_image": "Predator_180678",
    "count_view": 0
  },
  {
    "link_thumb": "https://live.staticflickr.com/65535/50039788888_a6990485d1_n.jpg",
    "id_album": "779690680",
    "description": "Robot_599649",
    "title": "Robot_599649",
    "link_img": "https://live.staticflickr.com/65535/50039788888_4bb2b71bf9_o.jpg",
    "id_image": "Robot_599649",
    "count_view": 0
  },
  {
    "link_thumb": "https://live.staticflickr.com/65535/50039394751_d4445a26f7_n.jpg",
    "id_album": "1187037014",
    "description": "Battle_163480",
    "title": "Battle_163480",
    "link_img": "https://live.staticflickr.com/65535/50039394751_47f1c8b074_o.jpg",
    "id_image": "Battle_163480",
    "count_view": 0
  },
  {
    "link_thumb": "https://live.staticflickr.com/65535/50039275396_c75fe84ae1_n.jpg",
    "id_album": "849020728",
    "description": "Alien_871692",
    "title": "Alien_871692",
    "link_img": "https://live.staticflickr.com/65535/50039275396_0fdb2bbd62_o.jpg",
    "id_image": "Alien_871692",
    "count_view": 0
  },
  {
    "link_thumb": "https://live.staticflickr.com/65535/50039197403_123ef97f3a_n.jpg",
    "id_album": "-1388385651",
    "description": "MilkyWay_744017",
    "title": "MilkyWay_744017",
    "link_img": "https://live.staticflickr.com/65535/50039197403_3ea0b6aa85_o.jpg",
    "id_image": "MilkyWay_744017",
    "count_view": 0
  },
  {
    "link_thumb": "https://live.staticflickr.com/65535/50040264072_5136221bb8_n.jpg",
    "id_album": "1443611160",
    "description": "PlanetRise_311328",
    "title": "PlanetRise_311328",
    "link_img": "https://live.staticflickr.com/65535/50040264072_1a07339cd6_o.jpg",
    "id_image": "PlanetRise_311328",
    "count_view": 0
  },
  {
    "link_thumb": "https://live.staticflickr.com/65535/50039913482_2936b9cc17_n.jpg",
    "id_album": "1204249541",
    "description": "Galaxy_683046",
    "title": "Galaxy_683046",
    "link_img": "https://live.staticflickr.com/65535/50039913482_7e28308e66_o.jpg",
    "id_image": "Galaxy_683046",
    "count_view": 0
  },
  {
    "link_thumb": "https://live.staticflickr.com/65535/50040495867_9cd82f3cc1_n.jpg",
    "id_album": "-482547208",
    "description": "PostApocalyptic_922151",
    "title": "PostApocalyptic_922151",
    "link_img": "https://live.staticflickr.com/65535/50040495867_84a5845ab7_o.jpg",
    "id_image": "PostApocalyptic_922151",
    "count_view": 0
  },
  {
    "link_thumb": "https://live.staticflickr.com/65535/50040876418_4d95380fdf_n.jpg",
    "id_album": "-1261420436",
    "description": "Warrior_112610",
    "title": "Warrior_112610",
    "link_img": "https://live.staticflickr.com/65535/50040876418_6eac8480f4_o.jpg",
    "id_image": "Warrior_112610",
    "count_view": 0
  },
  {
    "link_thumb": "https://live.staticflickr.com/65535/50040695962_f522f31bae_n.jpg",
    "id_album": "779690680",
    "description": "Robot_934615",
    "title": "Robot_934615",
    "link_img": "https://live.staticflickr.com/65535/50040695962_7d5a785f39_o.jpg",
    "id_image": "Robot_934615",
    "count_view": 0
  },
  {
    "link_thumb": "https://live.staticflickr.com/65535/50038829443_ec2e5335b7_n.jpg",
    "id_album": "869545341",
    "description": "Astronaut_913006",
    "title": "Astronaut_913006",
    "link_img": "https://live.staticflickr.com/65535/50038829443_316cd0e360_o.jpg",
    "id_image": "Astronaut_913006",
    "count_view": 0
  },
  {
    "link_thumb": "https://live.staticflickr.com/65535/50039793786_02fc753f0f_n.jpg",
    "id_album": "-1610342324",
    "description": "Nebula_413600",
    "title": "Nebula_413600",
    "link_img": "https://live.staticflickr.com/65535/50039793786_989b2a2762_o.jpg",
    "id_image": "Nebula_413600",
    "count_view": 0
  },
  {
    "link_thumb": "https://live.staticflickr.com/65535/50039598272_0b4d29ea31_n.jpg",
    "id_album": "523598895",
    "description": "Artistic_447890",
    "title": "Artistic_447890",
    "link_img": "https://live.staticflickr.com/65535/50039598272_2569fd55ce_o.jpg",
    "id_image": "Artistic_447890",
    "count_view": 0
  },
  {
    "link_thumb": "https://live.staticflickr.com/65535/50041677412_0526190a69_n.jpg",
    "id_album": "2020068132",
    "description": "Vehicle_779329",
    "title": "Vehicle_779329",
    "link_img": "https://live.staticflickr.com/65535/50041677412_3b4681d1b1_o.jpg",
    "id_image": "Vehicle_779329",
    "count_view": 0
  },
  {
    "link_thumb": "https://live.staticflickr.com/65535/50039798761_95b4197085_n.jpg",
    "id_album": "-1610342324",
    "description": "Nebula_453086",
    "title": "Nebula_453086",
    "link_img": "https://live.staticflickr.com/65535/50039798761_5eec1daee7_o.jpg",
    "id_image": "Nebula_453086",
    "count_view": 0
  },
  {
    "link_thumb": "https://live.staticflickr.com/65535/50039785206_394e5407c9_n.jpg",
    "id_album": "-1610342324",
    "description": "Nebula_307872",
    "title": "Nebula_307872",
    "link_img": "https://live.staticflickr.com/65535/50039785206_d79dc64828_o.jpg",
    "id_image": "Nebula_307872",
    "count_view": 0
  },
  {
    "link_thumb": "https://live.staticflickr.com/65535/50040545467_9f3fe0a46e_n.jpg",
    "id_album": "779690680",
    "description": "Robot_283424",
    "title": "Robot_283424",
    "link_img": "https://live.staticflickr.com/65535/50040545467_6d66a0518f_o.jpg",
    "id_image": "Robot_283424",
    "count_view": 0
  },
  {
    "link_thumb": "https://live.staticflickr.com/65535/50039660096_6b29c75710_n.jpg",
    "id_album": "1402713104",
    "description": "Landscape_121896",
    "title": "Landscape_121896",
    "link_img": "https://live.staticflickr.com/65535/50039660096_582a5837ee_o.jpg",
    "id_image": "Landscape_121896",
    "count_view": 0
  },
  {
    "link_thumb": "https://live.staticflickr.com/65535/50039600197_3070e28358_n.jpg",
    "id_album": "523598895",
    "description": "Artistic_533762",
    "title": "Artistic_533762",
    "link_img": "https://live.staticflickr.com/65535/50039600197_8855847598_o.jpg",
    "id_image": "Artistic_533762",
    "count_view": 0
  },
  {
    "link_thumb": "https://live.staticflickr.com/65535/50041257541_26aa6da120_n.jpg",
    "id_album": "-1587696329",
    "description": "Stars_176772",
    "title": "Stars_176772",
    "link_img": "https://live.staticflickr.com/65535/50041257541_770f90fb68_o.jpg",
    "id_image": "Stars_176772",
    "count_view": 0
  },
  {
    "link_thumb": "https://live.staticflickr.com/65535/50039197643_d0a5805492_n.jpg",
    "id_album": "-1388385651",
    "description": "MilkyWay_750352",
    "title": "MilkyWay_750352",
    "link_img": "https://live.staticflickr.com/65535/50039197643_e5d527b5ae_o.jpg",
    "id_image": "MilkyWay_750352",
    "count_view": 0
  },
  {
    "link_thumb": "https://live.staticflickr.com/65535/50040673622_aff2f5d5e9_n.jpg",
    "id_album": "779690680",
    "description": "Robot_911890",
    "title": "Robot_911890",
    "link_img": "https://live.staticflickr.com/65535/50040673622_f5c93820e7_o.jpg",
    "id_image": "Robot_911890",
    "count_view": 0
  },
  {
    "link_thumb": "https://live.staticflickr.com/65535/50039249443_77f4c8ce0a_n.jpg",
    "id_album": "-1610342324",
    "description": "Nebula_44996",
    "title": "Nebula_44996",
    "link_img": "https://live.staticflickr.com/65535/50039249443_fe3dee12bb_o.jpg",
    "id_image": "Nebula_44996",
    "count_view": 0
  },
  {
    "link_thumb": "https://live.staticflickr.com/65535/50041392096_280a64d11c_n.jpg",
    "id_album": "2020068132",
    "description": "Vehicle_345581",
    "title": "Vehicle_345581",
    "link_img": "https://live.staticflickr.com/65535/50041392096_5fcd387f0f_o.jpg",
    "id_image": "Vehicle_345581",
    "count_view": 0
  },
  {
    "link_thumb": "https://live.staticflickr.com/65535/50039949648_9cf881d989_n.jpg",
    "id_album": "1613540653",
    "description": "Space_394026",
    "title": "Space_394026",
    "link_img": "https://live.staticflickr.com/65535/50039949648_01024fb34a_o.jpg",
    "id_image": "Space_394026",
    "count_view": 0
  },
  {
    "link_thumb": "https://live.staticflickr.com/65535/50039872907_f7c63358ce_n.jpg",
    "id_album": "651930207",
    "description": "Explosion_370785",
    "title": "Explosion_370785",
    "link_img": "https://live.staticflickr.com/65535/50039872907_328cae396c_o.jpg",
    "id_image": "Explosion_370785",
    "count_view": 0
  },
  {
    "link_thumb": "https://live.staticflickr.com/65535/50039530577_796ed0aca4_n.jpg",
    "id_album": "849020728",
    "description": "Alien_512820",
    "title": "Alien_512820",
    "link_img": "https://live.staticflickr.com/65535/50039530577_d2143ed795_o.jpg",
    "id_image": "Alien_512820",
    "count_view": 0
  },
  {
    "link_thumb": "https://live.staticflickr.com/65535/50038930958_0d396f7342_n.jpg",
    "id_album": "-1964113117",
    "description": "City_569779",
    "title": "City_569779",
    "link_img": "https://live.staticflickr.com/65535/50038930958_10de40a189_o.jpg",
    "id_image": "City_569779",
    "count_view": 0
  },
  {
    "link_thumb": "https://live.staticflickr.com/65535/50041590426_1cc438f0f6_n.jpg",
    "id_album": "-1675918237",
    "description": "WomenWarrior_920517",
    "title": "WomenWarrior_920517",
    "link_img": "https://live.staticflickr.com/65535/50041590426_5ebf193420_o.jpg",
    "id_image": "WomenWarrior_920517",
    "count_view": 0
  },
  {
    "link_thumb": "https://live.staticflickr.com/65535/50039639581_b45cf3f911_n.jpg",
    "id_album": "1204249541",
    "description": "Galaxy_527228",
    "title": "Galaxy_527228",
    "link_img": "https://live.staticflickr.com/65535/50039639581_bf6885060d_o.jpg",
    "id_image": "Galaxy_527228",
    "count_view": 0
  },
  {
    "link_thumb": "https://live.staticflickr.com/65535/50039243841_295484508c_n.jpg",
    "id_album": "849020728",
    "description": "Alien_108189",
    "title": "Alien_108189",
    "link_img": "https://live.staticflickr.com/65535/50039243841_6c1cb2b5a1_o.jpg",
    "id_image": "Alien_108189",
    "count_view": 0
  },
  {
    "link_thumb": "https://live.staticflickr.com/65535/50038721758_5aeda8d848_n.jpg",
    "id_album": "849020728",
    "description": "Alien_556059",
    "title": "Alien_556059",
    "link_img": "https://live.staticflickr.com/65535/50038721758_ba2b32158e_o.jpg",
    "id_image": "Alien_556059",
    "count_view": 0
  },
  {
    "link_thumb": "https://live.staticflickr.com/65535/50040797357_5b0b48f32f_n.jpg",
    "id_album": "1613540653",
    "description": "Space_708268",
    "title": "Space_708268",
    "link_img": "https://live.staticflickr.com/65535/50040797357_886ec77fe1_o.jpg",
    "id_image": "Space_708268",
    "count_view": 0
  },
  {
    "link_thumb": "https://live.staticflickr.com/65535/50039476483_4b9a265c0a_n.jpg",
    "id_album": "814701616",
    "description": "PlanetaryRing_329817",
    "title": "PlanetaryRing_329817",
    "link_img": "https://live.staticflickr.com/65535/50039476483_04d3d27e3c_o.jpg",
    "id_image": "PlanetaryRing_329817",
    "count_view": 0
  },
  {
    "link_thumb": "https://live.staticflickr.com/65535/50039008908_b0d2ba6259_n.jpg",
    "id_album": "-437872736",
    "description": "Creature_456146",
    "title": "Creature_456146",
    "link_img": "https://live.staticflickr.com/65535/50039008908_21f84e6bd5_o.jpg",
    "id_image": "Creature_456146",
    "count_view": 0
  },
  {
    "link_thumb": "https://live.staticflickr.com/65535/50039847908_1d44bdc836_n.jpg",
    "id_album": "779690680",
    "description": "Robot_902777",
    "title": "Robot_902777",
    "link_img": "https://live.staticflickr.com/65535/50039847908_05ccb57985_o.jpg",
    "id_image": "Robot_902777",
    "count_view": 0
  },
  {
    "link_thumb": "https://live.staticflickr.com/65535/50040547731_53733b58b4_n.jpg",
    "id_album": "1613540653",
    "description": "Space_853378",
    "title": "Space_853378",
    "link_img": "https://live.staticflickr.com/65535/50040547731_b33d114e6f_o.jpg",
    "id_image": "Space_853378",
    "count_view": 0
  },
  {
    "link_thumb": "https://live.staticflickr.com/65535/50041324186_638bb342c1_n.jpg",
    "id_album": "1267121215",
    "description": "Steampunk_61891",
    "title": "Steampunk_61891",
    "link_img": "https://live.staticflickr.com/65535/50041324186_b0dfdd9f1f_o.jpg",
    "id_image": "Steampunk_61891",
    "count_view": 0
  },
  {
    "link_thumb": "https://live.staticflickr.com/65535/50040755232_fd3b8a633d_n.jpg",
    "id_album": "1613540653",
    "description": "Space_312428",
    "title": "Space_312428",
    "link_img": "https://live.staticflickr.com/65535/50040755232_a5c91f0f6f_o.jpg",
    "id_image": "Space_312428",
    "count_view": 0
  },
  {
    "link_thumb": "https://live.staticflickr.com/65535/50040087647_a8efe44b4a_n.jpg",
    "id_album": "-1610342324",
    "description": "Nebula_703542",
    "title": "Nebula_703542",
    "link_img": "https://live.staticflickr.com/65535/50040087647_b775c88f05_o.jpg",
    "id_image": "Nebula_703542",
    "count_view": 0
  },
  {
    "link_thumb": "https://live.staticflickr.com/65535/50039879246_bf14a050e5_n.jpg",
    "id_album": "-1862561193",
    "description": "Other_240063",
    "title": "Other_240063",
    "link_img": "https://live.staticflickr.com/65535/50039879246_6da20d4b2d_o.jpg",
    "id_image": "Other_240063",
    "count_view": 0
  },
  {
    "link_thumb": "https://live.staticflickr.com/65535/50039149188_0fceaab9b7_n.jpg",
    "id_album": "1402713104",
    "description": "Landscape_665168",
    "title": "Landscape_665168",
    "link_img": "https://live.staticflickr.com/65535/50039149188_296f5051cb_o.jpg",
    "id_image": "Landscape_665168",
    "count_view": 0
  },
  {
    "link_thumb": "https://live.staticflickr.com/65535/50041248791_2e0a22919b_n.jpg",
    "id_album": "-1863373220",
    "description": "StarWars_980526",
    "title": "StarWars_980526",
    "link_img": "https://live.staticflickr.com/65535/50041248791_9cce4a1571_o.jpg",
    "id_image": "StarWars_980526",
    "count_view": 0
  },
  {
    "link_thumb": "https://live.staticflickr.com/65535/50041338136_760776478b_n.jpg",
    "id_album": "-221671103",
    "description": "Sun_106490",
    "title": "Sun_106490",
    "link_img": "https://live.staticflickr.com/65535/50041338136_782456eb93_o.jpg",
    "id_image": "Sun_106490",
    "count_view": 0
  },
  {
    "link_thumb": "https://live.staticflickr.com/65535/50039906578_aa2fe9d62e_n.jpg",
    "id_album": "1613540653",
    "description": "Space_10148",
    "title": "Space_10148",
    "link_img": "https://live.staticflickr.com/65535/50039906578_da3d21ceac_o.jpg",
    "id_image": "Space_10148",
    "count_view": 0
  },
  {
    "link_thumb": "https://live.staticflickr.com/65535/50040056677_79199d270f_n.jpg",
    "id_album": "-1610342324",
    "description": "Nebula_401364",
    "title": "Nebula_401364",
    "link_img": "https://live.staticflickr.com/65535/50040056677_c600436aa1_o.jpg",
    "id_image": "Nebula_401364",
    "count_view": 0
  },
  {
    "link_thumb": "https://live.staticflickr.com/65535/50040047437_ccfc136755_n.jpg",
    "id_album": "-1610342324",
    "description": "Nebula_291161",
    "title": "Nebula_291161",
    "link_img": "https://live.staticflickr.com/65535/50040047437_975432b9a6_o.jpg",
    "id_image": "Nebula_291161",
    "count_view": 0
  },
  {
    "link_thumb": "https://live.staticflickr.com/65535/50039387471_f69b3bf492_n.jpg",
    "id_album": "869545341",
    "description": "Astronaut_969795",
    "title": "Astronaut_969795",
    "link_img": "https://live.staticflickr.com/65535/50039387471_f1234048e0_o.jpg",
    "id_image": "Astronaut_969795",
    "count_view": 0
  },
  {
    "link_thumb": "https://live.staticflickr.com/65535/50039652166_3a416defcf_n.jpg",
    "id_album": "1204249541",
    "description": "Galaxy_738626",
    "title": "Galaxy_738626",
    "link_img": "https://live.staticflickr.com/65535/50039652166_59cdcb0607_o.jpg",
    "id_image": "Galaxy_738626",
    "count_view": 0
  },
  {
    "link_thumb": "https://live.staticflickr.com/65535/50039639191_e68bc2a175_n.jpg",
    "id_album": "1204249541",
    "description": "Galaxy_526201",
    "title": "Galaxy_526201",
    "link_img": "https://live.staticflickr.com/65535/50039639191_eafba9de9f_o.jpg",
    "id_image": "Galaxy_526201",
    "count_view": 0
  },
  {
    "link_thumb": "https://live.staticflickr.com/65535/50039615642_d5ac5c6670_n.jpg",
    "id_album": "869545341",
    "description": "Astronaut_321913",
    "title": "Astronaut_321913",
    "link_img": "https://live.staticflickr.com/65535/50039615642_eac7869c79_o.jpg",
    "id_image": "Astronaut_321913",
    "count_view": 0
  },
  {
    "link_thumb": "https://live.staticflickr.com/65535/50039855068_0f2ee4cc11_n.jpg",
    "id_album": "779690680",
    "description": "Robot_911876",
    "title": "Robot_911876",
    "link_img": "https://live.staticflickr.com/65535/50039855068_eef4585773_o.jpg",
    "id_image": "Robot_911876",
    "count_view": 0
  },
  {
    "link_thumb": "https://live.staticflickr.com/65535/50040709008_83990bc003_n.jpg",
    "id_album": "-1587696329",
    "description": "Stars_333372",
    "title": "Stars_333372",
    "link_img": "https://live.staticflickr.com/65535/50040709008_d0852aba20_o.jpg",
    "id_image": "Stars_333372",
    "count_view": 0
  },
  {
    "link_thumb": "https://live.staticflickr.com/65535/50038978883_6c79e5b607_n.jpg",
    "id_album": "-1964113117",
    "description": "City_956741",
    "title": "City_956741",
    "link_img": "https://live.staticflickr.com/65535/50038978883_cdfd0f03c2_o.jpg",
    "id_image": "City_956741",
    "count_view": 0
  },
  {
    "link_thumb": "https://live.staticflickr.com/65535/50039502088_96f33e98e4_n.jpg",
    "id_album": "-1102314093",
    "description": "Planets_148096",
    "title": "Planets_148096",
    "link_img": "https://live.staticflickr.com/65535/50039502088_229c2cf0f1_o.jpg",
    "id_image": "Planets_148096",
    "count_view": 0
  },
  {
    "link_thumb": "https://live.staticflickr.com/65535/50038789938_2891a2abb2_n.jpg",
    "id_album": "523598895",
    "description": "Artistic_527049",
    "title": "Artistic_527049",
    "link_img": "https://live.staticflickr.com/65535/50038789938_36c9b91c61_o.jpg",
    "id_image": "Artistic_527049",
    "count_view": 0
  },
  {
    "link_thumb": "https://live.staticflickr.com/65535/50041509027_9d3e55fc83_n.jpg",
    "id_album": "-1863373220",
    "description": "StarWars_969634",
    "title": "StarWars_969634",
    "link_img": "https://live.staticflickr.com/65535/50041509027_a8b123f895_o.jpg",
    "id_image": "StarWars_969634",
    "count_view": 0
  },
  {
    "link_thumb": "https://live.staticflickr.com/65535/50039022278_254730c207_n.jpg",
    "id_album": "-1372247677",
    "description": "Cyberpunk_970426",
    "title": "Cyberpunk_970426",
    "link_img": "https://live.staticflickr.com/65535/50039022278_ef4cde0c3e_o.jpg",
    "id_image": "Cyberpunk_970426",
    "count_view": 0
  },
  {
    "link_thumb": "https://live.staticflickr.com/65535/50039180248_fbc528a886_n.jpg",
    "id_album": "1402713104",
    "description": "Landscape_989276",
    "title": "Landscape_989276",
    "link_img": "https://live.staticflickr.com/65535/50039180248_fd10524880_o.jpg",
    "id_image": "Landscape_989276",
    "count_view": 0
  },
  {
    "link_thumb": "https://live.staticflickr.com/65535/50038884408_5d3d8e4f80_n.jpg",
    "id_album": "-1964113117",
    "description": "City_113812",
    "title": "City_113812",
    "link_img": "https://live.staticflickr.com/65535/50038884408_7bc8c8679a_o.jpg",
    "id_image": "City_113812",
    "count_view": 0
  },
  {
    "link_thumb": "https://live.staticflickr.com/65535/50039491352_6e4d9823cb_n.jpg",
    "id_album": "280884763",
    "description": "Abstract_286767",
    "title": "Abstract_286767",
    "link_img": "https://live.staticflickr.com/65535/50039491352_751097a9a0_o.jpg",
    "id_image": "Abstract_286767",
    "count_view": 0
  },
  {
    "link_thumb": "https://live.staticflickr.com/65535/50039652071_e3dd958192_n.jpg",
    "id_album": "1204249541",
    "description": "Galaxy_737203",
    "title": "Galaxy_737203",
    "link_img": "https://live.staticflickr.com/65535/50039652071_03779d7b35_o.jpg",
    "id_image": "Galaxy_737203",
    "count_view": 0
  },
  {
    "link_thumb": "https://live.staticflickr.com/65535/50039613442_4245b6949a_n.jpg",
    "id_album": "869545341",
    "description": "Astronaut_235060",
    "title": "Astronaut_235060",
    "link_img": "https://live.staticflickr.com/65535/50039613442_f4f9e9021e_o.jpg",
    "id_image": "Astronaut_235060",
    "count_view": 0
  },
  {
    "link_thumb": "https://live.staticflickr.com/65535/50040801177_9a479cc642_n.jpg",
    "id_album": "1613540653",
    "description": "Space_748350",
    "title": "Space_748350",
    "link_img": "https://live.staticflickr.com/65535/50040801177_cf00ba5ec8_o.jpg",
    "id_image": "Space_748350",
    "count_view": 0
  },
  {
    "link_thumb": "https://live.staticflickr.com/65535/50041415572_6b11c3120d_n.jpg",
    "id_album": "-1863373220",
    "description": "StarWars_241448",
    "title": "StarWars_241448",
    "link_img": "https://live.staticflickr.com/65535/50041415572_37e2132737_o.jpg",
    "id_image": "StarWars_241448",
    "count_view": 0
  },
  {
    "link_thumb": "https://live.staticflickr.com/65535/50039942826_30ac635686_n.jpg",
    "id_album": "395161030",
    "description": "Planet_379336",
    "title": "Planet_379336",
    "link_img": "https://live.staticflickr.com/65535/50039942826_c499f2f1e8_o.jpg",
    "id_image": "Planet_379336",
    "count_view": 0
  },
  {
    "link_thumb": "https://live.staticflickr.com/65535/50039321521_5274b9d727_n.jpg",
    "id_album": "523598895",
    "description": "Artistic_235212",
    "title": "Artistic_235212",
    "link_img": "https://live.staticflickr.com/65535/50039321521_bf0a4bbb00_o.jpg",
    "id_image": "Artistic_235212",
    "count_view": 0
  },
  {
    "link_thumb": "https://live.staticflickr.com/65535/50039141033_6e635595b7_n.jpg",
    "id_album": "1402713104",
    "description": "Landscape_459659",
    "title": "Landscape_459659",
    "link_img": "https://live.staticflickr.com/65535/50039141033_ee02ef9e67_o.jpg",
    "id_image": "Landscape_459659",
    "count_view": 0
  },
  {
    "link_thumb": "https://live.staticflickr.com/65535/50039860243_6e258db873_n.jpg",
    "id_album": "779690680",
    "description": "Robot_915581",
    "title": "Robot_915581",
    "link_img": "https://live.staticflickr.com/65535/50039860243_f1407d9f2a_o.jpg",
    "id_image": "Robot_915581",
    "count_view": 0
  },
  {
    "link_thumb": "https://live.staticflickr.com/65535/50039078368_b24e5a7e8f_n.jpg",
    "id_album": "1204249541",
    "description": "Galaxy_235286",
    "title": "Galaxy_235286",
    "link_img": "https://live.staticflickr.com/65535/50039078368_df6d0a6632_o.jpg",
    "id_image": "Galaxy_235286",
    "count_view": 0
  },
  {
    "link_thumb": "https://live.staticflickr.com/65535/50039989598_b42d60fb95_n.jpg",
    "id_album": "1613540653",
    "description": "Space_822480",
    "title": "Space_822480",
    "link_img": "https://live.staticflickr.com/65535/50039989598_81164bc11d_o.jpg",
    "id_image": "Space_822480",
    "count_view": 0
  },
  {
    "link_thumb": "https://live.staticflickr.com/65535/50039249806_7ab4020e6a_n.jpg",
    "id_album": "849020728",
    "description": "Alien_179427",
    "title": "Alien_179427",
    "link_img": "https://live.staticflickr.com/65535/50039249806_31046f521c_o.jpg",
    "id_image": "Alien_179427",
    "count_view": 0
  },
  {
    "link_thumb": "https://live.staticflickr.com/65535/50038926463_511b3a6d4f_n.jpg",
    "id_album": "-1964113117",
    "description": "City_527911",
    "title": "City_527911",
    "link_img": "https://live.staticflickr.com/65535/50038926463_9e5746a003_o.jpg",
    "id_image": "City_527911",
    "count_view": 0
  },
  {
    "link_thumb": "https://live.staticflickr.com/65535/50041277051_81789ed1e8_n.jpg",
    "id_album": "-1587696329",
    "description": "Stars_548447",
    "title": "Stars_548447",
    "link_img": "https://live.staticflickr.com/65535/50041277051_27a20e0e7c_o.jpg",
    "id_image": "Stars_548447",
    "count_view": 0
  },
  {
    "link_thumb": "https://live.staticflickr.com/65535/50041200866_7e765e436d_n.jpg",
    "id_album": "-1863373220",
    "description": "StarWars_610737",
    "title": "StarWars_610737",
    "link_img": "https://live.staticflickr.com/65535/50041200866_bae8118c40_o.jpg",
    "id_image": "StarWars_610737",
    "count_view": 0
  },
  {
    "link_thumb": "https://live.staticflickr.com/65535/50040671682_5b585e9d32_n.jpg",
    "id_album": "779690680",
    "description": "Robot_910946",
    "title": "Robot_910946",
    "link_img": "https://live.staticflickr.com/65535/50040671682_b6b2c807fd_o.jpg",
    "id_image": "Robot_910946",
    "count_view": 0
  },
  {
    "link_thumb": "https://live.staticflickr.com/65535/50038841103_dec797d436_n.jpg",
    "id_album": "869545341",
    "description": "Astronaut_980244",
    "title": "Astronaut_980244",
    "link_img": "https://live.staticflickr.com/65535/50038841103_10acbedbc7_o.jpg",
    "id_image": "Astronaut_980244",
    "count_view": 0
  },
  {
    "link_thumb": "https://live.staticflickr.com/65535/50040765827_28be60d811_n.jpg",
    "id_album": "1613540653",
    "description": "Space_368171",
    "title": "Space_368171",
    "link_img": "https://live.staticflickr.com/65535/50040765827_1cab973550_o.jpg",
    "id_image": "Space_368171",
    "count_view": 0
  },
  {
    "link_thumb": "https://live.staticflickr.com/65535/50039019683_9f54f65e3b_n.jpg",
    "id_album": "-1372247677",
    "description": "Cyberpunk_949757",
    "title": "Cyberpunk_949757",
    "link_img": "https://live.staticflickr.com/65535/50039019683_3a6c6d9446_o.jpg",
    "id_image": "Cyberpunk_949757",
    "count_view": 0
  },
  {
    "link_thumb": "https://live.staticflickr.com/65535/50040039557_f2246bfa81_n.jpg",
    "id_album": "-1610342324",
    "description": "Nebula_249135",
    "title": "Nebula_249135",
    "link_img": "https://live.staticflickr.com/65535/50040039557_a292e7109e_o.jpg",
    "id_image": "Nebula_249135",
    "count_view": 0
  },
  {
    "link_thumb": "https://live.staticflickr.com/65535/50040033681_76bc6008dc_n.jpg",
    "id_album": "814701616",
    "description": "PlanetaryRing_419630",
    "title": "PlanetaryRing_419630",
    "link_img": "https://live.staticflickr.com/65535/50040033681_097eb6d3dd_o.jpg",
    "id_image": "PlanetaryRing_419630",
    "count_view": 0
  },
  {
    "link_thumb": "https://live.staticflickr.com/65535/50040655997_737e3286e7_n.jpg",
    "id_album": "779690680",
    "description": "Robot_883159",
    "title": "Robot_883159",
    "link_img": "https://live.staticflickr.com/65535/50040655997_6f73399a42_o.jpg",
    "id_image": "Robot_883159",
    "count_view": 0
  },
  {
    "link_thumb": "https://live.staticflickr.com/65535/50039978788_13765f3a84_n.jpg",
    "id_album": "1613540653",
    "description": "Space_726682",
    "title": "Space_726682",
    "link_img": "https://live.staticflickr.com/65535/50039978788_cb44dbc2b5_o.jpg",
    "id_image": "Space_726682",
    "count_view": 0
  },
  {
    "link_thumb": "https://live.staticflickr.com/65535/50041000348_25b9f37980_n.jpg",
    "id_album": "-1675918237",
    "description": "WomenWarrior_103836",
    "title": "WomenWarrior_103836",
    "link_img": "https://live.staticflickr.com/65535/50041000348_354ef3b23f_o.jpg",
    "id_image": "WomenWarrior_103836",
    "count_view": 0
  },
  {
    "link_thumb": "https://live.staticflickr.com/65535/50040324307_103348949a_n.jpg",
    "id_album": "-1102314093",
    "description": "Planets_219934",
    "title": "Planets_219934",
    "link_img": "https://live.staticflickr.com/65535/50040324307_38f39e5eac_o.jpg",
    "id_image": "Planets_219934",
    "count_view": 0
  },
  {
    "link_thumb": "https://live.staticflickr.com/65535/50040331281_b73e37e98e_n.jpg",
    "id_album": "779690680",
    "description": "Robot_530262",
    "title": "Robot_530262",
    "link_img": "https://live.staticflickr.com/65535/50040331281_d7b7e09630_o.jpg",
    "id_image": "Robot_530262",
    "count_view": 0
  },
  {
    "link_thumb": "https://live.staticflickr.com/65535/50039809592_0ba515fa99_n.jpg",
    "id_album": "-437872736",
    "description": "Creature_269297",
    "title": "Creature_269297",
    "link_img": "https://live.staticflickr.com/65535/50039809592_b980ac0032_o.jpg",
    "id_image": "Creature_269297",
    "count_view": 0
  },
  {
    "link_thumb": "https://live.staticflickr.com/65535/50041419316_e4537872c6_n.jpg",
    "id_album": "2020068132",
    "description": "Vehicle_905534",
    "title": "Vehicle_905534",
    "link_img": "https://live.staticflickr.com/65535/50041419316_5d22936e11_o.jpg",
    "id_image": "Vehicle_905534",
    "count_view": 0
  },
  {
    "link_thumb": "https://live.staticflickr.com/65535/50039377681_a847bdf211_n.jpg",
    "id_album": "869545341",
    "description": "Astronaut_914142",
    "title": "Astronaut_914142",
    "link_img": "https://live.staticflickr.com/65535/50039377681_977b4b17cc_o.jpg",
    "id_image": "Astronaut_914142",
    "count_view": 0
  },
  {
    "link_thumb": "https://live.staticflickr.com/65535/50039382391_96bfa87451_n.jpg",
    "id_album": "869545341",
    "description": "Astronaut_935282",
    "title": "Astronaut_935282",
    "link_img": "https://live.staticflickr.com/65535/50039382391_39861cbcff_o.jpg",
    "id_image": "Astronaut_935282",
    "count_view": 0
  },
  {
    "link_thumb": "https://live.staticflickr.com/65535/50039791052_31ec193fa3_n.jpg",
    "id_album": "-1964113117",
    "description": "City_971391",
    "title": "City_971391",
    "link_img": "https://live.staticflickr.com/65535/50039791052_e096ba6e8e_o.jpg",
    "id_image": "City_971391",
    "count_view": 0
  },
  {
    "link_thumb": "https://live.staticflickr.com/65535/50039700858_1c1e12f69a_n.jpg",
    "id_album": "779690680",
    "description": "Robot_11985",
    "title": "Robot_11985",
    "link_img": "https://live.staticflickr.com/65535/50039700858_6df23dc55a_o.jpg",
    "id_image": "Robot_11985",
    "count_view": 0
  },
  {
    "link_thumb": "https://live.staticflickr.com/65535/50039891192_3fa3e33aac_n.jpg",
    "id_album": "1204249541",
    "description": "Galaxy_264708",
    "title": "Galaxy_264708",
    "link_img": "https://live.staticflickr.com/65535/50039891192_1061b2d69c_o.jpg",
    "id_image": "Galaxy_264708",
    "count_view": 0
  },
  {
    "link_thumb": "https://live.staticflickr.com/65535/50041592861_41046debf3_n.jpg",
    "id_album": "-1675918237",
    "description": "WomenWarrior_981207",
    "title": "WomenWarrior_981207",
    "link_img": "https://live.staticflickr.com/65535/50041592861_d8449773b1_o.jpg",
    "id_image": "WomenWarrior_981207",
    "count_view": 0
  },
  {
    "link_thumb": "https://live.staticflickr.com/65535/50038866188_2e2e221f9e_n.jpg",
    "id_album": "-1780971522",
    "description": "Biohazard_494252",
    "title": "Biohazard_494252",
    "link_img": "https://live.staticflickr.com/65535/50038866188_39691a9eb1_o.jpg",
    "id_image": "Biohazard_494252",
    "count_view": 0
  },
  {
    "link_thumb": "https://live.staticflickr.com/65535/50039558502_14d17ce0ba_n.jpg",
    "id_album": "523598895",
    "description": "Artistic_151685",
    "title": "Artistic_151685",
    "link_img": "https://live.staticflickr.com/65535/50039558502_63331df695_o.jpg",
    "id_image": "Artistic_151685",
    "count_view": 0
  },
  {
    "link_thumb": "https://live.staticflickr.com/65535/50040663647_246a4497a4_n.jpg",
    "id_album": "779690680",
    "description": "Robot_900260",
    "title": "Robot_900260",
    "link_img": "https://live.staticflickr.com/65535/50040663647_eeb0d0aa3e_o.jpg",
    "id_image": "Robot_900260",
    "count_view": 0
  },
  {
    "link_thumb": "https://live.staticflickr.com/65535/50039219878_bed946ffee_n.jpg",
    "id_album": "-1610342324",
    "description": "Nebula_206199",
    "title": "Nebula_206199",
    "link_img": "https://live.staticflickr.com/65535/50039219878_8e85aea120_o.jpg",
    "id_image": "Nebula_206199",
    "count_view": 0
  },
  {
    "link_thumb": "https://live.staticflickr.com/65535/50040944158_dafbbffd74_n.jpg",
    "id_album": "-1261420436",
    "description": "Warrior_979752",
    "title": "Warrior_979752",
    "link_img": "https://live.staticflickr.com/65535/50040944158_78dcf3d3ca_o.jpg",
    "id_image": "Warrior_979752",
    "count_view": 0
  },
  {
    "link_thumb": "https://live.staticflickr.com/65535/50039415863_4d8a822821_n.jpg",
    "id_album": "395161030",
    "description": "Planet_567134",
    "title": "Planet_567134",
    "link_img": "https://live.staticflickr.com/65535/50039415863_3c388a3965_o.jpg",
    "id_image": "Planet_567134",
    "count_view": 0
  },
  {
    "link_thumb": "https://live.staticflickr.com/65535/50039874088_8a561c3cf9_n.jpg",
    "id_album": "779690680",
    "description": "Robot_930931",
    "title": "Robot_930931",
    "link_img": "https://live.staticflickr.com/65535/50039874088_66167b744d_o.jpg",
    "id_image": "Robot_930931",
    "count_view": 0
  },
  {
    "link_thumb": "https://live.staticflickr.com/65535/50040671457_194b6e92b7_n.jpg",
    "id_album": "779690680",
    "description": "Robot_910944",
    "title": "Robot_910944",
    "link_img": "https://live.staticflickr.com/65535/50040671457_9a70962f17_o.jpg",
    "id_image": "Robot_910944",
    "count_view": 0
  },
  {
    "link_thumb": "https://live.staticflickr.com/65535/50039352791_b6d621b590_n.jpg",
    "id_album": "869545341",
    "description": "Astronaut_278676",
    "title": "Astronaut_278676",
    "link_img": "https://live.staticflickr.com/65535/50039352791_86919c97e5_o.jpg",
    "id_image": "Astronaut_278676",
    "count_view": 0
  },
  {
    "link_thumb": "https://live.staticflickr.com/65535/50041423727_1780434133_n.jpg",
    "id_album": "-1863373220",
    "description": "StarWars_292216",
    "title": "StarWars_292216",
    "link_img": "https://live.staticflickr.com/65535/50041423727_eed8290404_o.jpg",
    "id_image": "StarWars_292216",
    "count_view": 0
  },
  {
    "link_thumb": "https://live.staticflickr.com/65535/50038680363_d9c1c49189_n.jpg",
    "id_album": "280884763",
    "description": "Abstract_220864",
    "title": "Abstract_220864",
    "link_img": "https://live.staticflickr.com/65535/50038680363_c3e8af3b64_o.jpg",
    "id_image": "Abstract_220864",
    "count_view": 0
  },
  {
    "link_thumb": "https://live.staticflickr.com/65535/50038896963_47e5b75900_n.jpg",
    "id_album": "-1964113117",
    "description": "City_211813",
    "title": "City_211813",
    "link_img": "https://live.staticflickr.com/65535/50038896963_52c0b840ed_o.jpg",
    "id_image": "City_211813",
    "count_view": 0
  },
  {
    "link_thumb": "https://live.staticflickr.com/65535/50040258208_aff9de630c_n.jpg",
    "id_album": "-1449720967",
    "description": "StarTrek_256668",
    "title": "StarTrek_256668",
    "link_img": "https://live.staticflickr.com/65535/50040258208_a8f1556d6d_o.jpg",
    "id_image": "StarTrek_256668",
    "count_view": 0
  },
  {
    "link_thumb": "https://live.staticflickr.com/65535/50040292421_2cfc663d38_n.jpg",
    "id_album": "779690680",
    "description": "Robot_336756",
    "title": "Robot_336756",
    "link_img": "https://live.staticflickr.com/65535/50040292421_f1ab7f6f0c_o.jpg",
    "id_image": "Robot_336756",
    "count_view": 0
  },
  {
    "link_thumb": "https://live.staticflickr.com/65535/50039393996_2cc5d2490b_n.jpg",
    "id_album": "1187037014",
    "description": "Battle_152686",
    "title": "Battle_152686",
    "link_img": "https://live.staticflickr.com/65535/50039393996_1d409ebb37_o.jpg",
    "id_image": "Battle_152686",
    "count_view": 0
  },
  {
    "link_thumb": "https://live.staticflickr.com/65535/50038690293_b86614959b_n.jpg",
    "id_album": "-406145265",
    "description": "Aircraft_339915",
    "title": "Aircraft_339915",
    "link_img": "https://live.staticflickr.com/65535/50038690293_1dd9536419_o.jpg",
    "id_image": "Aircraft_339915",
    "count_view": 0
  },
  {
    "link_thumb": "https://live.staticflickr.com/65535/50039082913_d523f81c72_n.jpg",
    "id_album": "1204249541",
    "description": "Galaxy_385782",
    "title": "Galaxy_385782",
    "link_img": "https://live.staticflickr.com/65535/50039082913_560c42ff1e_o.jpg",
    "id_image": "Galaxy_385782",
    "count_view": 0
  },
  {
    "link_thumb": "https://live.staticflickr.com/65535/50040051467_f66127a971_n.jpg",
    "id_album": "-1610342324",
    "description": "Nebula_36334",
    "title": "Nebula_36334",
    "link_img": "https://live.staticflickr.com/65535/50040051467_0efe114beb_o.jpg",
    "id_image": "Nebula_36334",
    "count_view": 0
  },
  {
    "link_thumb": "https://live.staticflickr.com/65535/50039905497_0be5a02bb2_n.jpg",
    "id_album": "1204249541",
    "description": "Galaxy_551473",
    "title": "Galaxy_551473",
    "link_img": "https://live.staticflickr.com/65535/50039905497_469cac4763_o.jpg",
    "id_image": "Galaxy_551473",
    "count_view": 0
  },
  {
    "link_thumb": "https://live.staticflickr.com/65535/50040749421_e6e1063271_n.jpg",
    "id_album": "2130067313",
    "description": "Spaceship_79157",
    "title": "Spaceship_79157",
    "link_img": "https://live.staticflickr.com/65535/50040749421_74631aabd4_o.jpg",
    "id_image": "Spaceship_79157",
    "count_view": 0
  },
  {
    "link_thumb": "https://live.staticflickr.com/65535/50039763116_fa90be45fc_n.jpg",
    "id_album": "-1610342324",
    "description": "Nebula_133363",
    "title": "Nebula_133363",
    "link_img": "https://live.staticflickr.com/65535/50039763116_4b3926f55d_o.jpg",
    "id_image": "Nebula_133363",
    "count_view": 0
  },
  {
    "link_thumb": "https://live.staticflickr.com/65535/50038942843_15b4322392_n.jpg",
    "id_album": "-1964113117",
    "description": "City_711407",
    "title": "City_711407",
    "link_img": "https://live.staticflickr.com/65535/50038942843_c8dc3a691e_o.jpg",
    "id_image": "City_711407",
    "count_view": 0
  },
  {
    "link_thumb": "https://live.staticflickr.com/65535/50039821998_cb5489927f_n.jpg",
    "id_album": "779690680",
    "description": "Robot_857293",
    "title": "Robot_857293",
    "link_img": "https://live.staticflickr.com/65535/50039821998_b1a3cf559c_o.jpg",
    "id_image": "Robot_857293",
    "count_view": 0
  },
  {
    "link_thumb": "https://live.staticflickr.com/65535/50039613546_b5881d1dac_n.jpg",
    "id_album": "651930207",
    "description": "Explosion_927648",
    "title": "Explosion_927648",
    "link_img": "https://live.staticflickr.com/65535/50039613546_3b3b9b4665_o.jpg",
    "id_image": "Explosion_927648",
    "count_view": 0
  },
  {
    "link_thumb": "https://live.staticflickr.com/65535/50041269941_85be96446f_n.jpg",
    "id_album": "-1587696329",
    "description": "Stars_458515",
    "title": "Stars_458515",
    "link_img": "https://live.staticflickr.com/65535/50041269941_2f98341c9d_o.jpg",
    "id_image": "Stars_458515",
    "count_view": 0
  },
  {
    "link_thumb": "https://live.staticflickr.com/65535/50041390587_f7f91c66f4_n.jpg",
    "id_album": "-1863373220",
    "description": "StarWars_205601",
    "title": "StarWars_205601",
    "link_img": "https://live.staticflickr.com/65535/50041390587_bb11a95dfc_o.jpg",
    "id_image": "StarWars_205601",
    "count_view": 0
  },
  {
    "link_thumb": "https://live.staticflickr.com/65535/50040044597_b546b030c6_n.jpg",
    "id_album": "-1610342324",
    "description": "Nebula_283288",
    "title": "Nebula_283288",
    "link_img": "https://live.staticflickr.com/65535/50040044597_77bf53ddea_o.jpg",
    "id_image": "Nebula_283288",
    "count_view": 0
  },
  {
    "link_thumb": "https://live.staticflickr.com/65535/50038794068_ba8c496e60_n.jpg",
    "id_album": "523598895",
    "description": "Artistic_677074",
    "title": "Artistic_677074",
    "link_img": "https://live.staticflickr.com/65535/50038794068_eb52b9bb1c_o.jpg",
    "id_image": "Artistic_677074",
    "count_view": 0
  },
  {
    "link_thumb": "https://live.staticflickr.com/65535/50040528392_8c028f533e_n.jpg",
    "id_album": "779690680",
    "description": "Robot_202139",
    "title": "Robot_202139",
    "link_img": "https://live.staticflickr.com/65535/50040528392_15e89fba6a_o.jpg",
    "id_image": "Robot_202139",
    "count_view": 0
  },
  {
    "link_thumb": "https://live.staticflickr.com/65535/50041460387_0a44a2954b_n.jpg",
    "id_album": "-1863373220",
    "description": "StarWars_584843",
    "title": "StarWars_584843",
    "link_img": "https://live.staticflickr.com/65535/50041460387_737c33118e_o.jpg",
    "id_image": "StarWars_584843",
    "count_view": 0
  },
  {
    "link_thumb": "https://live.staticflickr.com/65535/50039894427_6be3b42800_n.jpg",
    "id_album": "1204249541",
    "description": "Galaxy_355062",
    "title": "Galaxy_355062",
    "link_img": "https://live.staticflickr.com/65535/50039894427_6f7a217fb5_o.jpg",
    "id_image": "Galaxy_355062",
    "count_view": 0
  },
  {
    "link_thumb": "https://live.staticflickr.com/65535/50039224548_278f4b912c_n.jpg",
    "id_album": "-1610342324",
    "description": "Nebula_2353",
    "title": "Nebula_2353",
    "link_img": "https://live.staticflickr.com/65535/50039224548_d275388e63_o.jpg",
    "id_image": "Nebula_2353",
    "count_view": 0
  },
  {
    "link_thumb": "https://live.staticflickr.com/65535/50040400722_d801902011_n.jpg",
    "id_album": "-1102314093",
    "description": "Planets_807177",
    "title": "Planets_807177",
    "link_img": "https://live.staticflickr.com/65535/50040400722_e1a6c1ef0d_o.jpg",
    "id_image": "Planets_807177",
    "count_view": 0
  },
  {
    "link_thumb": "https://live.staticflickr.com/65535/50039220793_f3c5264ff3_n.jpg",
    "id_album": "-1610342324",
    "description": "Nebula_212668",
    "title": "Nebula_212668",
    "link_img": "https://live.staticflickr.com/65535/50039220793_aee14a60dd_o.jpg",
    "id_image": "Nebula_212668",
    "count_view": 0
  },
  {
    "link_thumb": "https://live.staticflickr.com/65535/50039737386_0338bf630d_n.jpg",
    "id_album": "-1388385651",
    "description": "MilkyWay_657343",
    "title": "MilkyWay_657343",
    "link_img": "https://live.staticflickr.com/65535/50039737386_424da3b5d6_o.jpg",
    "id_image": "MilkyWay_657343",
    "count_view": 0
  },
  {
    "link_thumb": "https://live.staticflickr.com/65535/50039519947_19028df962_n.jpg",
    "id_album": "849020728",
    "description": "Alien_278137",
    "title": "Alien_278137",
    "link_img": "https://live.staticflickr.com/65535/50039519947_0d50fc9b73_o.jpg",
    "id_image": "Alien_278137",
    "count_view": 0
  },
  {
    "link_thumb": "https://live.staticflickr.com/65535/50039136608_811a56867d_n.jpg",
    "id_album": "1402713104",
    "description": "Landscape_390838",
    "title": "Landscape_390838",
    "link_img": "https://live.staticflickr.com/65535/50039136608_46b3b34040_o.jpg",
    "id_image": "Landscape_390838",
    "count_view": 0
  },
  {
    "link_thumb": "https://live.staticflickr.com/65535/50040397256_6709c74dec_n.jpg",
    "id_album": "779690680",
    "description": "Robot_894433",
    "title": "Robot_894433",
    "link_img": "https://live.staticflickr.com/65535/50040397256_8c7a4a836a_o.jpg",
    "id_image": "Robot_894433",
    "count_view": 0
  },
  {
    "link_thumb": "https://live.staticflickr.com/65535/50039506957_7881135a1e_n.jpg",
    "id_album": "849020728",
    "description": "Alien_120336",
    "title": "Alien_120336",
    "link_img": "https://live.staticflickr.com/65535/50039506957_4134d17aff_o.jpg",
    "id_image": "Alien_120336",
    "count_view": 0
  },
  {
    "link_thumb": "https://live.staticflickr.com/65535/50039889387_829da0b162_n.jpg",
    "id_album": "1204249541",
    "description": "Galaxy_216105",
    "title": "Galaxy_216105",
    "link_img": "https://live.staticflickr.com/65535/50039889387_3ba7592e51_o.jpg",
    "id_image": "Galaxy_216105",
    "count_view": 0
  },
  {
    "link_thumb": "https://live.staticflickr.com/65535/50039773156_e7155e3f5b_n.jpg",
    "id_album": "-1610342324",
    "description": "Nebula_224956",
    "title": "Nebula_224956",
    "link_img": "https://live.staticflickr.com/65535/50039773156_e5c3223701_o.jpg",
    "id_image": "Nebula_224956",
    "count_view": 0
  },
  {
    "link_thumb": "https://live.staticflickr.com/65535/50038699178_11ec2631bc_n.jpg",
    "id_album": "849020728",
    "description": "Alien_152631",
    "title": "Alien_152631",
    "link_img": "https://live.staticflickr.com/65535/50038699178_a8eedc5aa9_o.jpg",
    "id_image": "Alien_152631",
    "count_view": 0
  },
  {
    "link_thumb": "https://live.staticflickr.com/65535/50040975572_c3133cb669_n.jpg",
    "id_album": "2130067313",
    "description": "Spaceship_533750",
    "title": "Spaceship_533750",
    "link_img": "https://live.staticflickr.com/65535/50040975572_49432cf740_o.jpg",
    "id_image": "Spaceship_533750",
    "count_view": 0
  },
  {
    "link_thumb": "https://live.staticflickr.com/65535/50040710678_bfde51f35a_n.jpg",
    "id_album": "-1587696329",
    "description": "Stars_397547",
    "title": "Stars_397547",
    "link_img": "https://live.staticflickr.com/65535/50040710678_3e1a2e2bdf_o.jpg",
    "id_image": "Stars_397547",
    "count_view": 0
  },
  {
    "link_thumb": "https://live.staticflickr.com/65535/50040074442_be73a7d952_n.jpg",
    "id_album": "-1610342324",
    "description": "Nebula_560770",
    "title": "Nebula_560770",
    "link_img": "https://live.staticflickr.com/65535/50040074442_cafa578ff8_o.jpg",
    "id_image": "Nebula_560770",
    "count_view": 0
  },
  {
    "link_thumb": "https://live.staticflickr.com/65535/50040377961_2bfb287d9a_n.jpg",
    "id_album": "779690680",
    "description": "Robot_867420",
    "title": "Robot_867420",
    "link_img": "https://live.staticflickr.com/65535/50040377961_676de6a969_o.jpg",
    "id_image": "Robot_867420",
    "count_view": 0
  },
  {
    "link_thumb": "https://live.staticflickr.com/65535/50038796868_4796caea78_n.jpg",
    "id_album": "523598895",
    "description": "Artistic_833487",
    "title": "Artistic_833487",
    "link_img": "https://live.staticflickr.com/65535/50038796868_8bd4d10825_o.jpg",
    "id_image": "Artistic_833487",
    "count_view": 0
  },
  {
    "link_thumb": "https://live.staticflickr.com/65535/50041098336_2e5b454e15_n.jpg",
    "id_album": "-1863373220",
    "description": "StarWars_107621",
    "title": "StarWars_107621",
    "link_img": "https://live.staticflickr.com/65535/50041098336_2f49ba1fdf_o.jpg",
    "id_image": "StarWars_107621",
    "count_view": 0
  },
  {
    "link_thumb": "https://live.staticflickr.com/65535/50040509132_bfdc31c2d0_n.jpg",
    "id_album": "-839602625",
    "description": "Predator_494190",
    "title": "Predator_494190",
    "link_img": "https://live.staticflickr.com/65535/50040509132_ed21eed3db_o.jpg",
    "id_image": "Predator_494190",
    "count_view": 0
  },
  {
    "link_thumb": "https://live.staticflickr.com/65535/50038843763_4165e50028_n.jpg",
    "id_album": "869545341",
    "description": "Astronaut_992597",
    "title": "Astronaut_992597",
    "link_img": "https://live.staticflickr.com/65535/50038843763_45723f6874_o.jpg",
    "id_image": "Astronaut_992597",
    "count_view": 0
  },
  {
    "link_thumb": "https://live.staticflickr.com/65535/50039500177_92f33abff7_n.jpg",
    "id_album": "-406145265",
    "description": "Aircraft_341264",
    "title": "Aircraft_341264",
    "link_img": "https://live.staticflickr.com/65535/50039500177_c0db2e300d_o.jpg",
    "id_image": "Aircraft_341264",
    "count_view": 0
  },
  {
    "link_thumb": "https://live.staticflickr.com/65535/50041849552_82db95e433_n.jpg",
    "id_album": "-1675918237",
    "description": "WomenWarrior_806651",
    "title": "WomenWarrior_806651",
    "link_img": "https://live.staticflickr.com/65535/50041849552_5d6230c925_o.jpg",
    "id_image": "WomenWarrior_806651",
    "count_view": 0
  },
  {
    "link_thumb": "https://live.staticflickr.com/65535/50039871573_2eb8e0f53e_n.jpg",
    "id_album": "779690680",
    "description": "Robot_928640",
    "title": "Robot_928640",
    "link_img": "https://live.staticflickr.com/65535/50039871573_0d3b7599e7_o.jpg",
    "id_image": "Robot_928640",
    "count_view": 0
  },
  {
    "link_thumb": "https://live.staticflickr.com/65535/50040518912_a5c280a258_n.jpg",
    "id_album": "779690680",
    "description": "Robot_133819",
    "title": "Robot_133819",
    "link_img": "https://live.staticflickr.com/65535/50040518912_8ca229d6d7_o.jpg",
    "id_image": "Robot_133819",
    "count_view": 0
  },
  {
    "link_thumb": "https://live.staticflickr.com/65535/50039782556_aa05965b37_n.jpg",
    "id_album": "-1610342324",
    "description": "Nebula_286807",
    "title": "Nebula_286807",
    "link_img": "https://live.staticflickr.com/65535/50039782556_1e4c596b0c_o.jpg",
    "id_image": "Nebula_286807",
    "count_view": 0
  },
  {
    "link_thumb": "https://live.staticflickr.com/65535/50040556417_de5935b891_n.jpg",
    "id_album": "779690680",
    "description": "Robot_333324",
    "title": "Robot_333324",
    "link_img": "https://live.staticflickr.com/65535/50040556417_26e70843e6_o.jpg",
    "id_image": "Robot_333324",
    "count_view": 0
  },
  {
    "link_thumb": "https://live.staticflickr.com/65535/50041035043_42ebabeff4_n.jpg",
    "id_album": "-1675918237",
    "description": "WomenWarrior_849366",
    "title": "WomenWarrior_849366",
    "link_img": "https://live.staticflickr.com/65535/50041035043_0c2d31a4df_o.jpg",
    "id_image": "WomenWarrior_849366",
    "count_view": 0
  },
  {
    "link_thumb": "https://live.staticflickr.com/65535/50039712573_27e4278813_n.jpg",
    "id_album": "779690680",
    "description": "Robot_209302",
    "title": "Robot_209302",
    "link_img": "https://live.staticflickr.com/65535/50039712573_b769671472_o.jpg",
    "id_image": "Robot_209302",
    "count_view": 0
  },
  {
    "link_thumb": "https://live.staticflickr.com/65535/50038990508_d4c0a4876a_n.jpg",
    "id_album": "894679094",
    "description": "Collision_291861",
    "title": "Collision_291861",
    "link_img": "https://live.staticflickr.com/65535/50038990508_b59242dbff_o.jpg",
    "id_image": "Collision_291861",
    "count_view": 0
  },
  {
    "link_thumb": "https://live.staticflickr.com/65535/50040725318_33f99ae796_n.jpg",
    "id_album": "-1587696329",
    "description": "Stars_697717",
    "title": "Stars_697717",
    "link_img": "https://live.staticflickr.com/65535/50040725318_017772e3e3_o.jpg",
    "id_image": "Stars_697717",
    "count_view": 0
  },
  {
    "link_thumb": "https://live.staticflickr.com/65535/50039889536_818c2935dd_n.jpg",
    "id_album": "-1862561193",
    "description": "Other_308642",
    "title": "Other_308642",
    "link_img": "https://live.staticflickr.com/65535/50039889536_5cb3ec9076_o.jpg",
    "id_image": "Other_308642",
    "count_view": 0
  },
  {
    "link_thumb": "https://live.staticflickr.com/65535/50040642153_65ec884920_n.jpg",
    "id_album": "-1863373220",
    "description": "StarWars_584671",
    "title": "StarWars_584671",
    "link_img": "https://live.staticflickr.com/65535/50040642153_80f2d91cc8_o.jpg",
    "id_image": "StarWars_584671",
    "count_view": 0
  },
  {
    "link_thumb": "https://live.staticflickr.com/65535/50040019251_39253e23f2_n.jpg",
    "id_album": "814701616",
    "description": "PlanetaryRing_178286",
    "title": "PlanetaryRing_178286",
    "link_img": "https://live.staticflickr.com/65535/50040019251_3849c0538b_o.jpg",
    "id_image": "PlanetaryRing_178286",
    "count_view": 0
  },
  {
    "link_thumb": "https://live.staticflickr.com/65535/50038948688_a0d795b177_n.jpg",
    "id_album": "-1964113117",
    "description": "City_784095",
    "title": "City_784095",
    "link_img": "https://live.staticflickr.com/65535/50038948688_1b10df14a3_o.jpg",
    "id_image": "City_784095",
    "count_view": 0
  },
  {
    "link_thumb": "https://live.staticflickr.com/65535/50040246372_b5d90e594a_n.jpg",
    "id_album": "395161030",
    "description": "Planet_891442",
    "title": "Planet_891442",
    "link_img": "https://live.staticflickr.com/65535/50040246372_1f89c3166d_o.jpg",
    "id_image": "Planet_891442",
    "count_view": 0
  },
  {
    "link_thumb": "https://live.staticflickr.com/65535/50039333721_edc65baf9e_n.jpg",
    "id_album": "523598895",
    "description": "Artistic_397573",
    "title": "Artistic_397573",
    "link_img": "https://live.staticflickr.com/65535/50039333721_98972a8b1e_o.jpg",
    "id_image": "Artistic_397573",
    "count_view": 0
  },
  {
    "link_thumb": "https://live.staticflickr.com/65535/50040282571_49416b28f9_n.jpg",
    "id_album": "779690680",
    "description": "Robot_291074",
    "title": "Robot_291074",
    "link_img": "https://live.staticflickr.com/65535/50040282571_3527398830_o.jpg",
    "id_image": "Robot_291074",
    "count_view": 0
  },
  {
    "link_thumb": "https://live.staticflickr.com/65535/50039987128_c29d1bf364_n.jpg",
    "id_album": "1613540653",
    "description": "Space_805177",
    "title": "Space_805177",
    "link_img": "https://live.staticflickr.com/65535/50039987128_2a5829c13a_o.jpg",
    "id_image": "Space_805177",
    "count_view": 0
  },
  {
    "link_thumb": "https://live.staticflickr.com/65535/50040744122_fa8e0fe206_n.jpg",
    "id_album": "1613540653",
    "description": "Space_212846",
    "title": "Space_212846",
    "link_img": "https://live.staticflickr.com/65535/50040744122_63638a48ff_o.jpg",
    "id_image": "Space_212846",
    "count_view": 0
  },
  {
    "link_thumb": "https://live.staticflickr.com/65535/50040045187_e55c38c69a_n.jpg",
    "id_album": "-1610342324",
    "description": "Nebula_284832",
    "title": "Nebula_284832",
    "link_img": "https://live.staticflickr.com/65535/50040045187_eaf6cdff0d_o.jpg",
    "id_image": "Nebula_284832",
    "count_view": 0
  },
  {
    "link_thumb": "https://live.staticflickr.com/65535/50039824158_6ebdd83c86_n.jpg",
    "id_album": "779690680",
    "description": "Robot_859575",
    "title": "Robot_859575",
    "link_img": "https://live.staticflickr.com/65535/50039824158_5ca36ab3fd_o.jpg",
    "id_image": "Robot_859575",
    "count_view": 0
  },
  {
    "link_thumb": "https://live.staticflickr.com/65535/50039372003_0840424668_n.jpg",
    "id_album": "395161030",
    "description": "Planet_248751",
    "title": "Planet_248751",
    "link_img": "https://live.staticflickr.com/65535/50039372003_be16860678_o.jpg",
    "id_image": "Planet_248751",
    "count_view": 0
  },
  {
    "link_thumb": "https://live.staticflickr.com/65535/50040245756_d1bf416b2d_n.jpg",
    "id_album": "-839602625",
    "description": "Predator_578299",
    "title": "Predator_578299",
    "link_img": "https://live.staticflickr.com/65535/50040245756_bb68f73bc3_o.jpg",
    "id_image": "Predator_578299",
    "count_view": 0
  },
  {
    "link_thumb": "https://live.staticflickr.com/65535/50040804652_1075eafd4f_n.jpg",
    "id_album": "1613540653",
    "description": "Space_78677",
    "title": "Space_78677",
    "link_img": "https://live.staticflickr.com/65535/50040804652_2c1509f663_o.jpg",
    "id_image": "Space_78677",
    "count_view": 0
  },
  {
    "link_thumb": "https://live.staticflickr.com/65535/50041549062_e7a24e2eb6_n.jpg",
    "id_album": "1267121215",
    "description": "Steampunk_107174",
    "title": "Steampunk_107174",
    "link_img": "https://live.staticflickr.com/65535/50041549062_3c2d580e6b_o.jpg",
    "id_image": "Steampunk_107174",
    "count_view": 0
  },
  {
    "link_thumb": "https://live.staticflickr.com/65535/50039500911_52bbf8816b_n.jpg",
    "id_album": "-1964113117",
    "description": "City_842652",
    "title": "City_842652",
    "link_img": "https://live.staticflickr.com/65535/50039500911_8c4d262cef_o.jpg",
    "id_image": "City_842652",
    "count_view": 0
  },
  {
    "link_thumb": "https://live.staticflickr.com/65535/50039781262_ab243fa03b_n.jpg",
    "id_album": "-1964113117",
    "description": "City_910936",
    "title": "City_910936",
    "link_img": "https://live.staticflickr.com/65535/50039781262_2d62bda94d_o.jpg",
    "id_image": "City_910936",
    "count_view": 0
  },
  {
    "link_thumb": "https://live.staticflickr.com/65535/50040364796_9aa3733c0e_n.jpg",
    "id_album": "779690680",
    "description": "Robot_752684",
    "title": "Robot_752684",
    "link_img": "https://live.staticflickr.com/65535/50040364796_d5ba87b817_o.jpg",
    "id_image": "Robot_752684",
    "count_view": 0
  },
  {
    "link_thumb": "https://live.staticflickr.com/65535/50039634276_799ba88a63_n.jpg",
    "id_album": "1204249541",
    "description": "Galaxy_434594",
    "title": "Galaxy_434594",
    "link_img": "https://live.staticflickr.com/65535/50039634276_24dcb0d3f0_o.jpg",
    "id_image": "Galaxy_434594",
    "count_view": 0
  },
  {
    "link_thumb": "https://live.staticflickr.com/65535/50039529546_7b289acfe2_n.jpg",
    "id_album": "-1964113117",
    "description": "City_971751",
    "title": "City_971751",
    "link_img": "https://live.staticflickr.com/65535/50039529546_0c248bf076_o.jpg",
    "id_image": "City_971751",
    "count_view": 0
  },
  {
    "link_thumb": "https://live.staticflickr.com/65535/50040048727_17c67e404c_n.jpg",
    "id_album": "-1610342324",
    "description": "Nebula_304916",
    "title": "Nebula_304916",
    "link_img": "https://live.staticflickr.com/65535/50040048727_64423cc30a_o.jpg",
    "id_image": "Nebula_304916",
    "count_view": 0
  },
  {
    "link_thumb": "https://live.staticflickr.com/65535/50040089836_21545a399d_n.jpg",
    "id_album": "-1102314093",
    "description": "Planets_347227",
    "title": "Planets_347227",
    "link_img": "https://live.staticflickr.com/65535/50040089836_b6b907eaa1_o.jpg",
    "id_image": "Planets_347227",
    "count_view": 0
  },
  {
    "link_thumb": "https://live.staticflickr.com/65535/50040304771_13ce5a9e28_n.jpg",
    "id_album": "779690680",
    "description": "Robot_410859",
    "title": "Robot_410859",
    "link_img": "https://live.staticflickr.com/65535/50040304771_1ec80173cb_o.jpg",
    "id_image": "Robot_410859",
    "count_view": 0
  },
  {
    "link_thumb": "https://live.staticflickr.com/65535/50039545051_252dcfaf14_n.jpg",
    "id_album": "894679094",
    "description": "Collision_957418",
    "title": "Collision_957418",
    "link_img": "https://live.staticflickr.com/65535/50039545051_c222cb5c3a_o.jpg",
    "id_image": "Collision_957418",
    "count_view": 0
  },
  {
    "link_thumb": "https://live.staticflickr.com/65535/50040013952_02a0535b2e_n.jpg",
    "id_album": "-1388385651",
    "description": "MilkyWay_827413",
    "title": "MilkyWay_827413",
    "link_img": "https://live.staticflickr.com/65535/50040013952_1c21068520_o.jpg",
    "id_image": "MilkyWay_827413",
    "count_view": 0
  },
  {
    "link_thumb": "https://live.staticflickr.com/65535/50039871287_117c7750a5_n.jpg",
    "id_album": "651930207",
    "description": "Explosion_2868",
    "title": "Explosion_2868",
    "link_img": "https://live.staticflickr.com/65535/50039871287_1f1c844395_o.jpg",
    "id_image": "Explosion_2868",
    "count_view": 0
  },
  {
    "link_thumb": "https://live.staticflickr.com/65535/50039657492_f655c3613f_n.jpg",
    "id_album": "1187037014",
    "description": "Battle_162712",
    "title": "Battle_162712",
    "link_img": "https://live.staticflickr.com/65535/50039657492_dc3fe72899_o.jpg",
    "id_image": "Battle_162712",
    "count_view": 0
  },
  {
    "link_thumb": "https://live.staticflickr.com/65535/50039742617_28fbe87e3e_n.jpg",
    "id_album": "-1964113117",
    "description": "City_588964",
    "title": "City_588964",
    "link_img": "https://live.staticflickr.com/65535/50039742617_db435993ae_o.jpg",
    "id_image": "City_588964",
    "count_view": 0
  },
  {
    "link_thumb": "https://live.staticflickr.com/65535/50040842313_8b080f2802_n.jpg",
    "id_album": "2020068132",
    "description": "Vehicle_393222",
    "title": "Vehicle_393222",
    "link_img": "https://live.staticflickr.com/65535/50040842313_d8141c36c5_o.jpg",
    "id_image": "Vehicle_393222",
    "count_view": 0
  },
  {
    "link_thumb": "https://live.staticflickr.com/65535/50039679373_6c58e022f3_n.jpg",
    "id_album": "-482547208",
    "description": "PostApocalyptic_940278",
    "title": "PostApocalyptic_940278",
    "link_img": "https://live.staticflickr.com/65535/50039679373_7daa749f76_o.jpg",
    "id_image": "PostApocalyptic_940278",
    "count_view": 0
  },
  {
    "link_thumb": "https://live.staticflickr.com/65535/50039993297_168571f571_n.jpg",
    "id_album": "1402713104",
    "description": "Landscape_994479",
    "title": "Landscape_994479",
    "link_img": "https://live.staticflickr.com/65535/50039993297_d0e7f87a38_o.jpg",
    "id_image": "Landscape_994479",
    "count_view": 0
  },
  {
    "link_thumb": "https://live.staticflickr.com/65535/50039467036_7526e9ee70_n.jpg",
    "id_album": "-1964113117",
    "description": "City_384098",
    "title": "City_384098",
    "link_img": "https://live.staticflickr.com/65535/50039467036_c6ea0dd131_o.jpg",
    "id_image": "City_384098",
    "count_view": 0
  },
  {
    "link_thumb": "https://live.staticflickr.com/65535/50040036107_fd249970d0_n.jpg",
    "id_album": "-1610342324",
    "description": "Nebula_22152",
    "title": "Nebula_22152",
    "link_img": "https://live.staticflickr.com/65535/50040036107_31c3edec81_o.jpg",
    "id_image": "Nebula_22152",
    "count_view": 0
  },
  {
    "link_thumb": "https://live.staticflickr.com/65535/50041552641_4fe4c5682e_n.jpg",
    "id_album": "-1126835654",
    "description": "Women_981418",
    "title": "Women_981418",
    "link_img": "https://live.staticflickr.com/65535/50041552641_28700dc9a7_o.jpg",
    "id_image": "Women_981418",
    "count_view": 0
  },
  {
    "link_thumb": "https://live.staticflickr.com/65535/50038866368_60e3788223_n.jpg",
    "id_album": "-1780971522",
    "description": "Biohazard_494275",
    "title": "Biohazard_494275",
    "link_img": "https://live.staticflickr.com/65535/50038866368_7c1822af8f_o.jpg",
    "id_image": "Biohazard_494275",
    "count_view": 0
  },
  {
    "link_thumb": "https://live.staticflickr.com/65535/50039926388_8691cddc82_n.jpg",
    "id_album": "1613540653",
    "description": "Space_223704",
    "title": "Space_223704",
    "link_img": "https://live.staticflickr.com/65535/50039926388_f88e5ef8a5_o.jpg",
    "id_image": "Space_223704",
    "count_view": 0
  },
  {
    "link_thumb": "https://live.staticflickr.com/65535/50039356306_35f3681bc2_n.jpg",
    "id_album": "869545341",
    "description": "Astronaut_529979",
    "title": "Astronaut_529979",
    "link_img": "https://live.staticflickr.com/65535/50039356306_4b2d3df63d_o.jpg",
    "id_image": "Astronaut_529979",
    "count_view": 0
  },
  {
    "link_thumb": "https://live.staticflickr.com/65535/50039497578_5d437b536f_n.jpg",
    "id_album": "-1102314093",
    "description": "Planets_113495",
    "title": "Planets_113495",
    "link_img": "https://live.staticflickr.com/65535/50039497578_ff7585a5c6_o.jpg",
    "id_image": "Planets_113495",
    "count_view": 0
  },
  {
    "link_thumb": "https://live.staticflickr.com/65535/50040700597_664f8a56dd_n.jpg",
    "id_album": "779690680",
    "description": "Robot_940961",
    "title": "Robot_940961",
    "link_img": "https://live.staticflickr.com/65535/50040700597_35a416c973_o.jpg",
    "id_image": "Robot_940961",
    "count_view": 0
  },
  {
    "link_thumb": "https://live.staticflickr.com/65535/50038719048_8f2c7b8d99_n.jpg",
    "id_album": "849020728",
    "description": "Alien_481291",
    "title": "Alien_481291",
    "link_img": "https://live.staticflickr.com/65535/50038719048_f378914e03_o.jpg",
    "id_image": "Alien_481291",
    "count_view": 0
  },
  {
    "link_thumb": "https://live.staticflickr.com/65535/50039590263_bd87b9fa37_n.jpg",
    "id_album": "-1102314093",
    "description": "Planets_83612",
    "title": "Planets_83612",
    "link_img": "https://live.staticflickr.com/65535/50039590263_e3d64edcac_o.jpg",
    "id_image": "Planets_83612",
    "count_view": 0
  },
  {
    "link_thumb": "https://live.staticflickr.com/65535/50041028498_67b215c28e_n.jpg",
    "id_album": "-1675918237",
    "description": "WomenWarrior_592380",
    "title": "WomenWarrior_592380",
    "link_img": "https://live.staticflickr.com/65535/50041028498_0ce2e09238_o.jpg",
    "id_image": "WomenWarrior_592380",
    "count_view": 0
  },
  {
    "link_thumb": "https://live.staticflickr.com/65535/50040963318_5f94f0d71d_n.jpg",
    "id_album": "-1126835654",
    "description": "Women_283781",
    "title": "Women_283781",
    "link_img": "https://live.staticflickr.com/65535/50040963318_392fdfd1ee_o.jpg",
    "id_image": "Women_283781",
    "count_view": 0
  },
  {
    "link_thumb": "https://live.staticflickr.com/65535/50039313386_6d7f209cee_n.jpg",
    "id_album": "523598895",
    "description": "Artistic_207800",
    "title": "Artistic_207800",
    "link_img": "https://live.staticflickr.com/65535/50039313386_7a1a5dfe5b_o.jpg",
    "id_image": "Artistic_207800",
    "count_view": 0
  },
  {
    "link_thumb": "https://live.staticflickr.com/65535/50039079298_490f83c48b_n.jpg",
    "id_album": "1204249541",
    "description": "Galaxy_264715",
    "title": "Galaxy_264715",
    "link_img": "https://live.staticflickr.com/65535/50039079298_aa7389ec7f_o.jpg",
    "id_image": "Galaxy_264715",
    "count_view": 0
  },
  {
    "link_thumb": "https://live.staticflickr.com/65535/50040113941_de221f7dac_n.jpg",
    "id_album": "-1102314093",
    "description": "Planets_426463",
    "title": "Planets_426463",
    "link_img": "https://live.staticflickr.com/65535/50040113941_b4b40559b3_o.jpg",
    "id_image": "Planets_426463",
    "count_view": 0
  },
  {
    "link_thumb": "https://live.staticflickr.com/65535/50040082661_b536248a55_n.jpg",
    "id_album": "-1102314093",
    "description": "Planets_327612",
    "title": "Planets_327612",
    "link_img": "https://live.staticflickr.com/65535/50040082661_21d2dafaab_o.jpg",
    "id_image": "Planets_327612",
    "count_view": 0
  },
  {
    "link_thumb": "https://live.staticflickr.com/65535/50039234101_47916c6b9e_n.jpg",
    "id_album": "-406145265",
    "description": "Aircraft_145916",
    "title": "Aircraft_145916",
    "link_img": "https://live.staticflickr.com/65535/50039234101_52b1bf0684_o.jpg",
    "id_image": "Aircraft_145916",
    "count_view": 0
  },
  {
    "link_thumb": "https://live.staticflickr.com/65535/50039254488_bb77b37caa_n.jpg",
    "id_album": "-1610342324",
    "description": "Nebula_525905",
    "title": "Nebula_525905",
    "link_img": "https://live.staticflickr.com/65535/50039254488_152bc0b05e_o.jpg",
    "id_image": "Nebula_525905",
    "count_view": 0
  },
  {
    "link_thumb": "https://live.staticflickr.com/65535/50040885157_35e7da5de9_n.jpg",
    "id_album": "2130067313",
    "description": "Spaceship_280011",
    "title": "Spaceship_280011",
    "link_img": "https://live.staticflickr.com/65535/50040885157_218684762d_o.jpg",
    "id_image": "Spaceship_280011",
    "count_view": 0
  },
  {
    "link_thumb": "https://live.staticflickr.com/65535/50040072037_8b9d7d5048_n.jpg",
    "id_album": "-1610342324",
    "description": "Nebula_555187",
    "title": "Nebula_555187",
    "link_img": "https://live.staticflickr.com/65535/50040072037_04ff30503a_o.jpg",
    "id_image": "Nebula_555187",
    "count_view": 0
  },
  {
    "link_thumb": "https://live.staticflickr.com/65535/50039851211_c7d34fbf94_n.jpg",
    "id_album": "-1610342324",
    "description": "Nebula_909175",
    "title": "Nebula_909175",
    "link_img": "https://live.staticflickr.com/65535/50039851211_ba5b75a5b9_o.jpg",
    "id_image": "Nebula_909175",
    "count_view": 0
  },
  {
    "link_thumb": "https://live.staticflickr.com/65535/50039604612_7d36edcd04_n.jpg",
    "id_album": "523598895",
    "description": "Artistic_712985",
    "title": "Artistic_712985",
    "link_img": "https://live.staticflickr.com/65535/50039604612_bf9185c40a_o.jpg",
    "id_image": "Artistic_712985",
    "count_view": 0
  },
  {
    "link_thumb": "https://live.staticflickr.com/65535/50039507062_e422f401e9_n.jpg",
    "id_album": "849020728",
    "description": "Alien_120337",
    "title": "Alien_120337",
    "link_img": "https://live.staticflickr.com/65535/50039507062_2051e8b2b5_o.jpg",
    "id_image": "Alien_120337",
    "count_view": 0
  },
  {
    "link_thumb": "https://live.staticflickr.com/65535/50040440411_632a950ccc_n.jpg",
    "id_album": "779690680",
    "description": "Robot_948243",
    "title": "Robot_948243",
    "link_img": "https://live.staticflickr.com/65535/50040440411_b3a7c47a82_o.jpg",
    "id_image": "Robot_948243",
    "count_view": 0
  },
  {
    "link_thumb": "https://live.staticflickr.com/65535/50041117231_5704b7f64a_n.jpg",
    "id_album": "-1863373220",
    "description": "StarWars_107748",
    "title": "StarWars_107748",
    "link_img": "https://live.staticflickr.com/65535/50041117231_9d7ac872d7_o.jpg",
    "id_image": "StarWars_107748",
    "count_view": 0
  },
  {
    "link_thumb": "https://live.staticflickr.com/65535/50039573978_2ac10f220b_n.jpg",
    "id_album": "-1102314093",
    "description": "Planets_533960",
    "title": "Planets_533960",
    "link_img": "https://live.staticflickr.com/65535/50039573978_e253cb8486_o.jpg",
    "id_image": "Planets_533960",
    "count_view": 0
  },
  {
    "link_thumb": "https://live.staticflickr.com/65535/50039288848_83c4740851_n.jpg",
    "id_album": "-1610342324",
    "description": "Nebula_793712",
    "title": "Nebula_793712",
    "link_img": "https://live.staticflickr.com/65535/50039288848_a042f4d022_o.jpg",
    "id_image": "Nebula_793712",
    "count_view": 0
  },
  {
    "link_thumb": "https://live.staticflickr.com/65535/50039832496_f88b22c14b_n.jpg",
    "id_album": "-1610342324",
    "description": "Nebula_771258",
    "title": "Nebula_771258",
    "link_img": "https://live.staticflickr.com/65535/50039832496_e4bf8f9cd7_o.jpg",
    "id_image": "Nebula_771258",
    "count_view": 0
  },
  {
    "link_thumb": "https://live.staticflickr.com/65535/50038994998_1390e41f90_n.jpg",
    "id_album": "894679094",
    "description": "Collision_719901",
    "title": "Collision_719901",
    "link_img": "https://live.staticflickr.com/65535/50038994998_7048f29474_o.jpg",
    "id_image": "Collision_719901",
    "count_view": 0
  },
  {
    "link_thumb": "https://live.staticflickr.com/65535/50038950808_b938bd4643_n.jpg",
    "id_album": "-1964113117",
    "description": "City_816704",
    "title": "City_816704",
    "link_img": "https://live.staticflickr.com/65535/50038950808_c35b658f58_o.jpg",
    "id_image": "City_816704",
    "count_view": 0
  },
  {
    "link_thumb": "https://live.staticflickr.com/65535/50039850791_4dc5fe251e_n.jpg",
    "id_album": "-1610342324",
    "description": "Nebula_899656",
    "title": "Nebula_899656",
    "link_img": "https://live.staticflickr.com/65535/50039850791_4cb9ea2e3d_o.jpg",
    "id_image": "Nebula_899656",
    "count_view": 0
  },
  {
    "link_thumb": "https://live.staticflickr.com/65535/50039220708_589d06abed_n.jpg",
    "id_album": "-1610342324",
    "description": "Nebula_211858",
    "title": "Nebula_211858",
    "link_img": "https://live.staticflickr.com/65535/50039220708_e3530b0e4d_o.jpg",
    "id_image": "Nebula_211858",
    "count_view": 0
  },
  {
    "link_thumb": "https://live.staticflickr.com/65535/50039515016_a53b99cc57_n.jpg",
    "id_album": "-1964113117",
    "description": "City_896211",
    "title": "City_896211",
    "link_img": "https://live.staticflickr.com/65535/50039515016_9fab6f53c0_o.jpg",
    "id_image": "City_896211",
    "count_view": 0
  },
  {
    "link_thumb": "https://live.staticflickr.com/65535/50040200352_9209c10269_n.jpg",
    "id_album": "395161030",
    "description": "Planet_357811",
    "title": "Planet_357811",
    "link_img": "https://live.staticflickr.com/65535/50040200352_72dd4582d3_o.jpg",
    "id_image": "Planet_357811",
    "count_view": 0
  },
  {
    "link_thumb": "https://live.staticflickr.com/65535/50040480922_950edd208c_n.jpg",
    "id_album": "-482547208",
    "description": "PostApocalyptic_599881",
    "title": "PostApocalyptic_599881",
    "link_img": "https://live.staticflickr.com/65535/50040480922_2e0d604ba5_o.jpg",
    "id_image": "PostApocalyptic_599881",
    "count_view": 0
  },
  {
    "link_thumb": "https://live.staticflickr.com/65535/50041221691_b92bb05451_n.jpg",
    "id_album": "-1863373220",
    "description": "StarWars_76383",
    "title": "StarWars_76383",
    "link_img": "https://live.staticflickr.com/65535/50041221691_6d0be3ec2d_o.jpg",
    "id_image": "StarWars_76383",
    "count_view": 0
  },
  {
    "link_thumb": "https://live.staticflickr.com/65535/50039145673_dc4740ec82_n.jpg",
    "id_album": "1402713104",
    "description": "Landscape_559165",
    "title": "Landscape_559165",
    "link_img": "https://live.staticflickr.com/65535/50039145673_e65b3cb4fb_o.jpg",
    "id_image": "Landscape_559165",
    "count_view": 0
  },
  {
    "link_thumb": "https://live.staticflickr.com/65535/50040046007_778a4a84d4_n.jpg",
    "id_album": "-1610342324",
    "description": "Nebula_286778",
    "title": "Nebula_286778",
    "link_img": "https://live.staticflickr.com/65535/50040046007_dd894db021_o.jpg",
    "id_image": "Nebula_286778",
    "count_view": 0
  },
  {
    "link_thumb": "https://live.staticflickr.com/65535/50041667387_3f6f7c909b_n.jpg",
    "id_album": "2020068132",
    "description": "Vehicle_590989",
    "title": "Vehicle_590989",
    "link_img": "https://live.staticflickr.com/65535/50041667387_c62f481277_o.jpg",
    "id_image": "Vehicle_590989",
    "count_view": 0
  },
  {
    "link_thumb": "https://live.staticflickr.com/65535/50038924648_b2d243f09c_n.jpg",
    "id_album": "-1964113117",
    "description": "City_492503",
    "title": "City_492503",
    "link_img": "https://live.staticflickr.com/65535/50038924648_ef3067f492_o.jpg",
    "id_image": "City_492503",
    "count_view": 0
  },
  {
    "link_thumb": "https://live.staticflickr.com/65535/50038862808_32f6d8b9a7_n.jpg",
    "id_album": "-1780971522",
    "description": "Biohazard_18630",
    "title": "Biohazard_18630",
    "link_img": "https://live.staticflickr.com/65535/50038862808_ea821355c8_o.jpg",
    "id_image": "Biohazard_18630",
    "count_view": 0
  },
  {
    "link_thumb": "https://live.staticflickr.com/65535/50039895732_18e6ef21d9_n.jpg",
    "id_album": "1204249541",
    "description": "Galaxy_418331",
    "title": "Galaxy_418331",
    "link_img": "https://live.staticflickr.com/65535/50039895732_2f381504de_o.jpg",
    "id_image": "Galaxy_418331",
    "count_view": 0
  },
  {
    "link_thumb": "https://live.staticflickr.com/65535/50039627611_b6e86245df_n.jpg",
    "id_album": "1204249541",
    "description": "Galaxy_225945",
    "title": "Galaxy_225945",
    "link_img": "https://live.staticflickr.com/65535/50039627611_878b6deded_o.jpg",
    "id_image": "Galaxy_225945",
    "count_view": 0
  },
  {
    "link_thumb": "https://live.staticflickr.com/65535/50040254846_306a980d24_n.jpg",
    "id_album": "779690680",
    "description": "Robot_146639",
    "title": "Robot_146639",
    "link_img": "https://live.staticflickr.com/65535/50040254846_749b8f1e88_o.jpg",
    "id_image": "Robot_146639",
    "count_view": 0
  },
  {
    "link_thumb": "https://live.staticflickr.com/65535/50041427437_96371fdb94_n.jpg",
    "id_album": "-1863373220",
    "description": "StarWars_315718",
    "title": "StarWars_315718",
    "link_img": "https://live.staticflickr.com/65535/50041427437_a4e3ebb551_o.jpg",
    "id_image": "StarWars_315718",
    "count_view": 0
  },
  {
    "link_thumb": "https://live.staticflickr.com/65535/50041595117_cf20629f0b_n.jpg",
    "id_album": "1267121215",
    "description": "Steampunk_880778",
    "title": "Steampunk_880778",
    "link_img": "https://live.staticflickr.com/65535/50041595117_8c7ed6f5e9_o.jpg",
    "id_image": "Steampunk_880778",
    "count_view": 0
  },
  {
    "link_thumb": "https://live.staticflickr.com/65535/50040099126_708e2924c3_n.jpg",
    "id_album": "-1102314093",
    "description": "Planets_363080",
    "title": "Planets_363080",
    "link_img": "https://live.staticflickr.com/65535/50040099126_dbe7436f6c_o.jpg",
    "id_image": "Planets_363080",
    "count_view": 0
  },
  {
    "link_thumb": "https://live.staticflickr.com/65535/50039618502_9be41d7aa6_n.jpg",
    "id_album": "869545341",
    "description": "Astronaut_523610",
    "title": "Astronaut_523610",
    "link_img": "https://live.staticflickr.com/65535/50039618502_ea2f62a4c7_o.jpg",
    "id_image": "Astronaut_523610",
    "count_view": 0
  },
  {
    "link_thumb": "https://live.staticflickr.com/65535/50040287446_f2327c5e8d_n.jpg",
    "id_album": "779690680",
    "description": "Robot_314998",
    "title": "Robot_314998",
    "link_img": "https://live.staticflickr.com/65535/50040287446_9f11c3aa50_o.jpg",
    "id_image": "Robot_314998",
    "count_view": 0
  },
  {
    "link_thumb": "https://live.staticflickr.com/65535/50039624726_813e695278_n.jpg",
    "id_album": "1204249541",
    "description": "Galaxy_153503",
    "title": "Galaxy_153503",
    "link_img": "https://live.staticflickr.com/65535/50039624726_8531389bd2_o.jpg",
    "id_image": "Galaxy_153503",
    "count_view": 0
  },
  {
    "link_thumb": "https://live.staticflickr.com/65535/50041751662_30e6f7efea_n.jpg",
    "id_album": "-1261420436",
    "description": "Warrior_829891",
    "title": "Warrior_829891",
    "link_img": "https://live.staticflickr.com/65535/50041751662_a966e6164f_o.jpg",
    "id_image": "Warrior_829891",
    "count_view": 0
  },
  {
    "link_thumb": "https://live.staticflickr.com/65535/50040044176_a3a75d7fdf_n.jpg",
    "id_album": "-1102314093",
    "description": "Planets_103603",
    "title": "Planets_103603",
    "link_img": "https://live.staticflickr.com/65535/50040044176_e1af77faf9_o.jpg",
    "id_image": "Planets_103603",
    "count_view": 0
  },
  {
    "link_thumb": "https://live.staticflickr.com/65535/50038732913_d286cff8d5_n.jpg",
    "id_album": "-419633230",
    "description": "Apocalyptic_242682",
    "title": "Apocalyptic_242682",
    "link_img": "https://live.staticflickr.com/65535/50038732913_a798c53102_o.jpg",
    "id_image": "Apocalyptic_242682",
    "count_view": 0
  },
  {
    "link_thumb": "https://live.staticflickr.com/65535/50041309121_602b0246e0_n.jpg",
    "id_album": "1267121215",
    "description": "Steampunk_258451",
    "title": "Steampunk_258451",
    "link_img": "https://live.staticflickr.com/65535/50041309121_48e6e2c6b6_o.jpg",
    "id_image": "Steampunk_258451",
    "count_view": 0
  },
  {
    "link_thumb": "https://live.staticflickr.com/65535/50040621591_f09628e39d_n.jpg",
    "id_album": "2130067313",
    "description": "Spaceship_278604",
    "title": "Spaceship_278604",
    "link_img": "https://live.staticflickr.com/65535/50040621591_c79d3daf93_o.jpg",
    "id_image": "Spaceship_278604",
    "count_view": 0
  },
  {
    "link_thumb": "https://live.staticflickr.com/65535/50039351866_6e83715b91_n.jpg",
    "id_album": "869545341",
    "description": "Astronaut_237564",
    "title": "Astronaut_237564",
    "link_img": "https://live.staticflickr.com/65535/50039351866_088dc648b4_o.jpg",
    "id_image": "Astronaut_237564",
    "count_view": 0
  },
  {
    "link_thumb": "https://live.staticflickr.com/65535/50039641278_38554aeb1c_n.jpg",
    "id_album": "-482547208",
    "description": "PostApocalyptic_17680",
    "title": "PostApocalyptic_17680",
    "link_img": "https://live.staticflickr.com/65535/50039641278_944245bc1e_o.jpg",
    "id_image": "PostApocalyptic_17680",
    "count_view": 0
  },
  {
    "link_thumb": "https://live.staticflickr.com/65535/50040478181_bfbdaf7c5b_n.jpg",
    "id_album": "1613540653",
    "description": "Space_197035",
    "title": "Space_197035",
    "link_img": "https://live.staticflickr.com/65535/50040478181_d55838c718_o.jpg",
    "id_image": "Space_197035",
    "count_view": 0
  },
  {
    "link_thumb": "https://live.staticflickr.com/65535/50039556016_0d6426cbd6_n.jpg",
    "id_album": "-437872736",
    "description": "Creature_401981",
    "title": "Creature_401981",
    "link_img": "https://live.staticflickr.com/65535/50039556016_2679f226f2_o.jpg",
    "id_image": "Creature_401981",
    "count_view": 0
  },
  {
    "link_thumb": "https://live.staticflickr.com/65535/50040227822_f4bef014f4_n.jpg",
    "id_album": "395161030",
    "description": "Planet_559154",
    "title": "Planet_559154",
    "link_img": "https://live.staticflickr.com/65535/50040227822_2e47cdec46_o.jpg",
    "id_image": "Planet_559154",
    "count_view": 0
  },
  {
    "link_thumb": "https://live.staticflickr.com/65535/50040064107_7f96478a5f_n.jpg",
    "id_album": "-1610342324",
    "description": "Nebula_500525",
    "title": "Nebula_500525",
    "link_img": "https://live.staticflickr.com/65535/50040064107_191af60e5e_o.jpg",
    "id_image": "Nebula_500525",
    "count_view": 0
  },
  {
    "link_thumb": "https://live.staticflickr.com/65535/50039376218_db17358580_n.jpg",
    "id_album": "395161030",
    "description": "Planet_287061",
    "title": "Planet_287061",
    "link_img": "https://live.staticflickr.com/65535/50039376218_1ba7b6eb58_o.jpg",
    "id_image": "Planet_287061",
    "count_view": 0
  },
  {
    "link_thumb": "https://live.staticflickr.com/65535/50040440072_67d9071678_n.jpg",
    "id_album": "376235057",
    "description": "Planetscape_523425",
    "title": "Planetscape_523425",
    "link_img": "https://live.staticflickr.com/65535/50040440072_180bb8d892_o.jpg",
    "id_image": "Planetscape_523425",
    "count_view": 0
  },
  {
    "link_thumb": "https://live.staticflickr.com/65535/50039065538_a8df441383_n.jpg",
    "id_album": "2104507156",
    "description": "Fantasy_154132",
    "title": "Fantasy_154132",
    "link_img": "https://live.staticflickr.com/65535/50039065538_db5ae279de_o.jpg",
    "id_image": "Fantasy_154132",
    "count_view": 0
  },
  {
    "link_thumb": "https://live.staticflickr.com/65535/50040211182_af69918bc0_n.jpg",
    "id_album": "395161030",
    "description": "Planet_394375",
    "title": "Planet_394375",
    "link_img": "https://live.staticflickr.com/65535/50040211182_5f21907844_o.jpg",
    "id_image": "Planet_394375",
    "count_view": 0
  },
  {
    "link_thumb": "https://live.staticflickr.com/65535/50040474096_5d880af27a_n.jpg",
    "id_album": "1613540653",
    "description": "Space_180281",
    "title": "Space_180281",
    "link_img": "https://live.staticflickr.com/65535/50040474096_441681528a_o.jpg",
    "id_image": "Space_180281",
    "count_view": 0
  },
  {
    "link_thumb": "https://live.staticflickr.com/65535/50041393292_b14fc76116_n.jpg",
    "id_album": "-1863373220",
    "description": "StarWars_214974",
    "title": "StarWars_214974",
    "link_img": "https://live.staticflickr.com/65535/50041393292_3229508a2a_o.jpg",
    "id_image": "StarWars_214974",
    "count_view": 0
  },
  {
    "link_thumb": "https://live.staticflickr.com/65535/50041160981_8a6231ef3e_n.jpg",
    "id_album": "-1863373220",
    "description": "StarWars_296342",
    "title": "StarWars_296342",
    "link_img": "https://live.staticflickr.com/65535/50041160981_657db3e705_o.jpg",
    "id_image": "StarWars_296342",
    "count_view": 0
  },
  {
    "link_thumb": "https://live.staticflickr.com/65535/50039664087_fccca7b6aa_n.jpg",
    "id_album": "1187037014",
    "description": "Battle_331559",
    "title": "Battle_331559",
    "link_img": "https://live.staticflickr.com/65535/50039664087_278e638917_o.jpg",
    "id_image": "Battle_331559",
    "count_view": 0
  },
  {
    "link_thumb": "https://live.staticflickr.com/65535/50040529452_50a97dfede_n.jpg",
    "id_album": "779690680",
    "description": "Robot_209290",
    "title": "Robot_209290",
    "link_img": "https://live.staticflickr.com/65535/50040529452_6723508c2e_o.jpg",
    "id_image": "Robot_209290",
    "count_view": 0
  },
  {
    "link_thumb": "https://live.staticflickr.com/65535/50041043907_1bd1854ca2_n.jpg",
    "id_album": "2130067313",
    "description": "Spaceship_976123",
    "title": "Spaceship_976123",
    "link_img": "https://live.staticflickr.com/65535/50041043907_e61bcaf93b_o.jpg",
    "id_image": "Spaceship_976123",
    "count_view": 0
  },
  {
    "link_thumb": "https://live.staticflickr.com/65535/50039312196_3dfb1382bc_n.jpg",
    "id_album": "523598895",
    "description": "Artistic_206027",
    "title": "Artistic_206027",
    "link_img": "https://live.staticflickr.com/65535/50039312196_3fa1df6574_o.jpg",
    "id_image": "Artistic_206027",
    "count_view": 0
  },
  {
    "link_thumb": "https://live.staticflickr.com/65535/50039973972_d4b00b275f_n.jpg",
    "id_album": "1402713104",
    "description": "Landscape_851427",
    "title": "Landscape_851427",
    "link_img": "https://live.staticflickr.com/65535/50039973972_d76a8a250b_o.jpg",
    "id_image": "Landscape_851427",
    "count_view": 0
  },
  {
    "link_thumb": "https://live.staticflickr.com/65535/50040568672_0fe9b57ab5_n.jpg",
    "id_album": "779690680",
    "description": "Robot_407249",
    "title": "Robot_407249",
    "link_img": "https://live.staticflickr.com/65535/50040568672_c9b9ac0a36_o.jpg",
    "id_image": "Robot_407249",
    "count_view": 0
  },
  {
    "link_thumb": "https://live.staticflickr.com/65535/50041452556_0eabdcfc9f_n.jpg",
    "id_album": "-1261420436",
    "description": "Warrior_368566",
    "title": "Warrior_368566",
    "link_img": "https://live.staticflickr.com/65535/50041452556_3b82d9c60d_o.jpg",
    "id_image": "Warrior_368566",
    "count_view": 0
  },
  {
    "link_thumb": "https://live.staticflickr.com/65535/50040226628_ba1b951dac_n.jpg",
    "id_album": "2130067313",
    "description": "Spaceship_975881",
    "title": "Spaceship_975881",
    "link_img": "https://live.staticflickr.com/65535/50040226628_3d6d7658c4_o.jpg",
    "id_image": "Spaceship_975881",
    "count_view": 0
  },
  {
    "link_thumb": "https://live.staticflickr.com/65535/50041845847_0ef8cd8134_n.jpg",
    "id_album": "-1675918237",
    "description": "WomenWarrior_603751",
    "title": "WomenWarrior_603751",
    "link_img": "https://live.staticflickr.com/65535/50041845847_461beb6118_o.jpg",
    "id_image": "WomenWarrior_603751",
    "count_view": 0
  },
  {
    "link_thumb": "https://live.staticflickr.com/65535/50041283401_4a87f0645a_n.jpg",
    "id_album": "-1587696329",
    "description": "Stars_846724",
    "title": "Stars_846724",
    "link_img": "https://live.staticflickr.com/65535/50041283401_4fe8faeca7_o.jpg",
    "id_image": "Stars_846724",
    "count_view": 0
  },
  {
    "link_thumb": "https://live.staticflickr.com/65535/50039087083_5911ec77a5_n.jpg",
    "id_album": "1204249541",
    "description": "Galaxy_450494",
    "title": "Galaxy_450494",
    "link_img": "https://live.staticflickr.com/65535/50039087083_b25c7d31f3_o.jpg",
    "id_image": "Galaxy_450494",
    "count_view": 0
  },
  {
    "link_thumb": "https://live.staticflickr.com/65535/50039790232_6d6812ae80_n.jpg",
    "id_album": "-1964113117",
    "description": "City_962967",
    "title": "City_962967",
    "link_img": "https://live.staticflickr.com/65535/50039790232_2bac71de3a_o.jpg",
    "id_image": "City_962967",
    "count_view": 0
  },
  {
    "link_thumb": "https://live.staticflickr.com/65535/50038744443_9e0d1e166b_n.jpg",
    "id_album": "523598895",
    "description": "Artistic_105989",
    "title": "Artistic_105989",
    "link_img": "https://live.staticflickr.com/65535/50038744443_0fc2962983_o.jpg",
    "id_image": "Artistic_105989",
    "count_view": 0
  },
  {
    "link_thumb": "https://live.staticflickr.com/65535/50039633796_af539bcf27_n.jpg",
    "id_album": "1204249541",
    "description": "Galaxy_427241",
    "title": "Galaxy_427241",
    "link_img": "https://live.staticflickr.com/65535/50039633796_8ace2040d6_o.jpg",
    "id_image": "Galaxy_427241",
    "count_view": 0
  },
  {
    "link_thumb": "https://live.staticflickr.com/65535/50039502982_89e07033b2_n.jpg",
    "id_album": "-406145265",
    "description": "Aircraft_530108",
    "title": "Aircraft_530108",
    "link_img": "https://live.staticflickr.com/65535/50039502982_65bc5347df_o.jpg",
    "id_image": "Aircraft_530108",
    "count_view": 0
  },
  {
    "link_thumb": "https://live.staticflickr.com/65535/50041736532_84994a9c39_n.jpg",
    "id_album": "-1261420436",
    "description": "Warrior_564436",
    "title": "Warrior_564436",
    "link_img": "https://live.staticflickr.com/65535/50041736532_e323729e2d_o.jpg",
    "id_image": "Warrior_564436",
    "count_view": 0
  },
  {
    "link_thumb": "https://live.staticflickr.com/65535/50039099828_a6346993b3_n.jpg",
    "id_album": "1204249541",
    "description": "Galaxy_606891",
    "title": "Galaxy_606891",
    "link_img": "https://live.staticflickr.com/65535/50039099828_96d566a2a1_o.jpg",
    "id_image": "Galaxy_606891",
    "count_view": 0
  },
  {
    "link_thumb": "https://live.staticflickr.com/65535/50041696522_089250b610_n.jpg",
    "id_album": "-1261420436",
    "description": "Warrior_180916",
    "title": "Warrior_180916",
    "link_img": "https://live.staticflickr.com/65535/50041696522_4770a0d48a_o.jpg",
    "id_image": "Warrior_180916",
    "count_view": 0
  },
  {
    "link_thumb": "https://live.staticflickr.com/65535/50038954068_2979fa50f3_n.jpg",
    "id_album": "-1964113117",
    "description": "City_856984",
    "title": "City_856984",
    "link_img": "https://live.staticflickr.com/65535/50038954068_b0a1e5b485_o.jpg",
    "id_image": "City_856984",
    "count_view": 0
  },
  {
    "link_thumb": "https://live.staticflickr.com/65535/50038731393_b04646cea1_n.jpg",
    "id_album": "-419633230",
    "description": "Apocalyptic_158914",
    "title": "Apocalyptic_158914",
    "link_img": "https://live.staticflickr.com/65535/50038731393_67ea498edd_o.jpg",
    "id_image": "Apocalyptic_158914",
    "count_view": 0
  },
  {
    "link_thumb": "https://live.staticflickr.com/65535/50038849333_5e166103ba_n.jpg",
    "id_album": "1187037014",
    "description": "Battle_244159",
    "title": "Battle_244159",
    "link_img": "https://live.staticflickr.com/65535/50038849333_483d61b029_o.jpg",
    "id_image": "Battle_244159",
    "count_view": 0
  },
  {
    "link_thumb": "https://live.staticflickr.com/65535/50039313813_265741ff50_n.jpg",
    "id_album": "-1862561193",
    "description": "Other_188911",
    "title": "Other_188911",
    "link_img": "https://live.staticflickr.com/65535/50039313813_3fa28acdb6_o.jpg",
    "id_image": "Other_188911",
    "count_view": 0
  },
  {
    "link_thumb": "https://live.staticflickr.com/65535/50038737858_83b840eaa3_n.jpg",
    "id_album": "-419633230",
    "description": "Apocalyptic_678079",
    "title": "Apocalyptic_678079",
    "link_img": "https://live.staticflickr.com/65535/50038737858_bb8cf87595_o.jpg",
    "id_image": "Apocalyptic_678079",
    "count_view": 0
  },
  {
    "link_thumb": "https://live.staticflickr.com/65535/50039926461_6d74aedb01_n.jpg",
    "id_album": "395161030",
    "description": "Planet_324580",
    "title": "Planet_324580",
    "link_img": "https://live.staticflickr.com/65535/50039926461_8e9be5c159_o.jpg",
    "id_image": "Planet_324580",
    "count_view": 0
  },
  {
    "link_thumb": "https://live.staticflickr.com/65535/50040376821_fb63d45c2d_n.jpg",
    "id_album": "779690680",
    "description": "Robot_859573",
    "title": "Robot_859573",
    "link_img": "https://live.staticflickr.com/65535/50040376821_d348da2a7d_o.jpg",
    "id_image": "Robot_859573",
    "count_view": 0
  },
  {
    "link_thumb": "https://live.staticflickr.com/65535/50039891611_2f071760e6_n.jpg",
    "id_album": "-1862561193",
    "description": "Other_44098",
    "title": "Other_44098",
    "link_img": "https://live.staticflickr.com/65535/50039891611_574a9e4b11_o.jpg",
    "id_image": "Other_44098",
    "count_view": 0
  },
  {
    "link_thumb": "https://live.staticflickr.com/65535/50039897118_fba5303639_n.jpg",
    "id_album": "779690680",
    "description": "Robot_978187",
    "title": "Robot_978187",
    "link_img": "https://live.staticflickr.com/65535/50039897118_6f4b0b6f11_o.jpg",
    "id_image": "Robot_978187",
    "count_view": 0
  },
  {
    "link_thumb": "https://live.staticflickr.com/65535/50039372513_eceb413f27_n.jpg",
    "id_album": "395161030",
    "description": "Planet_280056",
    "title": "Planet_280056",
    "link_img": "https://live.staticflickr.com/65535/50039372513_e24e48fe45_o.jpg",
    "id_image": "Planet_280056",
    "count_view": 0
  },
  {
    "link_thumb": "https://live.staticflickr.com/65535/50040176552_8e5e3005e9_n.jpg",
    "id_album": "395161030",
    "description": "Planet_182327",
    "title": "Planet_182327",
    "link_img": "https://live.staticflickr.com/65535/50040176552_98875384ba_o.jpg",
    "id_image": "Planet_182327",
    "count_view": 0
  },
  {
    "link_thumb": "https://live.staticflickr.com/65535/50040505482_4a1466bac0_n.jpg",
    "id_album": "-839602625",
    "description": "Predator_340249",
    "title": "Predator_340249",
    "link_img": "https://live.staticflickr.com/65535/50040505482_1225656af3_o.jpg",
    "id_image": "Predator_340249",
    "count_view": 0
  },
  {
    "link_thumb": "https://live.staticflickr.com/65535/50038687753_5773180ccc_n.jpg",
    "id_album": "-406145265",
    "description": "Aircraft_267630",
    "title": "Aircraft_267630",
    "link_img": "https://live.staticflickr.com/65535/50038687753_24c1d75268_o.jpg",
    "id_image": "Aircraft_267630",
    "count_view": 0
  },
  {
    "link_thumb": "https://live.staticflickr.com/65535/50039864612_b7d52e0150_n.jpg",
    "id_album": "829169633",
    "description": "Cyborg_801520",
    "title": "Cyborg_801520",
    "link_img": "https://live.staticflickr.com/65535/50039864612_4f4befc70d_o.jpg",
    "id_image": "Cyborg_801520",
    "count_view": 0
  },
  {
    "link_thumb": "https://live.staticflickr.com/65535/50039721711_d47b2d461c_n.jpg",
    "id_album": "1402713104",
    "description": "Landscape_912378",
    "title": "Landscape_912378",
    "link_img": "https://live.staticflickr.com/65535/50039721711_7a33306519_o.jpg",
    "id_image": "Landscape_912378",
    "count_view": 0
  },
  {
    "link_thumb": "https://live.staticflickr.com/65535/50040941408_3a1fb390d4_n.jpg",
    "id_album": "-1261420436",
    "description": "Warrior_948468",
    "title": "Warrior_948468",
    "link_img": "https://live.staticflickr.com/65535/50040941408_e1cb239e63_o.jpg",
    "id_image": "Warrior_948468",
    "count_view": 0
  },
  {
    "link_thumb": "https://live.staticflickr.com/65535/50041180431_3b77b6f923_n.jpg",
    "id_album": "-1863373220",
    "description": "StarWars_438738",
    "title": "StarWars_438738",
    "link_img": "https://live.staticflickr.com/65535/50041180431_0aa98fa141_o.jpg",
    "id_image": "StarWars_438738",
    "count_view": 0
  },
  {
    "link_thumb": "https://live.staticflickr.com/65535/50040998868_c8f81440c6_n.jpg",
    "id_album": "-1126835654",
    "description": "Women_967449",
    "title": "Women_967449",
    "link_img": "https://live.staticflickr.com/65535/50040998868_1282e76f56_o.jpg",
    "id_image": "Women_967449",
    "count_view": 0
  },
  {
    "link_thumb": "https://live.staticflickr.com/65535/50039665102_54501794ec_n.jpg",
    "id_album": "1187037014",
    "description": "Battle_503665",
    "title": "Battle_503665",
    "link_img": "https://live.staticflickr.com/65535/50039665102_251a060ccc_o.jpg",
    "id_image": "Battle_503665",
    "count_view": 0
  },
  {
    "link_thumb": "https://live.staticflickr.com/65535/50040716312_32d4464f15_n.jpg",
    "id_album": "779690680",
    "description": "Robot_972822",
    "title": "Robot_972822",
    "link_img": "https://live.staticflickr.com/65535/50040716312_81a46941d8_o.jpg",
    "id_image": "Robot_972822",
    "count_view": 0
  },
  {
    "link_thumb": "https://live.staticflickr.com/65535/50038903188_ef38781ea4_n.jpg",
    "id_album": "-1964113117",
    "description": "City_235574",
    "title": "City_235574",
    "link_img": "https://live.staticflickr.com/65535/50038903188_2831e8b808_o.jpg",
    "id_image": "City_235574",
    "count_view": 0
  }
]