[
  {
    "total_img": 0,
    "number_page": 0,
    "title": "Aircraft",
    "tag": "Aircraft,",
    "description": "Aircraft",
    "link_thumb": "https://live.staticflickr.com/65535/50039495872_204e1043d7_n.jpg",
    "id_album": "-406145265",
    "total_view": 48
  }
]