[
  {
    "link_thumb": "https://live.staticflickr.com/65535/50041845232_308b21955b_n.jpg",
    "id_album": "-1675918237",
    "description": "WomenWarrior_602057",
    "title": "WomenWarrior_602057",
    "link_img": "https://live.staticflickr.com/65535/50041845232_e6c4b3c81d_o.jpg",
    "id_image": "WomenWarrior_602057",
    "count_view": 0
  },
  {
    "link_thumb": "https://live.staticflickr.com/65535/50039078458_f1508e0074_n.jpg",
    "id_album": "1204249541",
    "description": "Galaxy_240106",
    "title": "Galaxy_240106",
    "link_img": "https://live.staticflickr.com/65535/50039078458_122fd01f7f_o.jpg",
    "id_image": "Galaxy_240106",
    "count_view": 0
  },
  {
    "link_thumb": "https://live.staticflickr.com/65535/50039393443_5dfebb16e3_n.jpg",
    "id_album": "395161030",
    "description": "Planet_377335",
    "title": "Planet_377335",
    "link_img": "https://live.staticflickr.com/65535/50039393443_dd8a247fd7_o.jpg",
    "id_image": "Planet_377335",
    "count_view": 0
  },
  {
    "link_thumb": "https://live.staticflickr.com/65535/50041486361_0f5c32f121_n.jpg",
    "id_album": "-1261420436",
    "description": "Warrior_778589",
    "title": "Warrior_778589",
    "link_img": "https://live.staticflickr.com/65535/50041486361_04c0a9b187_o.jpg",
    "id_image": "Warrior_778589",
    "count_view": 0
  },
  {
    "link_thumb": "https://live.staticflickr.com/65535/50039372513_eceb413f27_n.jpg",
    "id_album": "395161030",
    "description": "Planet_280056",
    "title": "Planet_280056",
    "link_img": "https://live.staticflickr.com/65535/50039372513_e24e48fe45_o.jpg",
    "id_image": "Planet_280056",
    "count_view": 0
  },
  {
    "link_thumb": "https://live.staticflickr.com/65535/50040167177_91403bf913_n.jpg",
    "id_album": "395161030",
    "description": "Planet_103242",
    "title": "Planet_103242",
    "link_img": "https://live.staticflickr.com/65535/50040167177_95fbc2ff06_o.jpg",
    "id_image": "Planet_103242",
    "count_view": 0
  },
  {
    "link_thumb": "https://live.staticflickr.com/65535/50040210952_1e9639de29_n.jpg",
    "id_album": "395161030",
    "description": "Planet_393595",
    "title": "Planet_393595",
    "link_img": "https://live.staticflickr.com/65535/50040210952_ca0fb80e4c_o.jpg",
    "id_image": "Planet_393595",
    "count_view": 0
  },
  {
    "link_thumb": "https://live.staticflickr.com/65535/50039810387_e4dcb667c3_n.jpg",
    "id_album": "-437872736",
    "description": "Creature_289697",
    "title": "Creature_289697",
    "link_img": "https://live.staticflickr.com/65535/50039810387_c91247edb9_o.jpg",
    "id_image": "Creature_289697",
    "count_view": 0
  },
  {
    "link_thumb": "https://live.staticflickr.com/65535/50039339541_0c1c95d2c3_n.jpg",
    "id_album": "523598895",
    "description": "Artistic_568861",
    "title": "Artistic_568861",
    "link_img": "https://live.staticflickr.com/65535/50039339541_7a19f47172_o.jpg",
    "id_image": "Artistic_568861",
    "count_view": 0
  },
  {
    "link_thumb": "https://live.staticflickr.com/65535/50038884408_5d3d8e4f80_n.jpg",
    "id_album": "-1964113117",
    "description": "City_113812",
    "title": "City_113812",
    "link_img": "https://live.staticflickr.com/65535/50038884408_7bc8c8679a_o.jpg",
    "id_image": "City_113812",
    "count_view": 0
  },
  {
    "link_thumb": "https://live.staticflickr.com/65535/50040213412_3028329437_n.jpg",
    "id_album": "395161030",
    "description": "Planet_423493",
    "title": "Planet_423493",
    "link_img": "https://live.staticflickr.com/65535/50040213412_7b03128819_o.jpg",
    "id_image": "Planet_423493",
    "count_view": 0
  },
  {
    "link_thumb": "https://live.staticflickr.com/65535/50040912373_73670ffd7d_n.jpg",
    "id_album": "-1261420436",
    "description": "Warrior_514705",
    "title": "Warrior_514705",
    "link_img": "https://live.staticflickr.com/65535/50040912373_a92c420ab1_o.jpg",
    "id_image": "Warrior_514705",
    "count_view": 0
  },
  {
    "link_thumb": "https://live.staticflickr.com/65535/50041187841_7809ce5c9b_n.jpg",
    "id_album": "-1863373220",
    "description": "StarWars_497642",
    "title": "StarWars_497642",
    "link_img": "https://live.staticflickr.com/65535/50041187841_919bccf154_o.jpg",
    "id_image": "StarWars_497642",
    "count_view": 0
  },
  {
    "link_thumb": "https://live.staticflickr.com/65535/50038843763_4165e50028_n.jpg",
    "id_album": "869545341",
    "description": "Astronaut_992597",
    "title": "Astronaut_992597",
    "link_img": "https://live.staticflickr.com/65535/50038843763_45723f6874_o.jpg",
    "id_image": "Astronaut_992597",
    "count_view": 0
  },
  {
    "link_thumb": "https://live.staticflickr.com/65535/50039939046_99834d90b9_n.jpg",
    "id_album": "395161030",
    "description": "Planet_374641",
    "title": "Planet_374641",
    "link_img": "https://live.staticflickr.com/65535/50039939046_18e6a69cd3_o.jpg",
    "id_image": "Planet_374641",
    "count_view": 0
  },
  {
    "link_thumb": "https://live.staticflickr.com/65535/50040164797_c99fe2de83_n.jpg",
    "id_album": "395161030",
    "description": "Planet_1004883",
    "title": "Planet_1004883",
    "link_img": "https://live.staticflickr.com/65535/50040164797_eee4f66aa2_o.jpg",
    "id_image": "Planet_1004883",
    "count_view": 0
  },
  {
    "link_thumb": "https://live.staticflickr.com/65535/50040670432_0c49129124_n.jpg",
    "id_album": "779690680",
    "description": "Robot_909551",
    "title": "Robot_909551",
    "link_img": "https://live.staticflickr.com/65535/50040670432_194e593d58_o.jpg",
    "id_image": "Robot_909551",
    "count_view": 0
  },
  {
    "link_thumb": "https://live.staticflickr.com/65535/50040014667_efc2708031_n.jpg",
    "id_album": "-1388385651",
    "description": "MilkyWay_851521",
    "title": "MilkyWay_851521",
    "link_img": "https://live.staticflickr.com/65535/50040014667_8a4c283816_o.jpg",
    "id_image": "MilkyWay_851521",
    "count_view": 0
  },
  {
    "link_thumb": "https://live.staticflickr.com/65535/50040472522_bd75eccb72_n.jpg",
    "id_album": "-482547208",
    "description": "PostApocalyptic_349008",
    "title": "PostApocalyptic_349008",
    "link_img": "https://live.staticflickr.com/65535/50040472522_b3c71bfa9a_o.jpg",
    "id_image": "PostApocalyptic_349008",
    "count_view": 0
  },
  {
    "link_thumb": "https://live.staticflickr.com/65535/50039962887_c90c77e180_n.jpg",
    "id_album": "1402713104",
    "description": "Landscape_677212",
    "title": "Landscape_677212",
    "link_img": "https://live.staticflickr.com/65535/50039962887_a430e5c517_o.jpg",
    "id_image": "Landscape_677212",
    "count_view": 0
  },
  {
    "link_thumb": "https://live.staticflickr.com/65535/50039613442_4245b6949a_n.jpg",
    "id_album": "869545341",
    "description": "Astronaut_235060",
    "title": "Astronaut_235060",
    "link_img": "https://live.staticflickr.com/65535/50039613442_f4f9e9021e_o.jpg",
    "id_image": "Astronaut_235060",
    "count_view": 0
  },
  {
    "link_thumb": "https://live.staticflickr.com/65535/50040113941_de221f7dac_n.jpg",
    "id_album": "-1102314093",
    "description": "Planets_426463",
    "title": "Planets_426463",
    "link_img": "https://live.staticflickr.com/65535/50040113941_b4b40559b3_o.jpg",
    "id_image": "Planets_426463",
    "count_view": 0
  },
  {
    "link_thumb": "https://live.staticflickr.com/65535/50039804522_76ab741652_n.jpg",
    "id_album": "894679094",
    "description": "Collision_676847",
    "title": "Collision_676847",
    "link_img": "https://live.staticflickr.com/65535/50039804522_1558d88d17_o.jpg",
    "id_image": "Collision_676847",
    "count_view": 0
  },
  {
    "link_thumb": "https://live.staticflickr.com/65535/50040028526_0049aff02d_n.jpg",
    "id_album": "814701616",
    "description": "PlanetaryRing_345025",
    "title": "PlanetaryRing_345025",
    "link_img": "https://live.staticflickr.com/65535/50040028526_8136829259_o.jpg",
    "id_image": "PlanetaryRing_345025",
    "count_view": 0
  },
  {
    "link_thumb": "https://live.staticflickr.com/65535/50039772386_76823ea5f4_n.jpg",
    "id_album": "-1610342324",
    "description": "Nebula_220995",
    "title": "Nebula_220995",
    "link_img": "https://live.staticflickr.com/65535/50039772386_0181b673b4_o.jpg",
    "id_image": "Nebula_220995",
    "count_view": 0
  },
  {
    "link_thumb": "https://live.staticflickr.com/65535/50039468766_85e8f321b4_n.jpg",
    "id_album": "-1964113117",
    "description": "City_397137",
    "title": "City_397137",
    "link_img": "https://live.staticflickr.com/65535/50039468766_24422fdf45_o.jpg",
    "id_image": "City_397137",
    "count_view": 0
  },
  {
    "link_thumb": "https://live.staticflickr.com/65535/50039614657_35e030acf9_n.jpg",
    "id_album": "869545341",
    "description": "Astronaut_268425",
    "title": "Astronaut_268425",
    "link_img": "https://live.staticflickr.com/65535/50039614657_ea213d1714_o.jpg",
    "id_image": "Astronaut_268425",
    "count_view": 0
  },
  {
    "link_thumb": "https://live.staticflickr.com/65535/50039749617_b57e1ddccf_n.jpg",
    "id_album": "-1964113117",
    "description": "City_681245",
    "title": "City_681245",
    "link_img": "https://live.staticflickr.com/65535/50039749617_536c1cede9_o.jpg",
    "id_image": "City_681245",
    "count_view": 0
  },
  {
    "link_thumb": "https://live.staticflickr.com/65535/50039827363_34ae1256c8_n.jpg",
    "id_album": "779690680",
    "description": "Robot_870404",
    "title": "Robot_870404",
    "link_img": "https://live.staticflickr.com/65535/50039827363_d48e862911_o.jpg",
    "id_image": "Robot_870404",
    "count_view": 0
  },
  {
    "link_thumb": "https://live.staticflickr.com/65535/50040142417_007f5e830d_n.jpg",
    "id_album": "-1610342324",
    "description": "Nebula_500768",
    "title": "Nebula_500768",
    "link_img": "https://live.staticflickr.com/65535/50040142417_121004d94b_o.jpg",
    "id_image": "Nebula_500768",
    "count_view": 0
  },
  {
    "link_thumb": "https://live.staticflickr.com/65535/50041465211_c438715155_n.jpg",
    "id_album": "-1261420436",
    "description": "Warrior_500636",
    "title": "Warrior_500636",
    "link_img": "https://live.staticflickr.com/65535/50041465211_33c271bb29_o.jpg",
    "id_image": "Warrior_500636",
    "count_view": 0
  },
  {
    "link_thumb": "https://live.staticflickr.com/65535/50039114628_3a5f03e325_n.jpg",
    "id_album": "1402713104",
    "description": "Landscape_186055",
    "title": "Landscape_186055",
    "link_img": "https://live.staticflickr.com/65535/50039114628_5ae1ee65a5_o.jpg",
    "id_image": "Landscape_186055",
    "count_view": 0
  },
  {
    "link_thumb": "https://live.staticflickr.com/65535/50039371826_8b8a1a0d4a_n.jpg",
    "id_album": "869545341",
    "description": "Astronaut_857743",
    "title": "Astronaut_857743",
    "link_img": "https://live.staticflickr.com/65535/50039371826_6204000759_o.jpg",
    "id_image": "Astronaut_857743",
    "count_view": 0
  },
  {
    "link_thumb": "https://live.staticflickr.com/65535/50041642482_bee9538140_n.jpg",
    "id_album": "2020068132",
    "description": "Vehicle_259808",
    "title": "Vehicle_259808",
    "link_img": "https://live.staticflickr.com/65535/50041642482_5426af25d7_o.jpg",
    "id_image": "Vehicle_259808",
    "count_view": 0
  },
  {
    "link_thumb": "https://live.staticflickr.com/65535/50039832542_c3d4aef425_n.jpg",
    "id_album": "-1372247677",
    "description": "Cyberpunk_962035",
    "title": "Cyberpunk_962035",
    "link_img": "https://live.staticflickr.com/65535/50039832542_d372a00d36_o.jpg",
    "id_image": "Cyberpunk_962035",
    "count_view": 0
  },
  {
    "link_thumb": "https://live.staticflickr.com/65535/50038987188_2c644638be_n.jpg",
    "id_album": "894679094",
    "description": "Collision_106486",
    "title": "Collision_106486",
    "link_img": "https://live.staticflickr.com/65535/50038987188_12d6392860_o.jpg",
    "id_image": "Collision_106486",
    "count_view": 0
  },
  {
    "link_thumb": "https://live.staticflickr.com/65535/50039871793_9383403fc2_n.jpg",
    "id_album": "779690680",
    "description": "Robot_928643",
    "title": "Robot_928643",
    "link_img": "https://live.staticflickr.com/65535/50039871793_5c1c994fb0_o.jpg",
    "id_image": "Robot_928643",
    "count_view": 0
  },
  {
    "link_thumb": "https://live.staticflickr.com/65535/50039574312_ab925016de_n.jpg",
    "id_album": "523598895",
    "description": "Artistic_206213",
    "title": "Artistic_206213",
    "link_img": "https://live.staticflickr.com/65535/50039574312_b68c5c4c7f_o.jpg",
    "id_image": "Artistic_206213",
    "count_view": 0
  },
  {
    "link_thumb": "https://live.staticflickr.com/65535/50039682648_cc75c47ec5_n.jpg",
    "id_album": "-482547208",
    "description": "PostApocalyptic_965907",
    "title": "PostApocalyptic_965907",
    "link_img": "https://live.staticflickr.com/65535/50039682648_2cc5250955_o.jpg",
    "id_image": "PostApocalyptic_965907",
    "count_view": 0
  },
  {
    "link_thumb": "https://live.staticflickr.com/65535/50040243432_e16fd171ff_n.jpg",
    "id_album": "395161030",
    "description": "Planet_860675",
    "title": "Planet_860675",
    "link_img": "https://live.staticflickr.com/65535/50040243432_d0414c45df_o.jpg",
    "id_image": "Planet_860675",
    "count_view": 0
  },
  {
    "link_thumb": "https://live.staticflickr.com/65535/50039400403_cc7d3200e0_n.jpg",
    "id_album": "395161030",
    "description": "Planet_436170",
    "title": "Planet_436170",
    "link_img": "https://live.staticflickr.com/65535/50039400403_7663b0511a_o.jpg",
    "id_image": "Planet_436170",
    "count_view": 0
  },
  {
    "link_thumb": "https://live.staticflickr.com/65535/50040454421_08ac1e3313_n.jpg",
    "id_album": "779690680",
    "description": "Robot_990521",
    "title": "Robot_990521",
    "link_img": "https://live.staticflickr.com/65535/50040454421_6b137aa41e_o.jpg",
    "id_image": "Robot_990521",
    "count_view": 0
  },
  {
    "link_thumb": "https://live.staticflickr.com/65535/50040502167_9bbd67299c_n.jpg",
    "id_album": "-839602625",
    "description": "Predator_177845",
    "title": "Predator_177845",
    "link_img": "https://live.staticflickr.com/65535/50040502167_3b501d8a8a_o.jpg",
    "id_image": "Predator_177845",
    "count_view": 0
  },
  {
    "link_thumb": "https://live.staticflickr.com/65535/50039593737_dffe463bbf_n.jpg",
    "id_album": "523598895",
    "description": "Artistic_377581",
    "title": "Artistic_377581",
    "link_img": "https://live.staticflickr.com/65535/50039593737_ef29f4b582_o.jpg",
    "id_image": "Artistic_377581",
    "count_view": 0
  },
  {
    "link_thumb": "https://live.staticflickr.com/65535/50039261576_d59801d09d_n.jpg",
    "id_album": "849020728",
    "description": "Alien_368209",
    "title": "Alien_368209",
    "link_img": "https://live.staticflickr.com/65535/50039261576_4b631a8d44_o.jpg",
    "id_image": "Alien_368209",
    "count_view": 0
  },
  {
    "link_thumb": "https://live.staticflickr.com/65535/50039772273_41c9710e63_n.jpg",
    "id_album": "779690680",
    "description": "Robot_489388",
    "title": "Robot_489388",
    "link_img": "https://live.staticflickr.com/65535/50039772273_fe204afb37_o.jpg",
    "id_image": "Robot_489388",
    "count_view": 0
  },
  {
    "link_thumb": "https://live.staticflickr.com/65535/50039759782_85a85e8165_n.jpg",
    "id_album": "-1964113117",
    "description": "City_793615",
    "title": "City_793615",
    "link_img": "https://live.staticflickr.com/65535/50039759782_3b535ab60a_o.jpg",
    "id_image": "City_793615",
    "count_view": 0
  },
  {
    "link_thumb": "https://live.staticflickr.com/65535/50038878068_7974969e58_n.jpg",
    "id_album": "406431601",
    "description": "Building_920076",
    "title": "Building_920076",
    "link_img": "https://live.staticflickr.com/65535/50038878068_ea366edcbe_o.jpg",
    "id_image": "Building_920076",
    "count_view": 0
  },
  {
    "link_thumb": "https://live.staticflickr.com/65535/50041718477_98d2279614_n.jpg",
    "id_album": "-1261420436",
    "description": "Warrior_386973",
    "title": "Warrior_386973",
    "link_img": "https://live.staticflickr.com/65535/50041718477_9f3a1fc707_o.jpg",
    "id_image": "Warrior_386973",
    "count_view": 0
  },
  {
    "link_thumb": "https://live.staticflickr.com/65535/50039854168_b76ec4131e_n.jpg",
    "id_album": "779690680",
    "description": "Robot_910948",
    "title": "Robot_910948",
    "link_img": "https://live.staticflickr.com/65535/50039854168_67707b7d77_o.jpg",
    "id_image": "Robot_910948",
    "count_view": 0
  },
  {
    "link_thumb": "https://live.staticflickr.com/65535/50039300238_ff91168d13_n.jpg",
    "id_album": "-1610342324",
    "description": "Nebula_885416",
    "title": "Nebula_885416",
    "link_img": "https://live.staticflickr.com/65535/50039300238_f70fc865b1_o.jpg",
    "id_image": "Nebula_885416",
    "count_view": 0
  },
  {
    "link_thumb": "https://live.staticflickr.com/65535/50040934323_886c50baa6_n.jpg",
    "id_album": "-1261420436",
    "description": "Warrior_814542",
    "title": "Warrior_814542",
    "link_img": "https://live.staticflickr.com/65535/50040934323_7a5f3cb4c3_o.jpg",
    "id_image": "Warrior_814542",
    "count_view": 0
  },
  {
    "link_thumb": "https://live.staticflickr.com/65535/50041118426_915e9c0b22_n.jpg",
    "id_album": "-1863373220",
    "description": "StarWars_107771",
    "title": "StarWars_107771",
    "link_img": "https://live.staticflickr.com/65535/50041118426_4a01191b05_o.jpg",
    "id_image": "StarWars_107771",
    "count_view": 0
  },
  {
    "link_thumb": "https://live.staticflickr.com/65535/50039217468_86f8c91f7e_n.jpg",
    "id_album": "-1610342324",
    "description": "Nebula_196124",
    "title": "Nebula_196124",
    "link_img": "https://live.staticflickr.com/65535/50039217468_cf31812484_o.jpg",
    "id_image": "Nebula_196124",
    "count_view": 0
  },
  {
    "link_thumb": "https://live.staticflickr.com/65535/50039898673_e43a73f358_n.jpg",
    "id_album": "779690680",
    "description": "Robot_989272",
    "title": "Robot_989272",
    "link_img": "https://live.staticflickr.com/65535/50039898673_e862e3fd45_o.jpg",
    "id_image": "Robot_989272",
    "count_view": 0
  },
  {
    "link_thumb": "https://live.staticflickr.com/65535/50039931432_944165b709_n.jpg",
    "id_album": "1402713104",
    "description": "Landscape_262822",
    "title": "Landscape_262822",
    "link_img": "https://live.staticflickr.com/65535/50039931432_e8764087ab_o.jpg",
    "id_image": "Landscape_262822",
    "count_view": 0
  },
  {
    "link_thumb": "https://live.staticflickr.com/65535/50039523867_3114af10c1_n.jpg",
    "id_album": "849020728",
    "description": "Alien_390592",
    "title": "Alien_390592",
    "link_img": "https://live.staticflickr.com/65535/50039523867_f83353aba9_o.jpg",
    "id_image": "Alien_390592",
    "count_view": 0
  },
  {
    "link_thumb": "https://live.staticflickr.com/65535/50041638192_65b7f5f552_n.jpg",
    "id_album": "2020068132",
    "description": "Vehicle_192943",
    "title": "Vehicle_192943",
    "link_img": "https://live.staticflickr.com/65535/50041638192_680655783d_o.jpg",
    "id_image": "Vehicle_192943",
    "count_view": 0
  },
  {
    "link_thumb": "https://live.staticflickr.com/65535/50039226843_605227df54_n.jpg",
    "id_album": "-1610342324",
    "description": "Nebula_252021",
    "title": "Nebula_252021",
    "link_img": "https://live.staticflickr.com/65535/50039226843_5d94ed6919_o.jpg",
    "id_image": "Nebula_252021",
    "count_view": 0
  },
  {
    "link_thumb": "https://live.staticflickr.com/65535/50038697088_ca2e1faf7e_n.jpg",
    "id_album": "849020728",
    "description": "Alien_112136",
    "title": "Alien_112136",
    "link_img": "https://live.staticflickr.com/65535/50038697088_8c706f416a_o.jpg",
    "id_image": "Alien_112136",
    "count_view": 0
  },
  {
    "link_thumb": "https://live.staticflickr.com/65535/50040567862_788db4a0a3_n.jpg",
    "id_album": "779690680",
    "description": "Robot_404833",
    "title": "Robot_404833",
    "link_img": "https://live.staticflickr.com/65535/50040567862_cd0de7e33b_o.jpg",
    "id_image": "Robot_404833",
    "count_view": 0
  },
  {
    "link_thumb": "https://live.staticflickr.com/65535/50038898673_b165cf8c4d_n.jpg",
    "id_album": "-1964113117",
    "description": "City_214563",
    "title": "City_214563",
    "link_img": "https://live.staticflickr.com/65535/50038898673_62ef458200_o.jpg",
    "id_image": "City_214563",
    "count_view": 0
  },
  {
    "link_thumb": "https://live.staticflickr.com/65535/50039960666_6581f6cfd1_n.jpg",
    "id_album": "395161030",
    "description": "Planet_558943",
    "title": "Planet_558943",
    "link_img": "https://live.staticflickr.com/65535/50039960666_ccf50aca2e_o.jpg",
    "id_image": "Planet_558943",
    "count_view": 0
  },
  {
    "link_thumb": "https://live.staticflickr.com/65535/50039582956_7a73624ffa_n.jpg",
    "id_album": "829169633",
    "description": "Cyborg_249599",
    "title": "Cyborg_249599",
    "link_img": "https://live.staticflickr.com/65535/50039582956_7857a52a2e_o.jpg",
    "id_image": "Cyborg_249599",
    "count_view": 0
  },
  {
    "link_thumb": "https://live.staticflickr.com/65535/50039230073_a777031e74_n.jpg",
    "id_album": "-1610342324",
    "description": "Nebula_266463",
    "title": "Nebula_266463",
    "link_img": "https://live.staticflickr.com/65535/50039230073_46916cbffb_o.jpg",
    "id_image": "Nebula_266463",
    "count_view": 0
  },
  {
    "link_thumb": "https://live.staticflickr.com/65535/50040214586_39dc75b89b_n.jpg",
    "id_album": "-482547208",
    "description": "PostApocalyptic_568744",
    "title": "PostApocalyptic_568744",
    "link_img": "https://live.staticflickr.com/65535/50040214586_e0507098de_o.jpg",
    "id_image": "PostApocalyptic_568744",
    "count_view": 0
  },
  {
    "link_thumb": "https://live.staticflickr.com/65535/50040753187_906bb131bf_n.jpg",
    "id_album": "1613540653",
    "description": "Space_287067",
    "title": "Space_287067",
    "link_img": "https://live.staticflickr.com/65535/50040753187_7ebbd6e1b3_o.jpg",
    "id_image": "Space_287067",
    "count_view": 0
  },
  {
    "link_thumb": "https://live.staticflickr.com/65535/50039680917_acbe8ff7ec_n.jpg",
    "id_album": "-1780971522",
    "description": "Biohazard_57385",
    "title": "Biohazard_57385",
    "link_img": "https://live.staticflickr.com/65535/50039680917_286a5ae8fe_o.jpg",
    "id_image": "Biohazard_57385",
    "count_view": 0
  },
  {
    "link_thumb": "https://live.staticflickr.com/65535/50040244521_9b9bbf6fb6_n.jpg",
    "id_album": "-839602625",
    "description": "Predator_492471",
    "title": "Predator_492471",
    "link_img": "https://live.staticflickr.com/65535/50040244521_04c8e14e2f_o.jpg",
    "id_image": "Predator_492471",
    "count_view": 0
  },
  {
    "link_thumb": "https://live.staticflickr.com/65535/50041540381_4b262c2e1d_n.jpg",
    "id_album": "-1126835654",
    "description": "Women_601185",
    "title": "Women_601185",
    "link_img": "https://live.staticflickr.com/65535/50041540381_bce6efedd6_o.jpg",
    "id_image": "Women_601185",
    "count_view": 0
  },
  {
    "link_thumb": "https://live.staticflickr.com/65535/50041469441_d2bdd42cc6_n.jpg",
    "id_album": "-1261420436",
    "description": "Warrior_551686",
    "title": "Warrior_551686",
    "link_img": "https://live.staticflickr.com/65535/50041469441_f8cece0a9d_o.jpg",
    "id_image": "Warrior_551686",
    "count_view": 0
  },
  {
    "link_thumb": "https://live.staticflickr.com/65535/50039299641_a11c6b6e40_n.jpg",
    "id_album": "523598895",
    "description": "Artistic_162949",
    "title": "Artistic_162949",
    "link_img": "https://live.staticflickr.com/65535/50039299641_265e6ce5b5_o.jpg",
    "id_image": "Artistic_162949",
    "count_view": 0
  },
  {
    "link_thumb": "https://live.staticflickr.com/65535/50038809133_4a12181fd9_n.jpg",
    "id_album": "869545341",
    "description": "Astronaut_556060",
    "title": "Astronaut_556060",
    "link_img": "https://live.staticflickr.com/65535/50038809133_d49d9a4e81_o.jpg",
    "id_image": "Astronaut_556060",
    "count_view": 0
  },
  {
    "link_thumb": "https://live.staticflickr.com/65535/50039315051_c3cd0e9cfd_n.jpg",
    "id_album": "523598895",
    "description": "Artistic_212423",
    "title": "Artistic_212423",
    "link_img": "https://live.staticflickr.com/65535/50039315051_417128a360_o.jpg",
    "id_image": "Artistic_212423",
    "count_view": 0
  },
  {
    "link_thumb": "https://live.staticflickr.com/65535/50039524761_1144662c94_n.jpg",
    "id_album": "-1964113117",
    "description": "City_942082",
    "title": "City_942082",
    "link_img": "https://live.staticflickr.com/65535/50039524761_5660ed6f56_o.jpg",
    "id_image": "City_942082",
    "count_view": 0
  },
  {
    "link_thumb": "https://live.staticflickr.com/65535/50040737727_f5106613db_n.jpg",
    "id_album": "1613540653",
    "description": "Space_177928",
    "title": "Space_177928",
    "link_img": "https://live.staticflickr.com/65535/50040737727_a97ebdaeb1_o.jpg",
    "id_image": "Space_177928",
    "count_view": 0
  },
  {
    "link_thumb": "https://live.staticflickr.com/65535/50040415156_7cfd2254fb_n.jpg",
    "id_album": "779690680",
    "description": "Robot_917208",
    "title": "Robot_917208",
    "link_img": "https://live.staticflickr.com/65535/50040415156_c50e4ed898_o.jpg",
    "id_image": "Robot_917208",
    "count_view": 0
  },
  {
    "link_thumb": "https://live.staticflickr.com/65535/50039888432_40fa59a579_n.jpg",
    "id_album": "1204249541",
    "description": "Galaxy_193792",
    "title": "Galaxy_193792",
    "link_img": "https://live.staticflickr.com/65535/50039888432_74e9649120_o.jpg",
    "id_image": "Galaxy_193792",
    "count_view": 0
  },
  {
    "link_thumb": "https://live.staticflickr.com/65535/50039659866_0c7057fd38_n.jpg",
    "id_album": "1402713104",
    "description": "Landscape_119739",
    "title": "Landscape_119739",
    "link_img": "https://live.staticflickr.com/65535/50039659866_1048fc0503_o.jpg",
    "id_image": "Landscape_119739",
    "count_view": 0
  },
  {
    "link_thumb": "https://live.staticflickr.com/65535/50039658363_f8ec6339e9_n.jpg",
    "id_album": "-482547208",
    "description": "PostApocalyptic_424402",
    "title": "PostApocalyptic_424402",
    "link_img": "https://live.staticflickr.com/65535/50039658363_4e368b56f6_o.jpg",
    "id_image": "PostApocalyptic_424402",
    "count_view": 0
  },
  {
    "link_thumb": "https://live.staticflickr.com/65535/50039918263_8b74ba6504_n.jpg",
    "id_album": "1613540653",
    "description": "Space_177927",
    "title": "Space_177927",
    "link_img": "https://live.staticflickr.com/65535/50039918263_be3e2f2fb0_o.jpg",
    "id_image": "Space_177927",
    "count_view": 0
  },
  {
    "link_thumb": "https://live.staticflickr.com/65535/50039788098_de2d12a5fa_n.jpg",
    "id_album": "779690680",
    "description": "Robot_599641",
    "title": "Robot_599641",
    "link_img": "https://live.staticflickr.com/65535/50039788098_d71abd6084_o.jpg",
    "id_image": "Robot_599641",
    "count_view": 0
  },
  {
    "link_thumb": "https://live.staticflickr.com/65535/50039798427_f136207562_n.jpg",
    "id_album": "894679094",
    "description": "Collision_192887",
    "title": "Collision_192887",
    "link_img": "https://live.staticflickr.com/65535/50039798427_c5ac94d265_o.jpg",
    "id_image": "Collision_192887",
    "count_view": 0
  },
  {
    "link_thumb": "https://live.staticflickr.com/65535/50039631352_1d4c9d5f5d_n.jpg",
    "id_album": "869545341",
    "description": "Astronaut_829869",
    "title": "Astronaut_829869",
    "link_img": "https://live.staticflickr.com/65535/50039631352_103c7bff77_o.jpg",
    "id_image": "Astronaut_829869",
    "count_view": 0
  },
  {
    "link_thumb": "https://live.staticflickr.com/65535/50040390431_032ef1442b_n.jpg",
    "id_album": "779690680",
    "description": "Robot_881753",
    "title": "Robot_881753",
    "link_img": "https://live.staticflickr.com/65535/50040390431_fcc4befd2e_o.jpg",
    "id_image": "Robot_881753",
    "count_view": 0
  },
  {
    "link_thumb": "https://live.staticflickr.com/65535/50040089972_493bf6190b_n.jpg",
    "id_album": "-1610342324",
    "description": "Nebula_726872",
    "title": "Nebula_726872",
    "link_img": "https://live.staticflickr.com/65535/50040089972_3e56455a2f_o.jpg",
    "id_image": "Nebula_726872",
    "count_view": 0
  },
  {
    "link_thumb": "https://live.staticflickr.com/65535/50038859993_0174e75caf_n.jpg",
    "id_album": "1187037014",
    "description": "Battle_917199",
    "title": "Battle_917199",
    "link_img": "https://live.staticflickr.com/65535/50038859993_9fb3e25c33_o.jpg",
    "id_image": "Battle_917199",
    "count_view": 0
  },
  {
    "link_thumb": "https://live.staticflickr.com/65535/50040530942_b184a2180f_n.jpg",
    "id_album": "779690680",
    "description": "Robot_220391",
    "title": "Robot_220391",
    "link_img": "https://live.staticflickr.com/65535/50040530942_8de1667d3d_o.jpg",
    "id_image": "Robot_220391",
    "count_view": 0
  },
  {
    "link_thumb": "https://live.staticflickr.com/65535/50039892393_1d6b366433_n.jpg",
    "id_album": "779690680",
    "description": "Robot_959169",
    "title": "Robot_959169",
    "link_img": "https://live.staticflickr.com/65535/50039892393_69cd244856_o.jpg",
    "id_image": "Robot_959169",
    "count_view": 0
  },
  {
    "link_thumb": "https://live.staticflickr.com/65535/50039464858_a130db80d5_n.jpg",
    "id_album": "1443611160",
    "description": "PlanetRise_82372",
    "title": "PlanetRise_82372",
    "link_img": "https://live.staticflickr.com/65535/50039464858_c141e44dca_o.jpg",
    "id_image": "PlanetRise_82372",
    "count_view": 0
  },
  {
    "link_thumb": "https://live.staticflickr.com/65535/50040200352_9209c10269_n.jpg",
    "id_album": "395161030",
    "description": "Planet_357811",
    "title": "Planet_357811",
    "link_img": "https://live.staticflickr.com/65535/50040200352_72dd4582d3_o.jpg",
    "id_image": "Planet_357811",
    "count_view": 0
  },
  {
    "link_thumb": "https://live.staticflickr.com/65535/50038850393_e2736f1a6b_n.jpg",
    "id_album": "1187037014",
    "description": "Battle_265237",
    "title": "Battle_265237",
    "link_img": "https://live.staticflickr.com/65535/50038850393_b760154662_o.jpg",
    "id_image": "Battle_265237",
    "count_view": 0
  },
  {
    "link_thumb": "https://live.staticflickr.com/65535/50039389223_a8b9b5bd2f_n.jpg",
    "id_album": "395161030",
    "description": "Planet_370819",
    "title": "Planet_370819",
    "link_img": "https://live.staticflickr.com/65535/50039389223_af2d83ac5b_o.jpg",
    "id_image": "Planet_370819",
    "count_view": 0
  },
  {
    "link_thumb": "https://live.staticflickr.com/65535/50038679778_a54e0b8386_n.jpg",
    "id_album": "280884763",
    "description": "Abstract_129854",
    "title": "Abstract_129854",
    "link_img": "https://live.staticflickr.com/65535/50038679778_05b9b30949_o.jpg",
    "id_image": "Abstract_129854",
    "count_view": 0
  },
  {
    "link_thumb": "https://live.staticflickr.com/65535/50038984288_08d32ff75c_n.jpg",
    "id_album": "-1964113117",
    "description": "City_988763",
    "title": "City_988763",
    "link_img": "https://live.staticflickr.com/65535/50038984288_0ab8eb6b0e_o.jpg",
    "id_image": "City_988763",
    "count_view": 0
  },
  {
    "link_thumb": "https://live.staticflickr.com/65535/50040258808_bfd440e3fe_n.jpg",
    "id_album": "-1449720967",
    "description": "StarTrek_258592",
    "title": "StarTrek_258592",
    "link_img": "https://live.staticflickr.com/65535/50040258808_27e0db1efd_o.jpg",
    "id_image": "StarTrek_258592",
    "count_view": 0
  },
  {
    "link_thumb": "https://live.staticflickr.com/65535/50041689247_bd3208ae0d_n.jpg",
    "id_album": "2020068132",
    "description": "Vehicle_967968",
    "title": "Vehicle_967968",
    "link_img": "https://live.staticflickr.com/65535/50041689247_daf8ce2e92_o.jpg",
    "id_image": "Vehicle_967968",
    "count_view": 0
  },
  {
    "link_thumb": "https://live.staticflickr.com/65535/50041353587_ef39fbae3f_n.jpg",
    "id_album": "-1863373220",
    "description": "StarWars_107504",
    "title": "StarWars_107504",
    "link_img": "https://live.staticflickr.com/65535/50041353587_f1cc577a44_o.jpg",
    "id_image": "StarWars_107504",
    "count_view": 0
  },
  {
    "link_thumb": "https://live.staticflickr.com/65535/50039778366_9c23e6b538_n.jpg",
    "id_album": "-1610342324",
    "description": "Nebula_262540",
    "title": "Nebula_262540",
    "link_img": "https://live.staticflickr.com/65535/50039778366_70b5c3d822_o.jpg",
    "id_image": "Nebula_262540",
    "count_view": 0
  },
  {
    "link_thumb": "https://live.staticflickr.com/65535/50039851063_f2791e39f5_n.jpg",
    "id_album": "779690680",
    "description": "Robot_907938",
    "title": "Robot_907938",
    "link_img": "https://live.staticflickr.com/65535/50039851063_3a8c6c59ff_o.jpg",
    "id_image": "Robot_907938",
    "count_view": 0
  },
  {
    "link_thumb": "https://live.staticflickr.com/65535/50039532931_52c99c26e8_n.jpg",
    "id_album": "-1964113117",
    "description": "City_990157",
    "title": "City_990157",
    "link_img": "https://live.staticflickr.com/65535/50039532931_24ae8fb7bd_o.jpg",
    "id_image": "City_990157",
    "count_view": 0
  },
  {
    "link_thumb": "https://live.staticflickr.com/65535/50039747787_afa6d75362_n.jpg",
    "id_album": "-1964113117",
    "description": "City_671372",
    "title": "City_671372",
    "link_img": "https://live.staticflickr.com/65535/50039747787_410e44d7d9_o.jpg",
    "id_image": "City_671372",
    "count_view": 0
  },
  {
    "link_thumb": "https://live.staticflickr.com/65535/50040992073_36376b5f22_n.jpg",
    "id_album": "-1126835654",
    "description": "Women_725428",
    "title": "Women_725428",
    "link_img": "https://live.staticflickr.com/65535/50040992073_b70a0841e4_o.jpg",
    "id_image": "Women_725428",
    "count_view": 0
  },
  {
    "link_thumb": "https://live.staticflickr.com/65535/50039755923_36c5f3e412_n.jpg",
    "id_album": "779690680",
    "description": "Robot_445890",
    "title": "Robot_445890",
    "link_img": "https://live.staticflickr.com/65535/50039755923_af9be5aea0_o.jpg",
    "id_image": "Robot_445890",
    "count_view": 0
  },
  {
    "link_thumb": "https://live.staticflickr.com/65535/50040087647_a8efe44b4a_n.jpg",
    "id_album": "-1610342324",
    "description": "Nebula_703542",
    "title": "Nebula_703542",
    "link_img": "https://live.staticflickr.com/65535/50040087647_b775c88f05_o.jpg",
    "id_image": "Nebula_703542",
    "count_view": 0
  },
  {
    "link_thumb": "https://live.staticflickr.com/65535/50040063777_8d7771d39d_n.jpg",
    "id_album": "-1610342324",
    "description": "Nebula_468742",
    "title": "Nebula_468742",
    "link_img": "https://live.staticflickr.com/65535/50040063777_d840eb72ba_o.jpg",
    "id_image": "Nebula_468742",
    "count_view": 0
  },
  {
    "link_thumb": "https://live.staticflickr.com/65535/50040024591_b2d1b16ed4_n.jpg",
    "id_album": "814701616",
    "description": "PlanetaryRing_286989",
    "title": "PlanetaryRing_286989",
    "link_img": "https://live.staticflickr.com/65535/50040024591_b8ea25b8ca_o.jpg",
    "id_image": "PlanetaryRing_286989",
    "count_view": 0
  },
  {
    "link_thumb": "https://live.staticflickr.com/65535/50040015856_1ba6a8b3bf_n.jpg",
    "id_album": "1443611160",
    "description": "PlanetRise_83101",
    "title": "PlanetRise_83101",
    "link_img": "https://live.staticflickr.com/65535/50040015856_9fc8be33d8_o.jpg",
    "id_image": "PlanetRise_83101",
    "count_view": 0
  },
  {
    "link_thumb": "https://live.staticflickr.com/65535/50038730893_f627ac0246_n.jpg",
    "id_album": "-419633230",
    "description": "Apocalyptic_116807",
    "title": "Apocalyptic_116807",
    "link_img": "https://live.staticflickr.com/65535/50038730893_68d7d64db4_o.jpg",
    "id_image": "Apocalyptic_116807",
    "count_view": 0
  },
  {
    "link_thumb": "https://live.staticflickr.com/65535/50041008188_ab34ee4e23_n.jpg",
    "id_album": "-1675918237",
    "description": "WomenWarrior_243739",
    "title": "WomenWarrior_243739",
    "link_img": "https://live.staticflickr.com/65535/50041008188_4928a1188a_o.jpg",
    "id_image": "WomenWarrior_243739",
    "count_view": 0
  },
  {
    "link_thumb": "https://live.staticflickr.com/65535/50039899107_2a471c957d_n.jpg",
    "id_album": "1204249541",
    "description": "Galaxy_453073",
    "title": "Galaxy_453073",
    "link_img": "https://live.staticflickr.com/65535/50039899107_eb8cde141e_o.jpg",
    "id_image": "Galaxy_453073",
    "count_view": 0
  },
  {
    "link_thumb": "https://live.staticflickr.com/65535/50039914722_19d5088bd7_n.jpg",
    "id_album": "1204249541",
    "description": "Galaxy_691001",
    "title": "Galaxy_691001",
    "link_img": "https://live.staticflickr.com/65535/50039914722_a5e4f0cafd_o.jpg",
    "id_image": "Galaxy_691001",
    "count_view": 0
  },
  {
    "link_thumb": "https://live.staticflickr.com/65535/50040864628_84d8ec7429_n.jpg",
    "id_album": "2020068132",
    "description": "Vehicle_896230",
    "title": "Vehicle_896230",
    "link_img": "https://live.staticflickr.com/65535/50040864628_c39788b060_o.jpg",
    "id_image": "Vehicle_896230",
    "count_view": 0
  },
  {
    "link_thumb": "https://live.staticflickr.com/65535/50040446742_4e7b59a017_n.jpg",
    "id_album": "376235057",
    "description": "Planetscape_805173",
    "title": "Planetscape_805173",
    "link_img": "https://live.staticflickr.com/65535/50040446742_4df8e14153_o.jpg",
    "id_image": "Planetscape_805173",
    "count_view": 0
  },
  {
    "link_thumb": "https://live.staticflickr.com/65535/50040760477_4178f05227_n.jpg",
    "id_album": "1613540653",
    "description": "Space_330721",
    "title": "Space_330721",
    "link_img": "https://live.staticflickr.com/65535/50040760477_9062783c13_o.jpg",
    "id_image": "Space_330721",
    "count_view": 0
  },
  {
    "link_thumb": "https://live.staticflickr.com/65535/50040865568_4e1a0c5439_n.jpg",
    "id_album": "2020068132",
    "description": "Vehicle_905102",
    "title": "Vehicle_905102",
    "link_img": "https://live.staticflickr.com/65535/50040865568_33c46fca3f_o.jpg",
    "id_image": "Vehicle_905102",
    "count_view": 0
  },
  {
    "link_thumb": "https://live.staticflickr.com/65535/50039102983_3cd1ecc87f_n.jpg",
    "id_album": "1204249541",
    "description": "Galaxy_744904",
    "title": "Galaxy_744904",
    "link_img": "https://live.staticflickr.com/65535/50039102983_6868b5ce55_o.jpg",
    "id_image": "Galaxy_744904",
    "count_view": 0
  },
  {
    "link_thumb": "https://live.staticflickr.com/65535/50038996988_484ef61182_n.jpg",
    "id_album": "894679094",
    "description": "Collision_957519",
    "title": "Collision_957519",
    "link_img": "https://live.staticflickr.com/65535/50038996988_a31e848068_o.jpg",
    "id_image": "Collision_957519",
    "count_view": 0
  },
  {
    "link_thumb": "https://live.staticflickr.com/65535/50039409866_0ba63fa543_n.jpg",
    "id_album": "1187037014",
    "description": "Battle_957848",
    "title": "Battle_957848",
    "link_img": "https://live.staticflickr.com/65535/50039409866_0f027709e9_o.jpg",
    "id_image": "Battle_957848",
    "count_view": 0
  },
  {
    "link_thumb": "https://live.staticflickr.com/65535/50040068752_b699793469_n.jpg",
    "id_album": "-1610342324",
    "description": "Nebula_533828",
    "title": "Nebula_533828",
    "link_img": "https://live.staticflickr.com/65535/50040068752_711f3c64e3_o.jpg",
    "id_image": "Nebula_533828",
    "count_view": 0
  },
  {
    "link_thumb": "https://live.staticflickr.com/65535/50040023862_8a0dde825f_n.jpg",
    "id_album": "-1610342324",
    "description": "Nebula_1009890",
    "title": "Nebula_1009890",
    "link_img": "https://live.staticflickr.com/65535/50040023862_70e21ca365_o.jpg",
    "id_image": "Nebula_1009890",
    "count_view": 0
  },
  {
    "link_thumb": "https://live.staticflickr.com/65535/50040433231_5bc9d860b0_n.jpg",
    "id_album": "779690680",
    "description": "Robot_936228",
    "title": "Robot_936228",
    "link_img": "https://live.staticflickr.com/65535/50040433231_d2b0590345_o.jpg",
    "id_image": "Robot_936228",
    "count_view": 0
  },
  {
    "link_thumb": "https://live.staticflickr.com/65535/50039149078_b243bd44c0_n.jpg",
    "id_album": "1402713104",
    "description": "Landscape_662810",
    "title": "Landscape_662810",
    "link_img": "https://live.staticflickr.com/65535/50039149078_ef53853f86_o.jpg",
    "id_image": "Landscape_662810",
    "count_view": 0
  },
  {
    "link_thumb": "https://live.staticflickr.com/65535/50039497722_9176eda5f2_n.jpg",
    "id_album": "-406145265",
    "description": "Aircraft_268465",
    "title": "Aircraft_268465",
    "link_img": "https://live.staticflickr.com/65535/50039497722_577b3c5bef_o.jpg",
    "id_image": "Aircraft_268465",
    "count_view": 0
  },
  {
    "link_thumb": "https://live.staticflickr.com/65535/50039067238_908e76b0c0_n.jpg",
    "id_album": "2104507156",
    "description": "Fantasy_169050",
    "title": "Fantasy_169050",
    "link_img": "https://live.staticflickr.com/65535/50039067238_cac9fa0e25_o.jpg",
    "id_image": "Fantasy_169050",
    "count_view": 0
  },
  {
    "link_thumb": "https://live.staticflickr.com/65535/50041079292_293171cafe_n.jpg",
    "id_album": "-1449720967",
    "description": "StarTrek_275065",
    "title": "StarTrek_275065",
    "link_img": "https://live.staticflickr.com/65535/50041079292_c873d1a19a_o.jpg",
    "id_image": "StarTrek_275065",
    "count_view": 0
  },
  {
    "link_thumb": "https://live.staticflickr.com/65535/50040277987_7580a49da4_n.jpg",
    "id_album": "1443611160",
    "description": "PlanetRise_785848",
    "title": "PlanetRise_785848",
    "link_img": "https://live.staticflickr.com/65535/50040277987_a91df36e70_o.jpg",
    "id_image": "PlanetRise_785848",
    "count_view": 0
  },
  {
    "link_thumb": "https://live.staticflickr.com/65535/50038745618_2ca7baf052_n.jpg",
    "id_album": "523598895",
    "description": "Artistic_112792",
    "title": "Artistic_112792",
    "link_img": "https://live.staticflickr.com/65535/50038745618_a88bd00852_o.jpg",
    "id_image": "Artistic_112792",
    "count_view": 0
  },
  {
    "link_thumb": "https://live.staticflickr.com/65535/50040105516_1fb5a107ff_n.jpg",
    "id_album": "-1102314093",
    "description": "Planets_393901",
    "title": "Planets_393901",
    "link_img": "https://live.staticflickr.com/65535/50040105516_193a6732ee_o.jpg",
    "id_image": "Planets_393901",
    "count_view": 0
  },
  {
    "link_thumb": "https://live.staticflickr.com/65535/50039973972_d4b00b275f_n.jpg",
    "id_album": "1402713104",
    "description": "Landscape_851427",
    "title": "Landscape_851427",
    "link_img": "https://live.staticflickr.com/65535/50039973972_d76a8a250b_o.jpg",
    "id_image": "Landscape_851427",
    "count_view": 0
  },
  {
    "link_thumb": "https://live.staticflickr.com/65535/50039524302_866881c836_n.jpg",
    "id_album": "849020728",
    "description": "Alien_393636",
    "title": "Alien_393636",
    "link_img": "https://live.staticflickr.com/65535/50039524302_e94c17fd43_o.jpg",
    "id_image": "Alien_393636",
    "count_view": 0
  },
  {
    "link_thumb": "https://live.staticflickr.com/65535/50039747136_ece0d8ae17_n.jpg",
    "id_album": "-1388385651",
    "description": "MilkyWay_788472",
    "title": "MilkyWay_788472",
    "link_img": "https://live.staticflickr.com/65535/50039747136_dcf88bd79f_o.jpg",
    "id_image": "MilkyWay_788472",
    "count_view": 0
  },
  {
    "link_thumb": "https://live.staticflickr.com/65535/50039753392_cfa22c99d5_n.jpg",
    "id_album": "-1964113117",
    "description": "City_711140",
    "title": "City_711140",
    "link_img": "https://live.staticflickr.com/65535/50039753392_ac64f0a9dd_o.jpg",
    "id_image": "City_711140",
    "count_view": 0
  },
  {
    "link_thumb": "https://live.staticflickr.com/65535/50040260837_b8f8f574e4_n.jpg",
    "id_album": "1443611160",
    "description": "PlanetRise_19473",
    "title": "PlanetRise_19473",
    "link_img": "https://live.staticflickr.com/65535/50040260837_70a392ed04_o.jpg",
    "id_image": "PlanetRise_19473",
    "count_view": 0
  },
  {
    "link_thumb": "https://live.staticflickr.com/65535/50039347916_c0bb4fbf1a_n.jpg",
    "id_album": "869545341",
    "description": "Astronaut_1000996",
    "title": "Astronaut_1000996",
    "link_img": "https://live.staticflickr.com/65535/50039347916_466b1ce84e_o.jpg",
    "id_image": "Astronaut_1000996",
    "count_view": 0
  },
  {
    "link_thumb": "https://live.staticflickr.com/65535/50039085923_402d253c42_n.jpg",
    "id_album": "1204249541",
    "description": "Galaxy_441060",
    "title": "Galaxy_441060",
    "link_img": "https://live.staticflickr.com/65535/50039085923_efe8180b57_o.jpg",
    "id_image": "Galaxy_441060",
    "count_view": 0
  },
  {
    "link_thumb": "https://live.staticflickr.com/65535/50038931293_2874897db5_n.jpg",
    "id_album": "-1964113117",
    "description": "City_576566",
    "title": "City_576566",
    "link_img": "https://live.staticflickr.com/65535/50038931293_135ec1cd00_o.jpg",
    "id_image": "City_576566",
    "count_view": 0
  },
  {
    "link_thumb": "https://live.staticflickr.com/65535/50039304711_09da404022_n.jpg",
    "id_album": "523598895",
    "description": "Artistic_176743",
    "title": "Artistic_176743",
    "link_img": "https://live.staticflickr.com/65535/50039304711_b18678149d_o.jpg",
    "id_image": "Artistic_176743",
    "count_view": 0
  },
  {
    "link_thumb": "https://live.staticflickr.com/65535/50041309596_66a96cd6fe_n.jpg",
    "id_album": "1267121215",
    "description": "Steampunk_264630",
    "title": "Steampunk_264630",
    "link_img": "https://live.staticflickr.com/65535/50041309596_45d8f88427_o.jpg",
    "id_image": "Steampunk_264630",
    "count_view": 0
  },
  {
    "link_thumb": "https://live.staticflickr.com/65535/50040298001_7cf81c54e2_n.jpg",
    "id_album": "779690680",
    "description": "Robot_375790",
    "title": "Robot_375790",
    "link_img": "https://live.staticflickr.com/65535/50040298001_6f69a2eb31_o.jpg",
    "id_image": "Robot_375790",
    "count_view": 0
  },
  {
    "link_thumb": "https://live.staticflickr.com/65535/50040657162_3800ae30c4_n.jpg",
    "id_album": "779690680",
    "description": "Robot_884809",
    "title": "Robot_884809",
    "link_img": "https://live.staticflickr.com/65535/50040657162_79cb073feb_o.jpg",
    "id_image": "Robot_884809",
    "count_view": 0
  },
  {
    "link_thumb": "https://live.staticflickr.com/65535/50039083443_4e9b7eb726_n.jpg",
    "id_album": "1204249541",
    "description": "Galaxy_413533",
    "title": "Galaxy_413533",
    "link_img": "https://live.staticflickr.com/65535/50039083443_362b799d68_o.jpg",
    "id_image": "Galaxy_413533",
    "count_view": 0
  },
  {
    "link_thumb": "https://live.staticflickr.com/65535/50040417956_e992bce8a8_n.jpg",
    "id_album": "779690680",
    "description": "Robot_921713",
    "title": "Robot_921713",
    "link_img": "https://live.staticflickr.com/65535/50040417956_7cdcc76808_o.jpg",
    "id_image": "Robot_921713",
    "count_view": 0
  },
  {
    "link_thumb": "https://live.staticflickr.com/65535/50041843017_89dbc1c09d_n.jpg",
    "id_album": "-1675918237",
    "description": "WomenWarrior_584726",
    "title": "WomenWarrior_584726",
    "link_img": "https://live.staticflickr.com/65535/50041843017_d9fdbe7036_o.jpg",
    "id_image": "WomenWarrior_584726",
    "count_view": 0
  },
  {
    "link_thumb": "https://live.staticflickr.com/65535/50039680732_a17da47924_n.jpg",
    "id_album": "-1780971522",
    "description": "Biohazard_573095",
    "title": "Biohazard_573095",
    "link_img": "https://live.staticflickr.com/65535/50039680732_193364d024_o.jpg",
    "id_image": "Biohazard_573095",
    "count_view": 0
  },
  {
    "link_thumb": "https://live.staticflickr.com/65535/50039498482_e033259357_n.jpg",
    "id_album": "-406145265",
    "description": "Aircraft_269915",
    "title": "Aircraft_269915",
    "link_img": "https://live.staticflickr.com/65535/50039498482_7695ea4691_o.jpg",
    "id_image": "Aircraft_269915",
    "count_view": 0
  },
  {
    "link_thumb": "https://live.staticflickr.com/65535/50039230623_6bd6db2b48_n.jpg",
    "id_album": "-1610342324",
    "description": "Nebula_271792",
    "title": "Nebula_271792",
    "link_img": "https://live.staticflickr.com/65535/50039230623_451ffda269_o.jpg",
    "id_image": "Nebula_271792",
    "count_view": 0
  },
  {
    "link_thumb": "https://live.staticflickr.com/65535/50040810976_88bacb8e2e_n.jpg",
    "id_album": "-1449720967",
    "description": "StarTrek_244068",
    "title": "StarTrek_244068",
    "link_img": "https://live.staticflickr.com/65535/50040810976_8128660180_o.jpg",
    "id_image": "StarTrek_244068",
    "count_view": 0
  },
  {
    "link_thumb": "https://live.staticflickr.com/65535/50039378196_444bedd78d_n.jpg",
    "id_album": "869545341",
    "description": "Astronaut_923959",
    "title": "Astronaut_923959",
    "link_img": "https://live.staticflickr.com/65535/50039378196_27247c1baa_o.jpg",
    "id_image": "Astronaut_923959",
    "count_view": 0
  },
  {
    "link_thumb": "https://live.staticflickr.com/65535/50039243956_3a0cb4613d_n.jpg",
    "id_album": "849020728",
    "description": "Alien_108415",
    "title": "Alien_108415",
    "link_img": "https://live.staticflickr.com/65535/50039243956_27320d18bb_o.jpg",
    "id_image": "Alien_108415",
    "count_view": 0
  },
  {
    "link_thumb": "https://live.staticflickr.com/65535/50039230713_d59fcb614b_n.jpg",
    "id_album": "-1610342324",
    "description": "Nebula_274697",
    "title": "Nebula_274697",
    "link_img": "https://live.staticflickr.com/65535/50039230713_7653146d9a_o.jpg",
    "id_image": "Nebula_274697",
    "count_view": 0
  },
  {
    "link_thumb": "https://live.staticflickr.com/65535/50038840983_36dd88061e_n.jpg",
    "id_album": "869545341",
    "description": "Astronaut_979106",
    "title": "Astronaut_979106",
    "link_img": "https://live.staticflickr.com/65535/50038840983_5ff9f98903_o.jpg",
    "id_image": "Astronaut_979106",
    "count_view": 0
  },
  {
    "link_thumb": "https://live.staticflickr.com/65535/50039640126_124536ea39_n.jpg",
    "id_album": "1204249541",
    "description": "Galaxy_540814",
    "title": "Galaxy_540814",
    "link_img": "https://live.staticflickr.com/65535/50039640126_67d6b7f344_o.jpg",
    "id_image": "Galaxy_540814",
    "count_view": 0
  },
  {
    "link_thumb": "https://live.staticflickr.com/65535/50041035703_fa80d66784_n.jpg",
    "id_album": "-1675918237",
    "description": "WomenWarrior_882597",
    "title": "WomenWarrior_882597",
    "link_img": "https://live.staticflickr.com/65535/50041035703_5d286c510d_o.jpg",
    "id_image": "WomenWarrior_882597",
    "count_view": 0
  },
  {
    "link_thumb": "https://live.staticflickr.com/65535/50040597361_204ae7faab_n.jpg",
    "id_album": "2130067313",
    "description": "Spaceship_204513",
    "title": "Spaceship_204513",
    "link_img": "https://live.staticflickr.com/65535/50040597361_14dc183c05_o.jpg",
    "id_image": "Spaceship_204513",
    "count_view": 0
  },
  {
    "link_thumb": "https://live.staticflickr.com/65535/50040677492_44ee7341fa_n.jpg",
    "id_album": "779690680",
    "description": "Robot_915576",
    "title": "Robot_915576",
    "link_img": "https://live.staticflickr.com/65535/50040677492_c129791c11_o.jpg",
    "id_image": "Robot_915576",
    "count_view": 0
  },
  {
    "link_thumb": "https://live.staticflickr.com/65535/50041576337_1c5d301d98_n.jpg",
    "id_album": "1267121215",
    "description": "Steampunk_330248",
    "title": "Steampunk_330248",
    "link_img": "https://live.staticflickr.com/65535/50041576337_641fec7818_o.jpg",
    "id_image": "Steampunk_330248",
    "count_view": 0
  },
  {
    "link_thumb": "https://live.staticflickr.com/65535/50041040197_8c235f9455_n.jpg",
    "id_album": "2130067313",
    "description": "Spaceship_972167",
    "title": "Spaceship_972167",
    "link_img": "https://live.staticflickr.com/65535/50041040197_0e87f2bd5e_o.jpg",
    "id_image": "Spaceship_972167",
    "count_view": 0
  },
  {
    "link_thumb": "https://live.staticflickr.com/65535/50039937221_877ca507ca_n.jpg",
    "id_album": "395161030",
    "description": "Planet_370784",
    "title": "Planet_370784",
    "link_img": "https://live.staticflickr.com/65535/50039937221_985b407c5f_o.jpg",
    "id_image": "Planet_370784",
    "count_view": 0
  },
  {
    "link_thumb": "https://live.staticflickr.com/65535/50039571732_408714c10d_n.jpg",
    "id_album": "523598895",
    "description": "Artistic_193454",
    "title": "Artistic_193454",
    "link_img": "https://live.staticflickr.com/65535/50039571732_c8201a9404_o.jpg",
    "id_image": "Artistic_193454",
    "count_view": 0
  },
  {
    "link_thumb": "https://live.staticflickr.com/65535/50039559651_8694a307e2_n.jpg",
    "id_album": "-437872736",
    "description": "Creature_911871",
    "title": "Creature_911871",
    "link_img": "https://live.staticflickr.com/65535/50039559651_5116c383ed_o.jpg",
    "id_image": "Creature_911871",
    "count_view": 0
  },
  {
    "link_thumb": "https://live.staticflickr.com/65535/50039738322_bddb3b5f15_n.jpg",
    "id_album": "-1964113117",
    "description": "City_528294",
    "title": "City_528294",
    "link_img": "https://live.staticflickr.com/65535/50039738322_67e536853b_o.jpg",
    "id_image": "City_528294",
    "count_view": 0
  },
  {
    "link_thumb": "https://live.staticflickr.com/65535/50040833178_f241410f19_n.jpg",
    "id_album": "2020068132",
    "description": "Vehicle_318713",
    "title": "Vehicle_318713",
    "link_img": "https://live.staticflickr.com/65535/50040833178_27e40cca3e_o.jpg",
    "id_image": "Vehicle_318713",
    "count_view": 0
  },
  {
    "link_thumb": "https://live.staticflickr.com/65535/50039522738_f970330f92_n.jpg",
    "id_album": "-1102314093",
    "description": "Planets_280203",
    "title": "Planets_280203",
    "link_img": "https://live.staticflickr.com/65535/50039522738_0730d3563d_o.jpg",
    "id_image": "Planets_280203",
    "count_view": 0
  },
  {
    "link_thumb": "https://live.staticflickr.com/65535/50038996693_2132cb67a1_n.jpg",
    "id_album": "894679094",
    "description": "Collision_956722",
    "title": "Collision_956722",
    "link_img": "https://live.staticflickr.com/65535/50038996693_bc0e78b175_o.jpg",
    "id_image": "Collision_956722",
    "count_view": 0
  },
  {
    "link_thumb": "https://live.staticflickr.com/65535/50038856898_2c28f06a47_n.jpg",
    "id_album": "1187037014",
    "description": "Battle_629982",
    "title": "Battle_629982",
    "link_img": "https://live.staticflickr.com/65535/50038856898_dc51ff5c23_o.jpg",
    "id_image": "Battle_629982",
    "count_view": 0
  },
  {
    "link_thumb": "https://live.staticflickr.com/65535/50039773871_01c646869e_n.jpg",
    "id_album": "-1610342324",
    "description": "Nebula_229485",
    "title": "Nebula_229485",
    "link_img": "https://live.staticflickr.com/65535/50039773871_3dc3c81495_o.jpg",
    "id_image": "Nebula_229485",
    "count_view": 0
  },
  {
    "link_thumb": "https://live.staticflickr.com/65535/50039871573_2eb8e0f53e_n.jpg",
    "id_album": "779690680",
    "description": "Robot_928640",
    "title": "Robot_928640",
    "link_img": "https://live.staticflickr.com/65535/50039871573_0d3b7599e7_o.jpg",
    "id_image": "Robot_928640",
    "count_view": 0
  },
  {
    "link_thumb": "https://live.staticflickr.com/65535/50039328951_a6f01f1616_n.jpg",
    "id_album": "523598895",
    "description": "Artistic_317312",
    "title": "Artistic_317312",
    "link_img": "https://live.staticflickr.com/65535/50039328951_8b75a191ea_o.jpg",
    "id_image": "Artistic_317312",
    "count_view": 0
  },
  {
    "link_thumb": "https://live.staticflickr.com/65535/50039733826_81fbcd1bdd_n.jpg",
    "id_album": "-1388385651",
    "description": "MilkyWay_555695",
    "title": "MilkyWay_555695",
    "link_img": "https://live.staticflickr.com/65535/50039733826_baec4d78ac_o.jpg",
    "id_image": "MilkyWay_555695",
    "count_view": 0
  },
  {
    "link_thumb": "https://live.staticflickr.com/65535/50039548948_43d1f1b0d7_n.jpg",
    "id_album": "-1102314093",
    "description": "Planets_363081",
    "title": "Planets_363081",
    "link_img": "https://live.staticflickr.com/65535/50039548948_db7a32716e_o.jpg",
    "id_image": "Planets_363081",
    "count_view": 0
  },
  {
    "link_thumb": "https://live.staticflickr.com/65535/50039900597_77ef833d80_n.jpg",
    "id_album": "1204249541",
    "description": "Galaxy_485802",
    "title": "Galaxy_485802",
    "link_img": "https://live.staticflickr.com/65535/50039900597_68bb6aa4cd_o.jpg",
    "id_image": "Galaxy_485802",
    "count_view": 0
  },
  {
    "link_thumb": "https://live.staticflickr.com/65535/50039543896_6d0e2144d0_n.jpg",
    "id_album": "894679094",
    "description": "Collision_864727",
    "title": "Collision_864727",
    "link_img": "https://live.staticflickr.com/65535/50039543896_f3063d1953_o.jpg",
    "id_image": "Collision_864727",
    "count_view": 0
  },
  {
    "link_thumb": "https://live.staticflickr.com/65535/50039655241_c17cab32a1_n.jpg",
    "id_album": "1204249541",
    "description": "Galaxy_89391",
    "title": "Galaxy_89391",
    "link_img": "https://live.staticflickr.com/65535/50039655241_61b06a657b_o.jpg",
    "id_image": "Galaxy_89391",
    "count_view": 0
  },
  {
    "link_thumb": "https://live.staticflickr.com/65535/50039516991_0f5df00873_n.jpg",
    "id_album": "-1964113117",
    "description": "City_905169",
    "title": "City_905169",
    "link_img": "https://live.staticflickr.com/65535/50039516991_0b78d59abd_o.jpg",
    "id_image": "City_905169",
    "count_view": 0
  },
  {
    "link_thumb": "https://live.staticflickr.com/65535/50041358676_d86a31f644_n.jpg",
    "id_album": "-1177476763",
    "description": "Sunrise_216121",
    "title": "Sunrise_216121",
    "link_img": "https://live.staticflickr.com/65535/50041358676_9207fc8b76_o.jpg",
    "id_image": "Sunrise_216121",
    "count_view": 0
  },
  {
    "link_thumb": "https://live.staticflickr.com/65535/50039794921_e1cf4b8d38_n.jpg",
    "id_album": "-1610342324",
    "description": "Nebula_422149",
    "title": "Nebula_422149",
    "link_img": "https://live.staticflickr.com/65535/50039794921_14429d19e1_o.jpg",
    "id_image": "Nebula_422149",
    "count_view": 0
  },
  {
    "link_thumb": "https://live.staticflickr.com/65535/50039776831_172eb78c7d_n.jpg",
    "id_album": "-1610342324",
    "description": "Nebula_2526",
    "title": "Nebula_2526",
    "link_img": "https://live.staticflickr.com/65535/50039776831_b6e89b926d_o.jpg",
    "id_image": "Nebula_2526",
    "count_view": 0
  },
  {
    "link_thumb": "https://live.staticflickr.com/65535/50038860613_de03b53aa4_n.jpg",
    "id_album": "1187037014",
    "description": "Battle_941456",
    "title": "Battle_941456",
    "link_img": "https://live.staticflickr.com/65535/50038860613_16b0b70de0_o.jpg",
    "id_image": "Battle_941456",
    "count_view": 0
  },
  {
    "link_thumb": "https://live.staticflickr.com/65535/50039797981_cfd80e02d4_n.jpg",
    "id_album": "-1610342324",
    "description": "Nebula_441275",
    "title": "Nebula_441275",
    "link_img": "https://live.staticflickr.com/65535/50039797981_84ea951e26_o.jpg",
    "id_image": "Nebula_441275",
    "count_view": 0
  },
  {
    "link_thumb": "https://live.staticflickr.com/65535/50039925201_601517c1f1_n.jpg",
    "id_album": "395161030",
    "description": "Planet_29231",
    "title": "Planet_29231",
    "link_img": "https://live.staticflickr.com/65535/50039925201_2ef109abe6_o.jpg",
    "id_image": "Planet_29231",
    "count_view": 0
  },
  {
    "link_thumb": "https://live.staticflickr.com/65535/50039998477_47669b48b8_n.jpg",
    "id_album": "-1388385651",
    "description": "MilkyWay_592442",
    "title": "MilkyWay_592442",
    "link_img": "https://live.staticflickr.com/65535/50039998477_63bf4e9102_o.jpg",
    "id_image": "MilkyWay_592442",
    "count_view": 0
  },
  {
    "link_thumb": "https://live.staticflickr.com/65535/50038681068_4227c26570_n.jpg",
    "id_album": "280884763",
    "description": "Abstract_229063",
    "title": "Abstract_229063",
    "link_img": "https://live.staticflickr.com/65535/50038681068_4141d04e60_o.jpg",
    "id_image": "Abstract_229063",
    "count_view": 0
  },
  {
    "link_thumb": "https://live.staticflickr.com/65535/50040801177_9a479cc642_n.jpg",
    "id_album": "1613540653",
    "description": "Space_748350",
    "title": "Space_748350",
    "link_img": "https://live.staticflickr.com/65535/50040801177_cf00ba5ec8_o.jpg",
    "id_image": "Space_748350",
    "count_view": 0
  },
  {
    "link_thumb": "https://live.staticflickr.com/65535/50039372913_d5ae4fa902_n.jpg",
    "id_album": "395161030",
    "description": "Planet_286757",
    "title": "Planet_286757",
    "link_img": "https://live.staticflickr.com/65535/50039372913_81e525ec23_o.jpg",
    "id_image": "Planet_286757",
    "count_view": 0
  },
  {
    "link_thumb": "https://live.staticflickr.com/65535/50039281251_2715e69def_n.jpg",
    "id_album": "-419633230",
    "description": "Apocalyptic_283702",
    "title": "Apocalyptic_283702",
    "link_img": "https://live.staticflickr.com/65535/50039281251_cc905eae01_o.jpg",
    "id_image": "Apocalyptic_283702",
    "count_view": 0
  },
  {
    "link_thumb": "https://live.staticflickr.com/65535/50040191947_a018f6d241_n.jpg",
    "id_album": "395161030",
    "description": "Planet_324785",
    "title": "Planet_324785",
    "link_img": "https://live.staticflickr.com/65535/50040191947_364a3f7821_o.jpg",
    "id_image": "Planet_324785",
    "count_view": 0
  },
  {
    "link_thumb": "https://live.staticflickr.com/65535/50039380016_437222e5f8_n.jpg",
    "id_album": "869545341",
    "description": "Astronaut_923968",
    "title": "Astronaut_923968",
    "link_img": "https://live.staticflickr.com/65535/50039380016_e60728d6fa_o.jpg",
    "id_image": "Astronaut_923968",
    "count_view": 0
  },
  {
    "link_thumb": "https://live.staticflickr.com/65535/50039273491_e07c08f6c8_n.jpg",
    "id_album": "849020728",
    "description": "Alien_715367",
    "title": "Alien_715367",
    "link_img": "https://live.staticflickr.com/65535/50039273491_ac93b10f34_o.jpg",
    "id_image": "Alien_715367",
    "count_view": 0
  },
  {
    "link_thumb": "https://live.staticflickr.com/65535/50039250763_73b55a0511_n.jpg",
    "id_album": "-1610342324",
    "description": "Nebula_485838",
    "title": "Nebula_485838",
    "link_img": "https://live.staticflickr.com/65535/50039250763_2ed3a14e5a_o.jpg",
    "id_image": "Nebula_485838",
    "count_view": 0
  },
  {
    "link_thumb": "https://live.staticflickr.com/65535/50039270638_d62cdc3e34_n.jpg",
    "id_album": "-1610342324",
    "description": "Nebula_667423",
    "title": "Nebula_667423",
    "link_img": "https://live.staticflickr.com/65535/50039270638_d808d52400_o.jpg",
    "id_image": "Nebula_667423",
    "count_view": 0
  },
  {
    "link_thumb": "https://live.staticflickr.com/65535/50040642153_65ec884920_n.jpg",
    "id_album": "-1863373220",
    "description": "StarWars_584671",
    "title": "StarWars_584671",
    "link_img": "https://live.staticflickr.com/65535/50040642153_80f2d91cc8_o.jpg",
    "id_image": "StarWars_584671",
    "count_view": 0
  },
  {
    "link_thumb": "https://live.staticflickr.com/65535/50039414756_f0fcc16be6_n.jpg",
    "id_album": "-1780971522",
    "description": "Biohazard_484912",
    "title": "Biohazard_484912",
    "link_img": "https://live.staticflickr.com/65535/50039414756_ba99d5da45_o.jpg",
    "id_image": "Biohazard_484912",
    "count_view": 0
  },
  {
    "link_thumb": "https://live.staticflickr.com/65535/50039691817_1af984796d_n.jpg",
    "id_album": "406431601",
    "description": "Building_980250",
    "title": "Building_980250",
    "link_img": "https://live.staticflickr.com/65535/50039691817_dbec10657d_o.jpg",
    "id_image": "Building_980250",
    "count_view": 0
  },
  {
    "link_thumb": "https://live.staticflickr.com/65535/50039839628_42f9381d6b_n.jpg",
    "id_album": "779690680",
    "description": "Robot_884808",
    "title": "Robot_884808",
    "link_img": "https://live.staticflickr.com/65535/50039839628_ecac9bda29_o.jpg",
    "id_image": "Robot_884808",
    "count_view": 0
  },
  {
    "link_thumb": "https://live.staticflickr.com/65535/50040215592_701921c097_n.jpg",
    "id_album": "395161030",
    "description": "Planet_463339",
    "title": "Planet_463339",
    "link_img": "https://live.staticflickr.com/65535/50040215592_1d2a23b3c3_o.jpg",
    "id_image": "Planet_463339",
    "count_view": 0
  },
  {
    "link_thumb": "https://live.staticflickr.com/65535/50039621563_d407dfbe9e_n.jpg",
    "id_album": "376235057",
    "description": "Planetscape_423586",
    "title": "Planetscape_423586",
    "link_img": "https://live.staticflickr.com/65535/50039621563_0650b52511_o.jpg",
    "id_image": "Planetscape_423586",
    "count_view": 0
  },
  {
    "link_thumb": "https://live.staticflickr.com/65535/50041028498_67b215c28e_n.jpg",
    "id_album": "-1675918237",
    "description": "WomenWarrior_592380",
    "title": "WomenWarrior_592380",
    "link_img": "https://live.staticflickr.com/65535/50041028498_0ce2e09238_o.jpg",
    "id_image": "WomenWarrior_592380",
    "count_view": 0
  },
  {
    "link_thumb": "https://live.staticflickr.com/65535/50040783723_e1136db5d3_n.jpg",
    "id_album": "-221671103",
    "description": "Sun_123086",
    "title": "Sun_123086",
    "link_img": "https://live.staticflickr.com/65535/50040783723_f81773a074_o.jpg",
    "id_image": "Sun_123086",
    "count_view": 0
  },
  {
    "link_thumb": "https://live.staticflickr.com/65535/50038745453_26c37e10f6_n.jpg",
    "id_album": "523598895",
    "description": "Artistic_112397",
    "title": "Artistic_112397",
    "link_img": "https://live.staticflickr.com/65535/50038745453_ccf7d1e445_o.jpg",
    "id_image": "Artistic_112397",
    "count_view": 0
  },
  {
    "link_thumb": "https://live.staticflickr.com/65535/50039891611_2f071760e6_n.jpg",
    "id_album": "-1862561193",
    "description": "Other_44098",
    "title": "Other_44098",
    "link_img": "https://live.staticflickr.com/65535/50039891611_574a9e4b11_o.jpg",
    "id_image": "Other_44098",
    "count_view": 0
  },
  {
    "link_thumb": "https://live.staticflickr.com/65535/50039670126_cef0d1bf80_n.jpg",
    "id_album": "1402713104",
    "description": "Landscape_283646",
    "title": "Landscape_283646",
    "link_img": "https://live.staticflickr.com/65535/50039670126_c1c1803d0a_o.jpg",
    "id_image": "Landscape_283646",
    "count_view": 0
  },
  {
    "link_thumb": "https://live.staticflickr.com/65535/50041419706_e036f0fdd1_n.jpg",
    "id_album": "2020068132",
    "description": "Vehicle_910953",
    "title": "Vehicle_910953",
    "link_img": "https://live.staticflickr.com/65535/50041419706_d4fe7156ab_o.jpg",
    "id_image": "Vehicle_910953",
    "count_view": 0
  },
  {
    "link_thumb": "https://live.staticflickr.com/65535/50039268228_c9cc405199_n.jpg",
    "id_album": "-1610342324",
    "description": "Nebula_607459",
    "title": "Nebula_607459",
    "link_img": "https://live.staticflickr.com/65535/50039268228_63d44a5718_o.jpg",
    "id_image": "Nebula_607459",
    "count_view": 0
  },
  {
    "link_thumb": "https://live.staticflickr.com/65535/50039593766_84cf2523a8_n.jpg",
    "id_album": "829169633",
    "description": "Cyborg_562807",
    "title": "Cyborg_562807",
    "link_img": "https://live.staticflickr.com/65535/50039593766_ca74a634ed_o.jpg",
    "id_image": "Cyborg_562807",
    "count_view": 0
  },
  {
    "link_thumb": "https://live.staticflickr.com/65535/50040232757_1ea87d82cb_n.jpg",
    "id_album": "395161030",
    "description": "Planet_63318",
    "title": "Planet_63318",
    "link_img": "https://live.staticflickr.com/65535/50040232757_c736f8e528_o.jpg",
    "id_image": "Planet_63318",
    "count_view": 0
  },
  {
    "link_thumb": "https://live.staticflickr.com/65535/50040988738_6187f99009_n.jpg",
    "id_album": "-1126835654",
    "description": "Women_608896",
    "title": "Women_608896",
    "link_img": "https://live.staticflickr.com/65535/50040988738_36af47bdfd_o.jpg",
    "id_image": "Women_608896",
    "count_view": 0
  },
  {
    "link_thumb": "https://live.staticflickr.com/65535/50038691448_9a163fd5fd_n.jpg",
    "id_album": "-406145265",
    "description": "Aircraft_341297",
    "title": "Aircraft_341297",
    "link_img": "https://live.staticflickr.com/65535/50038691448_5a33ac87e3_o.jpg",
    "id_image": "Aircraft_341297",
    "count_view": 0
  },
  {
    "link_thumb": "https://live.staticflickr.com/65535/50040639777_79e7e64d5f_n.jpg",
    "id_album": "779690680",
    "description": "Robot_857295",
    "title": "Robot_857295",
    "link_img": "https://live.staticflickr.com/65535/50040639777_3700f3938b_o.jpg",
    "id_image": "Robot_857295",
    "count_view": 0
  },
  {
    "link_thumb": "https://live.staticflickr.com/65535/50039542152_013b4fbdbf_n.jpg",
    "id_album": "-419633230",
    "description": "Apocalyptic_193947",
    "title": "Apocalyptic_193947",
    "link_img": "https://live.staticflickr.com/65535/50039542152_7ede340e26_o.jpg",
    "id_image": "Apocalyptic_193947",
    "count_view": 0
  },
  {
    "link_thumb": "https://live.staticflickr.com/65535/50040000377_0eb0344f59_n.jpg",
    "id_album": "-1388385651",
    "description": "MilkyWay_606897",
    "title": "MilkyWay_606897",
    "link_img": "https://live.staticflickr.com/65535/50040000377_6514c3c9de_o.jpg",
    "id_image": "MilkyWay_606897",
    "count_view": 0
  },
  {
    "link_thumb": "https://live.staticflickr.com/65535/50039431336_fc9b2cbeec_n.jpg",
    "id_album": "-1964113117",
    "description": "City_103619",
    "title": "City_103619",
    "link_img": "https://live.staticflickr.com/65535/50039431336_ec42afeb1e_o.jpg",
    "id_image": "City_103619",
    "count_view": 0
  },
  {
    "link_thumb": "https://live.staticflickr.com/65535/50041788117_605ac920b8_n.jpg",
    "id_album": "-1126835654",
    "description": "Women_350154",
    "title": "Women_350154",
    "link_img": "https://live.staticflickr.com/65535/50041788117_617b52c05a_o.jpg",
    "id_image": "Women_350154",
    "count_view": 0
  },
  {
    "link_thumb": "https://live.staticflickr.com/65535/50039883601_5c059b27c4_n.jpg",
    "id_album": "-1862561193",
    "description": "Other_280795",
    "title": "Other_280795",
    "link_img": "https://live.staticflickr.com/65535/50039883601_0c8edf0243_o.jpg",
    "id_image": "Other_280795",
    "count_view": 0
  },
  {
    "link_thumb": "https://live.staticflickr.com/65535/50040671337_a5ebc1ea95_n.jpg",
    "id_album": "779690680",
    "description": "Robot_910943",
    "title": "Robot_910943",
    "link_img": "https://live.staticflickr.com/65535/50040671337_66f3616f26_o.jpg",
    "id_image": "Robot_910943",
    "count_view": 0
  },
  {
    "link_thumb": "https://live.staticflickr.com/65535/50039782291_0d57b419ff_n.jpg",
    "id_album": "-1610342324",
    "description": "Nebula_286785",
    "title": "Nebula_286785",
    "link_img": "https://live.staticflickr.com/65535/50039782291_17b266d001_o.jpg",
    "id_image": "Nebula_286785",
    "count_view": 0
  },
  {
    "link_thumb": "https://live.staticflickr.com/65535/50040724718_d7b0bebb36_n.jpg",
    "id_album": "-1587696329",
    "description": "Stars_664350",
    "title": "Stars_664350",
    "link_img": "https://live.staticflickr.com/65535/50040724718_b136808a20_o.jpg",
    "id_image": "Stars_664350",
    "count_view": 0
  },
  {
    "link_thumb": "https://live.staticflickr.com/65535/50039780136_538a8d09af_n.jpg",
    "id_album": "-1610342324",
    "description": "Nebula_271590",
    "title": "Nebula_271590",
    "link_img": "https://live.staticflickr.com/65535/50039780136_7425de8c45_o.jpg",
    "id_image": "Nebula_271590",
    "count_view": 0
  },
  {
    "link_thumb": "https://live.staticflickr.com/65535/50038983168_c52cdcffd1_n.jpg",
    "id_album": "-1964113117",
    "description": "City_982184",
    "title": "City_982184",
    "link_img": "https://live.staticflickr.com/65535/50038983168_5a99ae0d3e_o.jpg",
    "id_image": "City_982184",
    "count_view": 0
  },
  {
    "link_thumb": "https://live.staticflickr.com/65535/50040392686_314e5f47f9_n.jpg",
    "id_album": "779690680",
    "description": "Robot_884812",
    "title": "Robot_884812",
    "link_img": "https://live.staticflickr.com/65535/50040392686_6ecd77b7a0_o.jpg",
    "id_image": "Robot_884812",
    "count_view": 0
  },
  {
    "link_thumb": "https://live.staticflickr.com/65535/50040438146_46a7f0b560_n.jpg",
    "id_album": "779690680",
    "description": "Robot_944751",
    "title": "Robot_944751",
    "link_img": "https://live.staticflickr.com/65535/50040438146_d838feb504_o.jpg",
    "id_image": "Robot_944751",
    "count_view": 0
  },
  {
    "link_thumb": "https://live.staticflickr.com/65535/50039343511_cede0a32f3_n.jpg",
    "id_album": "523598895",
    "description": "Artistic_718550",
    "title": "Artistic_718550",
    "link_img": "https://live.staticflickr.com/65535/50039343511_c415f7b529_o.jpg",
    "id_image": "Artistic_718550",
    "count_view": 0
  },
  {
    "link_thumb": "https://live.staticflickr.com/65535/50039233748_8c846553a4_n.jpg",
    "id_album": "-1610342324",
    "description": "Nebula_287845",
    "title": "Nebula_287845",
    "link_img": "https://live.staticflickr.com/65535/50039233748_7d1c42fcf5_o.jpg",
    "id_image": "Nebula_287845",
    "count_view": 0
  },
  {
    "link_thumb": "https://live.staticflickr.com/65535/50039922501_1521de8191_n.jpg",
    "id_album": "395161030",
    "description": "Planet_286824",
    "title": "Planet_286824",
    "link_img": "https://live.staticflickr.com/65535/50039922501_72f4dcbb3c_o.jpg",
    "id_image": "Planet_286824",
    "count_view": 0
  },
  {
    "link_thumb": "https://live.staticflickr.com/65535/50041194846_5e5107c4ee_n.jpg",
    "id_album": "-1863373220",
    "description": "StarWars_582423",
    "title": "StarWars_582423",
    "link_img": "https://live.staticflickr.com/65535/50041194846_68ae64df28_o.jpg",
    "id_image": "StarWars_582423",
    "count_view": 0
  },
  {
    "link_thumb": "https://live.staticflickr.com/65535/50040155941_ef93ef93ea_n.jpg",
    "id_album": "376235057",
    "description": "Planetscape_286866",
    "title": "Planetscape_286866",
    "link_img": "https://live.staticflickr.com/65535/50040155941_c704df78ab_o.jpg",
    "id_image": "Planetscape_286866",
    "count_view": 0
  },
  {
    "link_thumb": "https://live.staticflickr.com/65535/50040159271_b1f27ca3c1_n.jpg",
    "id_album": "376235057",
    "description": "Planetscape_317956",
    "title": "Planetscape_317956",
    "link_img": "https://live.staticflickr.com/65535/50040159271_0482498a54_o.jpg",
    "id_image": "Planetscape_317956",
    "count_view": 0
  },
  {
    "link_thumb": "https://live.staticflickr.com/65535/50040762247_05992692fd_n.jpg",
    "id_album": "1613540653",
    "description": "Space_345414",
    "title": "Space_345414",
    "link_img": "https://live.staticflickr.com/65535/50040762247_6999ffbb5b_o.jpg",
    "id_image": "Space_345414",
    "count_view": 0
  },
  {
    "link_thumb": "https://live.staticflickr.com/65535/50039647112_c6935b2fd9_n.jpg",
    "id_album": "869545341",
    "description": "Astronaut_957389",
    "title": "Astronaut_957389",
    "link_img": "https://live.staticflickr.com/65535/50039647112_fdcec548e5_o.jpg",
    "id_image": "Astronaut_957389",
    "count_view": 0
  },
  {
    "link_thumb": "https://live.staticflickr.com/65535/50039665897_6885fbc034_n.jpg",
    "id_album": "1187037014",
    "description": "Battle_559693",
    "title": "Battle_559693",
    "link_img": "https://live.staticflickr.com/65535/50039665897_8b0263f727_o.jpg",
    "id_image": "Battle_559693",
    "count_view": 0
  },
  {
    "link_thumb": "https://live.staticflickr.com/65535/50040640217_d428c0a825_n.jpg",
    "id_album": "779690680",
    "description": "Robot_857298",
    "title": "Robot_857298",
    "link_img": "https://live.staticflickr.com/65535/50040640217_95ef776b8e_o.jpg",
    "id_image": "Robot_857298",
    "count_view": 0
  },
  {
    "link_thumb": "https://live.staticflickr.com/65535/50039289426_e655a27c55_n.jpg",
    "id_album": "-419633230",
    "description": "Apocalyptic_957471",
    "title": "Apocalyptic_957471",
    "link_img": "https://live.staticflickr.com/65535/50039289426_0dfa830839_o.jpg",
    "id_image": "Apocalyptic_957471",
    "count_view": 0
  },
  {
    "link_thumb": "https://live.staticflickr.com/65535/50040183031_03fd437abd_n.jpg",
    "id_album": "376235057",
    "description": "Planetscape_870673",
    "title": "Planetscape_870673",
    "link_img": "https://live.staticflickr.com/65535/50040183031_d986d0b870_o.jpg",
    "id_image": "Planetscape_870673",
    "count_view": 0
  },
  {
    "link_thumb": "https://live.staticflickr.com/65535/50040810557_5ae3fc0466_n.jpg",
    "id_album": "1613540653",
    "description": "Space_841233",
    "title": "Space_841233",
    "link_img": "https://live.staticflickr.com/65535/50040810557_6fd8d78d5b_o.jpg",
    "id_image": "Space_841233",
    "count_view": 0
  },
  {
    "link_thumb": "https://live.staticflickr.com/65535/50040815368_7e63465fac_n.jpg",
    "id_album": "-1177476763",
    "description": "Sunrise_857570",
    "title": "Sunrise_857570",
    "link_img": "https://live.staticflickr.com/65535/50040815368_5225a5f360_o.jpg",
    "id_image": "Sunrise_857570",
    "count_view": 0
  },
  {
    "link_thumb": "https://live.staticflickr.com/65535/50039140633_0d2b479920_n.jpg",
    "id_album": "1402713104",
    "description": "Landscape_448946",
    "title": "Landscape_448946",
    "link_img": "https://live.staticflickr.com/65535/50039140633_03cf59fd5d_o.jpg",
    "id_image": "Landscape_448946",
    "count_view": 0
  },
  {
    "link_thumb": "https://live.staticflickr.com/65535/50041849837_3ce25e879e_n.jpg",
    "id_album": "-1675918237",
    "description": "WomenWarrior_834225",
    "title": "WomenWarrior_834225",
    "link_img": "https://live.staticflickr.com/65535/50041849837_0818104d22_o.jpg",
    "id_image": "WomenWarrior_834225",
    "count_view": 0
  },
  {
    "link_thumb": "https://live.staticflickr.com/65535/50041706317_d0bb8dbe57_n.jpg",
    "id_album": "-1261420436",
    "description": "Warrior_283852",
    "title": "Warrior_283852",
    "link_img": "https://live.staticflickr.com/65535/50041706317_783af978b6_o.jpg",
    "id_image": "Warrior_283852",
    "count_view": 0
  },
  {
    "link_thumb": "https://live.staticflickr.com/65535/50038886143_3a47dd3760_n.jpg",
    "id_album": "-1964113117",
    "description": "City_145430",
    "title": "City_145430",
    "link_img": "https://live.staticflickr.com/65535/50038886143_47014d32b6_o.jpg",
    "id_image": "City_145430",
    "count_view": 0
  },
  {
    "link_thumb": "https://live.staticflickr.com/65535/50040853703_2c1c906ace_n.jpg",
    "id_album": "2020068132",
    "description": "Vehicle_616889",
    "title": "Vehicle_616889",
    "link_img": "https://live.staticflickr.com/65535/50040853703_3e3b17d993_o.jpg",
    "id_image": "Vehicle_616889",
    "count_view": 0
  },
  {
    "link_thumb": "https://live.staticflickr.com/65535/50039274103_5f7d460d4e_n.jpg",
    "id_album": "-1610342324",
    "description": "Nebula_690471",
    "title": "Nebula_690471",
    "link_img": "https://live.staticflickr.com/65535/50039274103_a0e99c424d_o.jpg",
    "id_image": "Nebula_690471",
    "count_view": 0
  },
  {
    "link_thumb": "https://live.staticflickr.com/65535/50040720691_509776d421_n.jpg",
    "id_album": "2130067313",
    "description": "Spaceship_598169",
    "title": "Spaceship_598169",
    "link_img": "https://live.staticflickr.com/65535/50040720691_be1920aa26_o.jpg",
    "id_image": "Spaceship_598169",
    "count_view": 0
  },
  {
    "link_thumb": "https://live.staticflickr.com/65535/50039495186_6c612f2636_n.jpg",
    "id_album": "-1964113117",
    "description": "City_750010",
    "title": "City_750010",
    "link_img": "https://live.staticflickr.com/65535/50039495186_d25d19e942_o.jpg",
    "id_image": "City_750010",
    "count_view": 0
  },
  {
    "link_thumb": "https://live.staticflickr.com/65535/50040805558_25f219b994_n.jpg",
    "id_album": "-1177476763",
    "description": "Sunrise_324573",
    "title": "Sunrise_324573",
    "link_img": "https://live.staticflickr.com/65535/50040805558_c69c8b6078_o.jpg",
    "id_image": "Sunrise_324573",
    "count_view": 0
  },
  {
    "link_thumb": "https://live.staticflickr.com/65535/50040325082_8f058fa292_n.jpg",
    "id_album": "-1102314093",
    "description": "Planets_222333",
    "title": "Planets_222333",
    "link_img": "https://live.staticflickr.com/65535/50040325082_2563d53b63_o.jpg",
    "id_image": "Planets_222333",
    "count_view": 0
  },
  {
    "link_thumb": "https://live.staticflickr.com/65535/50039221243_6b295e1ddb_n.jpg",
    "id_album": "-1610342324",
    "description": "Nebula_215037",
    "title": "Nebula_215037",
    "link_img": "https://live.staticflickr.com/65535/50039221243_b6e4234987_o.jpg",
    "id_image": "Nebula_215037",
    "count_view": 0
  },
  {
    "link_thumb": "https://live.staticflickr.com/65535/50039818652_f579e94ff7_n.jpg",
    "id_album": "-437872736",
    "description": "Creature_455768",
    "title": "Creature_455768",
    "link_img": "https://live.staticflickr.com/65535/50039818652_0e4dbfb7f7_o.jpg",
    "id_image": "Creature_455768",
    "count_view": 0
  },
  {
    "link_thumb": "https://live.staticflickr.com/65535/50038904573_a5dcd26130_n.jpg",
    "id_album": "-1964113117",
    "description": "City_245882",
    "title": "City_245882",
    "link_img": "https://live.staticflickr.com/65535/50038904573_52f7a5300b_o.jpg",
    "id_image": "City_245882",
    "count_view": 0
  },
  {
    "link_thumb": "https://live.staticflickr.com/65535/50039946152_c7a8c87e0d_n.jpg",
    "id_album": "1402713104",
    "description": "Landscape_367852",
    "title": "Landscape_367852",
    "link_img": "https://live.staticflickr.com/65535/50039946152_d9a117144b_o.jpg",
    "id_image": "Landscape_367852",
    "count_view": 0
  },
  {
    "link_thumb": "https://live.staticflickr.com/65535/50041512782_45828daa1b_n.jpg",
    "id_album": "-1863373220",
    "description": "StarWars_980539",
    "title": "StarWars_980539",
    "link_img": "https://live.staticflickr.com/65535/50041512782_2ae75f170f_o.jpg",
    "id_image": "StarWars_980539",
    "count_view": 0
  },
  {
    "link_thumb": "https://live.staticflickr.com/65535/50039698021_827a266d29_n.jpg",
    "id_album": "1402713104",
    "description": "Landscape_667162",
    "title": "Landscape_667162",
    "link_img": "https://live.staticflickr.com/65535/50039698021_d320d34d8d_o.jpg",
    "id_image": "Landscape_667162",
    "count_view": 0
  },
  {
    "link_thumb": "https://live.staticflickr.com/65535/50039629951_0f5e3e9cbd_n.jpg",
    "id_album": "1204249541",
    "description": "Galaxy_286765",
    "title": "Galaxy_286765",
    "link_img": "https://live.staticflickr.com/65535/50039629951_07369883f5_o.jpg",
    "id_image": "Galaxy_286765",
    "count_view": 0
  },
  {
    "link_thumb": "https://live.staticflickr.com/65535/50039733351_70c32044d6_n.jpg",
    "id_album": "-1388385651",
    "description": "MilkyWay_555679",
    "title": "MilkyWay_555679",
    "link_img": "https://live.staticflickr.com/65535/50039733351_c7deceebc4_o.jpg",
    "id_image": "MilkyWay_555679",
    "count_view": 0
  },
  {
    "link_thumb": "https://live.staticflickr.com/65535/50039315421_2ecd41c29a_n.jpg",
    "id_album": "523598895",
    "description": "Artistic_217641",
    "title": "Artistic_217641",
    "link_img": "https://live.staticflickr.com/65535/50039315421_b4b2c5a372_o.jpg",
    "id_image": "Artistic_217641",
    "count_view": 0
  },
  {
    "link_thumb": "https://live.staticflickr.com/65535/50040709008_83990bc003_n.jpg",
    "id_album": "-1587696329",
    "description": "Stars_333372",
    "title": "Stars_333372",
    "link_img": "https://live.staticflickr.com/65535/50040709008_d0852aba20_o.jpg",
    "id_image": "Stars_333372",
    "count_view": 0
  },
  {
    "link_thumb": "https://live.staticflickr.com/65535/50040579221_dd588b0e18_n.jpg",
    "id_album": "2130067313",
    "description": "Spaceship_145902",
    "title": "Spaceship_145902",
    "link_img": "https://live.staticflickr.com/65535/50040579221_1d1166cd8b_o.jpg",
    "id_image": "Spaceship_145902",
    "count_view": 0
  },
  {
    "link_thumb": "https://live.staticflickr.com/65535/50039521637_61d851d851_n.jpg",
    "id_album": "849020728",
    "description": "Alien_304601",
    "title": "Alien_304601",
    "link_img": "https://live.staticflickr.com/65535/50039521637_8d07e84d2c_o.jpg",
    "id_image": "Alien_304601",
    "count_view": 0
  },
  {
    "link_thumb": "https://live.staticflickr.com/65535/50038875888_c437bcd8c0_n.jpg",
    "id_album": "406431601",
    "description": "Building_871355",
    "title": "Building_871355",
    "link_img": "https://live.staticflickr.com/65535/50038875888_d00452b8db_o.jpg",
    "id_image": "Building_871355",
    "count_view": 0
  },
  {
    "link_thumb": "https://live.staticflickr.com/65535/50040002321_cab0ed8039_n.jpg",
    "id_album": "1443611160",
    "description": "PlanetRise_344647",
    "title": "PlanetRise_344647",
    "link_img": "https://live.staticflickr.com/65535/50040002321_ea98c31a7a_o.jpg",
    "id_image": "PlanetRise_344647",
    "count_view": 0
  },
  {
    "link_thumb": "https://live.staticflickr.com/65535/50039772903_b864d98bef_n.jpg",
    "id_album": "779690680",
    "description": "Robot_497237",
    "title": "Robot_497237",
    "link_img": "https://live.staticflickr.com/65535/50039772903_b4f5c2e84f_o.jpg",
    "id_image": "Robot_497237",
    "count_view": 0
  },
  {
    "link_thumb": "https://live.staticflickr.com/65535/50040098347_397951a64b_n.jpg",
    "id_album": "-1610342324",
    "description": "Nebula_772696",
    "title": "Nebula_772696",
    "link_img": "https://live.staticflickr.com/65535/50040098347_78f579b263_o.jpg",
    "id_image": "Nebula_772696",
    "count_view": 0
  },
  {
    "link_thumb": "https://live.staticflickr.com/65535/50040223023_fe23614ab4_n.jpg",
    "id_album": "2130067313",
    "description": "Spaceship_972165",
    "title": "Spaceship_972165",
    "link_img": "https://live.staticflickr.com/65535/50040223023_50830400fa_o.jpg",
    "id_image": "Spaceship_972165",
    "count_view": 0
  },
  {
    "link_thumb": "https://live.staticflickr.com/65535/50038932093_6eebbe97c1_n.jpg",
    "id_album": "-1964113117",
    "description": "City_610991",
    "title": "City_610991",
    "link_img": "https://live.staticflickr.com/65535/50038932093_179d5a5607_o.jpg",
    "id_image": "City_610991",
    "count_view": 0
  },
  {
    "link_thumb": "https://live.staticflickr.com/65535/50040452782_994e81c8e9_n.jpg",
    "id_album": "-482547208",
    "description": "PostApocalyptic_103217",
    "title": "PostApocalyptic_103217",
    "link_img": "https://live.staticflickr.com/65535/50040452782_8110d7a0e9_o.jpg",
    "id_image": "PostApocalyptic_103217",
    "count_view": 0
  },
  {
    "link_thumb": "https://live.staticflickr.com/65535/50038924853_19ceb0b08a_n.jpg",
    "id_album": "-1964113117",
    "description": "City_498283",
    "title": "City_498283",
    "link_img": "https://live.staticflickr.com/65535/50038924853_b2c7b2e46f_o.jpg",
    "id_image": "City_498283",
    "count_view": 0
  },
  {
    "link_thumb": "https://live.staticflickr.com/65535/50040514812_71fe5b86c1_n.jpg",
    "id_album": "779690680",
    "description": "Robot_107012",
    "title": "Robot_107012",
    "link_img": "https://live.staticflickr.com/65535/50040514812_9ac6b5a993_o.jpg",
    "id_image": "Robot_107012",
    "count_view": 0
  },
  {
    "link_thumb": "https://live.staticflickr.com/65535/50039909922_d4ef749581_n.jpg",
    "id_album": "1204249541",
    "description": "Galaxy_596378",
    "title": "Galaxy_596378",
    "link_img": "https://live.staticflickr.com/65535/50039909922_bea47c14ba_o.jpg",
    "id_image": "Galaxy_596378",
    "count_view": 0
  },
  {
    "link_thumb": "https://live.staticflickr.com/65535/50039240986_a7820bdbe9_n.jpg",
    "id_album": "-406145265",
    "description": "Aircraft_515950",
    "title": "Aircraft_515950",
    "link_img": "https://live.staticflickr.com/65535/50039240986_03e195ee78_o.jpg",
    "id_image": "Aircraft_515950",
    "count_view": 0
  },
  {
    "link_thumb": "https://live.staticflickr.com/65535/50039532296_7a9f90bbb0_n.jpg",
    "id_album": "-1964113117",
    "description": "City_983864",
    "title": "City_983864",
    "link_img": "https://live.staticflickr.com/65535/50039532296_54fe6d37e1_o.jpg",
    "id_image": "City_983864",
    "count_view": 0
  },
  {
    "link_thumb": "https://live.staticflickr.com/65535/50040211761_be9b44e981_n.jpg",
    "id_album": "-482547208",
    "description": "PostApocalyptic_51666",
    "title": "PostApocalyptic_51666",
    "link_img": "https://live.staticflickr.com/65535/50040211761_841e4e442b_o.jpg",
    "id_image": "PostApocalyptic_51666",
    "count_view": 0
  },
  {
    "link_thumb": "https://live.staticflickr.com/65535/50039883547_9dc920a6cb_n.jpg",
    "id_album": "2104507156",
    "description": "Fantasy_573694",
    "title": "Fantasy_573694",
    "link_img": "https://live.staticflickr.com/65535/50039883547_f313df7f43_o.jpg",
    "id_image": "Fantasy_573694",
    "count_view": 0
  },
  {
    "link_thumb": "https://live.staticflickr.com/65535/50039799902_abcc939dea_n.jpg",
    "id_album": "894679094",
    "description": "Collision_2867",
    "title": "Collision_2867",
    "link_img": "https://live.staticflickr.com/65535/50039799902_cff2464fa9_o.jpg",
    "id_image": "Collision_2867",
    "count_view": 0
  },
  {
    "link_thumb": "https://live.staticflickr.com/65535/50040734137_450b28d0ed_n.jpg",
    "id_album": "1613540653",
    "description": "Space_151138",
    "title": "Space_151138",
    "link_img": "https://live.staticflickr.com/65535/50040734137_fbdcc3be44_o.jpg",
    "id_image": "Space_151138",
    "count_view": 0
  },
  {
    "link_thumb": "https://live.staticflickr.com/65535/50038969613_3c4c5e4962_n.jpg",
    "id_album": "-1964113117",
    "description": "City_906132",
    "title": "City_906132",
    "link_img": "https://live.staticflickr.com/65535/50038969613_18a1b1c9d4_o.jpg",
    "id_image": "City_906132",
    "count_view": 0
  },
  {
    "link_thumb": "https://live.staticflickr.com/65535/50040253778_94ae445d81_n.jpg",
    "id_album": "-1449720967",
    "description": "StarTrek_207897",
    "title": "StarTrek_207897",
    "link_img": "https://live.staticflickr.com/65535/50040253778_3a8d36fd68_o.jpg",
    "id_image": "StarTrek_207897",
    "count_view": 0
  },
  {
    "link_thumb": "https://live.staticflickr.com/65535/50041525757_bf2751b804_n.jpg",
    "id_album": "-1587696329",
    "description": "Stars_323316",
    "title": "Stars_323316",
    "link_img": "https://live.staticflickr.com/65535/50041525757_e7bbf3f12d_o.jpg",
    "id_image": "Stars_323316",
    "count_view": 0
  },
  {
    "link_thumb": "https://live.staticflickr.com/65535/50039171373_078f558c67_n.jpg",
    "id_album": "1402713104",
    "description": "Landscape_905585",
    "title": "Landscape_905585",
    "link_img": "https://live.staticflickr.com/65535/50039171373_a687fc074e_o.jpg",
    "id_image": "Landscape_905585",
    "count_view": 0
  },
  {
    "link_thumb": "https://live.staticflickr.com/65535/50040116531_9e1cbcc7e5_n.jpg",
    "id_album": "-1102314093",
    "description": "Planets_440957",
    "title": "Planets_440957",
    "link_img": "https://live.staticflickr.com/65535/50040116531_305e5b309f_o.jpg",
    "id_image": "Planets_440957",
    "count_view": 0
  },
  {
    "link_thumb": "https://live.staticflickr.com/65535/50040695528_32e8dc5c01_n.jpg",
    "id_album": "-1863373220",
    "description": "StarWars_980532",
    "title": "StarWars_980532",
    "link_img": "https://live.staticflickr.com/65535/50040695528_f344620172_o.jpg",
    "id_image": "StarWars_980532",
    "count_view": 0
  },
  {
    "link_thumb": "https://live.staticflickr.com/65535/50039883861_c67c218c7f_n.jpg",
    "id_album": "-1862561193",
    "description": "Other_280887",
    "title": "Other_280887",
    "link_img": "https://live.staticflickr.com/65535/50039883861_8f408f04c9_o.jpg",
    "id_image": "Other_280887",
    "count_view": 0
  },
  {
    "link_thumb": "https://live.staticflickr.com/65535/50039667763_c3ba9fa86f_n.jpg",
    "id_album": "-482547208",
    "description": "PostApocalyptic_709113",
    "title": "PostApocalyptic_709113",
    "link_img": "https://live.staticflickr.com/65535/50039667763_0172c9c9e2_o.jpg",
    "id_image": "PostApocalyptic_709113",
    "count_view": 0
  },
  {
    "link_thumb": "https://live.staticflickr.com/65535/50040901073_523786290e_n.jpg",
    "id_album": "-1261420436",
    "description": "Warrior_386012",
    "title": "Warrior_386012",
    "link_img": "https://live.staticflickr.com/65535/50040901073_8deffe721a_o.jpg",
    "id_image": "Warrior_386012",
    "count_view": 0
  },
  {
    "link_thumb": "https://live.staticflickr.com/65535/50039448238_bf3146976a_n.jpg",
    "id_album": "1443611160",
    "description": "PlanetRise_248335",
    "title": "PlanetRise_248335",
    "link_img": "https://live.staticflickr.com/65535/50039448238_da95e744c4_o.jpg",
    "id_image": "PlanetRise_248335",
    "count_view": 0
  },
  {
    "link_thumb": "https://live.staticflickr.com/65535/50040799636_740e1e55a9_n.jpg",
    "id_album": "-1449720967",
    "description": "StarTrek_182728",
    "title": "StarTrek_182728",
    "link_img": "https://live.staticflickr.com/65535/50040799636_e5e3eaca61_o.jpg",
    "id_image": "StarTrek_182728",
    "count_view": 0
  },
  {
    "link_thumb": "https://live.staticflickr.com/65535/50039252768_56d3efe159_n.jpg",
    "id_album": "-1610342324",
    "description": "Nebula_502936",
    "title": "Nebula_502936",
    "link_img": "https://live.staticflickr.com/65535/50039252768_1e7a02e676_o.jpg",
    "id_image": "Nebula_502936",
    "count_view": 0
  },
  {
    "link_thumb": "https://live.staticflickr.com/65535/50038753888_baba6f0565_n.jpg",
    "id_album": "523598895",
    "description": "Artistic_170992",
    "title": "Artistic_170992",
    "link_img": "https://live.staticflickr.com/65535/50038753888_4229e5987e_o.jpg",
    "id_image": "Artistic_170992",
    "count_view": 0
  },
  {
    "link_thumb": "https://live.staticflickr.com/65535/50041269941_85be96446f_n.jpg",
    "id_album": "-1587696329",
    "description": "Stars_458515",
    "title": "Stars_458515",
    "link_img": "https://live.staticflickr.com/65535/50041269941_2f98341c9d_o.jpg",
    "id_image": "Stars_458515",
    "count_view": 0
  },
  {
    "link_thumb": "https://live.staticflickr.com/65535/50039950331_1b09dc433a_n.jpg",
    "id_album": "395161030",
    "description": "Planet_457932",
    "title": "Planet_457932",
    "link_img": "https://live.staticflickr.com/65535/50039950331_a0048944cf_o.jpg",
    "id_image": "Planet_457932",
    "count_view": 0
  },
  {
    "link_thumb": "https://live.staticflickr.com/65535/50038697928_b85387b8ea_n.jpg",
    "id_album": "849020728",
    "description": "Alien_120345",
    "title": "Alien_120345",
    "link_img": "https://live.staticflickr.com/65535/50038697928_b6f3400ca3_o.jpg",
    "id_image": "Alien_120345",
    "count_view": 0
  },
  {
    "link_thumb": "https://live.staticflickr.com/65535/50039545051_252dcfaf14_n.jpg",
    "id_album": "894679094",
    "description": "Collision_957418",
    "title": "Collision_957418",
    "link_img": "https://live.staticflickr.com/65535/50039545051_c222cb5c3a_o.jpg",
    "id_image": "Collision_957418",
    "count_view": 0
  },
  {
    "link_thumb": "https://live.staticflickr.com/65535/50039490632_8921e67d6d_n.jpg",
    "id_album": "280884763",
    "description": "Abstract_229062",
    "title": "Abstract_229062",
    "link_img": "https://live.staticflickr.com/65535/50039490632_9f2bc8b21a_o.jpg",
    "id_image": "Abstract_229062",
    "count_view": 0
  },
  {
    "link_thumb": "https://live.staticflickr.com/65535/50040031312_58808e6021_n.jpg",
    "id_album": "-1610342324",
    "description": "Nebula_199821",
    "title": "Nebula_199821",
    "link_img": "https://live.staticflickr.com/65535/50040031312_e35046ee12_o.jpg",
    "id_image": "Nebula_199821",
    "count_view": 0
  },
  {
    "link_thumb": "https://live.staticflickr.com/65535/50038726568_5dfe3333e7_n.jpg",
    "id_album": "849020728",
    "description": "Alien_804042",
    "title": "Alien_804042",
    "link_img": "https://live.staticflickr.com/65535/50038726568_da16ee20dc_o.jpg",
    "id_image": "Alien_804042",
    "count_view": 0
  },
  {
    "link_thumb": "https://live.staticflickr.com/65535/50040597427_0060b066a5_n.jpg",
    "id_album": "779690680",
    "description": "Robot_554881",
    "title": "Robot_554881",
    "link_img": "https://live.staticflickr.com/65535/50040597427_f6891d505a_o.jpg",
    "id_image": "Robot_554881",
    "count_view": 0
  },
  {
    "link_thumb": "https://live.staticflickr.com/65535/50041209601_b78121e156_n.jpg",
    "id_album": "-1863373220",
    "description": "StarWars_669719",
    "title": "StarWars_669719",
    "link_img": "https://live.staticflickr.com/65535/50041209601_c1c9acf99f_o.jpg",
    "id_image": "StarWars_669719",
    "count_view": 0
  },
  {
    "link_thumb": "https://live.staticflickr.com/65535/50039912838_cb5700be39_n.jpg",
    "id_album": "1613540653",
    "description": "Space_129295",
    "title": "Space_129295",
    "link_img": "https://live.staticflickr.com/65535/50039912838_0cfffb63fa_o.jpg",
    "id_image": "Space_129295",
    "count_view": 0
  },
  {
    "link_thumb": "https://live.staticflickr.com/65535/50039717503_c063842eeb_n.jpg",
    "id_album": "779690680",
    "description": "Robot_245595",
    "title": "Robot_245595",
    "link_img": "https://live.staticflickr.com/65535/50039717503_b2358b2398_o.jpg",
    "id_image": "Robot_245595",
    "count_view": 0
  },
  {
    "link_thumb": "https://live.staticflickr.com/65535/50040068822_21f2fbeefb_n.jpg",
    "id_album": "-1610342324",
    "description": "Nebula_533835",
    "title": "Nebula_533835",
    "link_img": "https://live.staticflickr.com/65535/50040068822_87d6d935be_o.jpg",
    "id_image": "Nebula_533835",
    "count_view": 0
  },
  {
    "link_thumb": "https://live.staticflickr.com/65535/50040085728_a616c8d139_n.jpg",
    "id_album": "2130067313",
    "description": "Spaceship_303905",
    "title": "Spaceship_303905",
    "link_img": "https://live.staticflickr.com/65535/50040085728_2a31ecd2d9_o.jpg",
    "id_image": "Spaceship_303905",
    "count_view": 0
  },
  {
    "link_thumb": "https://live.staticflickr.com/65535/50040100707_acface6235_n.jpg",
    "id_album": "-1610342324",
    "description": "Nebula_78849",
    "title": "Nebula_78849",
    "link_img": "https://live.staticflickr.com/65535/50040100707_fb0a85bdd4_o.jpg",
    "id_image": "Nebula_78849",
    "count_view": 0
  }
]