[
  {
    "total_img": 0,
    "number_page": 0,
    "title": "Explosion",
    "tag": "Explosion,",
    "description": "Explosion",
    "link_thumb": "https://live.staticflickr.com/65535/50039869332_e869156669_n.jpg",
    "id_album": "651930207",
    "total_view": 23
  }
]