[
  {
    "link_thumb": "https://live.staticflickr.com/65535/50039733686_afb3fcbc5c_n.jpg",
    "id_album": "-1388385651",
    "description": "MilkyWay_555693",
    "title": "MilkyWay_555693",
    "link_img": "https://live.staticflickr.com/65535/50039733686_6491480d2f_o.jpg",
    "id_image": "MilkyWay_555693",
    "count_view": 0
  },
  {
    "link_thumb": "https://live.staticflickr.com/65535/50038857078_2fd7e1b2ca_n.jpg",
    "id_album": "1187037014",
    "description": "Battle_631688",
    "title": "Battle_631688",
    "link_img": "https://live.staticflickr.com/65535/50038857078_f3b5189e1b_o.jpg",
    "id_image": "Battle_631688",
    "count_view": 0
  },
  {
    "link_thumb": "https://live.staticflickr.com/65535/50039823611_7273e01271_n.jpg",
    "id_album": "-1610342324",
    "description": "Nebula_691000",
    "title": "Nebula_691000",
    "link_img": "https://live.staticflickr.com/65535/50039823611_37d608ab53_o.jpg",
    "id_image": "Nebula_691000",
    "count_view": 0
  },
  {
    "link_thumb": "https://live.staticflickr.com/65535/50041179866_87006da4c2_n.jpg",
    "id_album": "-1863373220",
    "description": "StarWars_438735",
    "title": "StarWars_438735",
    "link_img": "https://live.staticflickr.com/65535/50041179866_c21b62a264_o.jpg",
    "id_image": "StarWars_438735",
    "count_view": 0
  },
  {
    "link_thumb": "https://live.staticflickr.com/65535/50039271118_f996f8b585_n.jpg",
    "id_album": "-1610342324",
    "description": "Nebula_67202",
    "title": "Nebula_67202",
    "link_img": "https://live.staticflickr.com/65535/50039271118_28ff4dc9a8_o.jpg",
    "id_image": "Nebula_67202",
    "count_view": 0
  },
  {
    "link_thumb": "https://live.staticflickr.com/65535/50039645962_459bf1a307_n.jpg",
    "id_album": "869545341",
    "description": "Astronaut_942086",
    "title": "Astronaut_942086",
    "link_img": "https://live.staticflickr.com/65535/50039645962_237e420439_o.jpg",
    "id_image": "Astronaut_942086",
    "count_view": 0
  },
  {
    "link_thumb": "https://live.staticflickr.com/65535/50039904512_13fd750bc0_n.jpg",
    "id_album": "1204249541",
    "description": "Galaxy_548006",
    "title": "Galaxy_548006",
    "link_img": "https://live.staticflickr.com/65535/50039904512_947481e8c7_o.jpg",
    "id_image": "Galaxy_548006",
    "count_view": 0
  },
  {
    "link_thumb": "https://live.staticflickr.com/65535/50039934111_330e17d1c9_n.jpg",
    "id_album": "395161030",
    "description": "Planet_356076",
    "title": "Planet_356076",
    "link_img": "https://live.staticflickr.com/65535/50039934111_5f9f97f638_o.jpg",
    "id_image": "Planet_356076",
    "count_view": 0
  },
  {
    "link_thumb": "https://live.staticflickr.com/65535/50039768401_0027491d8c_n.jpg",
    "id_album": "-1610342324",
    "description": "Nebula_203086",
    "title": "Nebula_203086",
    "link_img": "https://live.staticflickr.com/65535/50039768401_2cb9b58f98_o.jpg",
    "id_image": "Nebula_203086",
    "count_view": 0
  },
  {
    "link_thumb": "https://live.staticflickr.com/65535/50040285936_9058bfd93c_n.jpg",
    "id_album": "779690680",
    "description": "Robot_309505",
    "title": "Robot_309505",
    "link_img": "https://live.staticflickr.com/65535/50040285936_dc07e6dcd2_o.jpg",
    "id_image": "Robot_309505",
    "count_view": 0
  },
  {
    "link_thumb": "https://live.staticflickr.com/65535/50039000358_25b3337d7e_n.jpg",
    "id_album": "-437872736",
    "description": "Creature_282527",
    "title": "Creature_282527",
    "link_img": "https://live.staticflickr.com/65535/50039000358_d1205a310f_o.jpg",
    "id_image": "Creature_282527",
    "count_view": 0
  },
  {
    "link_thumb": "https://live.staticflickr.com/65535/50040520286_bfe730115c_n.jpg",
    "id_album": "1613540653",
    "description": "Space_659465",
    "title": "Space_659465",
    "link_img": "https://live.staticflickr.com/65535/50040520286_491d92e827_o.jpg",
    "id_image": "Space_659465",
    "count_view": 0
  },
  {
    "link_thumb": "https://live.staticflickr.com/65535/50041492311_157fd56107_n.jpg",
    "id_album": "-1261420436",
    "description": "Warrior_893431",
    "title": "Warrior_893431",
    "link_img": "https://live.staticflickr.com/65535/50041492311_e305695e79_o.jpg",
    "id_image": "Warrior_893431",
    "count_view": 0
  },
  {
    "link_thumb": "https://live.staticflickr.com/65535/50038856968_21718abd15_n.jpg",
    "id_album": "1187037014",
    "description": "Battle_631687",
    "title": "Battle_631687",
    "link_img": "https://live.staticflickr.com/65535/50038856968_1b20f3c410_o.jpg",
    "id_image": "Battle_631687",
    "count_view": 0
  },
  {
    "link_thumb": "https://live.staticflickr.com/65535/50041340956_5a8c43dcc8_n.jpg",
    "id_album": "-221671103",
    "description": "Sun_192970",
    "title": "Sun_192970",
    "link_img": "https://live.staticflickr.com/65535/50041340956_b6248f00e1_o.jpg",
    "id_image": "Sun_192970",
    "count_view": 0
  },
  {
    "link_thumb": "https://live.staticflickr.com/65535/50039246603_8f6d61e51b_n.jpg",
    "id_album": "-1610342324",
    "description": "Nebula_430797",
    "title": "Nebula_430797",
    "link_img": "https://live.staticflickr.com/65535/50039246603_a31ed7ff76_o.jpg",
    "id_image": "Nebula_430797",
    "count_view": 0
  },
  {
    "link_thumb": "https://live.staticflickr.com/65535/50039141033_6e635595b7_n.jpg",
    "id_album": "1402713104",
    "description": "Landscape_459659",
    "title": "Landscape_459659",
    "link_img": "https://live.staticflickr.com/65535/50039141033_ee02ef9e67_o.jpg",
    "id_image": "Landscape_459659",
    "count_view": 0
  },
  {
    "link_thumb": "https://live.staticflickr.com/65535/50039287306_4f13052824_n.jpg",
    "id_album": "-419633230",
    "description": "Apocalyptic_728474",
    "title": "Apocalyptic_728474",
    "link_img": "https://live.staticflickr.com/65535/50039287306_62bcae0d77_o.jpg",
    "id_image": "Apocalyptic_728474",
    "count_view": 0
  },
  {
    "link_thumb": "https://live.staticflickr.com/65535/50038825478_6a765c4d40_n.jpg",
    "id_album": "869545341",
    "description": "Astronaut_857750",
    "title": "Astronaut_857750",
    "link_img": "https://live.staticflickr.com/65535/50038825478_7514389747_o.jpg",
    "id_image": "Astronaut_857750",
    "count_view": 0
  },
  {
    "link_thumb": "https://live.staticflickr.com/65535/50039087083_5911ec77a5_n.jpg",
    "id_album": "1204249541",
    "description": "Galaxy_450494",
    "title": "Galaxy_450494",
    "link_img": "https://live.staticflickr.com/65535/50039087083_b25c7d31f3_o.jpg",
    "id_image": "Galaxy_450494",
    "count_view": 0
  },
  {
    "link_thumb": "https://live.staticflickr.com/65535/50041246281_a67b101dd3_n.jpg",
    "id_album": "-1863373220",
    "description": "StarWars_972995",
    "title": "StarWars_972995",
    "link_img": "https://live.staticflickr.com/65535/50041246281_c426289fab_o.jpg",
    "id_image": "StarWars_972995",
    "count_view": 0
  },
  {
    "link_thumb": "https://live.staticflickr.com/65535/50040433137_85b79e8481_n.jpg",
    "id_album": "376235057",
    "description": "Planetscape_373315",
    "title": "Planetscape_373315",
    "link_img": "https://live.staticflickr.com/65535/50040433137_440de2d946_o.jpg",
    "id_image": "Planetscape_373315",
    "count_view": 0
  },
  {
    "link_thumb": "https://live.staticflickr.com/65535/50040779802_9c562cf6d6_n.jpg",
    "id_album": "1613540653",
    "description": "Space_577980",
    "title": "Space_577980",
    "link_img": "https://live.staticflickr.com/65535/50040779802_7339767d17_o.jpg",
    "id_image": "Space_577980",
    "count_view": 0
  },
  {
    "link_thumb": "https://live.staticflickr.com/65535/50040350256_074030d6b9_n.jpg",
    "id_album": "779690680",
    "description": "Robot_649069",
    "title": "Robot_649069",
    "link_img": "https://live.staticflickr.com/65535/50040350256_b45a17d75d_o.jpg",
    "id_image": "Robot_649069",
    "count_view": 0
  },
  {
    "link_thumb": "https://live.staticflickr.com/65535/50038917383_dda427e5a6_n.jpg",
    "id_album": "-1964113117",
    "description": "City_361042",
    "title": "City_361042",
    "link_img": "https://live.staticflickr.com/65535/50038917383_5ccced19ed_o.jpg",
    "id_image": "City_361042",
    "count_view": 0
  },
  {
    "link_thumb": "https://live.staticflickr.com/65535/50038989393_2e76e003f9_n.jpg",
    "id_album": "894679094",
    "description": "Collision_229334",
    "title": "Collision_229334",
    "link_img": "https://live.staticflickr.com/65535/50038989393_65ba25ccc1_o.jpg",
    "id_image": "Collision_229334",
    "count_view": 0
  },
  {
    "link_thumb": "https://live.staticflickr.com/65535/50039669656_c6d075a804_n.jpg",
    "id_album": "1402713104",
    "description": "Landscape_282511",
    "title": "Landscape_282511",
    "link_img": "https://live.staticflickr.com/65535/50039669656_de2e1ece3d_o.jpg",
    "id_image": "Landscape_282511",
    "count_view": 0
  },
  {
    "link_thumb": "https://live.staticflickr.com/65535/50039601817_035d5485fa_n.jpg",
    "id_album": "523598895",
    "description": "Artistic_606866",
    "title": "Artistic_606866",
    "link_img": "https://live.staticflickr.com/65535/50039601817_1051a13ecc_o.jpg",
    "id_image": "Artistic_606866",
    "count_view": 0
  },
  {
    "link_thumb": "https://live.staticflickr.com/65535/50039519993_8dea8db689_n.jpg",
    "id_album": "-1102314093",
    "description": "Planets_272488",
    "title": "Planets_272488",
    "link_img": "https://live.staticflickr.com/65535/50039519993_8ae47f511b_o.jpg",
    "id_image": "Planets_272488",
    "count_view": 0
  },
  {
    "link_thumb": "https://live.staticflickr.com/65535/50040116531_9e1cbcc7e5_n.jpg",
    "id_album": "-1102314093",
    "description": "Planets_440957",
    "title": "Planets_440957",
    "link_img": "https://live.staticflickr.com/65535/50040116531_305e5b309f_o.jpg",
    "id_image": "Planets_440957",
    "count_view": 0
  },
  {
    "link_thumb": "https://live.staticflickr.com/65535/50039626832_c968d46366_n.jpg",
    "id_album": "869545341",
    "description": "Astronaut_712453",
    "title": "Astronaut_712453",
    "link_img": "https://live.staticflickr.com/65535/50039626832_227b5a076b_o.jpg",
    "id_image": "Astronaut_712453",
    "count_view": 0
  },
  {
    "link_thumb": "https://live.staticflickr.com/65535/50039862678_7ac97282ac_n.jpg",
    "id_album": "779690680",
    "description": "Robot_920331",
    "title": "Robot_920331",
    "link_img": "https://live.staticflickr.com/65535/50039862678_b51d783106_o.jpg",
    "id_image": "Robot_920331",
    "count_view": 0
  },
  {
    "link_thumb": "https://live.staticflickr.com/65535/50038866188_2e2e221f9e_n.jpg",
    "id_album": "-1780971522",
    "description": "Biohazard_494252",
    "title": "Biohazard_494252",
    "link_img": "https://live.staticflickr.com/65535/50038866188_39691a9eb1_o.jpg",
    "id_image": "Biohazard_494252",
    "count_view": 0
  },
  {
    "link_thumb": "https://live.staticflickr.com/65535/50039645011_9c6ba5cee4_n.jpg",
    "id_album": "1204249541",
    "description": "Galaxy_585165",
    "title": "Galaxy_585165",
    "link_img": "https://live.staticflickr.com/65535/50039645011_9108ec1d3f_o.jpg",
    "id_image": "Galaxy_585165",
    "count_view": 0
  },
  {
    "link_thumb": "https://live.staticflickr.com/65535/50039783126_463b67acf4_n.jpg",
    "id_album": "-1610342324",
    "description": "Nebula_287053",
    "title": "Nebula_287053",
    "link_img": "https://live.staticflickr.com/65535/50039783126_d25c499006_o.jpg",
    "id_image": "Nebula_287053",
    "count_view": 0
  },
  {
    "link_thumb": "https://live.staticflickr.com/65535/50040232021_3cf8ffb799_n.jpg",
    "id_album": "-482547208",
    "description": "PostApocalyptic_929175",
    "title": "PostApocalyptic_929175",
    "link_img": "https://live.staticflickr.com/65535/50040232021_074f77c5c2_o.jpg",
    "id_image": "PostApocalyptic_929175",
    "count_view": 0
  },
  {
    "link_thumb": "https://live.staticflickr.com/65535/50041270151_1638de7c07_n.jpg",
    "id_album": "-1587696329",
    "description": "Stars_459204",
    "title": "Stars_459204",
    "link_img": "https://live.staticflickr.com/65535/50041270151_fceacf79e2_o.jpg",
    "id_image": "Stars_459204",
    "count_view": 0
  },
  {
    "link_thumb": "https://live.staticflickr.com/65535/50039720051_2ff6d7a20a_n.jpg",
    "id_album": "1402713104",
    "description": "Landscape_900201",
    "title": "Landscape_900201",
    "link_img": "https://live.staticflickr.com/65535/50039720051_383ee3d02b_o.jpg",
    "id_image": "Landscape_900201",
    "count_view": 0
  },
  {
    "link_thumb": "https://live.staticflickr.com/65535/50039607787_72c077473d_n.jpg",
    "id_album": "523598895",
    "description": "Artistic_881461",
    "title": "Artistic_881461",
    "link_img": "https://live.staticflickr.com/65535/50039607787_206e2d2c4d_o.jpg",
    "id_image": "Artistic_881461",
    "count_view": 0
  },
  {
    "link_thumb": "https://live.staticflickr.com/65535/50039354273_94f574b194_n.jpg",
    "id_album": "395161030",
    "description": "Planet_108239",
    "title": "Planet_108239",
    "link_img": "https://live.staticflickr.com/65535/50039354273_984c0dbcab_o.jpg",
    "id_image": "Planet_108239",
    "count_view": 0
  },
  {
    "link_thumb": "https://live.staticflickr.com/65535/50040430892_9e7f46975a_n.jpg",
    "id_album": "376235057",
    "description": "Planetscape_363159",
    "title": "Planetscape_363159",
    "link_img": "https://live.staticflickr.com/65535/50040430892_fd99d30908_o.jpg",
    "id_image": "Planetscape_363159",
    "count_view": 0
  },
  {
    "link_thumb": "https://live.staticflickr.com/65535/50040762041_7632c372b6_n.jpg",
    "id_album": "2130067313",
    "description": "Spaceship_890624",
    "title": "Spaceship_890624",
    "link_img": "https://live.staticflickr.com/65535/50040762041_4ee8772554_o.jpg",
    "id_image": "Spaceship_890624",
    "count_view": 0
  },
  {
    "link_thumb": "https://live.staticflickr.com/65535/50039687278_0a9264b25a_n.jpg",
    "id_album": "-839602625",
    "description": "Predator_315715",
    "title": "Predator_315715",
    "link_img": "https://live.staticflickr.com/65535/50039687278_b9b3cb0df6_o.jpg",
    "id_image": "Predator_315715",
    "count_view": 0
  },
  {
    "link_thumb": "https://live.staticflickr.com/65535/50040024591_b2d1b16ed4_n.jpg",
    "id_album": "814701616",
    "description": "PlanetaryRing_286989",
    "title": "PlanetaryRing_286989",
    "link_img": "https://live.staticflickr.com/65535/50040024591_b8ea25b8ca_o.jpg",
    "id_image": "PlanetaryRing_286989",
    "count_view": 0
  },
  {
    "link_thumb": "https://live.staticflickr.com/65535/50039686906_bf14e49223_n.jpg",
    "id_album": "1402713104",
    "description": "Landscape_409690",
    "title": "Landscape_409690",
    "link_img": "https://live.staticflickr.com/65535/50039686906_f2c3b0c0f9_o.jpg",
    "id_image": "Landscape_409690",
    "count_view": 0
  },
  {
    "link_thumb": "https://live.staticflickr.com/65535/50039180248_fbc528a886_n.jpg",
    "id_album": "1402713104",
    "description": "Landscape_989276",
    "title": "Landscape_989276",
    "link_img": "https://live.staticflickr.com/65535/50039180248_fd10524880_o.jpg",
    "id_image": "Landscape_989276",
    "count_view": 0
  },
  {
    "link_thumb": "https://live.staticflickr.com/65535/50039088798_b22976553c_n.jpg",
    "id_album": "1204249541",
    "description": "Galaxy_502935",
    "title": "Galaxy_502935",
    "link_img": "https://live.staticflickr.com/65535/50039088798_a0eb0fa0cb_o.jpg",
    "id_image": "Galaxy_502935",
    "count_view": 0
  },
  {
    "link_thumb": "https://live.staticflickr.com/65535/50038900308_502e7e5aa5_n.jpg",
    "id_album": "-1964113117",
    "description": "City_220203",
    "title": "City_220203",
    "link_img": "https://live.staticflickr.com/65535/50038900308_367e43586b_o.jpg",
    "id_image": "City_220203",
    "count_view": 0
  },
  {
    "link_thumb": "https://live.staticflickr.com/65535/50041360771_2fcd110c6c_n.jpg",
    "id_album": "-1177476763",
    "description": "Sunrise_328902",
    "title": "Sunrise_328902",
    "link_img": "https://live.staticflickr.com/65535/50041360771_ab27eb2004_o.jpg",
    "id_image": "Sunrise_328902",
    "count_view": 0
  },
  {
    "link_thumb": "https://live.staticflickr.com/65535/50040280222_bdfb188618_n.jpg",
    "id_album": "1443611160",
    "description": "PlanetRise_951499",
    "title": "PlanetRise_951499",
    "link_img": "https://live.staticflickr.com/65535/50040280222_9c74659fb6_o.jpg",
    "id_image": "PlanetRise_951499",
    "count_view": 0
  },
  {
    "link_thumb": "https://live.staticflickr.com/65535/50041462466_483e7f8eec_n.jpg",
    "id_album": "-1261420436",
    "description": "Warrior_450058",
    "title": "Warrior_450058",
    "link_img": "https://live.staticflickr.com/65535/50041462466_03764027dd_o.jpg",
    "id_image": "Warrior_450058",
    "count_view": 0
  },
  {
    "link_thumb": "https://live.staticflickr.com/65535/50040681182_b5361030f0_n.jpg",
    "id_album": "779690680",
    "description": "Robot_920333",
    "title": "Robot_920333",
    "link_img": "https://live.staticflickr.com/65535/50040681182_7a01088e57_o.jpg",
    "id_image": "Robot_920333",
    "count_view": 0
  },
  {
    "link_thumb": "https://live.staticflickr.com/65535/50041338136_760776478b_n.jpg",
    "id_album": "-221671103",
    "description": "Sun_106490",
    "title": "Sun_106490",
    "link_img": "https://live.staticflickr.com/65535/50041338136_782456eb93_o.jpg",
    "id_image": "Sun_106490",
    "count_view": 0
  },
  {
    "link_thumb": "https://live.staticflickr.com/65535/50039590143_b43978601e_n.jpg",
    "id_album": "-1102314093",
    "description": "Planets_83515",
    "title": "Planets_83515",
    "link_img": "https://live.staticflickr.com/65535/50039590143_cbaa5be251_o.jpg",
    "id_image": "Planets_83515",
    "count_view": 0
  },
  {
    "link_thumb": "https://live.staticflickr.com/65535/50039433301_24b6aaedc2_n.jpg",
    "id_album": "-1964113117",
    "description": "City_115838",
    "title": "City_115838",
    "link_img": "https://live.staticflickr.com/65535/50039433301_376300abe1_o.jpg",
    "id_image": "City_115838",
    "count_view": 0
  },
  {
    "link_thumb": "https://live.staticflickr.com/65535/50040510891_242e1a9dec_n.jpg",
    "id_album": "1613540653",
    "description": "Space_521477",
    "title": "Space_521477",
    "link_img": "https://live.staticflickr.com/65535/50040510891_ae8d37c6ea_o.jpg",
    "id_image": "Space_521477",
    "count_view": 0
  },
  {
    "link_thumb": "https://live.staticflickr.com/65535/50040210416_44cc55272c_n.jpg",
    "id_album": "-482547208",
    "description": "PostApocalyptic_44251",
    "title": "PostApocalyptic_44251",
    "link_img": "https://live.staticflickr.com/65535/50040210416_c5e8b2c7ac_o.jpg",
    "id_image": "PostApocalyptic_44251",
    "count_view": 0
  },
  {
    "link_thumb": "https://live.staticflickr.com/65535/50040245756_d1bf416b2d_n.jpg",
    "id_album": "-839602625",
    "description": "Predator_578299",
    "title": "Predator_578299",
    "link_img": "https://live.staticflickr.com/65535/50040245756_bb68f73bc3_o.jpg",
    "id_image": "Predator_578299",
    "count_view": 0
  },
  {
    "link_thumb": "https://live.staticflickr.com/65535/50041846102_20887a0bfe_n.jpg",
    "id_album": "-1675918237",
    "description": "WomenWarrior_609092",
    "title": "WomenWarrior_609092",
    "link_img": "https://live.staticflickr.com/65535/50041846102_e971b55caa_o.jpg",
    "id_image": "WomenWarrior_609092",
    "count_view": 0
  },
  {
    "link_thumb": "https://live.staticflickr.com/65535/50039229671_d90c60133b_n.jpg",
    "id_album": "280884763",
    "description": "Abstract_324581",
    "title": "Abstract_324581",
    "link_img": "https://live.staticflickr.com/65535/50039229671_720e128555_o.jpg",
    "id_image": "Abstract_324581",
    "count_view": 0
  },
  {
    "link_thumb": "https://live.staticflickr.com/65535/50039490912_d7f5816a69_n.jpg",
    "id_album": "280884763",
    "description": "Abstract_229319",
    "title": "Abstract_229319",
    "link_img": "https://live.staticflickr.com/65535/50039490912_54dcd18721_o.jpg",
    "id_image": "Abstract_229319",
    "count_view": 0
  },
  {
    "link_thumb": "https://live.staticflickr.com/65535/50040017913_35a9e5e9d8_n.jpg",
    "id_album": "2130067313",
    "description": "Spaceship_111950",
    "title": "Spaceship_111950",
    "link_img": "https://live.staticflickr.com/65535/50040017913_3cb71d422f_o.jpg",
    "id_image": "Spaceship_111950",
    "count_view": 0
  },
  {
    "link_thumb": "https://live.staticflickr.com/65535/50040142417_007f5e830d_n.jpg",
    "id_album": "-1610342324",
    "description": "Nebula_500768",
    "title": "Nebula_500768",
    "link_img": "https://live.staticflickr.com/65535/50040142417_121004d94b_o.jpg",
    "id_image": "Nebula_500768",
    "count_view": 0
  },
  {
    "link_thumb": "https://live.staticflickr.com/65535/50039235486_0cd3ccba11_n.jpg",
    "id_album": "-406145265",
    "description": "Aircraft_267751",
    "title": "Aircraft_267751",
    "link_img": "https://live.staticflickr.com/65535/50039235486_90da11aabb_o.jpg",
    "id_image": "Aircraft_267751",
    "count_view": 0
  },
  {
    "link_thumb": "https://live.staticflickr.com/65535/50040100787_04dcbe62b5_n.jpg",
    "id_album": "-1610342324",
    "description": "Nebula_789217",
    "title": "Nebula_789217",
    "link_img": "https://live.staticflickr.com/65535/50040100787_c2242aed3c_o.jpg",
    "id_image": "Nebula_789217",
    "count_view": 0
  },
  {
    "link_thumb": "https://live.staticflickr.com/65535/50038689823_590227410d_n.jpg",
    "id_album": "-406145265",
    "description": "Aircraft_329511",
    "title": "Aircraft_329511",
    "link_img": "https://live.staticflickr.com/65535/50038689823_70fb35c294_o.jpg",
    "id_image": "Aircraft_329511",
    "count_view": 0
  },
  {
    "link_thumb": "https://live.staticflickr.com/65535/50039919857_ace01248de_n.jpg",
    "id_album": "1204249541",
    "description": "Galaxy_942511",
    "title": "Galaxy_942511",
    "link_img": "https://live.staticflickr.com/65535/50039919857_9038d76819_o.jpg",
    "id_image": "Galaxy_942511",
    "count_view": 0
  },
  {
    "link_thumb": "https://live.staticflickr.com/65535/50040397256_6709c74dec_n.jpg",
    "id_album": "779690680",
    "description": "Robot_894433",
    "title": "Robot_894433",
    "link_img": "https://live.staticflickr.com/65535/50040397256_8c7a4a836a_o.jpg",
    "id_image": "Robot_894433",
    "count_view": 0
  },
  {
    "link_thumb": "https://live.staticflickr.com/65535/50040741263_d8646df342_n.jpg",
    "id_album": "1267121215",
    "description": "Steampunk_190409",
    "title": "Steampunk_190409",
    "link_img": "https://live.staticflickr.com/65535/50040741263_28ae8581ff_o.jpg",
    "id_image": "Steampunk_190409",
    "count_view": 0
  },
  {
    "link_thumb": "https://live.staticflickr.com/65535/50039547106_bb98946138_n.jpg",
    "id_album": "-437872736",
    "description": "Creature_218508",
    "title": "Creature_218508",
    "link_img": "https://live.staticflickr.com/65535/50039547106_111fe677cf_o.jpg",
    "id_image": "Creature_218508",
    "count_view": 0
  },
  {
    "link_thumb": "https://live.staticflickr.com/65535/50039407316_9083c4cf32_n.jpg",
    "id_album": "1187037014",
    "description": "Battle_833535",
    "title": "Battle_833535",
    "link_img": "https://live.staticflickr.com/65535/50039407316_0736676ef1_o.jpg",
    "id_image": "Battle_833535",
    "count_view": 0
  },
  {
    "link_thumb": "https://live.staticflickr.com/65535/50039921703_1874468f41_n.jpg",
    "id_album": "1613540653",
    "description": "Space_192886",
    "title": "Space_192886",
    "link_img": "https://live.staticflickr.com/65535/50039921703_d7aeb44c75_o.jpg",
    "id_image": "Space_192886",
    "count_view": 0
  },
  {
    "link_thumb": "https://live.staticflickr.com/65535/50040258551_0d4cf8991d_n.jpg",
    "id_album": "779690680",
    "description": "Robot_180627",
    "title": "Robot_180627",
    "link_img": "https://live.staticflickr.com/65535/50040258551_6b892b676f_o.jpg",
    "id_image": "Robot_180627",
    "count_view": 0
  },
  {
    "link_thumb": "https://live.staticflickr.com/65535/50039318521_7a127f93c4_n.jpg",
    "id_album": "523598895",
    "description": "Artistic_222544",
    "title": "Artistic_222544",
    "link_img": "https://live.staticflickr.com/65535/50039318521_61cf585c72_o.jpg",
    "id_image": "Artistic_222544",
    "count_view": 0
  },
  {
    "link_thumb": "https://live.staticflickr.com/65535/50039130993_b7ab52f2cb_n.jpg",
    "id_album": "1402713104",
    "description": "Landscape_339504",
    "title": "Landscape_339504",
    "link_img": "https://live.staticflickr.com/65535/50039130993_63752e72ee_o.jpg",
    "id_image": "Landscape_339504",
    "count_view": 0
  },
  {
    "link_thumb": "https://live.staticflickr.com/65535/50039496322_c99c2540f5_n.jpg",
    "id_album": "-406145265",
    "description": "Aircraft_146659",
    "title": "Aircraft_146659",
    "link_img": "https://live.staticflickr.com/65535/50039496322_0652f561e7_o.jpg",
    "id_image": "Aircraft_146659",
    "count_view": 0
  },
  {
    "link_thumb": "https://live.staticflickr.com/65535/50040390357_3e582b67b9_n.jpg",
    "id_album": "-1102314093",
    "description": "Planets_596027",
    "title": "Planets_596027",
    "link_img": "https://live.staticflickr.com/65535/50040390357_6fb11583df_o.jpg",
    "id_image": "Planets_596027",
    "count_view": 0
  },
  {
    "link_thumb": "https://live.staticflickr.com/65535/50041100507_9965084e7e_n.jpg",
    "id_album": "-1449720967",
    "description": "StarTrek_323586",
    "title": "StarTrek_323586",
    "link_img": "https://live.staticflickr.com/65535/50041100507_a06e4c9193_o.jpg",
    "id_image": "StarTrek_323586",
    "count_view": 0
  },
  {
    "link_thumb": "https://live.staticflickr.com/65535/50039952172_77cd00becf_n.jpg",
    "id_album": "1402713104",
    "description": "Landscape_435761",
    "title": "Landscape_435761",
    "link_img": "https://live.staticflickr.com/65535/50039952172_6fd0df056e_o.jpg",
    "id_image": "Landscape_435761",
    "count_view": 0
  },
  {
    "link_thumb": "https://live.staticflickr.com/65535/50039871287_117c7750a5_n.jpg",
    "id_album": "651930207",
    "description": "Explosion_2868",
    "title": "Explosion_2868",
    "link_img": "https://live.staticflickr.com/65535/50039871287_1f1c844395_o.jpg",
    "id_image": "Explosion_2868",
    "count_view": 0
  },
  {
    "link_thumb": "https://live.staticflickr.com/65535/50039804392_253815970c_n.jpg",
    "id_album": "894679094",
    "description": "Collision_674915",
    "title": "Collision_674915",
    "link_img": "https://live.staticflickr.com/65535/50039804392_6e520631b6_o.jpg",
    "id_image": "Collision_674915",
    "count_view": 0
  },
  {
    "link_thumb": "https://live.staticflickr.com/65535/50040182462_f4bd8744b3_n.jpg",
    "id_album": "395161030",
    "description": "Planet_202873",
    "title": "Planet_202873",
    "link_img": "https://live.staticflickr.com/65535/50040182462_5fd20889b7_o.jpg",
    "id_image": "Planet_202873",
    "count_view": 0
  },
  {
    "link_thumb": "https://live.staticflickr.com/65535/50039231423_4e65eae5a3_n.jpg",
    "id_album": "-1610342324",
    "description": "Nebula_283572",
    "title": "Nebula_283572",
    "link_img": "https://live.staticflickr.com/65535/50039231423_e07fb06a7e_o.jpg",
    "id_image": "Nebula_283572",
    "count_view": 0
  },
  {
    "link_thumb": "https://live.staticflickr.com/65535/50040608637_5fd342b921_n.jpg",
    "id_album": "779690680",
    "description": "Robot_615955",
    "title": "Robot_615955",
    "link_img": "https://live.staticflickr.com/65535/50040608637_0d5e7bef53_o.jpg",
    "id_image": "Robot_615955",
    "count_view": 0
  },
  {
    "link_thumb": "https://live.staticflickr.com/65535/50040018927_7de1493da8_n.jpg",
    "id_album": "416351698",
    "description": "Moon_285429",
    "title": "Moon_285429",
    "link_img": "https://live.staticflickr.com/65535/50040018927_99907d74c2_o.jpg",
    "id_image": "Moon_285429",
    "count_view": 0
  },
  {
    "link_thumb": "https://live.staticflickr.com/65535/50039776731_e014343c17_n.jpg",
    "id_album": "-1610342324",
    "description": "Nebula_2523",
    "title": "Nebula_2523",
    "link_img": "https://live.staticflickr.com/65535/50039776731_a27ca57cbe_o.jpg",
    "id_image": "Nebula_2523",
    "count_view": 0
  },
  {
    "link_thumb": "https://live.staticflickr.com/65535/50039876428_0c496b365a_n.jpg",
    "id_album": "779690680",
    "description": "Robot_933180",
    "title": "Robot_933180",
    "link_img": "https://live.staticflickr.com/65535/50039876428_b6f321ebd7_o.jpg",
    "id_image": "Robot_933180",
    "count_view": 0
  },
  {
    "link_thumb": "https://live.staticflickr.com/65535/50039638646_f05385b8b6_n.jpg",
    "id_album": "1204249541",
    "description": "Galaxy_506593",
    "title": "Galaxy_506593",
    "link_img": "https://live.staticflickr.com/65535/50039638646_67c6b16e53_o.jpg",
    "id_image": "Galaxy_506593",
    "count_view": 0
  },
  {
    "link_thumb": "https://live.staticflickr.com/65535/50039838758_fef02c71ba_n.jpg",
    "id_album": "779690680",
    "description": "Robot_883162",
    "title": "Robot_883162",
    "link_img": "https://live.staticflickr.com/65535/50039838758_a4bfe445c5_o.jpg",
    "id_image": "Robot_883162",
    "count_view": 0
  },
  {
    "link_thumb": "https://live.staticflickr.com/65535/50039495186_6c612f2636_n.jpg",
    "id_album": "-1964113117",
    "description": "City_750010",
    "title": "City_750010",
    "link_img": "https://live.staticflickr.com/65535/50039495186_d25d19e942_o.jpg",
    "id_image": "City_750010",
    "count_view": 0
  },
  {
    "link_thumb": "https://live.staticflickr.com/65535/50041340232_e307d0a462_n.jpg",
    "id_album": "-1863373220",
    "description": "StarWars_103480",
    "title": "StarWars_103480",
    "link_img": "https://live.staticflickr.com/65535/50041340232_5220ef7836_o.jpg",
    "id_image": "StarWars_103480",
    "count_view": 0
  },
  {
    "link_thumb": "https://live.staticflickr.com/65535/50039925201_601517c1f1_n.jpg",
    "id_album": "395161030",
    "description": "Planet_29231",
    "title": "Planet_29231",
    "link_img": "https://live.staticflickr.com/65535/50039925201_2ef109abe6_o.jpg",
    "id_image": "Planet_29231",
    "count_view": 0
  },
  {
    "link_thumb": "https://live.staticflickr.com/65535/50039785381_4a3678d350_n.jpg",
    "id_album": "-1610342324",
    "description": "Nebula_309390",
    "title": "Nebula_309390",
    "link_img": "https://live.staticflickr.com/65535/50039785381_33bb8f4b96_o.jpg",
    "id_image": "Nebula_309390",
    "count_view": 0
  },
  {
    "link_thumb": "https://live.staticflickr.com/65535/50040650897_f8473343d1_n.jpg",
    "id_album": "779690680",
    "description": "Robot_875302",
    "title": "Robot_875302",
    "link_img": "https://live.staticflickr.com/65535/50040650897_4418f00c2c_o.jpg",
    "id_image": "Robot_875302",
    "count_view": 0
  },
  {
    "link_thumb": "https://live.staticflickr.com/65535/50040666257_60dc1fda9c_n.jpg",
    "id_album": "779690680",
    "description": "Robot_903935",
    "title": "Robot_903935",
    "link_img": "https://live.staticflickr.com/65535/50040666257_becf2703a6_o.jpg",
    "id_image": "Robot_903935",
    "count_view": 0
  },
  {
    "link_thumb": "https://live.staticflickr.com/65535/50039483931_f70686eec8_n.jpg",
    "id_album": "-1964113117",
    "description": "City_649503",
    "title": "City_649503",
    "link_img": "https://live.staticflickr.com/65535/50039483931_60f7952a99_o.jpg",
    "id_image": "City_649503",
    "count_view": 0
  },
  {
    "link_thumb": "https://live.staticflickr.com/65535/50039316021_3ecf6a27c3_n.jpg",
    "id_album": "523598895",
    "description": "Artistic_219904",
    "title": "Artistic_219904",
    "link_img": "https://live.staticflickr.com/65535/50039316021_5a2838ce48_o.jpg",
    "id_image": "Artistic_219904",
    "count_view": 0
  },
  {
    "link_thumb": "https://live.staticflickr.com/65535/50039582048_f3f4fe5375_n.jpg",
    "id_album": "-1102314093",
    "description": "Planets_75642",
    "title": "Planets_75642",
    "link_img": "https://live.staticflickr.com/65535/50039582048_9a9eb641c9_o.jpg",
    "id_image": "Planets_75642",
    "count_view": 0
  },
  {
    "link_thumb": "https://live.staticflickr.com/65535/50039188203_3d85381ab7_n.jpg",
    "id_album": "-1388385651",
    "description": "MilkyWay_663080",
    "title": "MilkyWay_663080",
    "link_img": "https://live.staticflickr.com/65535/50039188203_8f0bebb336_o.jpg",
    "id_image": "MilkyWay_663080",
    "count_view": 0
  },
  {
    "link_thumb": "https://live.staticflickr.com/65535/50039747263_76202ba6f5_n.jpg",
    "id_album": "779690680",
    "description": "Robot_391117",
    "title": "Robot_391117",
    "link_img": "https://live.staticflickr.com/65535/50039747263_53b4c9149b_o.jpg",
    "id_image": "Robot_391117",
    "count_view": 0
  },
  {
    "link_thumb": "https://live.staticflickr.com/65535/50039899282_eb0001c8d6_n.jpg",
    "id_album": "1204249541",
    "description": "Galaxy_453085",
    "title": "Galaxy_453085",
    "link_img": "https://live.staticflickr.com/65535/50039899282_5fae9f7c38_o.jpg",
    "id_image": "Galaxy_453085",
    "count_view": 0
  },
  {
    "link_thumb": "https://live.staticflickr.com/65535/50039983593_9c6dd70cb4_n.jpg",
    "id_album": "1613540653",
    "description": "Space_772701",
    "title": "Space_772701",
    "link_img": "https://live.staticflickr.com/65535/50039983593_fe1e462465_o.jpg",
    "id_image": "Space_772701",
    "count_view": 0
  },
  {
    "link_thumb": "https://live.staticflickr.com/65535/50039889732_c64aa2f89d_n.jpg",
    "id_album": "1204249541",
    "description": "Galaxy_221265",
    "title": "Galaxy_221265",
    "link_img": "https://live.staticflickr.com/65535/50039889732_9d679067ba_o.jpg",
    "id_image": "Galaxy_221265",
    "count_view": 0
  },
  {
    "link_thumb": "https://live.staticflickr.com/65535/50040253778_94ae445d81_n.jpg",
    "id_album": "-1449720967",
    "description": "StarTrek_207897",
    "title": "StarTrek_207897",
    "link_img": "https://live.staticflickr.com/65535/50040253778_3a8d36fd68_o.jpg",
    "id_image": "StarTrek_207897",
    "count_view": 0
  },
  {
    "link_thumb": "https://live.staticflickr.com/65535/50041421582_fd902eb28e_n.jpg",
    "id_album": "-1863373220",
    "description": "StarWars_276422",
    "title": "StarWars_276422",
    "link_img": "https://live.staticflickr.com/65535/50041421582_7793e604cb_o.jpg",
    "id_image": "StarWars_276422",
    "count_view": 0
  },
  {
    "link_thumb": "https://live.staticflickr.com/65535/50040475856_caf7c592f5_n.jpg",
    "id_album": "1613540653",
    "description": "Space_188320",
    "title": "Space_188320",
    "link_img": "https://live.staticflickr.com/65535/50040475856_5d1a333c65_o.jpg",
    "id_image": "Space_188320",
    "count_view": 0
  },
  {
    "link_thumb": "https://live.staticflickr.com/65535/50040340496_76acf16636_n.jpg",
    "id_album": "779690680",
    "description": "Robot_592381",
    "title": "Robot_592381",
    "link_img": "https://live.staticflickr.com/65535/50040340496_f7faef1e2c_o.jpg",
    "id_image": "Robot_592381",
    "count_view": 0
  },
  {
    "link_thumb": "https://live.staticflickr.com/65535/50039877152_65c59498c5_n.jpg",
    "id_album": "2104507156",
    "description": "Fantasy_151862",
    "title": "Fantasy_151862",
    "link_img": "https://live.staticflickr.com/65535/50039877152_af567ab83c_o.jpg",
    "id_image": "Fantasy_151862",
    "count_view": 0
  },
  {
    "link_thumb": "https://live.staticflickr.com/65535/50039192698_40fca0783d_n.jpg",
    "id_album": "-1388385651",
    "description": "MilkyWay_707636",
    "title": "MilkyWay_707636",
    "link_img": "https://live.staticflickr.com/65535/50039192698_c695bcae08_o.jpg",
    "id_image": "MilkyWay_707636",
    "count_view": 0
  },
  {
    "link_thumb": "https://live.staticflickr.com/65535/50040033432_c0ed04d06f_n.jpg",
    "id_album": "-1610342324",
    "description": "Nebula_208618",
    "title": "Nebula_208618",
    "link_img": "https://live.staticflickr.com/65535/50040033432_83a35d9377_o.jpg",
    "id_image": "Nebula_208618",
    "count_view": 0
  },
  {
    "link_thumb": "https://live.staticflickr.com/65535/50039380213_5d8f26085a_n.jpg",
    "id_album": "395161030",
    "description": "Planet_328265",
    "title": "Planet_328265",
    "link_img": "https://live.staticflickr.com/65535/50039380213_dc16cf043d_o.jpg",
    "id_image": "Planet_328265",
    "count_view": 0
  },
  {
    "link_thumb": "https://live.staticflickr.com/65535/50039406298_cf4d8aa9b2_n.jpg",
    "id_album": "395161030",
    "description": "Planet_511413",
    "title": "Planet_511413",
    "link_img": "https://live.staticflickr.com/65535/50039406298_57196a2def_o.jpg",
    "id_image": "Planet_511413",
    "count_view": 0
  },
  {
    "link_thumb": "https://live.staticflickr.com/65535/50039691091_0268d9a0ea_n.jpg",
    "id_album": "1402713104",
    "description": "Landscape_517927",
    "title": "Landscape_517927",
    "link_img": "https://live.staticflickr.com/65535/50039691091_e622bcac59_o.jpg",
    "id_image": "Landscape_517927",
    "count_view": 0
  },
  {
    "link_thumb": "https://live.staticflickr.com/65535/50040169391_469a72ecd6_n.jpg",
    "id_album": "376235057",
    "description": "Planetscape_376845",
    "title": "Planetscape_376845",
    "link_img": "https://live.staticflickr.com/65535/50040169391_84d80e2730_o.jpg",
    "id_image": "Planetscape_376845",
    "count_view": 0
  },
  {
    "link_thumb": "https://live.staticflickr.com/65535/50040397606_e162180d1d_n.jpg",
    "id_album": "779690680",
    "description": "Robot_894441",
    "title": "Robot_894441",
    "link_img": "https://live.staticflickr.com/65535/50040397606_e2d6583ec9_o.jpg",
    "id_image": "Robot_894441",
    "count_view": 0
  },
  {
    "link_thumb": "https://live.staticflickr.com/65535/50040255181_c0da59f9a9_n.jpg",
    "id_album": "779690680",
    "description": "Robot_150270",
    "title": "Robot_150270",
    "link_img": "https://live.staticflickr.com/65535/50040255181_0b53e6c296_o.jpg",
    "id_image": "Robot_150270",
    "count_view": 0
  },
  {
    "link_thumb": "https://live.staticflickr.com/65535/50039258993_1673b08626_n.jpg",
    "id_album": "-1610342324",
    "description": "Nebula_551112",
    "title": "Nebula_551112",
    "link_img": "https://live.staticflickr.com/65535/50039258993_1f9721ccf8_o.jpg",
    "id_image": "Nebula_551112",
    "count_view": 0
  },
  {
    "link_thumb": "https://live.staticflickr.com/65535/50039642711_f9f29f6884_n.jpg",
    "id_album": "1204249541",
    "description": "Galaxy_555688",
    "title": "Galaxy_555688",
    "link_img": "https://live.staticflickr.com/65535/50039642711_6ccda1932f_o.jpg",
    "id_image": "Galaxy_555688",
    "count_view": 0
  },
  {
    "link_thumb": "https://live.staticflickr.com/65535/50039474601_d3e534b062_n.jpg",
    "id_album": "-1964113117",
    "description": "City_51459",
    "title": "City_51459",
    "link_img": "https://live.staticflickr.com/65535/50039474601_b2083b5ba7_o.jpg",
    "id_image": "City_51459",
    "count_view": 0
  },
  {
    "link_thumb": "https://live.staticflickr.com/65535/50040090656_487d49d8dc_n.jpg",
    "id_album": "-1102314093",
    "description": "Planets_348909",
    "title": "Planets_348909",
    "link_img": "https://live.staticflickr.com/65535/50040090656_bdfa171c2f_o.jpg",
    "id_image": "Planets_348909",
    "count_view": 0
  },
  {
    "link_thumb": "https://live.staticflickr.com/65535/50039915807_3440870b0f_n.jpg",
    "id_album": "1204249541",
    "description": "Galaxy_746412",
    "title": "Galaxy_746412",
    "link_img": "https://live.staticflickr.com/65535/50039915807_055d3eec38_o.jpg",
    "id_image": "Galaxy_746412",
    "count_view": 0
  },
  {
    "link_thumb": "https://live.staticflickr.com/65535/50038873063_76496d0ef3_n.jpg",
    "id_album": "406431601",
    "description": "Building_405546",
    "title": "Building_405546",
    "link_img": "https://live.staticflickr.com/65535/50038873063_605146dc18_o.jpg",
    "id_image": "Building_405546",
    "count_view": 0
  },
  {
    "link_thumb": "https://live.staticflickr.com/65535/50040087961_a9ab6f44e7_n.jpg",
    "id_album": "-1102314093",
    "description": "Planets_34359",
    "title": "Planets_34359",
    "link_img": "https://live.staticflickr.com/65535/50040087961_2173244db9_o.jpg",
    "id_image": "Planets_34359",
    "count_view": 0
  },
  {
    "link_thumb": "https://live.staticflickr.com/65535/50039479186_56842b61a6_n.jpg",
    "id_album": "-1964113117",
    "description": "City_564460",
    "title": "City_564460",
    "link_img": "https://live.staticflickr.com/65535/50039479186_1b6ba7bfd1_o.jpg",
    "id_image": "City_564460",
    "count_view": 0
  },
  {
    "link_thumb": "https://live.staticflickr.com/65535/50039140883_023f1a95ce_n.jpg",
    "id_album": "1402713104",
    "description": "Landscape_459374",
    "title": "Landscape_459374",
    "link_img": "https://live.staticflickr.com/65535/50039140883_ec4d917ef5_o.jpg",
    "id_image": "Landscape_459374",
    "count_view": 0
  },
  {
    "link_thumb": "https://live.staticflickr.com/65535/50038854778_ce6fe0f324_n.jpg",
    "id_album": "1187037014",
    "description": "Battle_528305",
    "title": "Battle_528305",
    "link_img": "https://live.staticflickr.com/65535/50038854778_7a331d936b_o.jpg",
    "id_image": "Battle_528305",
    "count_view": 0
  },
  {
    "link_thumb": "https://live.staticflickr.com/65535/50040200222_e5a89f0d24_n.jpg",
    "id_album": "395161030",
    "description": "Planet_357524",
    "title": "Planet_357524",
    "link_img": "https://live.staticflickr.com/65535/50040200222_b043ab89f0_o.jpg",
    "id_image": "Planet_357524",
    "count_view": 0
  },
  {
    "link_thumb": "https://live.staticflickr.com/65535/50039890458_1c62e80082_n.jpg",
    "id_album": "779690680",
    "description": "Robot_958229",
    "title": "Robot_958229",
    "link_img": "https://live.staticflickr.com/65535/50039890458_cf4383612a_o.jpg",
    "id_image": "Robot_958229",
    "count_view": 0
  },
  {
    "link_thumb": "https://live.staticflickr.com/65535/50039680013_996d9bbb9a_n.jpg",
    "id_album": "-482547208",
    "description": "PostApocalyptic_948245",
    "title": "PostApocalyptic_948245",
    "link_img": "https://live.staticflickr.com/65535/50039680013_65f255246e_o.jpg",
    "id_image": "PostApocalyptic_948245",
    "count_view": 0
  },
  {
    "link_thumb": "https://live.staticflickr.com/65535/50039947261_762afe8259_n.jpg",
    "id_album": "395161030",
    "description": "Planet_413994",
    "title": "Planet_413994",
    "link_img": "https://live.staticflickr.com/65535/50039947261_7e4deae1ec_o.jpg",
    "id_image": "Planet_413994",
    "count_view": 0
  },
  {
    "link_thumb": "https://live.staticflickr.com/65535/50040995088_a64fb3aefb_n.jpg",
    "id_album": "-1126835654",
    "description": "Women_865727",
    "title": "Women_865727",
    "link_img": "https://live.staticflickr.com/65535/50040995088_552687054a_o.jpg",
    "id_image": "Women_865727",
    "count_view": 0
  },
  {
    "link_thumb": "https://live.staticflickr.com/65535/50039887922_8afe9b2960_n.jpg",
    "id_album": "1204249541",
    "description": "Galaxy_172925",
    "title": "Galaxy_172925",
    "link_img": "https://live.staticflickr.com/65535/50039887922_210d4aa4a2_o.jpg",
    "id_image": "Galaxy_172925",
    "count_view": 0
  },
  {
    "link_thumb": "https://live.staticflickr.com/65535/50040067441_2929c7e767_n.jpg",
    "id_album": "-1102314093",
    "description": "Planets_25111",
    "title": "Planets_25111",
    "link_img": "https://live.staticflickr.com/65535/50040067441_6c39951352_o.jpg",
    "id_image": "Planets_25111",
    "count_view": 0
  },
  {
    "link_thumb": "https://live.staticflickr.com/65535/50040128387_e629986e63_n.jpg",
    "id_album": "-1862561193",
    "description": "Other_209413",
    "title": "Other_209413",
    "link_img": "https://live.staticflickr.com/65535/50040128387_e6104a0e3d_o.jpg",
    "id_image": "Other_209413",
    "count_view": 0
  },
  {
    "link_thumb": "https://live.staticflickr.com/65535/50039630057_56c9fd7224_n.jpg",
    "id_album": "869545341",
    "description": "Astronaut_807131",
    "title": "Astronaut_807131",
    "link_img": "https://live.staticflickr.com/65535/50039630057_c51821f476_o.jpg",
    "id_image": "Astronaut_807131",
    "count_view": 0
  },
  {
    "link_thumb": "https://live.staticflickr.com/65535/50040843876_4d72f8d0d2_n.jpg",
    "id_album": "-1449720967",
    "description": "StarTrek_333721",
    "title": "StarTrek_333721",
    "link_img": "https://live.staticflickr.com/65535/50040843876_9278b1db7d_o.jpg",
    "id_image": "StarTrek_333721",
    "count_view": 0
  },
  {
    "link_thumb": "https://live.staticflickr.com/65535/50039777586_4e05c6b627_n.jpg",
    "id_album": "-1610342324",
    "description": "Nebula_2542",
    "title": "Nebula_2542",
    "link_img": "https://live.staticflickr.com/65535/50039777586_b88aa863dd_o.jpg",
    "id_image": "Nebula_2542",
    "count_view": 0
  },
  {
    "link_thumb": "https://live.staticflickr.com/65535/50039159053_b339d649f2_n.jpg",
    "id_album": "1402713104",
    "description": "Landscape_80660",
    "title": "Landscape_80660",
    "link_img": "https://live.staticflickr.com/65535/50039159053_3302981f3f_o.jpg",
    "id_image": "Landscape_80660",
    "count_view": 0
  },
  {
    "link_thumb": "https://live.staticflickr.com/65535/50040627478_a20c888f9f_n.jpg",
    "id_album": "-1863373220",
    "description": "StarWars_446469",
    "title": "StarWars_446469",
    "link_img": "https://live.staticflickr.com/65535/50040627478_9fda6f5759_o.jpg",
    "id_image": "StarWars_446469",
    "count_view": 0
  },
  {
    "link_thumb": "https://live.staticflickr.com/65535/50039676087_9f077851ba_n.jpg",
    "id_album": "-1780971522",
    "description": "Biohazard_339231",
    "title": "Biohazard_339231",
    "link_img": "https://live.staticflickr.com/65535/50039676087_600e8a7b9f_o.jpg",
    "id_image": "Biohazard_339231",
    "count_view": 0
  },
  {
    "link_thumb": "https://live.staticflickr.com/65535/50039233748_8c846553a4_n.jpg",
    "id_album": "-1610342324",
    "description": "Nebula_287845",
    "title": "Nebula_287845",
    "link_img": "https://live.staticflickr.com/65535/50039233748_7d1c42fcf5_o.jpg",
    "id_image": "Nebula_287845",
    "count_view": 0
  },
  {
    "link_thumb": "https://live.staticflickr.com/65535/50040487401_be1903396e_n.jpg",
    "id_album": "1613540653",
    "description": "Space_286967",
    "title": "Space_286967",
    "link_img": "https://live.staticflickr.com/65535/50040487401_d9f2013240_o.jpg",
    "id_image": "Space_286967",
    "count_view": 0
  },
  {
    "link_thumb": "https://live.staticflickr.com/65535/50039205048_42075e325c_n.jpg",
    "id_album": "416351698",
    "description": "Moon_226142",
    "title": "Moon_226142",
    "link_img": "https://live.staticflickr.com/65535/50039205048_dc0266d03c_o.jpg",
    "id_image": "Moon_226142",
    "count_view": 0
  },
  {
    "link_thumb": "https://live.staticflickr.com/65535/50038924853_19ceb0b08a_n.jpg",
    "id_album": "-1964113117",
    "description": "City_498283",
    "title": "City_498283",
    "link_img": "https://live.staticflickr.com/65535/50038924853_b2c7b2e46f_o.jpg",
    "id_image": "City_498283",
    "count_view": 0
  },
  {
    "link_thumb": "https://live.staticflickr.com/65535/50039578337_1af17a9b88_n.jpg",
    "id_album": "523598895",
    "description": "Artistic_220815",
    "title": "Artistic_220815",
    "link_img": "https://live.staticflickr.com/65535/50039578337_a9f34f449d_o.jpg",
    "id_image": "Artistic_220815",
    "count_view": 0
  },
  {
    "link_thumb": "https://live.staticflickr.com/65535/50040024702_c8ca15cb2b_n.jpg",
    "id_album": "-1610342324",
    "description": "Nebula_104930",
    "title": "Nebula_104930",
    "link_img": "https://live.staticflickr.com/65535/50040024702_550befb9aa_o.jpg",
    "id_image": "Nebula_104930",
    "count_view": 0
  },
  {
    "link_thumb": "https://live.staticflickr.com/65535/50040526212_e43c8d8195_n.jpg",
    "id_album": "779690680",
    "description": "Robot_188943",
    "title": "Robot_188943",
    "link_img": "https://live.staticflickr.com/65535/50040526212_1d43b3ddfe_o.jpg",
    "id_image": "Robot_188943",
    "count_view": 0
  },
  {
    "link_thumb": "https://live.staticflickr.com/65535/50041460387_0a44a2954b_n.jpg",
    "id_album": "-1863373220",
    "description": "StarWars_584843",
    "title": "StarWars_584843",
    "link_img": "https://live.staticflickr.com/65535/50041460387_737c33118e_o.jpg",
    "id_image": "StarWars_584843",
    "count_view": 0
  },
  {
    "link_thumb": "https://live.staticflickr.com/65535/50039215803_b11b97cb43_n.jpg",
    "id_album": "-1610342324",
    "description": "Nebula_179728",
    "title": "Nebula_179728",
    "link_img": "https://live.staticflickr.com/65535/50039215803_d72b44db82_o.jpg",
    "id_image": "Nebula_179728",
    "count_view": 0
  },
  {
    "link_thumb": "https://live.staticflickr.com/65535/50039840071_3e1b57f89a_n.jpg",
    "id_album": "-1610342324",
    "description": "Nebula_814609",
    "title": "Nebula_814609",
    "link_img": "https://live.staticflickr.com/65535/50039840071_85fcc32ddf_o.jpg",
    "id_image": "Nebula_814609",
    "count_view": 0
  },
  {
    "link_thumb": "https://live.staticflickr.com/65535/50038852258_d441592f54_n.jpg",
    "id_album": "1187037014",
    "description": "Battle_301484",
    "title": "Battle_301484",
    "link_img": "https://live.staticflickr.com/65535/50038852258_46c34183d5_o.jpg",
    "id_image": "Battle_301484",
    "count_view": 0
  },
  {
    "link_thumb": "https://live.staticflickr.com/65535/50040529783_7d356bc534_n.jpg",
    "id_album": "-1863373220",
    "description": "StarWars_107444",
    "title": "StarWars_107444",
    "link_img": "https://live.staticflickr.com/65535/50040529783_4c8901f064_o.jpg",
    "id_image": "StarWars_107444",
    "count_view": 0
  },
  {
    "link_thumb": "https://live.staticflickr.com/65535/50038852028_7fb34a00f8_n.jpg",
    "id_album": "1187037014",
    "description": "Battle_298861",
    "title": "Battle_298861",
    "link_img": "https://live.staticflickr.com/65535/50038852028_6cd2a25f23_o.jpg",
    "id_image": "Battle_298861",
    "count_view": 0
  },
  {
    "link_thumb": "https://live.staticflickr.com/65535/50041853312_8f36709b7e_n.jpg",
    "id_album": "-1675918237",
    "description": "WomenWarrior_969373",
    "title": "WomenWarrior_969373",
    "link_img": "https://live.staticflickr.com/65535/50041853312_869ecc828f_o.jpg",
    "id_image": "WomenWarrior_969373",
    "count_view": 0
  },
  {
    "link_thumb": "https://live.staticflickr.com/65535/50038695848_04d9d31be0_n.jpg",
    "id_album": "849020728",
    "description": "Alien_1003054",
    "title": "Alien_1003054",
    "link_img": "https://live.staticflickr.com/65535/50038695848_5e6084297e_o.jpg",
    "id_image": "Alien_1003054",
    "count_view": 0
  },
  {
    "link_thumb": "https://live.staticflickr.com/65535/50040209106_07fc87bde5_n.jpg",
    "id_album": "-482547208",
    "description": "PostApocalyptic_373107",
    "title": "PostApocalyptic_373107",
    "link_img": "https://live.staticflickr.com/65535/50040209106_be423b5919_o.jpg",
    "id_image": "PostApocalyptic_373107",
    "count_view": 0
  },
  {
    "link_thumb": "https://live.staticflickr.com/65535/50042103631_b5a16bea3d_n.jpg",
    "id_album": "-1261420436",
    "description": "Warrior_592382",
    "title": "Warrior_592382",
    "link_img": "https://live.staticflickr.com/65535/50042103631_422098963d_o.jpg",
    "id_image": "Warrior_592382",
    "count_view": 0
  },
  {
    "link_thumb": "https://live.staticflickr.com/65535/50040201657_346430a541_n.jpg",
    "id_album": "395161030",
    "description": "Planet_363682",
    "title": "Planet_363682",
    "link_img": "https://live.staticflickr.com/65535/50040201657_b2ccbe537b_o.jpg",
    "id_image": "Planet_363682",
    "count_view": 0
  },
  {
    "link_thumb": "https://live.staticflickr.com/65535/50040367746_ec1e7c2c47_n.jpg",
    "id_album": "779690680",
    "description": "Robot_81188",
    "title": "Robot_81188",
    "link_img": "https://live.staticflickr.com/65535/50040367746_7f2d2e58b2_o.jpg",
    "id_image": "Robot_81188",
    "count_view": 0
  },
  {
    "link_thumb": "https://live.staticflickr.com/65535/50039249443_77f4c8ce0a_n.jpg",
    "id_album": "-1610342324",
    "description": "Nebula_44996",
    "title": "Nebula_44996",
    "link_img": "https://live.staticflickr.com/65535/50039249443_fe3dee12bb_o.jpg",
    "id_image": "Nebula_44996",
    "count_view": 0
  },
  {
    "link_thumb": "https://live.staticflickr.com/65535/50040541077_47865b2419_n.jpg",
    "id_album": "779690680",
    "description": "Robot_264068",
    "title": "Robot_264068",
    "link_img": "https://live.staticflickr.com/65535/50040541077_e0e51772f3_o.jpg",
    "id_image": "Robot_264068",
    "count_view": 0
  },
  {
    "link_thumb": "https://live.staticflickr.com/65535/50039777302_a6efaf5222_n.jpg",
    "id_album": "-1964113117",
    "description": "City_898604",
    "title": "City_898604",
    "link_img": "https://live.staticflickr.com/65535/50039777302_6f1dfa2b3a_o.jpg",
    "id_image": "City_898604",
    "count_view": 0
  },
  {
    "link_thumb": "https://live.staticflickr.com/65535/50039498177_7d9f7f86fc_n.jpg",
    "id_album": "-406145265",
    "description": "Aircraft_269371",
    "title": "Aircraft_269371",
    "link_img": "https://live.staticflickr.com/65535/50039498177_a432629343_o.jpg",
    "id_image": "Aircraft_269371",
    "count_view": 0
  },
  {
    "link_thumb": "https://live.staticflickr.com/65535/50040324547_a93326b843_n.jpg",
    "id_album": "-1102314093",
    "description": "Planets_220569",
    "title": "Planets_220569",
    "link_img": "https://live.staticflickr.com/65535/50040324547_535c81d5e8_o.jpg",
    "id_image": "Planets_220569",
    "count_view": 0
  },
  {
    "link_thumb": "https://live.staticflickr.com/65535/50039885988_64343aa07e_n.jpg",
    "id_album": "779690680",
    "description": "Robot_949786",
    "title": "Robot_949786",
    "link_img": "https://live.staticflickr.com/65535/50039885988_76b6ddaa08_o.jpg",
    "id_image": "Robot_949786",
    "count_view": 0
  },
  {
    "link_thumb": "https://live.staticflickr.com/65535/50038731508_e34f7dcbcd_n.jpg",
    "id_album": "-419633230",
    "description": "Apocalyptic_159570",
    "title": "Apocalyptic_159570",
    "link_img": "https://live.staticflickr.com/65535/50038731508_8b4d2503b9_o.jpg",
    "id_image": "Apocalyptic_159570",
    "count_view": 0
  },
  {
    "link_thumb": "https://live.staticflickr.com/65535/50041265006_8ac801e027_n.jpg",
    "id_album": "-1587696329",
    "description": "Stars_3979",
    "title": "Stars_3979",
    "link_img": "https://live.staticflickr.com/65535/50041265006_a69ab06147_o.jpg",
    "id_image": "Stars_3979",
    "count_view": 0
  },
  {
    "link_thumb": "https://live.staticflickr.com/65535/50040523157_aebfabe9c1_n.jpg",
    "id_album": "779690680",
    "description": "Robot_176936",
    "title": "Robot_176936",
    "link_img": "https://live.staticflickr.com/65535/50040523157_9b71a7c248_o.jpg",
    "id_image": "Robot_176936",
    "count_view": 0
  },
  {
    "link_thumb": "https://live.staticflickr.com/65535/50039901102_b0c976c2de_n.jpg",
    "id_album": "1204249541",
    "description": "Galaxy_505514",
    "title": "Galaxy_505514",
    "link_img": "https://live.staticflickr.com/65535/50039901102_75d1a3ae66_o.jpg",
    "id_image": "Galaxy_505514",
    "count_view": 0
  },
  {
    "link_thumb": "https://live.staticflickr.com/65535/50039085638_f3f1f15e65_n.jpg",
    "id_album": "1204249541",
    "description": "Galaxy_441052",
    "title": "Galaxy_441052",
    "link_img": "https://live.staticflickr.com/65535/50039085638_1dab90f29d_o.jpg",
    "id_image": "Galaxy_441052",
    "count_view": 0
  },
  {
    "link_thumb": "https://live.staticflickr.com/65535/50039883601_5c059b27c4_n.jpg",
    "id_album": "-1862561193",
    "description": "Other_280795",
    "title": "Other_280795",
    "link_img": "https://live.staticflickr.com/65535/50039883601_0c8edf0243_o.jpg",
    "id_image": "Other_280795",
    "count_view": 0
  },
  {
    "link_thumb": "https://live.staticflickr.com/65535/50038947833_1094422e5e_n.jpg",
    "id_album": "-1964113117",
    "description": "City_778694",
    "title": "City_778694",
    "link_img": "https://live.staticflickr.com/65535/50038947833_e07af4082c_o.jpg",
    "id_image": "City_778694",
    "count_view": 0
  },
  {
    "link_thumb": "https://live.staticflickr.com/65535/50039415696_aa5a6048fe_n.jpg",
    "id_album": "-1780971522",
    "description": "Biohazard_49910",
    "title": "Biohazard_49910",
    "link_img": "https://live.staticflickr.com/65535/50039415696_da15f7f98a_o.jpg",
    "id_image": "Biohazard_49910",
    "count_view": 0
  },
  {
    "link_thumb": "https://live.staticflickr.com/65535/50039296721_5ff1aecc03_n.jpg",
    "id_album": "523598895",
    "description": "Artistic_151473",
    "title": "Artistic_151473",
    "link_img": "https://live.staticflickr.com/65535/50039296721_380a591684_o.jpg",
    "id_image": "Artistic_151473",
    "count_view": 0
  },
  {
    "link_thumb": "https://live.staticflickr.com/65535/50040779232_864f86c46b_n.jpg",
    "id_album": "1613540653",
    "description": "Space_57219",
    "title": "Space_57219",
    "link_img": "https://live.staticflickr.com/65535/50040779232_5a7711564c_o.jpg",
    "id_image": "Space_57219",
    "count_view": 0
  },
  {
    "link_thumb": "https://live.staticflickr.com/65535/50040028212_f47078a9b6_n.jpg",
    "id_album": "-1610342324",
    "description": "Nebula_1773",
    "title": "Nebula_1773",
    "link_img": "https://live.staticflickr.com/65535/50040028212_ab7ab6955c_o.jpg",
    "id_image": "Nebula_1773",
    "count_view": 0
  },
  {
    "link_thumb": "https://live.staticflickr.com/65535/50040442962_4ca930429e_n.jpg",
    "id_album": "376235057",
    "description": "Planetscape_614568",
    "title": "Planetscape_614568",
    "link_img": "https://live.staticflickr.com/65535/50040442962_27d9521b03_o.jpg",
    "id_image": "Planetscape_614568",
    "count_view": 0
  },
  {
    "link_thumb": "https://live.staticflickr.com/65535/50041522551_642c2d1782_n.jpg",
    "id_album": "-1126835654",
    "description": "Women_322512",
    "title": "Women_322512",
    "link_img": "https://live.staticflickr.com/65535/50041522551_f6817d6f41_o.jpg",
    "id_image": "Women_322512",
    "count_view": 0
  },
  {
    "link_thumb": "https://live.staticflickr.com/65535/50039837012_0f36c881c1_n.jpg",
    "id_album": "829169633",
    "description": "Cyborg_1010639",
    "title": "Cyborg_1010639",
    "link_img": "https://live.staticflickr.com/65535/50039837012_8ff93eba29_o.jpg",
    "id_image": "Cyborg_1010639",
    "count_view": 0
  },
  {
    "link_thumb": "https://live.staticflickr.com/65535/50039978348_9f8bcf9f61_n.jpg",
    "id_album": "1613540653",
    "description": "Space_719903",
    "title": "Space_719903",
    "link_img": "https://live.staticflickr.com/65535/50039978348_8eab05a215_o.jpg",
    "id_image": "Space_719903",
    "count_view": 0
  },
  {
    "link_thumb": "https://live.staticflickr.com/65535/50039508957_f96da37753_n.jpg",
    "id_album": "849020728",
    "description": "Alien_153648",
    "title": "Alien_153648",
    "link_img": "https://live.staticflickr.com/65535/50039508957_7bf360812b_o.jpg",
    "id_image": "Alien_153648",
    "count_view": 0
  },
  {
    "link_thumb": "https://live.staticflickr.com/65535/50039659377_bcbe08c9a6_n.jpg",
    "id_album": "1187037014",
    "description": "Battle_232969",
    "title": "Battle_232969",
    "link_img": "https://live.staticflickr.com/65535/50039659377_15e550360c_o.jpg",
    "id_image": "Battle_232969",
    "count_view": 0
  },
  {
    "link_thumb": "https://live.staticflickr.com/65535/50040695652_1f5ba38cc9_n.jpg",
    "id_album": "779690680",
    "description": "Robot_934613",
    "title": "Robot_934613",
    "link_img": "https://live.staticflickr.com/65535/50040695652_8209c71908_o.jpg",
    "id_image": "Robot_934613",
    "count_view": 0
  },
  {
    "link_thumb": "https://live.staticflickr.com/65535/50040641433_9cda19fc71_n.jpg",
    "id_album": "-1863373220",
    "description": "StarWars_582380",
    "title": "StarWars_582380",
    "link_img": "https://live.staticflickr.com/65535/50040641433_da0ea79af5_o.jpg",
    "id_image": "StarWars_582380",
    "count_view": 0
  },
  {
    "link_thumb": "https://live.staticflickr.com/65535/50039750138_9c7b974a62_n.jpg",
    "id_album": "779690680",
    "description": "Robot_403396",
    "title": "Robot_403396",
    "link_img": "https://live.staticflickr.com/65535/50039750138_6a0d5ee0f9_o.jpg",
    "id_image": "Robot_403396",
    "count_view": 0
  },
  {
    "link_thumb": "https://live.staticflickr.com/65535/50039940481_773f889fb2_n.jpg",
    "id_album": "395161030",
    "description": "Planet_375800",
    "title": "Planet_375800",
    "link_img": "https://live.staticflickr.com/65535/50039940481_4deb144a83_o.jpg",
    "id_image": "Planet_375800",
    "count_view": 0
  },
  {
    "link_thumb": "https://live.staticflickr.com/65535/50039874433_f90047f51f_n.jpg",
    "id_album": "779690680",
    "description": "Robot_931798",
    "title": "Robot_931798",
    "link_img": "https://live.staticflickr.com/65535/50039874433_f233546d15_o.jpg",
    "id_image": "Robot_931798",
    "count_view": 0
  },
  {
    "link_thumb": "https://live.staticflickr.com/65535/50040400722_d801902011_n.jpg",
    "id_album": "-1102314093",
    "description": "Planets_807177",
    "title": "Planets_807177",
    "link_img": "https://live.staticflickr.com/65535/50040400722_e1a6c1ef0d_o.jpg",
    "id_image": "Planets_807177",
    "count_view": 0
  },
  {
    "link_thumb": "https://live.staticflickr.com/65535/50040087647_a8efe44b4a_n.jpg",
    "id_album": "-1610342324",
    "description": "Nebula_703542",
    "title": "Nebula_703542",
    "link_img": "https://live.staticflickr.com/65535/50040087647_b775c88f05_o.jpg",
    "id_image": "Nebula_703542",
    "count_view": 0
  },
  {
    "link_thumb": "https://live.staticflickr.com/65535/50040072037_8b9d7d5048_n.jpg",
    "id_album": "-1610342324",
    "description": "Nebula_555187",
    "title": "Nebula_555187",
    "link_img": "https://live.staticflickr.com/65535/50040072037_04ff30503a_o.jpg",
    "id_image": "Nebula_555187",
    "count_view": 0
  },
  {
    "link_thumb": "https://live.staticflickr.com/65535/50040411906_fb11683585_n.jpg",
    "id_album": "779690680",
    "description": "Robot_914935",
    "title": "Robot_914935",
    "link_img": "https://live.staticflickr.com/65535/50040411906_1e0aff76b5_o.jpg",
    "id_image": "Robot_914935",
    "count_view": 0
  },
  {
    "link_thumb": "https://live.staticflickr.com/65535/50039690756_f035c2ac55_n.jpg",
    "id_album": "1402713104",
    "description": "Landscape_505517",
    "title": "Landscape_505517",
    "link_img": "https://live.staticflickr.com/65535/50039690756_988595c684_o.jpg",
    "id_image": "Landscape_505517",
    "count_view": 0
  },
  {
    "link_thumb": "https://live.staticflickr.com/65535/50040461132_758b5eeaaf_n.jpg",
    "id_album": "-482547208",
    "description": "PostApocalyptic_217638",
    "title": "PostApocalyptic_217638",
    "link_img": "https://live.staticflickr.com/65535/50040461132_2a7a7a7450_o.jpg",
    "id_image": "PostApocalyptic_217638",
    "count_view": 0
  },
  {
    "link_thumb": "https://live.staticflickr.com/65535/50041562462_3cb99428ce_n.jpg",
    "id_album": "1267121215",
    "description": "Steampunk_202247",
    "title": "Steampunk_202247",
    "link_img": "https://live.staticflickr.com/65535/50041562462_250822101d_o.jpg",
    "id_image": "Steampunk_202247",
    "count_view": 0
  },
  {
    "link_thumb": "https://live.staticflickr.com/65535/50041684357_9742bce55a_n.jpg",
    "id_album": "2020068132",
    "description": "Vehicle_951332",
    "title": "Vehicle_951332",
    "link_img": "https://live.staticflickr.com/65535/50041684357_549c47980f_o.jpg",
    "id_image": "Vehicle_951332",
    "count_view": 0
  },
  {
    "link_thumb": "https://live.staticflickr.com/65535/50040616113_4eb7c4ee0a_n.jpg",
    "id_album": "-1863373220",
    "description": "StarWars_344859",
    "title": "StarWars_344859",
    "link_img": "https://live.staticflickr.com/65535/50040616113_01ff22cc2e_o.jpg",
    "id_image": "StarWars_344859",
    "count_view": 0
  },
  {
    "link_thumb": "https://live.staticflickr.com/65535/50039664237_a4ce830849_n.jpg",
    "id_album": "1187037014",
    "description": "Battle_337237",
    "title": "Battle_337237",
    "link_img": "https://live.staticflickr.com/65535/50039664237_918d6dbcba_o.jpg",
    "id_image": "Battle_337237",
    "count_view": 0
  },
  {
    "link_thumb": "https://live.staticflickr.com/65535/50038718143_a93aced6ed_n.jpg",
    "id_album": "849020728",
    "description": "Alien_464335",
    "title": "Alien_464335",
    "link_img": "https://live.staticflickr.com/65535/50038718143_47643e613b_o.jpg",
    "id_image": "Alien_464335",
    "count_view": 0
  },
  {
    "link_thumb": "https://live.staticflickr.com/65535/50039733941_47c389e95c_n.jpg",
    "id_album": "-1388385651",
    "description": "MilkyWay_555696",
    "title": "MilkyWay_555696",
    "link_img": "https://live.staticflickr.com/65535/50039733941_eb09d7329b_o.jpg",
    "id_image": "MilkyWay_555696",
    "count_view": 0
  },
  {
    "link_thumb": "https://live.staticflickr.com/65535/50039109763_8b7038f2ac_n.jpg",
    "id_album": "1402713104",
    "description": "Landscape_101742",
    "title": "Landscape_101742",
    "link_img": "https://live.staticflickr.com/65535/50039109763_fe61a28884_o.jpg",
    "id_image": "Landscape_101742",
    "count_view": 0
  },
  {
    "link_thumb": "https://live.staticflickr.com/65535/50039942561_88fe41c5c0_n.jpg",
    "id_album": "395161030",
    "description": "Planet_379334",
    "title": "Planet_379334",
    "link_img": "https://live.staticflickr.com/65535/50039942561_bd725f56be_o.jpg",
    "id_image": "Planet_379334",
    "count_view": 0
  },
  {
    "link_thumb": "https://live.staticflickr.com/65535/50040039368_50c7315103_n.jpg",
    "id_album": "2130067313",
    "description": "Spaceship_191663",
    "title": "Spaceship_191663",
    "link_img": "https://live.staticflickr.com/65535/50040039368_39f76fae06_o.jpg",
    "id_image": "Spaceship_191663",
    "count_view": 0
  },
  {
    "link_thumb": "https://live.staticflickr.com/65535/50039840517_6ce30fe07c_n.jpg",
    "id_album": "829169633",
    "description": "Cyborg_170034",
    "title": "Cyborg_170034",
    "link_img": "https://live.staticflickr.com/65535/50039840517_8e81f13b3a_o.jpg",
    "id_image": "Cyborg_170034",
    "count_view": 0
  },
  {
    "link_thumb": "https://live.staticflickr.com/65535/50041602067_eeef81d6ca_n.jpg",
    "id_album": "-221671103",
    "description": "Sun_181705",
    "title": "Sun_181705",
    "link_img": "https://live.staticflickr.com/65535/50041602067_c77100d24b_o.jpg",
    "id_image": "Sun_181705",
    "count_view": 0
  },
  {
    "link_thumb": "https://live.staticflickr.com/65535/50038754653_0b7eb4db42_n.jpg",
    "id_album": "523598895",
    "description": "Artistic_171689",
    "title": "Artistic_171689",
    "link_img": "https://live.staticflickr.com/65535/50038754653_c6c9368aed_o.jpg",
    "id_image": "Artistic_171689",
    "count_view": 0
  },
  {
    "link_thumb": "https://live.staticflickr.com/65535/50038829338_44e3efc5b5_n.jpg",
    "id_album": "869545341",
    "description": "Astronaut_912958",
    "title": "Astronaut_912958",
    "link_img": "https://live.staticflickr.com/65535/50038829338_353d9e2c69_o.jpg",
    "id_image": "Astronaut_912958",
    "count_view": 0
  },
  {
    "link_thumb": "https://live.staticflickr.com/65535/50038844573_5cb0a0bca7_n.jpg",
    "id_album": "869545341",
    "description": "Astronaut_996885",
    "title": "Astronaut_996885",
    "link_img": "https://live.staticflickr.com/65535/50038844573_fe40d793de_o.jpg",
    "id_image": "Astronaut_996885",
    "count_view": 0
  },
  {
    "link_thumb": "https://live.staticflickr.com/65535/50040058512_59779f624f_n.jpg",
    "id_album": "-1610342324",
    "description": "Nebula_419981",
    "title": "Nebula_419981",
    "link_img": "https://live.staticflickr.com/65535/50040058512_01b5c6bfe6_o.jpg",
    "id_image": "Nebula_419981",
    "count_view": 0
  },
  {
    "link_thumb": "https://live.staticflickr.com/65535/50039844862_f989440e91_n.jpg",
    "id_album": "829169633",
    "description": "Cyborg_240574",
    "title": "Cyborg_240574",
    "link_img": "https://live.staticflickr.com/65535/50039844862_9486c6daf8_o.jpg",
    "id_image": "Cyborg_240574",
    "count_view": 0
  },
  {
    "link_thumb": "https://live.staticflickr.com/65535/50041849552_82db95e433_n.jpg",
    "id_album": "-1675918237",
    "description": "WomenWarrior_806651",
    "title": "WomenWarrior_806651",
    "link_img": "https://live.staticflickr.com/65535/50041849552_5d6230c925_o.jpg",
    "id_image": "WomenWarrior_806651",
    "count_view": 0
  },
  {
    "link_thumb": "https://live.staticflickr.com/65535/50039505058_e4761ae2fc_n.jpg",
    "id_album": "-1102314093",
    "description": "Planets_198719",
    "title": "Planets_198719",
    "link_img": "https://live.staticflickr.com/65535/50039505058_853f6cebda_o.jpg",
    "id_image": "Planets_198719",
    "count_view": 0
  },
  {
    "link_thumb": "https://live.staticflickr.com/65535/50039554651_b9942970fe_n.jpg",
    "id_album": "-437872736",
    "description": "Creature_375609",
    "title": "Creature_375609",
    "link_img": "https://live.staticflickr.com/65535/50039554651_6281ca4442_o.jpg",
    "id_image": "Creature_375609",
    "count_view": 0
  },
  {
    "link_thumb": "https://live.staticflickr.com/65535/50040521667_6dd3eb221b_n.jpg",
    "id_album": "779690680",
    "description": "Robot_167503",
    "title": "Robot_167503",
    "link_img": "https://live.staticflickr.com/65535/50040521667_1ddbbdcde6_o.jpg",
    "id_image": "Robot_167503",
    "count_view": 0
  },
  {
    "link_thumb": "https://live.staticflickr.com/65535/50039256508_79d6285497_n.jpg",
    "id_album": "-1610342324",
    "description": "Nebula_544016",
    "title": "Nebula_544016",
    "link_img": "https://live.staticflickr.com/65535/50039256508_478eae3335_o.jpg",
    "id_image": "Nebula_544016",
    "count_view": 0
  },
  {
    "link_thumb": "https://live.staticflickr.com/65535/50040899208_50799e323c_n.jpg",
    "id_album": "-1261420436",
    "description": "Warrior_373915",
    "title": "Warrior_373915",
    "link_img": "https://live.staticflickr.com/65535/50040899208_3966f97b48_o.jpg",
    "id_image": "Warrior_373915",
    "count_view": 0
  },
  {
    "link_thumb": "https://live.staticflickr.com/65535/50039847743_2a746f4090_n.jpg",
    "id_album": "779690680",
    "description": "Robot_902766",
    "title": "Robot_902766",
    "link_img": "https://live.staticflickr.com/65535/50039847743_51c54475a6_o.jpg",
    "id_image": "Robot_902766",
    "count_view": 0
  },
  {
    "link_thumb": "https://live.staticflickr.com/65535/50038878878_31857c2fa2_n.jpg",
    "id_album": "406431601",
    "description": "Building_941589",
    "title": "Building_941589",
    "link_img": "https://live.staticflickr.com/65535/50038878878_01444709ba_o.jpg",
    "id_image": "Building_941589",
    "count_view": 0
  },
  {
    "link_thumb": "https://live.staticflickr.com/65535/50039383321_925f5ec24a_n.jpg",
    "id_album": "869545341",
    "description": "Astronaut_950863",
    "title": "Astronaut_950863",
    "link_img": "https://live.staticflickr.com/65535/50039383321_d03b4ed0cd_o.jpg",
    "id_image": "Astronaut_950863",
    "count_view": 0
  },
  {
    "link_thumb": "https://live.staticflickr.com/65535/50041577356_d0a2a63b26_n.jpg",
    "id_album": "-1675918237",
    "description": "WomenWarrior_509477",
    "title": "WomenWarrior_509477",
    "link_img": "https://live.staticflickr.com/65535/50041577356_36a5a5af3a_o.jpg",
    "id_image": "WomenWarrior_509477",
    "count_view": 0
  },
  {
    "link_thumb": "https://live.staticflickr.com/65535/50039221963_e3440a77c9_n.jpg",
    "id_album": "-1610342324",
    "description": "Nebula_220577",
    "title": "Nebula_220577",
    "link_img": "https://live.staticflickr.com/65535/50039221963_1b7aa1ab18_o.jpg",
    "id_image": "Nebula_220577",
    "count_view": 0
  },
  {
    "link_thumb": "https://live.staticflickr.com/65535/50040561461_aa2a10c7ae_n.jpg",
    "id_album": "-1532370292",
    "description": "SpaceStation_669418",
    "title": "SpaceStation_669418",
    "link_img": "https://live.staticflickr.com/65535/50040561461_4d68259b2e_o.jpg",
    "id_image": "SpaceStation_669418",
    "count_view": 0
  },
  {
    "link_thumb": "https://live.staticflickr.com/65535/50039781262_ab243fa03b_n.jpg",
    "id_album": "-1964113117",
    "description": "City_910936",
    "title": "City_910936",
    "link_img": "https://live.staticflickr.com/65535/50039781262_2d62bda94d_o.jpg",
    "id_image": "City_910936",
    "count_view": 0
  },
  {
    "link_thumb": "https://live.staticflickr.com/65535/50040226628_ba1b951dac_n.jpg",
    "id_album": "2130067313",
    "description": "Spaceship_975881",
    "title": "Spaceship_975881",
    "link_img": "https://live.staticflickr.com/65535/50040226628_3d6d7658c4_o.jpg",
    "id_image": "Spaceship_975881",
    "count_view": 0
  },
  {
    "link_thumb": "https://live.staticflickr.com/65535/50039466846_5d02bb58cf_n.jpg",
    "id_album": "-1964113117",
    "description": "City_382242",
    "title": "City_382242",
    "link_img": "https://live.staticflickr.com/65535/50039466846_8d7be91220_o.jpg",
    "id_image": "City_382242",
    "count_view": 0
  },
  {
    "link_thumb": "https://live.staticflickr.com/65535/50039687548_e4ddc203c8_n.jpg",
    "id_album": "-839602625",
    "description": "Predator_323988",
    "title": "Predator_323988",
    "link_img": "https://live.staticflickr.com/65535/50039687548_fb588cb08e_o.jpg",
    "id_image": "Predator_323988",
    "count_view": 0
  },
  {
    "link_thumb": "https://live.staticflickr.com/65535/50039012128_9d92b4ba4c_n.jpg",
    "id_album": "-1372247677",
    "description": "Cyberpunk_373917",
    "title": "Cyberpunk_373917",
    "link_img": "https://live.staticflickr.com/65535/50039012128_2fb372241c_o.jpg",
    "id_image": "Cyberpunk_373917",
    "count_view": 0
  },
  {
    "link_thumb": "https://live.staticflickr.com/65535/50039078763_28f0f61bd5_n.jpg",
    "id_album": "1204249541",
    "description": "Galaxy_24849",
    "title": "Galaxy_24849",
    "link_img": "https://live.staticflickr.com/65535/50039078763_59a26f2904_o.jpg",
    "id_image": "Galaxy_24849",
    "count_view": 0
  },
  {
    "link_thumb": "https://live.staticflickr.com/65535/50038771213_14c143eeb5_n.jpg",
    "id_album": "523598895",
    "description": "Artistic_225490",
    "title": "Artistic_225490",
    "link_img": "https://live.staticflickr.com/65535/50038771213_9d0b6c25cd_o.jpg",
    "id_image": "Artistic_225490",
    "count_view": 0
  },
  {
    "link_thumb": "https://live.staticflickr.com/65535/50038843763_4165e50028_n.jpg",
    "id_album": "869545341",
    "description": "Astronaut_992597",
    "title": "Astronaut_992597",
    "link_img": "https://live.staticflickr.com/65535/50038843763_45723f6874_o.jpg",
    "id_image": "Astronaut_992597",
    "count_view": 0
  },
  {
    "link_thumb": "https://live.staticflickr.com/65535/50039122123_e661813880_n.jpg",
    "id_album": "1402713104",
    "description": "Landscape_285845",
    "title": "Landscape_285845",
    "link_img": "https://live.staticflickr.com/65535/50039122123_10f62b998e_o.jpg",
    "id_image": "Landscape_285845",
    "count_view": 0
  },
  {
    "link_thumb": "https://live.staticflickr.com/65535/50039538791_6a159c32a5_n.jpg",
    "id_album": "894679094",
    "description": "Collision_287029",
    "title": "Collision_287029",
    "link_img": "https://live.staticflickr.com/65535/50039538791_57d047cbcf_o.jpg",
    "id_image": "Collision_287029",
    "count_view": 0
  },
  {
    "link_thumb": "https://live.staticflickr.com/65535/50039296371_9b89032ea1_n.jpg",
    "id_album": "523598895",
    "description": "Artistic_150991",
    "title": "Artistic_150991",
    "link_img": "https://live.staticflickr.com/65535/50039296371_f8bca3decd_o.jpg",
    "id_image": "Artistic_150991",
    "count_view": 0
  },
  {
    "link_thumb": "https://live.staticflickr.com/65535/50039913732_eb4bb48072_n.jpg",
    "id_album": "1204249541",
    "description": "Galaxy_688325",
    "title": "Galaxy_688325",
    "link_img": "https://live.staticflickr.com/65535/50039913732_2b09a18ed7_o.jpg",
    "id_image": "Galaxy_688325",
    "count_view": 0
  },
  {
    "link_thumb": "https://live.staticflickr.com/65535/50040014346_851808c428_n.jpg",
    "id_album": "1443611160",
    "description": "PlanetRise_777595",
    "title": "PlanetRise_777595",
    "link_img": "https://live.staticflickr.com/65535/50040014346_58266d9997_o.jpg",
    "id_image": "PlanetRise_777595",
    "count_view": 0
  },
  {
    "link_thumb": "https://live.staticflickr.com/65535/50040678167_2454d196c7_n.jpg",
    "id_album": "779690680",
    "description": "Robot_915580",
    "title": "Robot_915580",
    "link_img": "https://live.staticflickr.com/65535/50040678167_87f81c20f2_o.jpg",
    "id_image": "Robot_915580",
    "count_view": 0
  },
  {
    "link_thumb": "https://live.staticflickr.com/65535/50040058347_d976ba9bee_n.jpg",
    "id_album": "-1610342324",
    "description": "Nebula_419970",
    "title": "Nebula_419970",
    "link_img": "https://live.staticflickr.com/65535/50040058347_3342a79549_o.jpg",
    "id_image": "Nebula_419970",
    "count_view": 0
  },
  {
    "link_thumb": "https://live.staticflickr.com/65535/50039360141_271e03bc19_n.jpg",
    "id_album": "869545341",
    "description": "Astronaut_591948",
    "title": "Astronaut_591948",
    "link_img": "https://live.staticflickr.com/65535/50039360141_bcf6c72a38_o.jpg",
    "id_image": "Astronaut_591948",
    "count_view": 0
  },
  {
    "link_thumb": "https://live.staticflickr.com/65535/50039711652_de42631830_n.jpg",
    "id_album": "-1964113117",
    "description": "City_220573",
    "title": "City_220573",
    "link_img": "https://live.staticflickr.com/65535/50039711652_84f5ddca1e_o.jpg",
    "id_image": "City_220573",
    "count_view": 0
  },
  {
    "link_thumb": "https://live.staticflickr.com/65535/50038835088_e68394c692_n.jpg",
    "id_album": "869545341",
    "description": "Astronaut_949964",
    "title": "Astronaut_949964",
    "link_img": "https://live.staticflickr.com/65535/50038835088_4a5152fe09_o.jpg",
    "id_image": "Astronaut_949964",
    "count_view": 0
  },
  {
    "link_thumb": "https://live.staticflickr.com/65535/50041459731_2ee3baa194_n.jpg",
    "id_album": "-1261420436",
    "description": "Warrior_409691",
    "title": "Warrior_409691",
    "link_img": "https://live.staticflickr.com/65535/50041459731_7aa44bb43e_o.jpg",
    "id_image": "Warrior_409691",
    "count_view": 0
  },
  {
    "link_thumb": "https://live.staticflickr.com/65535/50041398796_187033f465_n.jpg",
    "id_album": "2020068132",
    "description": "Vehicle_412736",
    "title": "Vehicle_412736",
    "link_img": "https://live.staticflickr.com/65535/50041398796_b04689cd06_o.jpg",
    "id_image": "Vehicle_412736",
    "count_view": 0
  },
  {
    "link_thumb": "https://live.staticflickr.com/65535/50039349228_0366df0b33_n.jpg",
    "id_album": "1896531081",
    "description": "People_871008",
    "title": "People_871008",
    "link_img": "https://live.staticflickr.com/65535/50039349228_dd10ca56be_o.jpg",
    "id_image": "People_871008",
    "count_view": 0
  },
  {
    "link_thumb": "https://live.staticflickr.com/65535/50039282186_b3957cb1ac_n.jpg",
    "id_album": "-419633230",
    "description": "Apocalyptic_30257",
    "title": "Apocalyptic_30257",
    "link_img": "https://live.staticflickr.com/65535/50039282186_df8408378d_o.jpg",
    "id_image": "Apocalyptic_30257",
    "count_view": 0
  },
  {
    "link_thumb": "https://live.staticflickr.com/65535/50039832496_f88b22c14b_n.jpg",
    "id_album": "-1610342324",
    "description": "Nebula_771258",
    "title": "Nebula_771258",
    "link_img": "https://live.staticflickr.com/65535/50039832496_e4bf8f9cd7_o.jpg",
    "id_image": "Nebula_771258",
    "count_view": 0
  },
  {
    "link_thumb": "https://live.staticflickr.com/65535/50040437146_6a3dcdc530_n.jpg",
    "id_album": "779690680",
    "description": "Robot_941229",
    "title": "Robot_941229",
    "link_img": "https://live.staticflickr.com/65535/50040437146_e548f027e2_o.jpg",
    "id_image": "Robot_941229",
    "count_view": 0
  },
  {
    "link_thumb": "https://live.staticflickr.com/65535/50039554577_86d4f10bdc_n.jpg",
    "id_album": "523598895",
    "description": "Artistic_111731",
    "title": "Artistic_111731",
    "link_img": "https://live.staticflickr.com/65535/50039554577_1b6e563795_o.jpg",
    "id_image": "Artistic_111731",
    "count_view": 0
  },
  {
    "link_thumb": "https://live.staticflickr.com/65535/50039218103_d35c428187_n.jpg",
    "id_album": "-1610342324",
    "description": "Nebula_198230",
    "title": "Nebula_198230",
    "link_img": "https://live.staticflickr.com/65535/50039218103_6465e5b6c1_o.jpg",
    "id_image": "Nebula_198230",
    "count_view": 0
  },
  {
    "link_thumb": "https://live.staticflickr.com/65535/50039885123_acd2480b65_n.jpg",
    "id_album": "779690680",
    "description": "Robot_944760",
    "title": "Robot_944760",
    "link_img": "https://live.staticflickr.com/65535/50039885123_8a17f70c9e_o.jpg",
    "id_image": "Robot_944760",
    "count_view": 0
  },
  {
    "link_thumb": "https://live.staticflickr.com/65535/50039895287_d398bf1d5d_n.jpg",
    "id_album": "1204249541",
    "description": "Galaxy_400007",
    "title": "Galaxy_400007",
    "link_img": "https://live.staticflickr.com/65535/50039895287_b9f22211a4_o.jpg",
    "id_image": "Galaxy_400007",
    "count_view": 0
  },
  {
    "link_thumb": "https://live.staticflickr.com/65535/50039196378_1c3ca97449_n.jpg",
    "id_album": "-1388385651",
    "description": "MilkyWay_720169",
    "title": "MilkyWay_720169",
    "link_img": "https://live.staticflickr.com/65535/50039196378_56d0e4fdaa_o.jpg",
    "id_image": "MilkyWay_720169",
    "count_view": 0
  },
  {
    "link_thumb": "https://live.staticflickr.com/65535/50040254111_875bf2f80d_n.jpg",
    "id_album": "779690680",
    "description": "Robot_129813",
    "title": "Robot_129813",
    "link_img": "https://live.staticflickr.com/65535/50040254111_8927a5afe5_o.jpg",
    "id_image": "Robot_129813",
    "count_view": 0
  },
  {
    "link_thumb": "https://live.staticflickr.com/65535/50040878523_ea7d7f7be3_n.jpg",
    "id_album": "-1261420436",
    "description": "Warrior_162725",
    "title": "Warrior_162725",
    "link_img": "https://live.staticflickr.com/65535/50040878523_6705d280ae_o.jpg",
    "id_image": "Warrior_162725",
    "count_view": 0
  },
  {
    "link_thumb": "https://live.staticflickr.com/65535/50040402231_169df02474_n.jpg",
    "id_album": "779690680",
    "description": "Robot_906338",
    "title": "Robot_906338",
    "link_img": "https://live.staticflickr.com/65535/50040402231_56fb6af091_o.jpg",
    "id_image": "Robot_906338",
    "count_view": 0
  },
  {
    "link_thumb": "https://live.staticflickr.com/65535/50039833848_a9eb76e709_n.jpg",
    "id_album": "779690680",
    "description": "Robot_876312",
    "title": "Robot_876312",
    "link_img": "https://live.staticflickr.com/65535/50039833848_5ba1e2d400_o.jpg",
    "id_image": "Robot_876312",
    "count_view": 0
  },
  {
    "link_thumb": "https://live.staticflickr.com/65535/50040671457_194b6e92b7_n.jpg",
    "id_album": "779690680",
    "description": "Robot_910944",
    "title": "Robot_910944",
    "link_img": "https://live.staticflickr.com/65535/50040671457_9a70962f17_o.jpg",
    "id_image": "Robot_910944",
    "count_view": 0
  },
  {
    "link_thumb": "https://live.staticflickr.com/65535/50038725658_434f282407_n.jpg",
    "id_album": "849020728",
    "description": "Alien_709717",
    "title": "Alien_709717",
    "link_img": "https://live.staticflickr.com/65535/50038725658_beea5bb32c_o.jpg",
    "id_image": "Alien_709717",
    "count_view": 0
  },
  {
    "link_thumb": "https://live.staticflickr.com/65535/50039138173_602145e5e1_n.jpg",
    "id_album": "1402713104",
    "description": "Landscape_410040",
    "title": "Landscape_410040",
    "link_img": "https://live.staticflickr.com/65535/50039138173_5db34f6d14_o.jpg",
    "id_image": "Landscape_410040",
    "count_view": 0
  },
  {
    "link_thumb": "https://live.staticflickr.com/65535/50039526043_d613c0b922_n.jpg",
    "id_album": "-1102314093",
    "description": "Planets_286914",
    "title": "Planets_286914",
    "link_img": "https://live.staticflickr.com/65535/50039526043_059fcdae91_o.jpg",
    "id_image": "Planets_286914",
    "count_view": 0
  },
  {
    "link_thumb": "https://live.staticflickr.com/65535/50040688907_72c0da7dee_n.jpg",
    "id_album": "779690680",
    "description": "Robot_928619",
    "title": "Robot_928619",
    "link_img": "https://live.staticflickr.com/65535/50040688907_53c4a25530_o.jpg",
    "id_image": "Robot_928619",
    "count_view": 0
  },
  {
    "link_thumb": "https://live.staticflickr.com/65535/50040577688_b9a804907f_n.jpg",
    "id_album": "-1863373220",
    "description": "StarWars_215773",
    "title": "StarWars_215773",
    "link_img": "https://live.staticflickr.com/65535/50040577688_141a8f4a67_o.jpg",
    "id_image": "StarWars_215773",
    "count_view": 0
  },
  {
    "link_thumb": "https://live.staticflickr.com/65535/50039234943_33fa8467de_n.jpg",
    "id_album": "-1610342324",
    "description": "Nebula_294608",
    "title": "Nebula_294608",
    "link_img": "https://live.staticflickr.com/65535/50039234943_1e28efd86d_o.jpg",
    "id_image": "Nebula_294608",
    "count_view": 0
  },
  {
    "link_thumb": "https://live.staticflickr.com/65535/50040036217_ca6d665f68_n.jpg",
    "id_album": "-1610342324",
    "description": "Nebula_221804",
    "title": "Nebula_221804",
    "link_img": "https://live.staticflickr.com/65535/50040036217_1aa5a66967_o.jpg",
    "id_image": "Nebula_221804",
    "count_view": 0
  },
  {
    "link_thumb": "https://live.staticflickr.com/65535/50040247571_d5a6a49a25_n.jpg",
    "id_album": "779690680",
    "description": "Robot_1002798",
    "title": "Robot_1002798",
    "link_img": "https://live.staticflickr.com/65535/50040247571_baf5c2df49_o.jpg",
    "id_image": "Robot_1002798",
    "count_view": 0
  },
  {
    "link_thumb": "https://live.staticflickr.com/65535/50039239328_737f1fdd0f_n.jpg",
    "id_album": "-1610342324",
    "description": "Nebula_374904",
    "title": "Nebula_374904",
    "link_img": "https://live.staticflickr.com/65535/50039239328_68f7f5f94f_o.jpg",
    "id_image": "Nebula_374904",
    "count_view": 0
  },
  {
    "link_thumb": "https://live.staticflickr.com/65535/50040421507_0f4aa313b1_n.jpg",
    "id_album": "376235057",
    "description": "Planetscape_287026",
    "title": "Planetscape_287026",
    "link_img": "https://live.staticflickr.com/65535/50040421507_0af4ede8b5_o.jpg",
    "id_image": "Planetscape_287026",
    "count_view": 0
  },
  {
    "link_thumb": "https://live.staticflickr.com/65535/50039013688_12decfa0eb_n.jpg",
    "id_album": "-1372247677",
    "description": "Cyberpunk_779618",
    "title": "Cyberpunk_779618",
    "link_img": "https://live.staticflickr.com/65535/50039013688_570a4568ab_o.jpg",
    "id_image": "Cyberpunk_779618",
    "count_view": 0
  },
  {
    "link_thumb": "https://live.staticflickr.com/65535/50038916983_99f9854c33_n.jpg",
    "id_album": "-1964113117",
    "description": "City_352207",
    "title": "City_352207",
    "link_img": "https://live.staticflickr.com/65535/50038916983_3fde450bd6_o.jpg",
    "id_image": "City_352207",
    "count_view": 0
  },
  {
    "link_thumb": "https://live.staticflickr.com/65535/50040571567_37c3b9d85e_n.jpg",
    "id_album": "779690680",
    "description": "Robot_423178",
    "title": "Robot_423178",
    "link_img": "https://live.staticflickr.com/65535/50040571567_4714004f1c_o.jpg",
    "id_image": "Robot_423178",
    "count_view": 0
  },
  {
    "link_thumb": "https://live.staticflickr.com/65535/50038727493_5af9d06ca1_n.jpg",
    "id_album": "849020728",
    "description": "Alien_864723",
    "title": "Alien_864723",
    "link_img": "https://live.staticflickr.com/65535/50038727493_f0976ddcbc_o.jpg",
    "id_image": "Alien_864723",
    "count_view": 0
  },
  {
    "link_thumb": "https://live.staticflickr.com/65535/50039789927_3e3acb956c_n.jpg",
    "id_album": "-1964113117",
    "description": "City_959085",
    "title": "City_959085",
    "link_img": "https://live.staticflickr.com/65535/50039789927_3bf1384458_o.jpg",
    "id_image": "City_959085",
    "count_view": 0
  },
  {
    "link_thumb": "https://live.staticflickr.com/65535/50040146337_df9a7a2c97_n.jpg",
    "id_album": "-1862561193",
    "description": "Other_269524",
    "title": "Other_269524",
    "link_img": "https://live.staticflickr.com/65535/50040146337_c0d8d588f8_o.jpg",
    "id_image": "Other_269524",
    "count_view": 0
  },
  {
    "link_thumb": "https://live.staticflickr.com/65535/50039645047_b260e20d66_n.jpg",
    "id_album": "869545341",
    "description": "Astronaut_931830",
    "title": "Astronaut_931830",
    "link_img": "https://live.staticflickr.com/65535/50039645047_6a6378b1e4_o.jpg",
    "id_image": "Astronaut_931830",
    "count_view": 0
  },
  {
    "link_thumb": "https://live.staticflickr.com/65535/50040150928_df080c3e8e_n.jpg",
    "id_album": "2130067313",
    "description": "Spaceship_503821",
    "title": "Spaceship_503821",
    "link_img": "https://live.staticflickr.com/65535/50040150928_49bc027681_o.jpg",
    "id_image": "Spaceship_503821",
    "count_view": 0
  },
  {
    "link_thumb": "https://live.staticflickr.com/65535/50039699812_a360930b74_n.jpg",
    "id_album": "-1964113117",
    "description": "City_156371",
    "title": "City_156371",
    "link_img": "https://live.staticflickr.com/65535/50039699812_04627277bc_o.jpg",
    "id_image": "City_156371",
    "count_view": 0
  },
  {
    "link_thumb": "https://live.staticflickr.com/65535/50039778161_bfc97faafd_n.jpg",
    "id_album": "-1610342324",
    "description": "Nebula_259385",
    "title": "Nebula_259385",
    "link_img": "https://live.staticflickr.com/65535/50039778161_44676341f0_o.jpg",
    "id_image": "Nebula_259385",
    "count_view": 0
  },
  {
    "link_thumb": "https://live.staticflickr.com/65535/50039747787_afa6d75362_n.jpg",
    "id_album": "-1964113117",
    "description": "City_671372",
    "title": "City_671372",
    "link_img": "https://live.staticflickr.com/65535/50039747787_410e44d7d9_o.jpg",
    "id_image": "City_671372",
    "count_view": 0
  },
  {
    "link_thumb": "https://live.staticflickr.com/65535/50040529452_50a97dfede_n.jpg",
    "id_album": "779690680",
    "description": "Robot_209290",
    "title": "Robot_209290",
    "link_img": "https://live.staticflickr.com/65535/50040529452_6723508c2e_o.jpg",
    "id_image": "Robot_209290",
    "count_view": 0
  },
  {
    "link_thumb": "https://live.staticflickr.com/65535/50039804522_76ab741652_n.jpg",
    "id_album": "894679094",
    "description": "Collision_676847",
    "title": "Collision_676847",
    "link_img": "https://live.staticflickr.com/65535/50039804522_1558d88d17_o.jpg",
    "id_image": "Collision_676847",
    "count_view": 0
  },
  {
    "link_thumb": "https://live.staticflickr.com/65535/50039508382_f3767a51f1_n.jpg",
    "id_album": "849020728",
    "description": "Alien_152001",
    "title": "Alien_152001",
    "link_img": "https://live.staticflickr.com/65535/50039508382_88ca33fe31_o.jpg",
    "id_image": "Alien_152001",
    "count_view": 0
  },
  {
    "link_thumb": "https://live.staticflickr.com/65535/50040416416_378b6bf80b_n.jpg",
    "id_album": "779690680",
    "description": "Robot_920330",
    "title": "Robot_920330",
    "link_img": "https://live.staticflickr.com/65535/50040416416_2f1c9e665d_o.jpg",
    "id_image": "Robot_920330",
    "count_view": 0
  },
  {
    "link_thumb": "https://live.staticflickr.com/65535/50041035193_38318f7b53_n.jpg",
    "id_album": "-1675918237",
    "description": "WomenWarrior_867370",
    "title": "WomenWarrior_867370",
    "link_img": "https://live.staticflickr.com/65535/50041035193_e8508eeede_o.jpg",
    "id_image": "WomenWarrior_867370",
    "count_view": 0
  },
  {
    "link_thumb": "https://live.staticflickr.com/65535/50040550767_c540801bb1_n.jpg",
    "id_album": "779690680",
    "description": "Robot_310719",
    "title": "Robot_310719",
    "link_img": "https://live.staticflickr.com/65535/50040550767_6a87fbbc4f_o.jpg",
    "id_image": "Robot_310719",
    "count_view": 0
  },
  {
    "link_thumb": "https://live.staticflickr.com/65535/50038692053_9058bba008_n.jpg",
    "id_album": "-406145265",
    "description": "Aircraft_391137",
    "title": "Aircraft_391137",
    "link_img": "https://live.staticflickr.com/65535/50038692053_7ae2bb814b_o.jpg",
    "id_image": "Aircraft_391137",
    "count_view": 0
  },
  {
    "link_thumb": "https://live.staticflickr.com/65535/50040097252_711012a9c8_n.jpg",
    "id_album": "-1610342324",
    "description": "Nebula_77204",
    "title": "Nebula_77204",
    "link_img": "https://live.staticflickr.com/65535/50040097252_702811d354_o.jpg",
    "id_image": "Nebula_77204",
    "count_view": 0
  },
  {
    "link_thumb": "https://live.staticflickr.com/65535/50040514812_71fe5b86c1_n.jpg",
    "id_album": "779690680",
    "description": "Robot_107012",
    "title": "Robot_107012",
    "link_img": "https://live.staticflickr.com/65535/50040514812_9ac6b5a993_o.jpg",
    "id_image": "Robot_107012",
    "count_view": 0
  },
  {
    "link_thumb": "https://live.staticflickr.com/65535/50039755087_d36cf8ba8f_n.jpg",
    "id_album": "-1964113117",
    "description": "City_725220",
    "title": "City_725220",
    "link_img": "https://live.staticflickr.com/65535/50039755087_e9ae0cdb6b_o.jpg",
    "id_image": "City_725220",
    "count_view": 0
  },
  {
    "link_thumb": "https://live.staticflickr.com/65535/50041684232_9e2343ce16_n.jpg",
    "id_album": "2020068132",
    "description": "Vehicle_944731",
    "title": "Vehicle_944731",
    "link_img": "https://live.staticflickr.com/65535/50041684232_56b2c0ca91_o.jpg",
    "id_image": "Vehicle_944731",
    "count_view": 0
  },
  {
    "link_thumb": "https://live.staticflickr.com/65535/50040432197_b774f42a3c_n.jpg",
    "id_album": "376235057",
    "description": "Planetscape_370827",
    "title": "Planetscape_370827",
    "link_img": "https://live.staticflickr.com/65535/50040432197_769590a38c_o.jpg",
    "id_image": "Planetscape_370827",
    "count_view": 0
  },
  {
    "link_thumb": "https://live.staticflickr.com/65535/50039414153_4ed3569a1e_n.jpg",
    "id_album": "395161030",
    "description": "Planet_559151",
    "title": "Planet_559151",
    "link_img": "https://live.staticflickr.com/65535/50039414153_94141061ff_o.jpg",
    "id_image": "Planet_559151",
    "count_view": 0
  },
  {
    "link_thumb": "https://live.staticflickr.com/65535/50041076901_ee207b52b7_n.jpg",
    "id_album": "-1863373220",
    "description": "StarWars_1006239",
    "title": "StarWars_1006239",
    "link_img": "https://live.staticflickr.com/65535/50041076901_76223c555c_o.jpg",
    "id_image": "StarWars_1006239",
    "count_view": 0
  },
  {
    "link_thumb": "https://live.staticflickr.com/65535/50038857428_b704cdbe9a_n.jpg",
    "id_album": "1187037014",
    "description": "Battle_658752",
    "title": "Battle_658752",
    "link_img": "https://live.staticflickr.com/65535/50038857428_1f0f689db0_o.jpg",
    "id_image": "Battle_658752",
    "count_view": 0
  },
  {
    "link_thumb": "https://live.staticflickr.com/65535/50039859122_a4e80b556e_n.jpg",
    "id_album": "829169633",
    "description": "Cyborg_602355",
    "title": "Cyborg_602355",
    "link_img": "https://live.staticflickr.com/65535/50039859122_4465209aa5_o.jpg",
    "id_image": "Cyborg_602355",
    "count_view": 0
  },
  {
    "link_thumb": "https://live.staticflickr.com/65535/50040187912_2f050760c0_n.jpg",
    "id_album": "395161030",
    "description": "Planet_286942",
    "title": "Planet_286942",
    "link_img": "https://live.staticflickr.com/65535/50040187912_3cb5e6f954_o.jpg",
    "id_image": "Planet_286942",
    "count_view": 0
  },
  {
    "link_thumb": "https://live.staticflickr.com/65535/50041221881_edb1257d94_n.jpg",
    "id_album": "-1863373220",
    "description": "StarWars_76472",
    "title": "StarWars_76472",
    "link_img": "https://live.staticflickr.com/65535/50041221881_38e07b5acc_o.jpg",
    "id_image": "StarWars_76472",
    "count_view": 0
  },
  {
    "link_thumb": "https://live.staticflickr.com/65535/50039285238_a2b5615b45_n.jpg",
    "id_album": "-1610342324",
    "description": "Nebula_772694",
    "title": "Nebula_772694",
    "link_img": "https://live.staticflickr.com/65535/50039285238_0d8c071f4a_o.jpg",
    "id_image": "Nebula_772694",
    "count_view": 0
  },
  {
    "link_thumb": "https://live.staticflickr.com/65535/50038742178_029a671127_n.jpg",
    "id_album": "-419633230",
    "description": "Apocalyptic_957495",
    "title": "Apocalyptic_957495",
    "link_img": "https://live.staticflickr.com/65535/50038742178_e762978d8f_o.jpg",
    "id_image": "Apocalyptic_957495",
    "count_view": 0
  },
  {
    "link_thumb": "https://live.staticflickr.com/65535/50039611016_a56b48f96b_n.jpg",
    "id_album": "651930207",
    "description": "Explosion_430157",
    "title": "Explosion_430157",
    "link_img": "https://live.staticflickr.com/65535/50039611016_a884ba8d14_o.jpg",
    "id_image": "Explosion_430157",
    "count_view": 0
  },
  {
    "link_thumb": "https://live.staticflickr.com/65535/50040036107_fd249970d0_n.jpg",
    "id_album": "-1610342324",
    "description": "Nebula_22152",
    "title": "Nebula_22152",
    "link_img": "https://live.staticflickr.com/65535/50040036107_31c3edec81_o.jpg",
    "id_image": "Nebula_22152",
    "count_view": 0
  },
  {
    "link_thumb": "https://live.staticflickr.com/65535/50040715203_334792ba40_n.jpg",
    "id_album": "-1587696329",
    "description": "Stars_457024",
    "title": "Stars_457024",
    "link_img": "https://live.staticflickr.com/65535/50040715203_734a3bc9cd_o.jpg",
    "id_image": "Stars_457024",
    "count_view": 0
  },
  {
    "link_thumb": "https://live.staticflickr.com/65535/50039679373_6c58e022f3_n.jpg",
    "id_album": "-482547208",
    "description": "PostApocalyptic_940278",
    "title": "PostApocalyptic_940278",
    "link_img": "https://live.staticflickr.com/65535/50039679373_7daa749f76_o.jpg",
    "id_image": "PostApocalyptic_940278",
    "count_view": 0
  }
]